EESchema Schematic File Version 4
EELAYER 30 0
EELAYER END
$Descr A2 23386 16535
encoding utf-8
Sheet 1 1
Title ""
Date ""
Rev ""
Comp ""
Comment1 ""
Comment2 ""
Comment3 ""
Comment4 ""
$EndDescr
Text Notes 21600 15900 0    50   ~ 0
МГТУ им. Н.Э. Баумана 
Text Notes 16700 15300 0    50   ~ 0
Горожанкина С.А.
$Comp
L power:VCC #PWR0101
U 1 1 5E127409
P 13100 4450
F 0 "#PWR0101" H 13100 4550 30  0001 C CNN
F 1 "VCC" H 13103 4578 30  0000 C CNN
F 2 "" H 13100 4450 50  0001 C CNN
F 3 "" H 13100 4450 50  0001 C CNN
	1    13100 4450
	1    0    0    -1  
$EndComp
$Comp
L power:GND #PWR0102
U 1 1 5E123CB3
P 12550 4600
F 0 "#PWR0102" H 12550 4600 30  0001 C CNN
F 1 "GND" H 12550 4530 30  0001 C CNN
F 2 "" H 12550 4600 50  0001 C CNN
F 3 "" H 12550 4600 50  0001 C CNN
	1    12550 4600
	1    0    0    -1  
$EndComp
Wire Wire Line
	13100 5250 13100 4500
Wire Wire Line
	13450 5250 13100 5250
$Comp
L atmel:ATMEGA16-A IC1
U 1 1 5E0287F6
P 13600 7250
F 0 "IC1" H 13600 9431 50  0000 C CNN
F 1 "ATMEGA16-A" H 13600 9340 50  0000 C CNN
F 2 "Package_LCC:PLCC-44" H 14175 5275 50  0001 C CNN
F 3 "" H 13600 7250 50  0001 C CNN
	1    13600 7250
	1    0    0    -1  
$EndComp
Wire Wire Line
	15500 4850 12350 4850
$Comp
L device:C C9
U 1 1 5E1116AD
P 12900 4500
F 0 "C9" V 12633 4500 50  0000 C CNN
F 1 "1 мкФ" V 12724 4500 50  0000 C CNN
F 2 "Capacitor_SMD:CP_Elec_5x3" H 12900 4500 50  0001 C CNN
F 3 "" H 12900 4500 50  0001 C CNN
	1    12900 4500
	0    1    1    0   
$EndComp
$Comp
L power:VCC #PWR0103
U 1 1 5E10E704
P 8300 11800
F 0 "#PWR0103" H 8300 11900 30  0001 C CNN
F 1 "VCC" H 8303 11928 30  0000 C CNN
F 2 "" H 8300 11800 50  0001 C CNN
F 3 "" H 8300 11800 50  0001 C CNN
	1    8300 11800
	1    0    0    -1  
$EndComp
$Comp
L power:GND #PWR0104
U 1 1 5E109651
P 8300 12750
F 0 "#PWR0104" H 8300 12750 30  0001 C CNN
F 1 "GND" H 8300 12680 30  0001 C CNN
F 2 "" H 8300 12750 50  0001 C CNN
F 3 "" H 8300 12750 50  0001 C CNN
	1    8300 12750
	1    0    0    -1  
$EndComp
NoConn ~ 13750 5250
NoConn ~ 13650 5250
NoConn ~ 13550 5250
NoConn ~ 12500 6750
NoConn ~ 14700 5550
NoConn ~ 14700 5650
NoConn ~ 14700 5750
NoConn ~ 14700 5850
NoConn ~ 14700 5950
NoConn ~ 14700 6050
NoConn ~ 14700 6150
NoConn ~ 14700 6250
NoConn ~ 14700 6750
NoConn ~ 14700 6850
NoConn ~ 14700 6950
NoConn ~ 14700 7050
NoConn ~ 14700 7150
NoConn ~ 14700 8250
NoConn ~ 14700 8350
NoConn ~ 14700 8450
NoConn ~ 14700 8550
NoConn ~ 14700 8650
NoConn ~ 14700 8750
NoConn ~ 13750 9250
NoConn ~ 13650 9250
NoConn ~ 13550 9250
NoConn ~ 5200 5350
NoConn ~ 5200 6550
NoConn ~ 5200 6400
NoConn ~ 5200 6250
NoConn ~ 5200 6100
NoConn ~ 5200 5950
NoConn ~ 5200 5800
NoConn ~ 7650 6600
NoConn ~ 7650 6400
NoConn ~ 9250 6400
NoConn ~ 9250 6600
NoConn ~ 16100 5800
Wire Wire Line
	12350 5550 12500 5550
Wire Wire Line
	12350 4850 12350 5550
Wire Wire Line
	15500 5700 15500 4850
Wire Wire Line
	15050 6550 14700 6550
Wire Wire Line
	15050 5400 15050 6550
Wire Wire Line
	14900 6450 14700 6450
Wire Wire Line
	14900 5500 14900 6450
Wire Wire Line
	15350 6650 14700 6650
Wire Wire Line
	15350 5600 15350 6650
Wire Wire Line
	5750 5650 5200 5650
Wire Wire Line
	5750 7100 5750 5650
Wire Wire Line
	9750 7100 5750 7100
Wire Wire Line
	9750 6500 9750 7100
Wire Wire Line
	9250 6500 9750 6500
Wire Wire Line
	5950 5500 5200 5500
Wire Wire Line
	5950 6950 5950 5500
Wire Wire Line
	9600 6950 5950 6950
Wire Wire Line
	9600 6300 9600 6950
Wire Wire Line
	9250 6300 9600 6300
$Comp
L XP:RS23_Socket U1
U 1 1 5E08A16B
P 4650 5100
F 0 "U1" H 4733 5215 50  0000 C CNN
F 1 "RS23_Socket" H 4733 5124 50  0000 C CNN
F 2 "Connector_Dsub:DSUB-9_Male_Vertical_P2.77x2.84mm_MountingHoles" H 4650 5100 50  0000 C CNN
F 3 "" H 4650 5100 50  0001 C CNN
	1    4650 5100
	1    0    0    -1  
$EndComp
NoConn ~ 14700 7550
NoConn ~ 14700 7450
NoConn ~ 14700 7350
Wire Wire Line
	15250 8850 14700 8850
Wire Wire Line
	15250 9850 15250 8850
Wire Wire Line
	7400 9850 15250 9850
Wire Wire Line
	7400 6300 7400 9850
Wire Wire Line
	7650 6300 7400 6300
Wire Wire Line
	15000 8950 14700 8950
Wire Wire Line
	15000 9650 15000 8950
Wire Wire Line
	7250 6500 7250 9650
Wire Wire Line
	7250 9650 15000 9650
Wire Wire Line
	7650 6500 7250 6500
Wire Wire Line
	11350 6700 11350 6550
Wire Wire Line
	10700 6700 10700 6550
$Comp
L power:GND #PWR0110
U 1 1 5E054323
P 11350 6700
F 0 "#PWR0110" H 11350 6700 30  0001 C CNN
F 1 "GND" H 11350 6630 30  0001 C CNN
F 2 "" H 11350 6700 50  0001 C CNN
F 3 "" H 11350 6700 50  0001 C CNN
	1    11350 6700
	1    0    0    -1  
$EndComp
$Comp
L power:GND #PWR0111
U 1 1 5E053BFA
P 10700 6700
F 0 "#PWR0111" H 10700 6700 30  0001 C CNN
F 1 "GND" H 10700 6630 30  0001 C CNN
F 2 "" H 10700 6700 50  0001 C CNN
F 3 "" H 10700 6700 50  0001 C CNN
	1    10700 6700
	1    0    0    -1  
$EndComp
$Comp
L device:C C7
U 1 1 5E052DE1
P 11350 6350
F 0 "C7" H 11480 6396 50  0000 L CNN
F 1 "12.5 пФ" H 11480 6305 50  0000 L CNN
F 2 "Capacitor_SMD:C_1206_3216Metric" H 11350 6350 50  0001 C CNN
F 3 "" H 11350 6350 50  0001 C CNN
	1    11350 6350
	1    0    0    -1  
$EndComp
Connection ~ 10700 6150
$Comp
L device:C C6
U 1 1 5E0520D2
P 10700 6350
F 0 "C6" H 10830 6396 50  0000 L CNN
F 1 "12.5 пФ" H 10830 6305 50  0000 L CNN
F 2 "Capacitor_SMD:C_1206_3216Metric" H 10700 6350 50  0001 C CNN
F 3 "" H 10700 6350 50  0001 C CNN
	1    10700 6350
	1    0    0    -1  
$EndComp
Wire Wire Line
	12000 6150 11350 6150
Wire Wire Line
	12000 6350 12000 6150
Wire Wire Line
	12500 6350 12000 6350
Wire Wire Line
	12300 5950 12500 5950
Wire Wire Line
	12300 5750 12300 5950
Wire Wire Line
	10700 5750 12300 5750
Wire Wire Line
	10700 6150 10700 5750
$Comp
L device:CRYSTAL X1
U 1 1 5E04E680
P 11000 6150
F 0 "X1" H 11000 6442 60  0000 C CNN
F 1 "CRYSTAL" H 11000 6336 60  0000 C CNN
F 2 "Crystal:Crystal_AT310_D3.0mm_L10.0mm_Horizontal" H 11000 6150 50  0001 C CNN
F 3 "" H 11000 6150 50  0001 C CNN
	1    11000 6150
	1    0    0    -1  
$EndComp
Wire Wire Line
	13400 9250 13400 9400
Wire Wire Line
	13400 9250 13450 9250
Wire Wire Line
	16500 7750 14700 7750
Wire Wire Line
	16150 7650 14700 7650
Wire Wire Line
	16150 6800 16150 7650
$Comp
L power:GND #PWR0112
U 1 1 5E033259
P 13400 9400
F 0 "#PWR0112" H 13400 9400 30  0001 C CNN
F 1 "GND" H 13400 9330 30  0001 C CNN
F 2 "" H 13400 9400 50  0001 C CNN
F 3 "" H 13400 9400 50  0001 C CNN
	1    13400 9400
	1    0    0    -1  
$EndComp
$Comp
L power:VCC #PWR0113
U 1 1 5E18BD64
P 20050 6400
F 0 "#PWR0113" H 20050 6500 30  0001 C CNN
F 1 "VCC" H 20053 6528 30  0000 C CNN
F 2 "" H 20050 6400 50  0001 C CNN
F 3 "" H 20050 6400 50  0001 C CNN
	1    20050 6400
	1    0    0    -1  
$EndComp
Connection ~ 11350 6150
Wire Wire Line
	11350 6150 11300 6150
Wire Wire Line
	13100 4450 13100 4500
Wire Wire Line
	12550 4500 12700 4500
Wire Wire Line
	12550 4500 12550 4600
Connection ~ 13100 4500
Wire Wire Line
	16100 5700 15500 5700
Wire Wire Line
	16100 5600 15350 5600
Wire Wire Line
	16100 5500 14900 5500
Wire Wire Line
	16100 5400 15050 5400
$Comp
L SymbolsSimilarEN60617+oldDIN617:RESISTOR R1
U 1 1 5E104957
P 7450 12050
F 0 "R1" H 7450 12337 60  0000 C CNN
F 1 "10 ОМ" H 7450 12250 60  0000 C CNN
F 2 "Resistor_SMD:R_1806_4516Metric" H 7450 12050 50  0001 C CNN
F 3 "" H 7450 12050 50  0001 C CNN
	1    7450 12050
	1    0    0    -1  
$EndComp
$Comp
L power:PWR_FLAG #FLG0101
U 1 1 5E245399
P 8300 12050
F 0 "#FLG0101" H 8300 12320 30  0001 C CNN
F 1 "PWR_FLAG" H 8300 12308 30  0000 C CNN
F 2 "" H 8300 12050 50  0001 C CNN
F 3 "" H 8300 12050 50  0001 C CNN
	1    8300 12050
	0    1    1    0   
$EndComp
$Comp
L power:GND #PWR0105
U 1 1 5E2B6B88
P 6950 12350
F 0 "#PWR0105" H 6950 12350 30  0001 C CNN
F 1 "GND" H 6950 12280 30  0001 C CNN
F 2 "" H 6950 12350 50  0001 C CNN
F 3 "" H 6950 12350 50  0001 C CNN
	1    6950 12350
	1    0    0    -1  
$EndComp
Wire Wire Line
	20150 7200 20150 6800
Wire Wire Line
	20150 6800 20150 6400
Wire Wire Line
	20150 6400 20050 6400
Connection ~ 20150 6800
Wire Wire Line
	16100 6000 16100 5900
$Comp
L power:GND #PWR0106
U 1 1 5E2B0CF8
P 16100 6000
F 0 "#PWR0106" H 16100 6000 30  0001 C CNN
F 1 "GND" H 16100 5930 30  0001 C CNN
F 2 "" H 16100 6000 50  0001 C CNN
F 3 "" H 16100 6000 50  0001 C CNN
	1    16100 6000
	1    0    0    -1  
$EndComp
$Comp
L XP:Programmer U3
U 1 1 5E094D6B
P 16600 5200
F 0 "U3" H 16172 4846 50  0000 R CNN
F 1 "Programmer" H 16172 4755 50  0000 R CNN
F 2 "Connector_PinHeader_2.54mm:PinHeader_2x03_P2.54mm_Vertical" H 16600 5350 50  0001 C CNN
F 3 "" H 16600 5350 50  0001 C CNN
	1    16600 5200
	-1   0    0    -1  
$EndComp
$Comp
L conn:CONN_2 P1
U 1 1 5E366491
P 4100 12150
F 0 "P1" H 3967 11837 40  0000 C CNN
F 1 "CONN_2" H 3967 11913 40  0000 C CNN
F 2 "Connector:Banana_Jack_2Pin" H 4100 12150 50  0001 C CNN
F 3 "" H 4100 12150 50  0001 C CNN
	1    4100 12150
	-1   0    0    1   
$EndComp
Wire Wire Line
	4450 12050 6850 12050
Wire Wire Line
	4450 12250 6950 12250
Wire Wire Line
	6950 12250 6950 12350
$Comp
L device:C C8
U 1 1 5E37B584
P 8300 12550
F 0 "C8" H 8430 12596 50  0000 L CNN
F 1 "22 мкФ" H 8430 12505 50  0000 L CNN
F 2 "Capacitor_SMD:CP_Elec_5x3" H 8300 12550 50  0001 C CNN
F 3 "" H 8300 12550 50  0001 C CNN
	1    8300 12550
	1    0    0    -1  
$EndComp
Wire Wire Line
	8050 12050 8300 12050
Wire Wire Line
	8300 12050 8300 11800
Wire Wire Line
	8300 12050 8300 12350
Connection ~ 8300 12050
$Comp
L device:SW_PUSH SW1
U 1 1 5E3A0BDF
P 19600 6800
F 0 "SW1" H 19600 7055 50  0000 C CNN
F 1 "SW_PUSH" H 19600 6964 50  0000 C CNN
F 2 "Button_Switch_SMD:SW_Push_SPST_NO_Alps_SKRK" H 19600 6800 50  0001 C CNN
F 3 "" H 19600 6800 50  0001 C CNN
	1    19600 6800
	1    0    0    -1  
$EndComp
$Comp
L device:SW_PUSH SW2
U 1 1 5E3A1923
P 19600 7200
F 0 "SW2" H 19600 7455 50  0000 C CNN
F 1 "SW_PUSH" H 19600 7364 50  0000 C CNN
F 2 "Button_Switch_SMD:SW_Push_SPST_NO_Alps_SKRK" H 19600 7200 50  0001 C CNN
F 3 "" H 19600 7200 50  0001 C CNN
	1    19600 7200
	1    0    0    -1  
$EndComp
Wire Wire Line
	16150 6800 19300 6800
Wire Wire Line
	19900 6800 20150 6800
Wire Wire Line
	16500 7200 16500 7750
Wire Wire Line
	19300 7200 16500 7200
Wire Wire Line
	19900 7200 20150 7200
$Comp
L interface:MAX232 U2
U 1 1 5E02F8C6
P 8450 5900
F 0 "U2" H 8450 6910 70  0000 C CNN
F 1 "MAX232" H 8450 6789 70  0000 C CNN
F 2 "Package_DIP:DIP-16_W7.62mm" H 8450 5900 50  0001 C CNN
F 3 "" H 8450 5900 50  0001 C CNN
	1    8450 5900
	1    0    0    -1  
$EndComp
NoConn ~ 9250 5600
NoConn ~ 9250 6100
NoConn ~ 7650 6100
NoConn ~ 7650 5700
NoConn ~ 7650 5600
NoConn ~ 7650 5200
$Comp
L power:VCC #PWR0107
U 1 1 5E06962F
P 9250 5200
F 0 "#PWR0107" H 9250 5300 30  0001 C CNN
F 1 "VCC" H 9253 5328 30  0000 C CNN
F 2 "" H 9250 5200 50  0001 C CNN
F 3 "" H 9250 5200 50  0001 C CNN
	1    9250 5200
	1    0    0    -1  
$EndComp
$Comp
L power:GND #PWR0108
U 1 1 5E069F0C
P 9250 5900
F 0 "#PWR0108" H 9250 5900 30  0001 C CNN
F 1 "GND" H 9250 5830 30  0001 C CNN
F 2 "" H 9250 5900 50  0001 C CNN
F 3 "" H 9250 5900 50  0001 C CNN
	1    9250 5900
	1    0    0    -1  
$EndComp
Wire Wire Line
	9250 5900 9250 5800
NoConn ~ 14700 7850
NoConn ~ 14700 7950
NoConn ~ 14700 8050
$EndSCHEMATC
