EESchema Schematic File Version 4
EELAYER 30 0
EELAYER END
$Descr A3 16535 11693
encoding utf-8
Sheet 1 1
Title ""
Date ""
Rev ""
Comp ""
Comment1 ""
Comment2 ""
Comment3 ""
Comment4 ""
$EndDescr
$Comp
L Device:R R1
U 1 1 5DE7FDF9
P 5200 2100
F 0 "R1" H 5270 2146 50  0000 L CNN
F 1 "10k" H 5270 2055 50  0000 L CNN
F 2 "Resistor_SMD:R_0201_0603Metric" V 5130 2100 50  0001 C CNN
F 3 "~" H 5200 2100 50  0001 C CNN
F 4 "R" H 5200 2100 50  0001 C CNN "Spice_Primitive"
F 5 "10k" H 5200 2100 50  0001 C CNN "Spice_Model"
F 6 "Y" H 5200 2100 50  0001 C CNN "Spice_Netlist_Enabled"
	1    5200 2100
	1    0    0    -1  
$EndComp
$Comp
L power:VCC #PWR0102
U 1 1 5DE81B8E
P 5200 1700
F 0 "#PWR0102" H 5200 1550 50  0001 C CNN
F 1 "VCC" H 5217 1873 50  0000 C CNN
F 2 "" H 5200 1700 50  0001 C CNN
F 3 "" H 5200 1700 50  0001 C CNN
	1    5200 1700
	1    0    0    -1  
$EndComp
$Comp
L Switch:SW_Push SW1
U 1 1 5DE82428
P 5000 2450
F 0 "SW1" H 5000 2735 50  0000 C CNN
F 1 "SW_Push" H 5000 2644 50  0000 C CNN
F 2 "Button_Switch_SMD:Panasonic_EVQPUJ_EVQPUA" H 5000 2650 50  0001 C CNN
F 3 "~" H 5000 2650 50  0001 C CNN
	1    5000 2450
	1    0    0    -1  
$EndComp
Wire Wire Line
	5200 1700 5200 1950
Wire Wire Line
	5200 2250 5200 2450
Wire Wire Line
	5200 2500 5200 2450
Connection ~ 5200 2450
$Comp
L Device:C C1
U 1 1 5DE88796
P 5600 2650
F 0 "C1" H 5715 2696 50  0000 L CNN
F 1 "22pf" H 5715 2605 50  0000 L CNN
F 2 "Capacitor_SMD:C_0201_0603Metric" H 5638 2500 50  0001 C CNN
F 3 "~" H 5600 2650 50  0001 C CNN
F 4 "C" H 5600 2650 50  0001 C CNN "Spice_Primitive"
F 5 "22p" H 5600 2650 50  0001 C CNN "Spice_Model"
F 6 "Y" H 5600 2650 50  0001 C CNN "Spice_Netlist_Enabled"
	1    5600 2650
	0    -1   -1   0   
$EndComp
$Comp
L Device:C C2
U 1 1 5DE89778
P 5600 3000
F 0 "C2" H 5715 3046 50  0000 L CNN
F 1 "22pf" H 5715 2955 50  0000 L CNN
F 2 "Capacitor_SMD:C_0201_0603Metric" H 5638 2850 50  0001 C CNN
F 3 "~" H 5600 3000 50  0001 C CNN
F 4 "C" H 5600 3000 50  0001 C CNN "Spice_Primitive"
F 5 "22p" H 5600 3000 50  0001 C CNN "Spice_Model"
F 6 "Y" H 5600 3000 50  0001 C CNN "Spice_Netlist_Enabled"
	1    5600 3000
	0    -1   -1   0   
$EndComp
Wire Wire Line
	5450 2650 4900 2650
Wire Wire Line
	4900 2650 4900 3000
Wire Wire Line
	5450 3000 4900 3000
Wire Wire Line
	5750 2950 5750 3000
Wire Wire Line
	6300 2700 6300 2650
Wire Wire Line
	6300 2900 6300 2950
$Comp
L Switch:SW_Push SW10
U 1 1 5DF925B9
P 10650 2700
F 0 "SW10" H 10650 2985 50  0000 C CNN
F 1 "SW_Push" H 10650 2894 50  0000 C CNN
F 2 "Button_Switch_SMD:Panasonic_EVQPUJ_EVQPUA" H 10650 2900 50  0001 C CNN
F 3 "~" H 10650 2900 50  0001 C CNN
	1    10650 2700
	1    0    0    -1  
$EndComp
$Comp
L Device:LED D21
U 1 1 5DF946FE
P 5400 8150
F 0 "D21" H 5393 8366 50  0000 C CNN
F 1 "LED" H 5393 8275 50  0000 C CNN
F 2 "LED_SMD:LED_0201_0603Metric" H 5400 8150 50  0001 C CNN
F 3 "~" H 5400 8150 50  0001 C CNN
	1    5400 8150
	0    -1   -1   0   
$EndComp
$Comp
L Diode:1N4001 D9
U 1 1 5DF9541F
P 10900 3050
F 0 "D9" H 10900 3266 50  0000 C CNN
F 1 "1N4001" H 10900 3175 50  0000 C CNN
F 2 "Diode_THT:D_DO-41_SOD81_P10.16mm_Horizontal" H 10900 2875 50  0001 C CNN
F 3 "http://www.vishay.com/docs/88503/1n4001.pdf" H 10900 3050 50  0001 C CNN
	1    10900 3050
	0    -1   -1   0   
$EndComp
Wire Wire Line
	10850 2700 10900 2700
Wire Wire Line
	10900 2700 10900 2900
$Comp
L Switch:SW_Push SW14
U 1 1 5DF9D29F
P 11550 2700
F 0 "SW14" H 11550 2985 50  0000 C CNN
F 1 "SW_Push" H 11550 2894 50  0000 C CNN
F 2 "Button_Switch_SMD:Panasonic_EVQPUJ_EVQPUA" H 11550 2900 50  0001 C CNN
F 3 "~" H 11550 2900 50  0001 C CNN
	1    11550 2700
	1    0    0    -1  
$EndComp
$Comp
L Diode:1N4001 D13
U 1 1 5DF9D2A5
P 11800 3050
F 0 "D13" H 11800 3266 50  0000 C CNN
F 1 "1N4001" H 11800 3175 50  0000 C CNN
F 2 "Diode_THT:D_DO-41_SOD81_P10.16mm_Horizontal" H 11800 2875 50  0001 C CNN
F 3 "http://www.vishay.com/docs/88503/1n4001.pdf" H 11800 3050 50  0001 C CNN
	1    11800 3050
	0    -1   -1   0   
$EndComp
Wire Wire Line
	11750 2700 11800 2700
Wire Wire Line
	11800 2700 11800 2900
$Comp
L Switch:SW_Push SW18
U 1 1 5DF9EB7C
P 12400 2700
F 0 "SW18" H 12400 2985 50  0000 C CNN
F 1 "SW_Push" H 12400 2894 50  0000 C CNN
F 2 "Button_Switch_SMD:Panasonic_EVQPUJ_EVQPUA" H 12400 2900 50  0001 C CNN
F 3 "~" H 12400 2900 50  0001 C CNN
	1    12400 2700
	1    0    0    -1  
$EndComp
$Comp
L Diode:1N4001 D17
U 1 1 5DF9EB82
P 12650 3050
F 0 "D17" H 12650 3266 50  0000 C CNN
F 1 "1N4001" H 12650 3175 50  0000 C CNN
F 2 "Diode_THT:D_DO-41_SOD81_P10.16mm_Horizontal" H 12650 2875 50  0001 C CNN
F 3 "http://www.vishay.com/docs/88503/1n4001.pdf" H 12650 3050 50  0001 C CNN
	1    12650 3050
	0    -1   -1   0   
$EndComp
Wire Wire Line
	12600 2700 12650 2700
Wire Wire Line
	12650 2700 12650 2900
$Comp
L Switch:SW_Push SW22
U 1 1 5DF9FBB3
P 13300 2650
F 0 "SW22" H 13300 2935 50  0000 C CNN
F 1 "SW_Push" H 13300 2844 50  0000 C CNN
F 2 "Button_Switch_SMD:Panasonic_EVQPUJ_EVQPUA" H 13300 2850 50  0001 C CNN
F 3 "~" H 13300 2850 50  0001 C CNN
	1    13300 2650
	1    0    0    -1  
$EndComp
$Comp
L Diode:1N4001 D22
U 1 1 5DF9FBB9
P 13550 3000
F 0 "D22" H 13550 3216 50  0000 C CNN
F 1 "1N4001" H 13550 3125 50  0000 C CNN
F 2 "Diode_THT:D_DO-41_SOD81_P10.16mm_Horizontal" H 13550 2825 50  0001 C CNN
F 3 "http://www.vishay.com/docs/88503/1n4001.pdf" H 13550 3000 50  0001 C CNN
	1    13550 3000
	0    -1   -1   0   
$EndComp
Wire Wire Line
	13500 2650 13550 2650
Wire Wire Line
	13550 2650 13550 2850
$Comp
L Switch:SW_Push SW6
U 1 1 5DFA1802
P 9850 2700
F 0 "SW6" H 9850 2985 50  0000 C CNN
F 1 "SW_Push" H 9850 2894 50  0000 C CNN
F 2 "Button_Switch_SMD:Panasonic_EVQPUJ_EVQPUA" H 9850 2900 50  0001 C CNN
F 3 "~" H 9850 2900 50  0001 C CNN
	1    9850 2700
	1    0    0    -1  
$EndComp
$Comp
L Diode:1N4001 D5
U 1 1 5DFA1808
P 10100 3050
F 0 "D5" H 10100 3266 50  0000 C CNN
F 1 "1N4001" H 10100 3175 50  0000 C CNN
F 2 "Diode_THT:D_DO-41_SOD81_P10.16mm_Horizontal" H 10100 2875 50  0001 C CNN
F 3 "http://www.vishay.com/docs/88503/1n4001.pdf" H 10100 3050 50  0001 C CNN
	1    10100 3050
	0    -1   -1   0   
$EndComp
Wire Wire Line
	10050 2700 10100 2700
Wire Wire Line
	10100 2700 10100 2900
$Comp
L Switch:SW_Push SW2
U 1 1 5DFABDCF
P 8950 2700
F 0 "SW2" H 8950 2985 50  0000 C CNN
F 1 "SW_Push" H 8950 2894 50  0000 C CNN
F 2 "Button_Switch_SMD:Panasonic_EVQPUJ_EVQPUA" H 8950 2900 50  0001 C CNN
F 3 "~" H 8950 2900 50  0001 C CNN
	1    8950 2700
	1    0    0    -1  
$EndComp
$Comp
L Diode:1N4001 D1
U 1 1 5DFABDD5
P 9200 3050
F 0 "D1" H 9200 3266 50  0000 C CNN
F 1 "1N4001" H 9200 3175 50  0000 C CNN
F 2 "Diode_THT:D_DO-41_SOD81_P10.16mm_Horizontal" H 9200 2875 50  0001 C CNN
F 3 "http://www.vishay.com/docs/88503/1n4001.pdf" H 9200 3050 50  0001 C CNN
	1    9200 3050
	0    -1   -1   0   
$EndComp
Wire Wire Line
	9150 2700 9200 2700
Wire Wire Line
	9200 2700 9200 2900
$Comp
L Switch:SW_Push SW11
U 1 1 5DFC6948
P 10650 3700
F 0 "SW11" H 10650 3985 50  0000 C CNN
F 1 "SW_Push" H 10650 3894 50  0000 C CNN
F 2 "Button_Switch_SMD:Panasonic_EVQPUJ_EVQPUA" H 10650 3900 50  0001 C CNN
F 3 "~" H 10650 3900 50  0001 C CNN
	1    10650 3700
	1    0    0    -1  
$EndComp
$Comp
L Diode:1N4001 D10
U 1 1 5DFC694E
P 10900 4050
F 0 "D10" H 10900 4266 50  0000 C CNN
F 1 "1N4001" H 10900 4175 50  0000 C CNN
F 2 "Diode_THT:D_DO-41_SOD81_P10.16mm_Horizontal" H 10900 3875 50  0001 C CNN
F 3 "http://www.vishay.com/docs/88503/1n4001.pdf" H 10900 4050 50  0001 C CNN
	1    10900 4050
	0    -1   -1   0   
$EndComp
Wire Wire Line
	10850 3700 10900 3700
Wire Wire Line
	10900 3700 10900 3900
$Comp
L Switch:SW_Push SW15
U 1 1 5DFC6956
P 11550 3700
F 0 "SW15" H 11550 3985 50  0000 C CNN
F 1 "SW_Push" H 11550 3894 50  0000 C CNN
F 2 "Button_Switch_SMD:Panasonic_EVQPUJ_EVQPUA" H 11550 3900 50  0001 C CNN
F 3 "~" H 11550 3900 50  0001 C CNN
	1    11550 3700
	1    0    0    -1  
$EndComp
$Comp
L Diode:1N4001 D14
U 1 1 5DFC695C
P 11800 4050
F 0 "D14" H 11800 4266 50  0000 C CNN
F 1 "1N4001" H 11800 4175 50  0000 C CNN
F 2 "Diode_THT:D_DO-41_SOD81_P10.16mm_Horizontal" H 11800 3875 50  0001 C CNN
F 3 "http://www.vishay.com/docs/88503/1n4001.pdf" H 11800 4050 50  0001 C CNN
	1    11800 4050
	0    -1   -1   0   
$EndComp
Wire Wire Line
	11750 3700 11800 3700
Wire Wire Line
	11800 3700 11800 3900
$Comp
L Switch:SW_Push SW19
U 1 1 5DFC6964
P 12400 3700
F 0 "SW19" H 12400 3985 50  0000 C CNN
F 1 "SW_Push" H 12400 3894 50  0000 C CNN
F 2 "Button_Switch_SMD:Panasonic_EVQPUJ_EVQPUA" H 12400 3900 50  0001 C CNN
F 3 "~" H 12400 3900 50  0001 C CNN
	1    12400 3700
	1    0    0    -1  
$EndComp
$Comp
L Diode:1N4001 D18
U 1 1 5DFC696A
P 12650 4050
F 0 "D18" H 12650 4266 50  0000 C CNN
F 1 "1N4001" H 12650 4175 50  0000 C CNN
F 2 "Diode_THT:D_DO-41_SOD81_P10.16mm_Horizontal" H 12650 3875 50  0001 C CNN
F 3 "http://www.vishay.com/docs/88503/1n4001.pdf" H 12650 4050 50  0001 C CNN
	1    12650 4050
	0    -1   -1   0   
$EndComp
Wire Wire Line
	12600 3700 12650 3700
Wire Wire Line
	12650 3700 12650 3900
$Comp
L Switch:SW_Push SW23
U 1 1 5DFC6972
P 13300 3650
F 0 "SW23" H 13300 3935 50  0000 C CNN
F 1 "SW_Push" H 13300 3844 50  0000 C CNN
F 2 "Button_Switch_SMD:Panasonic_EVQPUJ_EVQPUA" H 13300 3850 50  0001 C CNN
F 3 "~" H 13300 3850 50  0001 C CNN
	1    13300 3650
	1    0    0    -1  
$EndComp
$Comp
L Diode:1N4001 D23
U 1 1 5DFC6978
P 13550 4000
F 0 "D23" H 13550 4216 50  0000 C CNN
F 1 "1N4001" H 13550 4125 50  0000 C CNN
F 2 "Diode_THT:D_DO-41_SOD81_P10.16mm_Horizontal" H 13550 3825 50  0001 C CNN
F 3 "http://www.vishay.com/docs/88503/1n4001.pdf" H 13550 4000 50  0001 C CNN
	1    13550 4000
	0    -1   -1   0   
$EndComp
Wire Wire Line
	13500 3650 13550 3650
Wire Wire Line
	13550 3650 13550 3850
$Comp
L Switch:SW_Push SW7
U 1 1 5DFC6980
P 9850 3700
F 0 "SW7" H 9850 3985 50  0000 C CNN
F 1 "SW_Push" H 9850 3894 50  0000 C CNN
F 2 "Button_Switch_SMD:Panasonic_EVQPUJ_EVQPUA" H 9850 3900 50  0001 C CNN
F 3 "~" H 9850 3900 50  0001 C CNN
	1    9850 3700
	1    0    0    -1  
$EndComp
$Comp
L Diode:1N4001 D6
U 1 1 5DFC6986
P 10100 4050
F 0 "D6" H 10100 4266 50  0000 C CNN
F 1 "1N4001" H 10100 4175 50  0000 C CNN
F 2 "Diode_THT:D_DO-41_SOD81_P10.16mm_Horizontal" H 10100 3875 50  0001 C CNN
F 3 "http://www.vishay.com/docs/88503/1n4001.pdf" H 10100 4050 50  0001 C CNN
	1    10100 4050
	0    -1   -1   0   
$EndComp
Wire Wire Line
	10050 3700 10100 3700
Wire Wire Line
	10100 3700 10100 3900
$Comp
L Switch:SW_Push SW3
U 1 1 5DFC698E
P 8950 3700
F 0 "SW3" H 8950 3985 50  0000 C CNN
F 1 "SW_Push" H 8950 3894 50  0000 C CNN
F 2 "Button_Switch_SMD:Panasonic_EVQPUJ_EVQPUA" H 8950 3900 50  0001 C CNN
F 3 "~" H 8950 3900 50  0001 C CNN
	1    8950 3700
	1    0    0    -1  
$EndComp
$Comp
L Diode:1N4001 D2
U 1 1 5DFC6994
P 9200 4050
F 0 "D2" H 9200 4266 50  0000 C CNN
F 1 "1N4001" H 9200 4175 50  0000 C CNN
F 2 "Diode_THT:D_DO-41_SOD81_P10.16mm_Horizontal" H 9200 3875 50  0001 C CNN
F 3 "http://www.vishay.com/docs/88503/1n4001.pdf" H 9200 4050 50  0001 C CNN
	1    9200 4050
	0    -1   -1   0   
$EndComp
Wire Wire Line
	9150 3700 9200 3700
Wire Wire Line
	9200 3700 9200 3900
$Comp
L Switch:SW_Push SW12
U 1 1 5DFCDB25
P 10650 4600
F 0 "SW12" H 10650 4885 50  0000 C CNN
F 1 "SW_Push" H 10650 4794 50  0000 C CNN
F 2 "Button_Switch_SMD:Panasonic_EVQPUJ_EVQPUA" H 10650 4800 50  0001 C CNN
F 3 "~" H 10650 4800 50  0001 C CNN
	1    10650 4600
	1    0    0    -1  
$EndComp
$Comp
L Diode:1N4001 D11
U 1 1 5DFCDB2B
P 10900 4950
F 0 "D11" H 10900 5166 50  0000 C CNN
F 1 "1N4001" H 10900 5075 50  0000 C CNN
F 2 "Diode_THT:D_DO-41_SOD81_P10.16mm_Horizontal" H 10900 4775 50  0001 C CNN
F 3 "http://www.vishay.com/docs/88503/1n4001.pdf" H 10900 4950 50  0001 C CNN
	1    10900 4950
	0    -1   -1   0   
$EndComp
Wire Wire Line
	10850 4600 10900 4600
Wire Wire Line
	10900 4600 10900 4800
$Comp
L Switch:SW_Push SW16
U 1 1 5DFCDB33
P 11550 4600
F 0 "SW16" H 11550 4885 50  0000 C CNN
F 1 "SW_Push" H 11550 4794 50  0000 C CNN
F 2 "Button_Switch_SMD:Panasonic_EVQPUJ_EVQPUA" H 11550 4800 50  0001 C CNN
F 3 "~" H 11550 4800 50  0001 C CNN
	1    11550 4600
	1    0    0    -1  
$EndComp
$Comp
L Diode:1N4001 D15
U 1 1 5DFCDB39
P 11800 4950
F 0 "D15" H 11800 5166 50  0000 C CNN
F 1 "1N4001" H 11800 5075 50  0000 C CNN
F 2 "Diode_THT:D_DO-41_SOD81_P10.16mm_Horizontal" H 11800 4775 50  0001 C CNN
F 3 "http://www.vishay.com/docs/88503/1n4001.pdf" H 11800 4950 50  0001 C CNN
	1    11800 4950
	0    -1   -1   0   
$EndComp
Wire Wire Line
	11750 4600 11800 4600
Wire Wire Line
	11800 4600 11800 4800
$Comp
L Switch:SW_Push SW20
U 1 1 5DFCDB41
P 12400 4600
F 0 "SW20" H 12400 4885 50  0000 C CNN
F 1 "SW_Push" H 12400 4794 50  0000 C CNN
F 2 "Button_Switch_SMD:Panasonic_EVQPUJ_EVQPUA" H 12400 4800 50  0001 C CNN
F 3 "~" H 12400 4800 50  0001 C CNN
	1    12400 4600
	1    0    0    -1  
$EndComp
$Comp
L Diode:1N4001 D19
U 1 1 5DFCDB47
P 12650 4950
F 0 "D19" H 12650 5166 50  0000 C CNN
F 1 "1N4001" H 12650 5075 50  0000 C CNN
F 2 "Diode_THT:D_DO-41_SOD81_P10.16mm_Horizontal" H 12650 4775 50  0001 C CNN
F 3 "http://www.vishay.com/docs/88503/1n4001.pdf" H 12650 4950 50  0001 C CNN
	1    12650 4950
	0    -1   -1   0   
$EndComp
Wire Wire Line
	12600 4600 12650 4600
Wire Wire Line
	12650 4600 12650 4800
$Comp
L Switch:SW_Push SW24
U 1 1 5DFCDB4F
P 13300 4550
F 0 "SW24" H 13300 4835 50  0000 C CNN
F 1 "SW_Push" H 13300 4744 50  0000 C CNN
F 2 "Button_Switch_SMD:Panasonic_EVQPUJ_EVQPUA" H 13300 4750 50  0001 C CNN
F 3 "~" H 13300 4750 50  0001 C CNN
	1    13300 4550
	1    0    0    -1  
$EndComp
$Comp
L Diode:1N4001 D24
U 1 1 5DFCDB55
P 13550 4900
F 0 "D24" H 13550 5116 50  0000 C CNN
F 1 "1N4001" H 13550 5025 50  0000 C CNN
F 2 "Diode_THT:D_DO-41_SOD81_P10.16mm_Horizontal" H 13550 4725 50  0001 C CNN
F 3 "http://www.vishay.com/docs/88503/1n4001.pdf" H 13550 4900 50  0001 C CNN
	1    13550 4900
	0    -1   -1   0   
$EndComp
Wire Wire Line
	13500 4550 13550 4550
Wire Wire Line
	13550 4550 13550 4750
$Comp
L Switch:SW_Push SW8
U 1 1 5DFCDB5D
P 9850 4600
F 0 "SW8" H 9850 4885 50  0000 C CNN
F 1 "SW_Push" H 9850 4794 50  0000 C CNN
F 2 "Button_Switch_SMD:Panasonic_EVQPUJ_EVQPUA" H 9850 4800 50  0001 C CNN
F 3 "~" H 9850 4800 50  0001 C CNN
	1    9850 4600
	1    0    0    -1  
$EndComp
$Comp
L Diode:1N4001 D7
U 1 1 5DFCDB63
P 10100 4950
F 0 "D7" H 10100 5166 50  0000 C CNN
F 1 "1N4001" H 10100 5075 50  0000 C CNN
F 2 "Diode_THT:D_DO-41_SOD81_P10.16mm_Horizontal" H 10100 4775 50  0001 C CNN
F 3 "http://www.vishay.com/docs/88503/1n4001.pdf" H 10100 4950 50  0001 C CNN
	1    10100 4950
	0    -1   -1   0   
$EndComp
Wire Wire Line
	10050 4600 10100 4600
Wire Wire Line
	10100 4600 10100 4800
$Comp
L Switch:SW_Push SW4
U 1 1 5DFCDB6B
P 8950 4600
F 0 "SW4" H 8950 4885 50  0000 C CNN
F 1 "SW_Push" H 8950 4794 50  0000 C CNN
F 2 "Button_Switch_SMD:Panasonic_EVQPUJ_EVQPUA" H 8950 4800 50  0001 C CNN
F 3 "~" H 8950 4800 50  0001 C CNN
	1    8950 4600
	1    0    0    -1  
$EndComp
$Comp
L Diode:1N4001 D3
U 1 1 5DFCDB71
P 9200 4950
F 0 "D3" H 9200 5166 50  0000 C CNN
F 1 "1N4001" H 9200 5075 50  0000 C CNN
F 2 "Diode_THT:D_DO-41_SOD81_P10.16mm_Horizontal" H 9200 4775 50  0001 C CNN
F 3 "http://www.vishay.com/docs/88503/1n4001.pdf" H 9200 4950 50  0001 C CNN
	1    9200 4950
	0    -1   -1   0   
$EndComp
Wire Wire Line
	9150 4600 9200 4600
Wire Wire Line
	9200 4600 9200 4800
$Comp
L Switch:SW_Push SW13
U 1 1 5DFD76CC
P 10650 5400
F 0 "SW13" H 10650 5685 50  0000 C CNN
F 1 "SW_Push" H 10650 5594 50  0000 C CNN
F 2 "Button_Switch_SMD:Panasonic_EVQPUJ_EVQPUA" H 10650 5600 50  0001 C CNN
F 3 "~" H 10650 5600 50  0001 C CNN
	1    10650 5400
	1    0    0    -1  
$EndComp
$Comp
L Diode:1N4001 D12
U 1 1 5DFD76D2
P 10900 5750
F 0 "D12" H 10900 5966 50  0000 C CNN
F 1 "1N4001" H 10900 5875 50  0000 C CNN
F 2 "Diode_THT:D_DO-41_SOD81_P10.16mm_Horizontal" H 10900 5575 50  0001 C CNN
F 3 "http://www.vishay.com/docs/88503/1n4001.pdf" H 10900 5750 50  0001 C CNN
	1    10900 5750
	0    -1   -1   0   
$EndComp
Wire Wire Line
	10850 5400 10900 5400
Wire Wire Line
	10900 5400 10900 5600
$Comp
L Switch:SW_Push SW17
U 1 1 5DFD76DA
P 11550 5400
F 0 "SW17" H 11550 5685 50  0000 C CNN
F 1 "SW_Push" H 11550 5594 50  0000 C CNN
F 2 "Button_Switch_SMD:Panasonic_EVQPUJ_EVQPUA" H 11550 5600 50  0001 C CNN
F 3 "~" H 11550 5600 50  0001 C CNN
	1    11550 5400
	1    0    0    -1  
$EndComp
$Comp
L Diode:1N4001 D16
U 1 1 5DFD76E0
P 11800 5750
F 0 "D16" H 11800 5966 50  0000 C CNN
F 1 "1N4001" H 11800 5875 50  0000 C CNN
F 2 "Diode_THT:D_DO-41_SOD81_P10.16mm_Horizontal" H 11800 5575 50  0001 C CNN
F 3 "http://www.vishay.com/docs/88503/1n4001.pdf" H 11800 5750 50  0001 C CNN
	1    11800 5750
	0    -1   -1   0   
$EndComp
Wire Wire Line
	11750 5400 11800 5400
Wire Wire Line
	11800 5400 11800 5600
$Comp
L Switch:SW_Push SW21
U 1 1 5DFD76E8
P 12400 5400
F 0 "SW21" H 12400 5685 50  0000 C CNN
F 1 "SW_Push" H 12400 5594 50  0000 C CNN
F 2 "Button_Switch_SMD:Panasonic_EVQPUJ_EVQPUA" H 12400 5600 50  0001 C CNN
F 3 "~" H 12400 5600 50  0001 C CNN
	1    12400 5400
	1    0    0    -1  
$EndComp
$Comp
L Diode:1N4001 D20
U 1 1 5DFD76EE
P 12650 5750
F 0 "D20" H 12650 5966 50  0000 C CNN
F 1 "1N4001" H 12650 5875 50  0000 C CNN
F 2 "Diode_THT:D_DO-41_SOD81_P10.16mm_Horizontal" H 12650 5575 50  0001 C CNN
F 3 "http://www.vishay.com/docs/88503/1n4001.pdf" H 12650 5750 50  0001 C CNN
	1    12650 5750
	0    -1   -1   0   
$EndComp
Wire Wire Line
	12600 5400 12650 5400
Wire Wire Line
	12650 5400 12650 5600
$Comp
L Switch:SW_Push SW25
U 1 1 5DFD76F6
P 13300 5350
F 0 "SW25" H 13300 5635 50  0000 C CNN
F 1 "SW_Push" H 13300 5544 50  0000 C CNN
F 2 "Button_Switch_SMD:Panasonic_EVQPUJ_EVQPUA" H 13300 5550 50  0001 C CNN
F 3 "~" H 13300 5550 50  0001 C CNN
	1    13300 5350
	1    0    0    -1  
$EndComp
$Comp
L Diode:1N4001 D25
U 1 1 5DFD76FC
P 13550 5700
F 0 "D25" H 13550 5916 50  0000 C CNN
F 1 "1N4001" H 13550 5825 50  0000 C CNN
F 2 "Diode_THT:D_DO-41_SOD81_P10.16mm_Horizontal" H 13550 5525 50  0001 C CNN
F 3 "http://www.vishay.com/docs/88503/1n4001.pdf" H 13550 5700 50  0001 C CNN
	1    13550 5700
	0    -1   -1   0   
$EndComp
Wire Wire Line
	13500 5350 13550 5350
Wire Wire Line
	13550 5350 13550 5550
$Comp
L Switch:SW_Push SW9
U 1 1 5DFD7704
P 9850 5400
F 0 "SW9" H 9850 5685 50  0000 C CNN
F 1 "SW_Push" H 9850 5594 50  0000 C CNN
F 2 "Button_Switch_SMD:Panasonic_EVQPUJ_EVQPUA" H 9850 5600 50  0001 C CNN
F 3 "~" H 9850 5600 50  0001 C CNN
	1    9850 5400
	1    0    0    -1  
$EndComp
$Comp
L Diode:1N4001 D8
U 1 1 5DFD770A
P 10100 5750
F 0 "D8" H 10100 5966 50  0000 C CNN
F 1 "1N4001" H 10100 5875 50  0000 C CNN
F 2 "Diode_THT:D_DO-41_SOD81_P10.16mm_Horizontal" H 10100 5575 50  0001 C CNN
F 3 "http://www.vishay.com/docs/88503/1n4001.pdf" H 10100 5750 50  0001 C CNN
	1    10100 5750
	0    -1   -1   0   
$EndComp
Wire Wire Line
	10050 5400 10100 5400
Wire Wire Line
	10100 5400 10100 5600
$Comp
L Switch:SW_Push SW5
U 1 1 5DFD7712
P 8950 5400
F 0 "SW5" H 8950 5685 50  0000 C CNN
F 1 "SW_Push" H 8950 5594 50  0000 C CNN
F 2 "Button_Switch_SMD:Panasonic_EVQPUJ_EVQPUA" H 8950 5600 50  0001 C CNN
F 3 "~" H 8950 5600 50  0001 C CNN
	1    8950 5400
	1    0    0    -1  
$EndComp
$Comp
L Diode:1N4001 D4
U 1 1 5DFD7718
P 9200 5750
F 0 "D4" H 9200 5966 50  0000 C CNN
F 1 "1N4001" H 9200 5875 50  0000 C CNN
F 2 "Diode_THT:D_DO-41_SOD81_P10.16mm_Horizontal" H 9200 5575 50  0001 C CNN
F 3 "http://www.vishay.com/docs/88503/1n4001.pdf" H 9200 5750 50  0001 C CNN
	1    9200 5750
	0    -1   -1   0   
$EndComp
Wire Wire Line
	9150 5400 9200 5400
Wire Wire Line
	9200 5400 9200 5600
Wire Wire Line
	13100 2650 12950 2650
Wire Wire Line
	12950 2650 12950 2250
Wire Wire Line
	12950 2250 12200 2250
Wire Wire Line
	9650 2700 9650 2250
Connection ~ 9650 2250
Wire Wire Line
	10450 2700 10450 2250
Connection ~ 10450 2250
Wire Wire Line
	10450 2250 9650 2250
Wire Wire Line
	11350 2700 11350 2250
Connection ~ 11350 2250
Wire Wire Line
	11350 2250 10450 2250
Wire Wire Line
	12200 2700 12200 2250
Connection ~ 12200 2250
Wire Wire Line
	12200 2250 11350 2250
Wire Wire Line
	8400 2250 8750 2250
Wire Wire Line
	8400 2250 8400 3400
Wire Wire Line
	8750 2700 8750 2250
Connection ~ 8750 2250
Wire Wire Line
	8750 2250 9650 2250
Wire Wire Line
	13100 3650 13100 3350
Wire Wire Line
	13100 3350 12200 3350
Wire Wire Line
	8550 3350 8550 3500
Wire Wire Line
	13100 4550 13100 4350
Wire Wire Line
	8550 4350 8550 3600
Wire Wire Line
	13100 5350 13100 5200
Wire Wire Line
	8500 5200 8500 3700
Wire Wire Line
	12200 3700 12200 3350
Connection ~ 12200 3350
Wire Wire Line
	12200 3350 11350 3350
Wire Wire Line
	11350 3700 11350 3350
Connection ~ 11350 3350
Wire Wire Line
	11350 3350 10450 3350
Wire Wire Line
	10450 3700 10450 3350
Connection ~ 10450 3350
Wire Wire Line
	10450 3350 9650 3350
Wire Wire Line
	9650 3700 9650 3350
Connection ~ 9650 3350
Wire Wire Line
	9650 3350 8750 3350
Wire Wire Line
	8750 3700 8750 3350
Connection ~ 8750 3350
Wire Wire Line
	8750 3350 8550 3350
Wire Wire Line
	12200 4600 12200 4350
Wire Wire Line
	8550 4350 8750 4350
Connection ~ 12200 4350
Wire Wire Line
	12200 4350 13100 4350
Wire Wire Line
	11350 4600 11350 4350
Connection ~ 11350 4350
Wire Wire Line
	11350 4350 12200 4350
Wire Wire Line
	10450 4600 10450 4350
Connection ~ 10450 4350
Wire Wire Line
	10450 4350 11350 4350
Wire Wire Line
	9650 4600 9650 4350
Connection ~ 9650 4350
Wire Wire Line
	9650 4350 10450 4350
Wire Wire Line
	8750 4600 8750 4350
Connection ~ 8750 4350
Wire Wire Line
	8750 4350 9650 4350
Wire Wire Line
	8750 5400 8750 5200
Wire Wire Line
	8500 5200 8750 5200
Connection ~ 8750 5200
Wire Wire Line
	9650 5400 9650 5200
Wire Wire Line
	8750 5200 9650 5200
Connection ~ 9650 5200
Wire Wire Line
	9650 5200 10450 5200
Wire Wire Line
	10450 5400 10450 5200
Connection ~ 10450 5200
Wire Wire Line
	10450 5200 11350 5200
Wire Wire Line
	11350 5400 11350 5200
Connection ~ 11350 5200
Wire Wire Line
	12200 5400 12200 5200
Wire Wire Line
	11350 5200 12200 5200
Connection ~ 12200 5200
Wire Wire Line
	12200 5200 13100 5200
Wire Wire Line
	13550 3150 13550 3200
Wire Wire Line
	13550 3200 13800 3200
Wire Wire Line
	13800 3200 13800 4150
Wire Wire Line
	13800 6250 7850 6250
Wire Wire Line
	7850 6250 7850 5200
Wire Wire Line
	13550 4150 13800 4150
Connection ~ 13800 4150
Wire Wire Line
	13800 4150 13800 5050
Wire Wire Line
	13550 5050 13800 5050
Connection ~ 13800 5050
Wire Wire Line
	13800 5050 13800 5850
Wire Wire Line
	13550 5850 13800 5850
Connection ~ 13800 5850
Wire Wire Line
	13800 5850 13800 6250
Wire Wire Line
	12650 3200 12900 3200
Wire Wire Line
	12900 3200 12900 4200
Wire Wire Line
	12900 6100 8250 6100
Wire Wire Line
	8250 6100 8250 5300
Wire Wire Line
	11800 3200 12000 3200
Wire Wire Line
	12000 3200 12000 4200
Wire Wire Line
	12000 6350 8050 6350
Wire Wire Line
	8250 5300 7500 5300
Wire Wire Line
	7850 5200 7500 5200
Wire Wire Line
	8500 3700 7500 3700
Wire Wire Line
	8550 3600 7500 3600
Wire Wire Line
	8550 3500 7500 3500
Wire Wire Line
	8400 3400 7500 3400
$Comp
L Polina-rescue:ATmega8515L-8AU-MCU_Microchip_ATmega U1
U 1 1 5DE7E2BE
P 6900 4200
F 0 "U1" H 6900 6381 50  0000 C CNN
F 1 "ATmega8515L-8AU" H 6900 6290 50  0000 C CNN
F 2 "Package_QFP:TQFP-44_10x10mm_P0.8mm" H 6900 4200 50  0001 C CIN
F 3 "http://ww1.microchip.com/downloads/en/DeviceDoc/doc2512.pdf" H 6900 4200 50  0001 C CNN
	1    6900 4200
	1    0    0    -1  
$EndComp
Wire Wire Line
	7500 5400 8050 5400
Wire Wire Line
	8050 5400 8050 6350
Wire Wire Line
	10900 3200 11150 3200
Wire Wire Line
	11150 6450 7900 6450
Wire Wire Line
	7900 5500 7500 5500
Wire Wire Line
	10100 3200 10300 3200
Wire Wire Line
	10300 3200 10300 4200
Wire Wire Line
	10300 6550 8200 6550
Wire Wire Line
	8200 6550 8200 5600
Wire Wire Line
	8200 5600 7500 5600
Wire Wire Line
	9200 3200 9400 3200
Wire Wire Line
	9400 3200 9400 4200
Wire Wire Line
	9400 6650 7800 6650
Wire Wire Line
	7800 6650 7800 5700
Wire Wire Line
	7800 5700 7500 5700
Wire Wire Line
	12650 4200 12900 4200
Connection ~ 12900 4200
Wire Wire Line
	12900 4200 12900 5100
Wire Wire Line
	12650 5100 12900 5100
Connection ~ 12900 5100
Wire Wire Line
	12900 5100 12900 5900
Wire Wire Line
	12650 5900 12900 5900
Connection ~ 12900 5900
Wire Wire Line
	12900 5900 12900 6100
Wire Wire Line
	11800 5900 12000 5900
Connection ~ 12000 5900
Wire Wire Line
	12000 5900 12000 6350
Wire Wire Line
	11800 5100 12000 5100
Connection ~ 12000 5100
Wire Wire Line
	12000 5100 12000 5900
Wire Wire Line
	11800 4200 12000 4200
Connection ~ 12000 4200
Wire Wire Line
	12000 4200 12000 5100
Wire Wire Line
	11150 3200 11150 4200
Wire Wire Line
	10900 4200 11150 4200
Connection ~ 11150 4200
Wire Wire Line
	11150 4200 11150 5100
Wire Wire Line
	10900 5100 11150 5100
Connection ~ 11150 5100
Wire Wire Line
	10900 5900 11150 5900
Wire Wire Line
	11150 5100 11150 5900
Connection ~ 11150 5900
Wire Wire Line
	11150 5900 11150 6450
Wire Wire Line
	10100 5900 10300 5900
Connection ~ 10300 5900
Wire Wire Line
	10300 5900 10300 6550
Wire Wire Line
	10100 5100 10300 5100
Connection ~ 10300 5100
Wire Wire Line
	10300 5100 10300 5900
Wire Wire Line
	10100 4200 10300 4200
Connection ~ 10300 4200
Wire Wire Line
	10300 4200 10300 5100
Wire Wire Line
	9200 4200 9400 4200
Connection ~ 9400 4200
Wire Wire Line
	9200 5100 9400 5100
Wire Wire Line
	9400 4200 9400 5100
Connection ~ 9400 5100
Wire Wire Line
	9400 5100 9400 5900
Wire Wire Line
	9200 5900 9400 5900
Connection ~ 9400 5900
Wire Wire Line
	9400 5900 9400 6650
$Comp
L Device:LED D33
U 1 1 5E141610
P 6400 8150
F 0 "D33" H 6393 8366 50  0000 C CNN
F 1 "LED" H 6393 8275 50  0000 C CNN
F 2 "LED_SMD:LED_0201_0603Metric" H 6400 8150 50  0001 C CNN
F 3 "~" H 6400 8150 50  0001 C CNN
	1    6400 8150
	0    -1   -1   0   
$EndComp
$Comp
L Device:LED D37
U 1 1 5E14B1BE
P 6900 8150
F 0 "D37" H 6893 8366 50  0000 C CNN
F 1 "LED" H 6893 8275 50  0000 C CNN
F 2 "LED_SMD:LED_0201_0603Metric" H 6900 8150 50  0001 C CNN
F 3 "~" H 6900 8150 50  0001 C CNN
	1    6900 8150
	0    -1   -1   0   
$EndComp
$Comp
L Device:LED D41
U 1 1 5E154ED7
P 7400 8150
F 0 "D41" H 7393 8366 50  0000 C CNN
F 1 "LED" H 7393 8275 50  0000 C CNN
F 2 "LED_SMD:LED_0201_0603Metric" H 7400 8150 50  0001 C CNN
F 3 "~" H 7400 8150 50  0001 C CNN
	1    7400 8150
	0    -1   -1   0   
$EndComp
$Comp
L Device:LED D45
U 1 1 5E15ECF5
P 7850 8150
F 0 "D45" H 7843 8366 50  0000 C CNN
F 1 "LED" H 7843 8275 50  0000 C CNN
F 2 "LED_SMD:LED_0201_0603Metric" H 7850 8150 50  0001 C CNN
F 3 "~" H 7850 8150 50  0001 C CNN
	1    7850 8150
	0    -1   -1   0   
$EndComp
$Comp
L Device:LED D26
U 1 1 5E177F21
P 5400 8750
F 0 "D26" H 5393 8966 50  0000 C CNN
F 1 "LED" H 5393 8875 50  0000 C CNN
F 2 "LED_SMD:LED_0201_0603Metric" H 5400 8750 50  0001 C CNN
F 3 "~" H 5400 8750 50  0001 C CNN
	1    5400 8750
	0    -1   -1   0   
$EndComp
$Comp
L Device:LED D30
U 1 1 5E177F27
P 5850 8750
F 0 "D30" H 5843 8966 50  0000 C CNN
F 1 "LED" H 5843 8875 50  0000 C CNN
F 2 "LED_SMD:LED_0201_0603Metric" H 5850 8750 50  0001 C CNN
F 3 "~" H 5850 8750 50  0001 C CNN
	1    5850 8750
	0    -1   -1   0   
$EndComp
$Comp
L Device:LED D34
U 1 1 5E177F2D
P 6400 8750
F 0 "D34" H 6393 8966 50  0000 C CNN
F 1 "LED" H 6393 8875 50  0000 C CNN
F 2 "LED_SMD:LED_0201_0603Metric" H 6400 8750 50  0001 C CNN
F 3 "~" H 6400 8750 50  0001 C CNN
	1    6400 8750
	0    -1   -1   0   
$EndComp
$Comp
L Device:LED D38
U 1 1 5E177F33
P 6900 8750
F 0 "D38" H 6893 8966 50  0000 C CNN
F 1 "LED" H 6893 8875 50  0000 C CNN
F 2 "LED_SMD:LED_0201_0603Metric" H 6900 8750 50  0001 C CNN
F 3 "~" H 6900 8750 50  0001 C CNN
	1    6900 8750
	0    -1   -1   0   
$EndComp
$Comp
L Device:LED D42
U 1 1 5E177F39
P 7400 8750
F 0 "D42" H 7393 8966 50  0000 C CNN
F 1 "LED" H 7393 8875 50  0000 C CNN
F 2 "LED_SMD:LED_0201_0603Metric" H 7400 8750 50  0001 C CNN
F 3 "~" H 7400 8750 50  0001 C CNN
	1    7400 8750
	0    -1   -1   0   
$EndComp
$Comp
L Device:LED D46
U 1 1 5E177F3F
P 7850 8750
F 0 "D46" H 7843 8966 50  0000 C CNN
F 1 "LED" H 7843 8875 50  0000 C CNN
F 2 "LED_SMD:LED_0201_0603Metric" H 7850 8750 50  0001 C CNN
F 3 "~" H 7850 8750 50  0001 C CNN
	1    7850 8750
	0    -1   -1   0   
$EndComp
$Comp
L Device:LED D27
U 1 1 5E183B2A
P 5400 9400
F 0 "D27" H 5393 9616 50  0000 C CNN
F 1 "LED" H 5393 9525 50  0000 C CNN
F 2 "LED_SMD:LED_0201_0603Metric" H 5400 9400 50  0001 C CNN
F 3 "~" H 5400 9400 50  0001 C CNN
	1    5400 9400
	0    -1   -1   0   
$EndComp
$Comp
L Device:LED D31
U 1 1 5E183B30
P 5850 9400
F 0 "D31" H 5843 9616 50  0000 C CNN
F 1 "LED" H 5843 9525 50  0000 C CNN
F 2 "LED_SMD:LED_0201_0603Metric" H 5850 9400 50  0001 C CNN
F 3 "~" H 5850 9400 50  0001 C CNN
	1    5850 9400
	0    -1   -1   0   
$EndComp
$Comp
L Device:LED D35
U 1 1 5E183B36
P 6400 9400
F 0 "D35" H 6393 9616 50  0000 C CNN
F 1 "LED" H 6393 9525 50  0000 C CNN
F 2 "LED_SMD:LED_0201_0603Metric" H 6400 9400 50  0001 C CNN
F 3 "~" H 6400 9400 50  0001 C CNN
	1    6400 9400
	0    -1   -1   0   
$EndComp
$Comp
L Device:LED D39
U 1 1 5E183B3C
P 6900 9400
F 0 "D39" H 6893 9616 50  0000 C CNN
F 1 "LED" H 6893 9525 50  0000 C CNN
F 2 "LED_SMD:LED_0201_0603Metric" H 6900 9400 50  0001 C CNN
F 3 "~" H 6900 9400 50  0001 C CNN
	1    6900 9400
	0    -1   -1   0   
$EndComp
$Comp
L Device:LED D43
U 1 1 5E183B42
P 7400 9400
F 0 "D43" H 7393 9616 50  0000 C CNN
F 1 "LED" H 7393 9525 50  0000 C CNN
F 2 "LED_SMD:LED_0201_0603Metric" H 7400 9400 50  0001 C CNN
F 3 "~" H 7400 9400 50  0001 C CNN
	1    7400 9400
	0    -1   -1   0   
$EndComp
$Comp
L Device:LED D47
U 1 1 5E183B48
P 7850 9400
F 0 "D47" H 7843 9616 50  0000 C CNN
F 1 "LED" H 7843 9525 50  0000 C CNN
F 2 "LED_SMD:LED_0201_0603Metric" H 7850 9400 50  0001 C CNN
F 3 "~" H 7850 9400 50  0001 C CNN
	1    7850 9400
	0    -1   -1   0   
$EndComp
$Comp
L Device:LED D28
U 1 1 5E18FE96
P 5400 10050
F 0 "D28" H 5393 10266 50  0000 C CNN
F 1 "LED" H 5393 10175 50  0000 C CNN
F 2 "LED_SMD:LED_0201_0603Metric" H 5400 10050 50  0001 C CNN
F 3 "~" H 5400 10050 50  0001 C CNN
	1    5400 10050
	0    -1   -1   0   
$EndComp
$Comp
L Device:LED D32
U 1 1 5E18FE9C
P 5850 10050
F 0 "D32" H 5843 10266 50  0000 C CNN
F 1 "LED" H 5843 10175 50  0000 C CNN
F 2 "LED_SMD:LED_0201_0603Metric" H 5850 10050 50  0001 C CNN
F 3 "~" H 5850 10050 50  0001 C CNN
	1    5850 10050
	0    -1   -1   0   
$EndComp
$Comp
L Device:LED D36
U 1 1 5E18FEA2
P 6400 10050
F 0 "D36" H 6393 10266 50  0000 C CNN
F 1 "LED" H 6393 10175 50  0000 C CNN
F 2 "LED_SMD:LED_0201_0603Metric" H 6400 10050 50  0001 C CNN
F 3 "~" H 6400 10050 50  0001 C CNN
	1    6400 10050
	0    -1   -1   0   
$EndComp
$Comp
L Device:LED D40
U 1 1 5E18FEA8
P 6900 10050
F 0 "D40" H 6893 10266 50  0000 C CNN
F 1 "LED" H 6893 10175 50  0000 C CNN
F 2 "LED_SMD:LED_0201_0603Metric" H 6900 10050 50  0001 C CNN
F 3 "~" H 6900 10050 50  0001 C CNN
	1    6900 10050
	0    -1   -1   0   
$EndComp
$Comp
L Device:LED D44
U 1 1 5E18FEAE
P 7400 10050
F 0 "D44" H 7393 10266 50  0000 C CNN
F 1 "LED" H 7393 10175 50  0000 C CNN
F 2 "LED_SMD:LED_0201_0603Metric" H 7400 10050 50  0001 C CNN
F 3 "~" H 7400 10050 50  0001 C CNN
	1    7400 10050
	0    -1   -1   0   
$EndComp
$Comp
L Device:LED D48
U 1 1 5E18FEB4
P 7850 10050
F 0 "D48" H 7843 10266 50  0000 C CNN
F 1 "LED" H 7843 10175 50  0000 C CNN
F 2 "LED_SMD:LED_0201_0603Metric" H 7850 10050 50  0001 C CNN
F 3 "~" H 7850 10050 50  0001 C CNN
	1    7850 10050
	0    -1   -1   0   
$EndComp
Wire Wire Line
	5400 8300 5550 8300
Wire Wire Line
	5550 8300 5550 8950
Wire Wire Line
	5400 8900 5400 8950
Wire Wire Line
	5400 8950 5550 8950
Connection ~ 5550 8950
Wire Wire Line
	5550 8950 5550 9650
Wire Wire Line
	5400 9550 5400 9650
Wire Wire Line
	5400 9650 5550 9650
Connection ~ 5550 9650
Wire Wire Line
	5550 9650 5550 10300
Wire Wire Line
	5400 10200 5400 10300
Wire Wire Line
	5400 10300 5550 10300
Connection ~ 5550 10300
Wire Wire Line
	5850 8300 6050 8300
Wire Wire Line
	6050 8300 6050 8950
Wire Wire Line
	6400 8300 6600 8300
Wire Wire Line
	6600 8300 6600 8950
Wire Wire Line
	6900 8300 7050 8300
Wire Wire Line
	7050 8300 7050 8950
Wire Wire Line
	5850 8900 5850 8950
Wire Wire Line
	5850 8950 6050 8950
Connection ~ 6050 8950
Wire Wire Line
	6050 8950 6050 9650
Wire Wire Line
	6400 8900 6400 8950
Wire Wire Line
	6400 8950 6600 8950
Connection ~ 6600 8950
Wire Wire Line
	6600 8950 6600 9650
Wire Wire Line
	6900 8900 6900 8950
Wire Wire Line
	6900 8950 7050 8950
Connection ~ 7050 8950
Wire Wire Line
	7050 8950 7050 9650
Wire Wire Line
	5850 9550 5850 9650
Wire Wire Line
	5850 9650 6050 9650
Connection ~ 6050 9650
Wire Wire Line
	6050 9650 6050 10300
Wire Wire Line
	6400 9550 6400 9650
Wire Wire Line
	6400 9650 6600 9650
Connection ~ 6600 9650
Wire Wire Line
	6600 9650 6600 10300
Wire Wire Line
	6900 9550 6900 9650
Wire Wire Line
	6900 9650 7050 9650
Connection ~ 7050 9650
Wire Wire Line
	7050 9650 7050 10300
Wire Wire Line
	5850 10200 5850 10300
Wire Wire Line
	5850 10300 6050 10300
Connection ~ 6050 10300
Wire Wire Line
	6400 10200 6400 10300
Wire Wire Line
	6400 10300 6600 10300
Connection ~ 6600 10300
Wire Wire Line
	6900 10200 6900 10300
Wire Wire Line
	6900 10300 7050 10300
Wire Wire Line
	7400 8300 7600 8300
Wire Wire Line
	7600 8300 7600 8950
Wire Wire Line
	7850 8300 8050 8300
Wire Wire Line
	8050 8300 8050 8950
Wire Wire Line
	1550 8300 1850 8300
Wire Wire Line
	1450 8400 1850 8400
Wire Wire Line
	1350 8500 1850 8500
Wire Wire Line
	7500 5000 7700 5000
Wire Wire Line
	1600 7650 1600 8900
Wire Wire Line
	1600 8900 1850 8900
$Comp
L Display_Character:HDSM-443B U10
U 1 1 5E21B96F
P 11900 1250
F 0 "U10" H 11900 1917 50  0000 C CNN
F 1 "HDSM-443B" H 11900 1826 50  0000 C CNN
F 2 "Display:HDSM-441B_HDSM-443B" H 11900 650 50  0001 C CNN
F 3 "https://docs.broadcom.com/docs/AV02-1589EN" H 11680 1350 50  0001 C CNN
	1    11900 1250
	1    0    0    -1  
$EndComp
$Comp
L 4xxx:4543 U9
U 1 1 5E30FB6C
P 8900 1250
F 0 "U9" H 8900 2031 50  0000 C CNN
F 1 "4543" H 8900 1940 50  0000 C CNN
F 2 "Package_DIP:DIP-16_W7.62mm" H 8900 1250 50  0001 C CNN
F 3 "http://www.ti.com/lit/ds/symlink/cd4543b.pdf" H 8900 1250 50  0001 C CNN
	1    8900 1250
	1    0    0    -1  
$EndComp
Wire Wire Line
	8400 950  7650 950 
Wire Wire Line
	7650 950  7650 2500
Wire Wire Line
	7650 2500 7500 2500
Wire Wire Line
	8400 1050 7700 1050
Wire Wire Line
	7700 1050 7700 2600
Wire Wire Line
	7700 2600 7500 2600
Wire Wire Line
	8400 1150 7750 1150
Wire Wire Line
	7750 1150 7750 2700
Wire Wire Line
	7750 2700 7500 2700
Wire Wire Line
	8400 1250 7800 1250
Wire Wire Line
	7800 1250 7800 2800
Wire Wire Line
	7800 2800 7500 2800
Wire Wire Line
	7950 2150 7950 3100
Wire Wire Line
	7950 3100 7500 3100
$Comp
L Device:R R3
U 1 1 5E763A03
P 10300 950
F 0 "R3" V 10093 950 50  0000 C CNN
F 1 "200" V 10184 950 50  0000 C CNN
F 2 "Resistor_SMD:R_0402_1005Metric" V 10230 950 50  0001 C CNN
F 3 "~" H 10300 950 50  0001 C CNN
	1    10300 950 
	0    1    1    0   
$EndComp
$Comp
L Device:R R4
U 1 1 5E765562
P 10300 1100
F 0 "R4" V 10093 1100 50  0000 C CNN
F 1 "200" V 10184 1100 50  0000 C CNN
F 2 "Resistor_SMD:R_0402_1005Metric" V 10230 1100 50  0001 C CNN
F 3 "~" H 10300 1100 50  0001 C CNN
	1    10300 1100
	0    1    1    0   
$EndComp
$Comp
L Device:R R5
U 1 1 5E77FBD0
P 10300 1300
F 0 "R5" V 10093 1300 50  0000 C CNN
F 1 "200" V 10184 1300 50  0000 C CNN
F 2 "Resistor_SMD:R_0402_1005Metric" V 10230 1300 50  0001 C CNN
F 3 "~" H 10300 1300 50  0001 C CNN
	1    10300 1300
	0    1    1    0   
$EndComp
$Comp
L Device:R R2
U 1 1 5E79A525
P 10300 800
F 0 "R2" V 10093 800 50  0000 C CNN
F 1 "200" V 10184 800 50  0000 C CNN
F 2 "Resistor_SMD:R_0402_1005Metric" V 10230 800 50  0001 C CNN
F 3 "~" H 10300 800 50  0001 C CNN
F 4 "R" H 10300 800 50  0001 C CNN "Spice_Primitive"
F 5 "200" H 10300 800 50  0001 C CNN "Spice_Model"
F 6 "Y" H 10300 800 50  0001 C CNN "Spice_Netlist_Enabled"
	1    10300 800 
	0    1    1    0   
$EndComp
$Comp
L Device:R R6
U 1 1 5E7B4E2E
P 10300 1450
F 0 "R6" V 10093 1450 50  0000 C CNN
F 1 "200" V 10184 1450 50  0000 C CNN
F 2 "Resistor_SMD:R_0402_1005Metric" V 10230 1450 50  0001 C CNN
F 3 "~" H 10300 1450 50  0001 C CNN
	1    10300 1450
	0    1    1    0   
$EndComp
$Comp
L Device:R R7
U 1 1 5E7CF697
P 10300 1600
F 0 "R7" V 10093 1600 50  0000 C CNN
F 1 "200" V 10184 1600 50  0000 C CNN
F 2 "Resistor_SMD:R_0402_1005Metric" V 10230 1600 50  0001 C CNN
F 3 "~" H 10300 1600 50  0001 C CNN
	1    10300 1600
	0    1    1    0   
$EndComp
$Comp
L Device:R R8
U 1 1 5E7E9E83
P 10300 1750
F 0 "R8" V 10093 1750 50  0000 C CNN
F 1 "200" V 10184 1750 50  0000 C CNN
F 2 "Resistor_SMD:R_0402_1005Metric" V 10230 1750 50  0001 C CNN
F 3 "~" H 10300 1750 50  0001 C CNN
	1    10300 1750
	0    1    1    0   
$EndComp
$Comp
L Device:R R9
U 1 1 5E8044DD
P 10300 1900
F 0 "R9" V 10093 1900 50  0000 C CNN
F 1 "200" V 10184 1900 50  0000 C CNN
F 2 "Resistor_SMD:R_0402_1005Metric" V 10230 1900 50  0001 C CNN
F 3 "~" H 10300 1900 50  0001 C CNN
	1    10300 1900
	0    1    1    0   
$EndComp
Wire Wire Line
	9400 950  9900 950 
Wire Wire Line
	9900 950  9900 800 
Wire Wire Line
	9900 800  10150 800 
Wire Wire Line
	10450 800  11000 800 
Wire Wire Line
	11000 800  11000 1150
Wire Wire Line
	11000 1150 11300 1150
Wire Wire Line
	9400 1050 10000 1050
Wire Wire Line
	10000 1050 10000 950 
Wire Wire Line
	10000 950  10150 950 
Wire Wire Line
	10450 950  11150 950 
Wire Wire Line
	11150 950  11150 1650
Wire Wire Line
	11150 1650 11300 1650
Wire Wire Line
	9400 1150 10050 1150
Wire Wire Line
	10050 1150 10050 1100
Wire Wire Line
	10050 1100 10150 1100
Wire Wire Line
	10450 1100 11100 1100
Wire Wire Line
	11100 1100 11100 1550
Wire Wire Line
	11100 1550 11300 1550
Wire Wire Line
	9400 1250 10150 1250
Wire Wire Line
	10150 1250 10150 1300
Wire Wire Line
	9400 1350 10150 1350
Wire Wire Line
	10150 1350 10150 1450
Wire Wire Line
	9400 1450 10100 1450
Wire Wire Line
	10100 1450 10100 1600
Wire Wire Line
	10100 1600 10150 1600
Wire Wire Line
	9400 1550 10050 1550
Wire Wire Line
	10050 1550 10050 1750
Wire Wire Line
	10050 1750 10150 1750
Wire Wire Line
	7500 2900 7850 2900
Wire Wire Line
	7850 2900 7850 2000
Wire Wire Line
	7850 2000 10150 2000
Wire Wire Line
	10150 2000 10150 1900
Wire Wire Line
	10450 1300 11250 1300
Wire Wire Line
	11250 1300 11250 1350
Wire Wire Line
	11250 1350 11300 1350
Wire Wire Line
	10450 1450 11300 1450
Wire Wire Line
	10450 1600 10950 1600
Wire Wire Line
	10950 1600 10950 1250
Wire Wire Line
	10950 1250 11300 1250
Wire Wire Line
	11300 950  11200 950 
Wire Wire Line
	11200 950  11200 900 
Wire Wire Line
	11200 900  10650 900 
Wire Wire Line
	10650 900  10650 1750
Wire Wire Line
	10650 1750 10450 1750
Wire Wire Line
	11300 1050 10800 1050
Wire Wire Line
	10800 1050 10800 1900
Wire Wire Line
	10800 1900 10450 1900
Wire Wire Line
	12500 1550 12600 1550
Wire Wire Line
	12600 1550 12600 2100
Wire Wire Line
	12600 2100 7900 2100
Wire Wire Line
	7900 3050 7500 3050
Wire Wire Line
	7500 3050 7500 3000
Wire Wire Line
	7950 2150 12500 2150
Wire Wire Line
	12500 2150 12500 1650
Wire Wire Line
	7850 8000 7850 7900
Wire Wire Line
	7850 7900 7400 7900
Wire Wire Line
	5400 7900 5400 8000
Wire Wire Line
	5850 8000 5850 7900
Connection ~ 5850 7900
Wire Wire Line
	5850 7900 5450 7900
Wire Wire Line
	6400 8000 6400 7900
Connection ~ 6400 7900
Wire Wire Line
	6400 7900 5850 7900
Wire Wire Line
	6900 8000 6900 7900
Connection ~ 6900 7900
Wire Wire Line
	6900 7900 6400 7900
Wire Wire Line
	7400 8000 7400 7900
Connection ~ 7400 7900
Wire Wire Line
	7400 7900 6900 7900
Wire Wire Line
	7850 8600 7850 8500
Wire Wire Line
	5400 8500 5400 8600
Wire Wire Line
	5850 8600 5850 8500
Connection ~ 5850 8500
Wire Wire Line
	5850 8500 5400 8500
Wire Wire Line
	6400 8600 6400 8500
Wire Wire Line
	5850 8500 6400 8500
Connection ~ 6400 8500
Wire Wire Line
	6400 8500 6900 8500
Wire Wire Line
	7400 8600 7400 8500
Connection ~ 7400 8500
Wire Wire Line
	7400 8500 7850 8500
Wire Wire Line
	6900 8600 6900 8500
Connection ~ 6900 8500
Wire Wire Line
	6900 8500 7400 8500
Wire Wire Line
	7400 9550 7400 9650
Wire Wire Line
	7400 9650 7600 9650
Connection ~ 7600 9650
Wire Wire Line
	7600 9650 7600 10300
Wire Wire Line
	7850 9550 7850 9650
Wire Wire Line
	7850 9650 8050 9650
Connection ~ 8050 9650
Wire Wire Line
	8050 9650 8050 10300
Wire Wire Line
	7400 8900 7400 8950
Wire Wire Line
	7400 8950 7600 8950
Connection ~ 7600 8950
Wire Wire Line
	7600 8950 7600 9650
Wire Wire Line
	7850 8900 7850 8950
Wire Wire Line
	7850 8950 8050 8950
Connection ~ 8050 8950
Wire Wire Line
	8050 8950 8050 9650
Wire Wire Line
	7850 9250 7850 9150
Wire Wire Line
	7850 9150 7400 9150
Wire Wire Line
	5400 9150 5400 9250
Wire Wire Line
	5850 9250 5850 9150
Connection ~ 5850 9150
Wire Wire Line
	5850 9150 5400 9150
Wire Wire Line
	6400 9250 6400 9150
Connection ~ 6400 9150
Wire Wire Line
	6400 9150 5850 9150
Wire Wire Line
	6900 9250 6900 9150
Connection ~ 6900 9150
Wire Wire Line
	6900 9150 6400 9150
Wire Wire Line
	7400 9250 7400 9150
Connection ~ 7400 9150
Wire Wire Line
	7400 9150 6900 9150
Wire Wire Line
	7400 10200 7400 10300
Wire Wire Line
	7400 10300 7600 10300
Wire Wire Line
	7850 10200 7850 10300
Wire Wire Line
	7850 10300 8050 10300
Wire Wire Line
	7850 9900 7850 9800
Wire Wire Line
	7850 9800 7400 9800
Wire Wire Line
	5400 9800 5400 9900
Wire Wire Line
	5850 9900 5850 9800
Connection ~ 5850 9800
Wire Wire Line
	5850 9800 5400 9800
Wire Wire Line
	6400 9900 6400 9800
Connection ~ 6400 9800
Wire Wire Line
	6400 9800 5850 9800
Wire Wire Line
	6900 9900 6900 9800
Connection ~ 6900 9800
Wire Wire Line
	6900 9800 6400 9800
Wire Wire Line
	7400 9900 7400 9800
Connection ~ 7400 9800
Wire Wire Line
	7400 9800 6900 9800
Wire Wire Line
	1350 5200 6300 5200
Wire Wire Line
	1350 5200 1350 8500
Wire Wire Line
	1450 5300 6300 5300
Wire Wire Line
	1450 5300 1450 8400
Wire Wire Line
	1550 5400 1550 8300
Wire Wire Line
	1550 5400 6300 5400
Wire Wire Line
	7700 5000 7700 6500
Wire Wire Line
	2400 6500 2400 7350
$Comp
L Display_Character:HDSM-443B U12
U 1 1 5F062903
P 12950 7350
F 0 "U12" H 12950 8017 50  0000 C CNN
F 1 "HDSM-443B" H 12950 7926 50  0000 C CNN
F 2 "Display:HDSM-441B_HDSM-443B" H 12950 6750 50  0001 C CNN
F 3 "https://docs.broadcom.com/docs/AV02-1589EN" H 12730 7450 50  0001 C CNN
	1    12950 7350
	1    0    0    -1  
$EndComp
$Comp
L 4xxx:4543 U11
U 1 1 5F062909
P 9950 7350
F 0 "U11" H 9950 8131 50  0000 C CNN
F 1 "4543" H 9950 8040 50  0000 C CNN
F 2 "Package_DIP:DIP-16_W7.62mm" H 9950 7350 50  0001 C CNN
F 3 "http://www.ti.com/lit/ds/symlink/cd4543b.pdf" H 9950 7350 50  0001 C CNN
	1    9950 7350
	1    0    0    -1  
$EndComp
Wire Wire Line
	9450 7050 8700 7050
$Comp
L Device:R R11
U 1 1 5F062913
P 11350 7050
F 0 "R11" V 11143 7050 50  0000 C CNN
F 1 "200" V 11234 7050 50  0000 C CNN
F 2 "Resistor_SMD:R_0402_1005Metric" V 11280 7050 50  0001 C CNN
F 3 "~" H 11350 7050 50  0001 C CNN
	1    11350 7050
	0    1    1    0   
$EndComp
$Comp
L Device:R R12
U 1 1 5F062919
P 11350 7200
F 0 "R12" V 11143 7200 50  0000 C CNN
F 1 "200" V 11234 7200 50  0000 C CNN
F 2 "Resistor_SMD:R_0402_1005Metric" V 11280 7200 50  0001 C CNN
F 3 "~" H 11350 7200 50  0001 C CNN
	1    11350 7200
	0    1    1    0   
$EndComp
$Comp
L Device:R R13
U 1 1 5F06291F
P 11350 7400
F 0 "R13" V 11143 7400 50  0000 C CNN
F 1 "200" V 11234 7400 50  0000 C CNN
F 2 "Resistor_SMD:R_0402_1005Metric" V 11280 7400 50  0001 C CNN
F 3 "~" H 11350 7400 50  0001 C CNN
	1    11350 7400
	0    1    1    0   
$EndComp
$Comp
L Device:R R10
U 1 1 5F062925
P 11350 6900
F 0 "R10" V 11143 6900 50  0000 C CNN
F 1 "200" V 11234 6900 50  0000 C CNN
F 2 "Resistor_SMD:R_0402_1005Metric" V 11280 6900 50  0001 C CNN
F 3 "~" H 11350 6900 50  0001 C CNN
	1    11350 6900
	0    1    1    0   
$EndComp
$Comp
L Device:R R14
U 1 1 5F06292B
P 11350 7550
F 0 "R14" V 11143 7550 50  0000 C CNN
F 1 "200" V 11234 7550 50  0000 C CNN
F 2 "Resistor_SMD:R_0402_1005Metric" V 11280 7550 50  0001 C CNN
F 3 "~" H 11350 7550 50  0001 C CNN
	1    11350 7550
	0    1    1    0   
$EndComp
$Comp
L Device:R R15
U 1 1 5F062931
P 11350 7700
F 0 "R15" V 11143 7700 50  0000 C CNN
F 1 "200" V 11234 7700 50  0000 C CNN
F 2 "Resistor_SMD:R_0402_1005Metric" V 11280 7700 50  0001 C CNN
F 3 "~" H 11350 7700 50  0001 C CNN
	1    11350 7700
	0    1    1    0   
$EndComp
$Comp
L Device:R R16
U 1 1 5F062937
P 11350 7850
F 0 "R16" V 11143 7850 50  0000 C CNN
F 1 "200" V 11234 7850 50  0000 C CNN
F 2 "Resistor_SMD:R_0402_1005Metric" V 11280 7850 50  0001 C CNN
F 3 "~" H 11350 7850 50  0001 C CNN
	1    11350 7850
	0    1    1    0   
$EndComp
Wire Wire Line
	10450 7050 10950 7050
Wire Wire Line
	10950 7050 10950 6900
Wire Wire Line
	10950 6900 11200 6900
Wire Wire Line
	11500 6900 12050 6900
Wire Wire Line
	12050 6900 12050 7250
Wire Wire Line
	12050 7250 12350 7250
Wire Wire Line
	10450 7150 11050 7150
Wire Wire Line
	11050 7150 11050 7050
Wire Wire Line
	11050 7050 11200 7050
Wire Wire Line
	11500 7050 12200 7050
Wire Wire Line
	12200 7050 12200 7750
Wire Wire Line
	12200 7750 12350 7750
Wire Wire Line
	10450 7250 11100 7250
Wire Wire Line
	11100 7250 11100 7200
Wire Wire Line
	11100 7200 11200 7200
Wire Wire Line
	11500 7200 12150 7200
Wire Wire Line
	12150 7200 12150 7650
Wire Wire Line
	12150 7650 12350 7650
Wire Wire Line
	10450 7350 11200 7350
Wire Wire Line
	11200 7350 11200 7400
Wire Wire Line
	10450 7450 11200 7450
Wire Wire Line
	11200 7450 11200 7550
Wire Wire Line
	10450 7550 11150 7550
Wire Wire Line
	11150 7550 11150 7700
Wire Wire Line
	11150 7700 11200 7700
Wire Wire Line
	10450 7650 11100 7650
Wire Wire Line
	11100 7650 11100 7850
Wire Wire Line
	11100 7850 11200 7850
Wire Wire Line
	11500 7400 12300 7400
Wire Wire Line
	12300 7400 12300 7450
Wire Wire Line
	12300 7450 12350 7450
Wire Wire Line
	11500 7550 12350 7550
Wire Wire Line
	11500 7700 12000 7700
Wire Wire Line
	12000 7700 12000 7350
Wire Wire Line
	12000 7350 12350 7350
Wire Wire Line
	12350 7050 12250 7050
Wire Wire Line
	12250 7050 12250 7000
Wire Wire Line
	12250 7000 11700 7000
Wire Wire Line
	11700 7000 11700 7850
Wire Wire Line
	11700 7850 11500 7850
Wire Wire Line
	12350 7150 11850 7150
Wire Wire Line
	13550 7650 13650 7650
Wire Wire Line
	13650 7650 13650 8200
Wire Wire Line
	8700 7050 8700 5950
Wire Wire Line
	8700 5950 8400 5950
Wire Wire Line
	8400 5950 8400 4300
Wire Wire Line
	8400 4300 7500 4300
Wire Wire Line
	8450 7150 8450 6000
Wire Wire Line
	8450 6000 8350 6000
Wire Wire Line
	7500 4400 8350 4400
Wire Wire Line
	8350 4400 8350 6000
Wire Wire Line
	8450 7150 9450 7150
Wire Wire Line
	8350 7250 8350 6050
Wire Wire Line
	8350 6050 8300 6050
Wire Wire Line
	8300 6050 8300 4500
Wire Wire Line
	8300 4500 7500 4500
Wire Wire Line
	8350 7250 9450 7250
Wire Wire Line
	8150 4600 7500 4600
Wire Wire Line
	8150 7350 9450 7350
Wire Wire Line
	8150 4600 8150 7350
Wire Wire Line
	8300 7500 8000 7500
Wire Wire Line
	8000 7500 8000 4700
Wire Wire Line
	8000 4700 7500 4700
Wire Wire Line
	6600 10300 6600 10650
Wire Wire Line
	6050 10300 6050 10550
Wire Wire Line
	5550 10300 5550 10500
Connection ~ 8050 10300
Wire Wire Line
	8050 10300 8050 11000
Connection ~ 7600 10300
Wire Wire Line
	7600 10300 7600 10850
Connection ~ 7050 10300
Wire Wire Line
	7050 10300 7050 10750
$Comp
L Device:R R17
U 1 1 5E68624C
P 10400 8300
F 0 "R17" V 10193 8300 50  0000 C CNN
F 1 "200" V 10284 8300 50  0000 C CNN
F 2 "Resistor_SMD:R_0402_1005Metric" V 10330 8300 50  0001 C CNN
F 3 "~" H 10400 8300 50  0001 C CNN
	1    10400 8300
	0    1    1    0   
$EndComp
Wire Wire Line
	8300 8350 10250 8350
Wire Wire Line
	10250 8350 10250 8300
Wire Wire Line
	8300 7500 8300 8350
Wire Wire Line
	10550 8300 11850 8300
Wire Wire Line
	11850 7150 11850 8300
Wire Wire Line
	13650 8200 8500 8200
Wire Wire Line
	8500 8200 8500 7650
Wire Wire Line
	8500 7650 7750 7650
Wire Wire Line
	7750 7650 7750 4800
Wire Wire Line
	7750 4800 7500 4800
Wire Wire Line
	7900 5500 7900 6450
Wire Wire Line
	13550 7750 13550 8100
Wire Wire Line
	13550 8100 8700 8100
Wire Wire Line
	8700 7100 8600 7100
Wire Wire Line
	8600 5500 8100 5500
Wire Wire Line
	8100 5500 8100 4900
Wire Wire Line
	8100 4900 7500 4900
Wire Wire Line
	8700 7100 8700 8100
Wire Wire Line
	8600 5500 8600 7100
NoConn ~ 7500 3200
$Comp
L 74xx:74LS137 U2
U 1 1 5E954642
P 2350 8600
F 0 "U2" H 2350 9381 50  0000 C CNN
F 1 "74LS137" H 2350 9290 50  0000 C CNN
F 2 "Package_DIP:DIP-16_W7.62mm" H 2350 8600 50  0001 C CNN
F 3 "http://www.ti.com/lit/gpn/sn74LS137" H 2350 8600 50  0001 C CNN
	1    2350 8600
	1    0    0    -1  
$EndComp
Wire Wire Line
	2850 9000 2850 10500
Wire Wire Line
	2850 10500 5550 10500
Wire Wire Line
	2850 8900 2950 8900
Wire Wire Line
	2950 8900 2950 10550
Wire Wire Line
	2950 10550 6050 10550
Wire Wire Line
	6600 10650 3050 10650
Wire Wire Line
	3050 10650 3050 8800
Wire Wire Line
	3050 8800 2850 8800
Wire Wire Line
	2850 8700 3150 8700
Wire Wire Line
	3150 8700 3150 10750
Wire Wire Line
	3150 10750 7050 10750
Wire Wire Line
	7600 10850 3250 10850
Wire Wire Line
	3250 8600 2850 8600
Wire Wire Line
	3250 8600 3250 10850
Wire Wire Line
	2850 8500 3300 8500
Wire Wire Line
	3300 11000 8050 11000
Wire Wire Line
	3300 8500 3300 11000
NoConn ~ 2850 8300
NoConn ~ 2850 8400
Wire Wire Line
	2400 7650 1600 7650
Wire Wire Line
	2400 6500 7700 6500
Wire Wire Line
	3000 7350 2400 7350
Connection ~ 2400 7350
Wire Wire Line
	2400 7350 2400 7650
Wire Wire Line
	3000 7050 3000 6600
Wire Wire Line
	3000 6600 7650 6600
Wire Wire Line
	7650 6600 7650 5800
Wire Wire Line
	7650 5800 7500 5800
Wire Wire Line
	7500 5900 7600 5900
Wire Wire Line
	7600 5900 7600 6700
Wire Wire Line
	7600 6700 2900 6700
Wire Wire Line
	2900 6700 2900 7150
Wire Wire Line
	2900 7150 3000 7150
Wire Wire Line
	4000 7150 4350 7150
Wire Wire Line
	4350 7150 4350 7450
Wire Wire Line
	4000 7250 4250 7250
Wire Wire Line
	4250 7250 4250 7900
Wire Wire Line
	4000 7350 4150 7350
Wire Wire Line
	4150 7350 4150 8350
$Comp
L Device:LED D29
U 1 1 5E137849
P 5850 8150
F 0 "D29" H 5843 8366 50  0000 C CNN
F 1 "LED" H 5843 8275 50  0000 C CNN
F 2 "LED_SMD:LED_0201_0603Metric" H 5850 8150 50  0001 C CNN
F 3 "~" H 5850 8150 50  0001 C CNN
	1    5850 8150
	0    -1   -1   0   
$EndComp
$Comp
L Device:R R21
U 1 1 5FB53583
P 5300 7050
F 0 "R21" V 5093 7050 50  0000 C CNN
F 1 "145" V 5184 7050 50  0000 C CNN
F 2 "Resistor_SMD:R_0402_1005Metric" V 5230 7050 50  0001 C CNN
F 3 "~" H 5300 7050 50  0001 C CNN
	1    5300 7050
	0    1    1    0   
$EndComp
$Comp
L Device:R R18
U 1 1 5FBA327C
P 5100 7900
F 0 "R18" V 4893 7900 50  0000 C CNN
F 1 "145" V 4984 7900 50  0000 C CNN
F 2 "Resistor_SMD:R_0402_1005Metric" V 5030 7900 50  0001 C CNN
F 3 "~" H 5100 7900 50  0001 C CNN
	1    5100 7900
	0    1    1    0   
$EndComp
$Comp
L Device:R R20
U 1 1 5FBF2D59
P 5200 7450
F 0 "R20" V 4993 7450 50  0000 C CNN
F 1 "145" V 5084 7450 50  0000 C CNN
F 2 "Resistor_SMD:R_0402_1005Metric" V 5130 7450 50  0001 C CNN
F 3 "~" H 5200 7450 50  0001 C CNN
	1    5200 7450
	0    1    1    0   
$EndComp
$Comp
L Device:R R19
U 1 1 5FC42835
P 5150 9800
F 0 "R19" V 4943 9800 50  0000 C CNN
F 1 "145" V 5034 9800 50  0000 C CNN
F 2 "Resistor_SMD:R_0402_1005Metric" V 5080 9800 50  0001 C CNN
F 3 "~" H 5150 9800 50  0001 C CNN
	1    5150 9800
	0    1    1    0   
$EndComp
Wire Wire Line
	5300 9800 5400 9800
Connection ~ 5400 9800
Wire Wire Line
	5450 7050 5450 7900
Connection ~ 5450 7900
Wire Wire Line
	5450 7900 5400 7900
Wire Wire Line
	5350 7450 5350 8500
Wire Wire Line
	5350 8500 5400 8500
Connection ~ 5400 8500
Wire Wire Line
	5250 7900 5250 9150
Wire Wire Line
	5250 9150 5400 9150
Connection ~ 5400 9150
Wire Wire Line
	5200 2500 6150 2500
Wire Wire Line
	8050 900  8050 4000
Wire Wire Line
	8050 4000 7500 4000
Wire Wire Line
	6050 900  8050 900 
Wire Wire Line
	6050 1300 6150 1300
Wire Wire Line
	6150 1300 6150 2500
Connection ~ 6150 2500
Wire Wire Line
	6150 2500 6300 2500
Wire Wire Line
	6050 1100 7550 1100
Wire Wire Line
	7550 1100 7550 4100
Wire Wire Line
	7550 4100 7500 4100
Wire Wire Line
	7900 2100 7900 3050
Wire Wire Line
	8000 1200 8000 3900
Wire Wire Line
	8000 3900 7500 3900
Wire Wire Line
	6050 1200 8000 1200
$Comp
L 74ls139my:74LS139MY U3
U 1 1 615F0F65
P 3500 7150
F 0 "U3" H 3500 7631 50  0000 C CNN
F 1 "MC14555B" H 3500 7540 50  0000 C CNN
F 2 "Package_DIP:DIP-16_W7.62mm" H 3500 7150 50  0001 C CNN
F 3 "http://www.ti.com/lit/gpn/sn74LS139" H 3500 7150 50  0001 C CNN
	1    3500 7150
	1    0    0    -1  
$EndComp
Wire Wire Line
	4000 7050 5150 7050
Wire Wire Line
	4350 7450 5050 7450
Wire Wire Line
	4250 7900 4950 7900
Wire Wire Line
	4950 8350 4950 9800
Wire Wire Line
	4950 9800 5000 9800
Wire Wire Line
	4150 8350 4950 8350
$Comp
L my_lib:IDC-06MS U4
U 1 1 61A3EE5C
P 5550 800
F 0 "U4" H 5668 1005 50  0000 C CNN
F 1 "IDC-06MS" H 5668 914 50  0000 C CNN
F 2 "Connector_PinHeader_2.00mm:PinHeader_2x03_P2.00mm_Vertical" H 5520 970 50  0001 C CNN
F 3 "" H 5520 970 50  0001 C CNN
	1    5550 800 
	1    0    0    -1  
$EndComp
$Comp
L Regulator_Linear:L78L05_SO8 U5
U 1 1 5E05F0E0
P 3800 3850
F 0 "U5" H 3800 4092 50  0000 C CNN
F 1 "L78L05_SO8" H 3800 4001 50  0000 C CNN
F 2 "Package_SO:SOIC-8_3.9x4.9mm_P1.27mm" H 3900 4050 50  0001 C CIN
F 3 "http://www.st.com/content/ccc/resource/technical/document/datasheet/15/55/e5/aa/23/5b/43/fd/CD00000446.pdf/files/CD00000446.pdf/jcr:content/translations/en.CD00000446.pdf" H 4000 3850 50  0001 C CNN
	1    3800 3850
	1    0    0    -1  
$EndComp
$Comp
L Device:CP C3
U 1 1 5E062D2B
P 2600 4000
F 0 "C3" H 2718 4046 50  0000 L CNN
F 1 "100u" H 2718 3955 50  0000 L CNN
F 2 "Capacitor_SMD:C_0201_0603Metric" H 2638 3850 50  0001 C CNN
F 3 "~" H 2600 4000 50  0001 C CNN
	1    2600 4000
	1    0    0    -1  
$EndComp
$Comp
L Device:C C5
U 1 1 5E064812
P 4550 4000
F 0 "C5" H 4665 4046 50  0000 L CNN
F 1 "1u" H 4665 3955 50  0000 L CNN
F 2 "Capacitor_SMD:C_0201_0603Metric" H 4588 3850 50  0001 C CNN
F 3 "~" H 4550 4000 50  0001 C CNN
	1    4550 4000
	1    0    0    -1  
$EndComp
$Comp
L Device:C C6
U 1 1 5E066750
P 5050 4000
F 0 "C6" H 5165 4046 50  0000 L CNN
F 1 "100n" H 5165 3955 50  0000 L CNN
F 2 "Capacitor_SMD:C_0201_0603Metric" H 5088 3850 50  0001 C CNN
F 3 "~" H 5050 4000 50  0001 C CNN
	1    5050 4000
	1    0    0    -1  
$EndComp
$Comp
L Device:C C4
U 1 1 5E0B9CAA
P 3100 4000
F 0 "C4" H 3215 4046 50  0000 L CNN
F 1 "100n" H 3215 3955 50  0000 L CNN
F 2 "Capacitor_SMD:C_0201_0603Metric" H 3138 3850 50  0001 C CNN
F 3 "~" H 3100 4000 50  0001 C CNN
	1    3100 4000
	1    0    0    -1  
$EndComp
Wire Wire Line
	3500 3850 3100 3850
Wire Wire Line
	3100 3850 2600 3850
Connection ~ 3100 3850
Wire Wire Line
	4100 3850 4550 3850
Wire Wire Line
	4550 3850 5050 3850
Connection ~ 4550 3850
Wire Wire Line
	2600 4150 2600 4250
Wire Wire Line
	2600 4250 3100 4250
Wire Wire Line
	5050 4250 5050 4150
Wire Wire Line
	4550 4150 4550 4250
Connection ~ 4550 4250
Wire Wire Line
	4550 4250 5050 4250
Wire Wire Line
	3800 4150 3800 4250
Connection ~ 3800 4250
Wire Wire Line
	3800 4250 4550 4250
Wire Wire Line
	3100 4150 3100 4250
Connection ~ 3100 4250
Wire Wire Line
	3100 4250 3800 4250
$Comp
L Switch:SW_Push SW26
U 1 1 5E56798A
P 8200 4150
F 0 "SW26" H 8200 4435 50  0000 C CNN
F 1 "SW_Push" H 8200 4344 50  0000 C CNN
F 2 "Button_Switch_SMD:Panasonic_EVQPUJ_EVQPUA" H 8200 4350 50  0001 C CNN
F 3 "~" H 8200 4350 50  0001 C CNN
	1    8200 4150
	1    0    0    -1  
$EndComp
Wire Wire Line
	8000 4150 7800 4150
Wire Wire Line
	7800 4150 7800 3800
Wire Wire Line
	7800 3800 7500 3800
$Comp
L power:Earth #PWR01
U 1 1 5E672FD2
P 8400 4200
F 0 "#PWR01" H 8400 3950 50  0001 C CNN
F 1 "Earth" H 8400 4050 50  0001 C CNN
F 2 "" H 8400 4200 50  0001 C CNN
F 3 "~" H 8400 4200 50  0001 C CNN
	1    8400 4200
	1    0    0    -1  
$EndComp
Wire Wire Line
	8400 4150 8400 4200
$Comp
L power:Earth #PWR0104
U 1 1 5E6CFC5C
P 3800 4350
F 0 "#PWR0104" H 3800 4100 50  0001 C CNN
F 1 "Earth" H 3800 4200 50  0001 C CNN
F 2 "" H 3800 4350 50  0001 C CNN
F 3 "~" H 3800 4350 50  0001 C CNN
	1    3800 4350
	1    0    0    -1  
$EndComp
Wire Wire Line
	3800 4250 3800 4350
$Comp
L power:Earth #PWR0105
U 1 1 5E72B757
P 6900 6300
F 0 "#PWR0105" H 6900 6050 50  0001 C CNN
F 1 "Earth" H 6900 6150 50  0001 C CNN
F 2 "" H 6900 6300 50  0001 C CNN
F 3 "~" H 6900 6300 50  0001 C CNN
	1    6900 6300
	1    0    0    -1  
$EndComp
Wire Wire Line
	6900 6200 6900 6300
$Comp
L power:Earth #PWR0106
U 1 1 5E788574
P 3500 7700
F 0 "#PWR0106" H 3500 7450 50  0001 C CNN
F 1 "Earth" H 3500 7550 50  0001 C CNN
F 2 "" H 3500 7700 50  0001 C CNN
F 3 "~" H 3500 7700 50  0001 C CNN
	1    3500 7700
	1    0    0    -1  
$EndComp
$Comp
L power:Earth #PWR0107
U 1 1 5E789A8F
P 2350 9450
F 0 "#PWR0107" H 2350 9200 50  0001 C CNN
F 1 "Earth" H 2350 9300 50  0001 C CNN
F 2 "" H 2350 9450 50  0001 C CNN
F 3 "~" H 2350 9450 50  0001 C CNN
	1    2350 9450
	1    0    0    -1  
$EndComp
Wire Wire Line
	3500 7550 3500 7700
Wire Wire Line
	2350 9300 2350 9350
Wire Wire Line
	1850 8800 1750 8800
Wire Wire Line
	1750 8800 1750 9350
Wire Wire Line
	1750 9350 2350 9350
Connection ~ 2350 9350
Wire Wire Line
	2350 9350 2350 9450
$Comp
L power:Earth #PWR0108
U 1 1 5E89E5CE
P 9950 8450
F 0 "#PWR0108" H 9950 8200 50  0001 C CNN
F 1 "Earth" H 9950 8300 50  0001 C CNN
F 2 "" H 9950 8450 50  0001 C CNN
F 3 "~" H 9950 8450 50  0001 C CNN
	1    9950 8450
	1    0    0    -1  
$EndComp
Wire Wire Line
	9950 7950 9950 8050
Wire Wire Line
	9450 7450 9350 7450
Wire Wire Line
	9350 7450 9350 8050
Wire Wire Line
	9350 8050 9950 8050
Connection ~ 9950 8050
Wire Wire Line
	9950 8050 9950 8450
$Comp
L power:Earth #PWR0109
U 1 1 5E95B624
P 8500 1900
F 0 "#PWR0109" H 8500 1650 50  0001 C CNN
F 1 "Earth" H 8500 1750 50  0001 C CNN
F 2 "" H 8500 1900 50  0001 C CNN
F 3 "~" H 8500 1900 50  0001 C CNN
	1    8500 1900
	1    0    0    -1  
$EndComp
Wire Wire Line
	8900 1850 8500 1850
Wire Wire Line
	8500 1850 8500 1900
Wire Wire Line
	8400 1350 8200 1350
Wire Wire Line
	8200 1350 8200 1850
Wire Wire Line
	8200 1850 8500 1850
Connection ~ 8500 1850
Wire Notes Line style solid
	5050 3500 5050 3650
Wire Notes Line style solid
	5050 3500 5000 3550
Wire Notes Line style solid
	5050 3500 5100 3550
Wire Wire Line
	5050 3650 5050 3850
Connection ~ 5050 3850
$Comp
L power:PWR_FLAG #FLG0101
U 1 1 5ED28B9E
P 14300 7050
F 0 "#FLG0101" H 14300 7125 50  0001 C CNN
F 1 "PWR_FLAG" H 14300 7223 50  0000 C CNN
F 2 "" H 14300 7050 50  0001 C CNN
F 3 "~" H 14300 7050 50  0001 C CNN
	1    14300 7050
	1    0    0    -1  
$EndComp
$Comp
L power:VCC #PWR0110
U 1 1 5ED29E17
P 14300 7150
F 0 "#PWR0110" H 14300 7000 50  0001 C CNN
F 1 "VCC" H 14318 7323 50  0000 C CNN
F 2 "" H 14300 7150 50  0001 C CNN
F 3 "" H 14300 7150 50  0001 C CNN
	1    14300 7150
	-1   0    0    1   
$EndComp
Wire Wire Line
	14300 7050 14300 7150
$Comp
L power:VCC #PWR0111
U 1 1 5ED8FA1A
P 8900 600
F 0 "#PWR0111" H 8900 450 50  0001 C CNN
F 1 "VCC" H 8917 773 50  0000 C CNN
F 2 "" H 8900 600 50  0001 C CNN
F 3 "" H 8900 600 50  0001 C CNN
	1    8900 600 
	1    0    0    -1  
$EndComp
Wire Wire Line
	8900 600  8900 650 
$Comp
L power:VCC #PWR0112
U 1 1 5EDF1921
P 6900 2150
F 0 "#PWR0112" H 6900 2000 50  0001 C CNN
F 1 "VCC" H 6917 2323 50  0000 C CNN
F 2 "" H 6900 2150 50  0001 C CNN
F 3 "" H 6900 2150 50  0001 C CNN
	1    6900 2150
	1    0    0    -1  
$EndComp
Wire Wire Line
	6900 2150 6900 2200
$Comp
L power:VCC #PWR0113
U 1 1 5EE55B03
P 2000 6500
F 0 "#PWR0113" H 2000 6350 50  0001 C CNN
F 1 "VCC" H 2017 6673 50  0000 C CNN
F 2 "" H 2000 6500 50  0001 C CNN
F 3 "" H 2000 6500 50  0001 C CNN
	1    2000 6500
	1    0    0    -1  
$EndComp
Wire Wire Line
	2000 6500 2000 6850
Wire Wire Line
	2000 8000 2350 8000
Wire Wire Line
	3500 6850 2000 6850
Connection ~ 2000 6850
Wire Wire Line
	2000 6850 2000 8000
$Comp
L power:VCC #PWR0114
U 1 1 5EF1C49E
P 9950 6700
F 0 "#PWR0114" H 9950 6550 50  0001 C CNN
F 1 "VCC" H 9967 6873 50  0000 C CNN
F 2 "" H 9950 6700 50  0001 C CNN
F 3 "" H 9950 6700 50  0001 C CNN
	1    9950 6700
	1    0    0    -1  
$EndComp
Wire Wire Line
	9950 6700 9950 6750
$Comp
L power:VCC #PWR0115
U 1 1 5EF822A4
P 6100 750
F 0 "#PWR0115" H 6100 600 50  0001 C CNN
F 1 "VCC" H 6117 923 50  0000 C CNN
F 2 "" H 6100 750 50  0001 C CNN
F 3 "" H 6100 750 50  0001 C CNN
	1    6100 750 
	1    0    0    -1  
$EndComp
Wire Wire Line
	6100 750  6100 1000
Wire Wire Line
	6100 1000 6050 1000
$Comp
L power:Earth #PWR0116
U 1 1 5EFE670C
P 6100 1550
F 0 "#PWR0116" H 6100 1300 50  0001 C CNN
F 1 "Earth" H 6100 1400 50  0001 C CNN
F 2 "" H 6100 1550 50  0001 C CNN
F 3 "~" H 6100 1550 50  0001 C CNN
	1    6100 1550
	1    0    0    -1  
$EndComp
Wire Wire Line
	6050 1400 6100 1400
Wire Wire Line
	6100 1400 6100 1550
$Comp
L power:VCC #PWR0117
U 1 1 5F04C684
P 1500 8900
F 0 "#PWR0117" H 1500 8750 50  0001 C CNN
F 1 "VCC" H 1517 9073 50  0000 C CNN
F 2 "" H 1500 8900 50  0001 C CNN
F 3 "" H 1500 8900 50  0001 C CNN
	1    1500 8900
	1    0    0    -1  
$EndComp
Wire Wire Line
	1850 9000 1500 9000
Wire Wire Line
	1500 9000 1500 8900
Wire Wire Line
	8400 1550 8300 1550
Wire Wire Line
	8300 1550 8300 1450
Wire Wire Line
	8300 650  8900 650 
Connection ~ 8900 650 
Wire Wire Line
	8400 1450 8300 1450
Connection ~ 8300 1450
Wire Wire Line
	8300 1450 8300 650 
Wire Wire Line
	9450 7650 9250 7650
Wire Wire Line
	9250 6750 9950 6750
Wire Wire Line
	9250 6750 9250 7550
Connection ~ 9950 6750
Wire Wire Line
	9450 7550 9250 7550
Connection ~ 9250 7550
Wire Wire Line
	9250 7550 9250 7650
$Comp
L my_lib:MyCONN XP1
U 1 1 5F3C44DB
P 2150 3800
F 0 "XP1" H 1508 3965 50  0000 C CNN
F 1 "MyCONN" H 1508 3874 50  0000 C CNN
F 2 "Connector:Banana_Jack_2Pin" H 2150 3400 50  0001 C CNN
F 3 "" H 2150 3400 50  0001 C CNN
	1    2150 3800
	1    0    0    -1  
$EndComp
Wire Wire Line
	2350 3950 2350 3850
Wire Wire Line
	2350 3850 2600 3850
Connection ~ 2600 3850
Wire Wire Line
	2350 4050 2350 4250
Wire Wire Line
	2350 4250 2600 4250
Connection ~ 2600 4250
Text Label 5050 3650 0    50   ~ 0
+5B
$Comp
L power:Earth #PWR0101
U 1 1 5F6B5F63
P 4550 2550
F 0 "#PWR0101" H 4550 2300 50  0001 C CNN
F 1 "Earth" H 4550 2400 50  0001 C CNN
F 2 "" H 4550 2550 50  0001 C CNN
F 3 "~" H 4550 2550 50  0001 C CNN
	1    4550 2550
	1    0    0    -1  
$EndComp
Wire Wire Line
	4800 2450 4550 2450
Wire Wire Line
	4550 2450 4550 2550
$Comp
L power:Earth #PWR0103
U 1 1 5F78AD59
P 4900 3100
F 0 "#PWR0103" H 4900 2850 50  0001 C CNN
F 1 "Earth" H 4900 2950 50  0001 C CNN
F 2 "" H 4900 3100 50  0001 C CNN
F 3 "~" H 4900 3100 50  0001 C CNN
	1    4900 3100
	1    0    0    -1  
$EndComp
Wire Wire Line
	4900 3000 4900 3100
Connection ~ 4900 3000
$Comp
L Device:Crystal Y1
U 1 1 5F7F6DF2
P 5950 2800
F 0 "Y1" V 5904 2931 50  0000 L CNN
F 1 "4МГц" V 5995 2931 50  0000 L CNN
F 2 "Crystal:Crystal_HC18-U_Horizontal" H 5950 2800 50  0001 C CNN
F 3 "~" H 5950 2800 50  0001 C CNN
	1    5950 2800
	0    1    1    0   
$EndComp
Wire Wire Line
	5750 2650 5950 2650
Wire Wire Line
	6300 2650 5950 2650
Connection ~ 5950 2650
Wire Wire Line
	5750 2950 5950 2950
Wire Wire Line
	6300 2950 5950 2950
Connection ~ 5950 2950
$Comp
L power:PWR_FLAG #FLG0102
U 1 1 5FD006FC
P 14550 7050
F 0 "#FLG0102" H 14550 7125 50  0001 C CNN
F 1 "PWR_FLAG" H 14550 7223 50  0000 C CNN
F 2 "" H 14550 7050 50  0001 C CNN
F 3 "~" H 14550 7050 50  0001 C CNN
	1    14550 7050
	1    0    0    -1  
$EndComp
Wire Wire Line
	14550 7050 14550 7200
$Comp
L power:GND #PWR0118
U 1 1 5FDD700D
P 14550 7200
F 0 "#PWR0118" H 14550 6950 50  0001 C CNN
F 1 "GND" H 14555 7027 50  0000 C CNN
F 2 "" H 14550 7200 50  0001 C CNN
F 3 "" H 14550 7200 50  0001 C CNN
	1    14550 7200
	1    0    0    -1  
$EndComp
$EndSCHEMATC
