EESchema Schematic File Version 4
EELAYER 30 0
EELAYER END
$Descr A3 16535 11693
encoding utf-8
Sheet 1 1
Title "Схема электрическая принципиальная модуля 1 (пульт)"
Date "2019-12-23"
Rev ""
Comp "МГТУ им. Н. Э. Баумана, гр. ИУ6-73"
Comment1 "2-модульная МК-система с ИК-интерфейсом"
Comment2 "М.Т. Чахкиев"
Comment3 "С. А. Хохлов"
Comment4 ""
$EndDescr
$Comp
L homework-rescue:2Т3130А9-Transistor_BJT_GOST VT1
U 1 1 5DEEEDB4
P 12600 5050
F 0 "VT1" H 12896 5050 79  0000 L CNN
F 1 "2Т3130А9" H 12600 4550 79  0001 C CNN
F 2 "Package_TO_SOT_SMD:SOT-23" H 12600 4450 79  0001 C CNN
F 3 "" H 12632 5050 79  0001 C CNN
	1    12600 5050
	1    0    0    -1  
$EndComp
$Comp
L homework-rescue:2Т3130А9-Transistor_BJT_GOST VT2
U 1 1 5DEF2555
P 12600 6150
F 0 "VT2" H 12896 6150 79  0000 L CNN
F 1 "2Т3130А9" H 12600 5650 79  0001 C CNN
F 2 "Package_TO_SOT_SMD:SOT-23" H 12600 5550 79  0001 C CNN
F 3 "" H 12632 6150 79  0001 C CNN
	1    12600 6150
	1    0    0    -1  
$EndComp
$Comp
L homework-rescue:R-Device_GOST R4
U 1 1 5DEF3840
P 11550 5050
F 0 "R4" H 11550 5360 79  0000 C CNN
F 1 "4.3k" H 11550 5225 79  0000 C CNN
F 2 "Resistor_THT:R_Axial_DIN0204_L3.6mm_D1.6mm_P1.90mm_Vertical" H 11450 5075 60  0001 C CNN
F 3 "" H 11575 4875 60  0001 C CNN
	1    11550 5050
	1    0    0    -1  
$EndComp
$Comp
L homework-rescue:R-Device_GOST R5
U 1 1 5DEF3C9B
P 11550 6150
F 0 "R5" H 11550 6460 79  0000 C CNN
F 1 "4.3k" H 11550 6325 79  0000 C CNN
F 2 "Resistor_THT:R_Axial_DIN0204_L3.6mm_D1.6mm_P1.90mm_Vertical" H 11450 6175 60  0001 C CNN
F 3 "" H 11575 5975 60  0001 C CNN
	1    11550 6150
	1    0    0    -1  
$EndComp
$Comp
L homework-rescue:R-Device_GOST R6
U 1 1 5DEF46F7
P 13900 6750
F 0 "R6" H 13900 7060 79  0000 C CNN
F 1 "36" H 13900 6925 79  0000 C CNN
F 2 "Resistor_THT:R_Axial_DIN0204_L3.6mm_D1.6mm_P1.90mm_Vertical" H 13800 6775 60  0001 C CNN
F 3 "" H 13925 6575 60  0001 C CNN
	1    13900 6750
	1    0    0    -1  
$EndComp
$Comp
L homework-rescue:GND-power_GOST #PWR018
U 1 1 5DEF508F
P 15050 6750
F 0 "#PWR018" H 15050 6800 60  0001 C CNN
F 1 "GND" H 15050 6500 79  0001 C CNN
F 2 "" H 15050 6750 60  0000 C CNN
F 3 "" H 15050 6750 60  0001 C CNN
	1    15050 6750
	0    -1   -1   0   
$EndComp
$Comp
L homework-rescue:GND-power_GOST #PWR017
U 1 1 5DEF5A7F
P 13750 3700
F 0 "#PWR017" H 13750 3750 60  0001 C CNN
F 1 "GND" H 13750 3450 79  0001 C CNN
F 2 "" H 13750 3700 60  0000 C CNN
F 3 "" H 13750 3700 60  0001 C CNN
	1    13750 3700
	1    0    0    -1  
$EndComp
$Comp
L homework-rescue:GND-power_GOST #PWR011
U 1 1 5DEF5FC2
P 7950 8250
F 0 "#PWR011" H 7950 8300 60  0001 C CNN
F 1 "GND" H 7950 8000 79  0001 C CNN
F 2 "" H 7950 8250 60  0000 C CNN
F 3 "" H 7950 8250 60  0001 C CNN
	1    7950 8250
	1    0    0    -1  
$EndComp
$Comp
L homework-rescue:GND-power_GOST #PWR013
U 1 1 5DEFB8DB
P 9400 4800
F 0 "#PWR013" H 9400 4850 60  0001 C CNN
F 1 "GND" H 9400 4550 79  0001 C CNN
F 2 "" H 9400 4800 60  0000 C CNN
F 3 "" H 9400 4800 60  0001 C CNN
	1    9400 4800
	0    -1   -1   0   
$EndComp
$Comp
L LED:TSAL4400 D1
U 1 1 5DEFC2A4
P 14650 6750
F 0 "D1" H 14600 7040 50  0000 C CNN
F 1 "TSAL4400" H 14600 6949 50  0000 C CNN
F 2 "LED_THT:LED_D3.0mm_IRBlack" H 14650 6925 50  0001 C CNN
F 3 "http://www.vishay.com/docs/81006/tsal4400.pdf" H 14600 6750 50  0001 C CNN
	1    14650 6750
	-1   0    0    -1  
$EndComp
$Comp
L homework-rescue:SA_SPST_NO-Device_GOST SA2
U 1 1 5DEFEEB2
P 13000 2850
F 0 "SA2" H 13000 3081 79  0000 C CNN
F 1 "SA_SPST_NO" H 13000 2750 79  0001 C CNN
F 2 "Button_Switch_THT:SW_PUSH_6mm_H4.3mm" H 12900 2950 98  0001 C CNN
F 3 "" H 13000 3050 98  0001 C CNN
	1    13000 2850
	1    0    0    -1  
$EndComp
$Comp
L homework-rescue:SA_SPST_NO-Device_GOST SA3
U 1 1 5DEFF655
P 13000 3450
F 0 "SA3" H 13000 3681 79  0000 C CNN
F 1 "SA_SPST_NO" H 13000 3350 79  0001 C CNN
F 2 "Button_Switch_THT:SW_PUSH_6mm_H4.3mm" H 12900 3550 98  0001 C CNN
F 3 "" H 13000 3650 98  0001 C CNN
	1    13000 3450
	1    0    0    -1  
$EndComp
$Comp
L homework-rescue:SA_SPST_NO-Device_GOST SA1
U 1 1 5DEFFA36
P 4900 3250
F 0 "SA1" H 4900 3481 79  0000 C CNN
F 1 "SA_SPST_NO" H 4900 3150 79  0001 C CNN
F 2 "Button_Switch_THT:SW_PUSH_6mm_H4.3mm" H 4800 3350 98  0001 C CNN
F 3 "" H 4900 3450 98  0001 C CNN
	1    4900 3250
	1    0    0    -1  
$EndComp
$Comp
L homework-rescue:GND-power_GOST #PWR01
U 1 1 5DF001DD
P 4200 3350
F 0 "#PWR01" H 4200 3400 60  0001 C CNN
F 1 "GND" H 4200 3100 79  0001 C CNN
F 2 "" H 4200 3350 60  0000 C CNN
F 3 "" H 4200 3350 60  0001 C CNN
	1    4200 3350
	1    0    0    -1  
$EndComp
$Comp
L homework-rescue:R-Device_GOST R2
U 1 1 5DF0074E
P 5800 2700
F 0 "R2" V 5732 2807 79  0000 L CNN
F 1 "10k" V 5867 2807 79  0000 L CNN
F 2 "Resistor_THT:R_Axial_DIN0204_L3.6mm_D1.6mm_P1.90mm_Vertical" H 5700 2725 60  0001 C CNN
F 3 "" H 5825 2525 60  0001 C CNN
	1    5800 2700
	0    1    1    0   
$EndComp
$Comp
L homework-rescue:GND-power_GOST #PWR06
U 1 1 5DF00BEC
P 5800 4050
F 0 "#PWR06" H 5800 4100 60  0001 C CNN
F 1 "GND" H 5800 3800 79  0001 C CNN
F 2 "" H 5800 4050 60  0000 C CNN
F 3 "" H 5800 4050 60  0001 C CNN
	1    5800 4050
	1    0    0    -1  
$EndComp
$Comp
L homework-rescue:C-Device_GOST C3
U 1 1 5DF024CE
P 5800 3550
F 0 "C3" H 5985 3618 79  0000 L CNN
F 1 "0.1µ" H 5985 3483 79  0000 L CNN
F 2 "Capacitor_THT:C_Radial_D4.0mm_H5.0mm_P1.50mm" H 5725 3550 60  0001 C CNN
F 3 "" H 5825 3650 60  0001 C CNN
	1    5800 3550
	1    0    0    -1  
$EndComp
$Comp
L homework-rescue:C-Device_GOST C1
U 1 1 5DF099A1
P 5050 6200
F 0 "C1" H 5235 6268 79  0000 L CNN
F 1 "22p" H 5235 6133 79  0000 L CNN
F 2 "Capacitor_THT:C_Radial_D4.0mm_H5.0mm_P1.50mm" H 4975 6200 60  0001 C CNN
F 3 "" H 5075 6300 60  0001 C CNN
	1    5050 6200
	1    0    0    -1  
$EndComp
$Comp
L homework-rescue:C-Device_GOST C4
U 1 1 5DF0A555
P 6150 6200
F 0 "C4" H 6335 6268 79  0000 L CNN
F 1 "22p" H 6335 6133 79  0000 L CNN
F 2 "Capacitor_THT:C_Radial_D4.0mm_H5.0mm_P1.50mm" H 6075 6200 60  0001 C CNN
F 3 "" H 6175 6300 60  0001 C CNN
	1    6150 6200
	1    0    0    -1  
$EndComp
$Comp
L homework-rescue:GND-power_GOST #PWR02
U 1 1 5DF0AAED
P 5050 6600
F 0 "#PWR02" H 5050 6650 60  0001 C CNN
F 1 "GND" H 5050 6350 79  0001 C CNN
F 2 "" H 5050 6600 60  0000 C CNN
F 3 "" H 5050 6600 60  0001 C CNN
	1    5050 6600
	1    0    0    -1  
$EndComp
$Comp
L homework-rescue:GND-power_GOST #PWR07
U 1 1 5DF0AE83
P 6150 6600
F 0 "#PWR07" H 6150 6650 60  0001 C CNN
F 1 "GND" H 6150 6350 79  0001 C CNN
F 2 "" H 6150 6600 60  0000 C CNN
F 3 "" H 6150 6600 60  0001 C CNN
	1    6150 6600
	1    0    0    -1  
$EndComp
$Comp
L homework-rescue:ZQ_CRYSTAL-Device_GOST ZQ1
U 1 1 5DF0BE2E
P 5650 5700
F 0 "ZQ1" H 5650 6049 79  0000 C CNN
F 1 "ZQ_CRYSTAL" H 5650 5914 79  0000 C CNN
F 2 "Crystal:Crystal_HC49-4H_Vertical" H 5550 5800 60  0001 C CNN
F 3 "" H 5650 5900 60  0001 C CNN
	1    5650 5700
	1    0    0    -1  
$EndComp
$Comp
L homework-rescue:CONN_6-Connector_Generic_GOST X2
U 1 1 5DF136A6
P 8800 2100
F 0 "X2" H 8800 2900 79  0000 C CNN
F 1 "CONN_6" H 8800 1300 79  0001 C CNN
F 2 "Connector_PinSocket_1.00mm:PinSocket_1x06_P1.00mm_Vertical" H 9400 2900 79  0001 C CNN
F 3 "" H 9400 1300 79  0001 C CNN
F 4 "5V" H 8600 2500 79  0000 C CNN "PIN1"
F 5 "MISO" H 8600 2300 79  0000 C CNN "PIN2"
F 6 "SCK" H 8600 2100 79  0000 C CNN "PIN3"
F 7 "MOSI" H 8600 1900 79  0000 C CNN "PIN4"
F 8 "TRST" H 8600 1700 79  0000 C CNN "PIN5"
F 9 "GND" H 8600 1500 79  0000 C CNN "PIN6"
	1    8800 2100
	1    0    0    -1  
$EndComp
$Comp
L homework-rescue:R-Device_GOST R3
U 1 1 5DF32562
P 10200 1700
F 0 "R3" H 10200 1390 79  0000 C CNN
F 1 "10" H 10200 1525 79  0000 C CNN
F 2 "Resistor_THT:R_Axial_DIN0204_L3.6mm_D1.6mm_P1.90mm_Vertical" H 10100 1725 60  0001 C CNN
F 3 "" H 10225 1525 60  0001 C CNN
	1    10200 1700
	-1   0    0    1   
$EndComp
$Comp
L homework-rescue:C-Device_GOST C7
U 1 1 5DF33169
P 11100 1700
F 0 "C7" V 10712 1700 79  0000 C CNN
F 1 "47µ" V 10847 1700 79  0000 C CNN
F 2 "Capacitor_THT:C_Radial_D4.0mm_H5.0mm_P1.50mm" H 11025 1700 60  0001 C CNN
F 3 "" H 11125 1800 60  0001 C CNN
	1    11100 1700
	0    1    1    0   
$EndComp
$Comp
L homework-rescue:GND-power_GOST #PWR015
U 1 1 5DF33D15
P 11700 1700
F 0 "#PWR015" H 11700 1750 60  0001 C CNN
F 1 "GND" H 11700 1450 79  0001 C CNN
F 2 "" H 11700 1700 60  0000 C CNN
F 3 "" H 11700 1700 60  0001 C CNN
	1    11700 1700
	0    -1   -1   0   
$EndComp
$Comp
L homework-rescue:VCC-power_GOST #PWR014
U 1 1 5DF34D3E
P 10700 1400
F 0 "#PWR014" H 10700 1300 79  0001 C CNN
F 1 "VCC" H 10700 1621 79  0000 C CNN
F 2 "" V 10700 1525 98  0000 C CNN
F 3 "" H 10700 1525 98  0001 C CNN
	1    10700 1400
	1    0    0    -1  
$EndComp
$Comp
L homework-rescue:VCC-power_GOST #PWR05
U 1 1 5DF35338
P 5800 2200
F 0 "#PWR05" H 5800 2100 79  0001 C CNN
F 1 "VCC" H 5800 2421 79  0000 C CNN
F 2 "" V 5800 2325 98  0000 C CNN
F 3 "" H 5800 2325 98  0001 C CNN
	1    5800 2200
	1    0    0    -1  
$EndComp
$Comp
L homework-rescue:VCC-power_GOST #PWR010
U 1 1 5DF35911
P 8300 4550
F 0 "#PWR010" H 8300 4450 79  0001 C CNN
F 1 "VCC" H 8300 4771 79  0000 C CNN
F 2 "" V 8300 4675 98  0000 C CNN
F 3 "" H 8300 4675 98  0001 C CNN
	1    8300 4550
	1    0    0    -1  
$EndComp
$Comp
L homework-rescue:C-Device_GOST C6
U 1 1 5DF36010
P 8900 4800
F 0 "C6" V 9288 4800 79  0000 C CNN
F 1 "0.1µ" V 9153 4800 79  0000 C CNN
F 2 "Capacitor_SMD:C_0603_1608Metric" H 8825 4800 60  0001 C CNN
F 3 "" H 8925 4900 60  0001 C CNN
	1    8900 4800
	0    -1   -1   0   
$EndComp
$Comp
L homework-rescue:GND-power_GOST #PWR012
U 1 1 5DF38738
P 9950 2750
F 0 "#PWR012" H 9950 2800 60  0001 C CNN
F 1 "GND" H 9950 2500 79  0001 C CNN
F 2 "" H 9950 2750 60  0000 C CNN
F 3 "" H 9950 2750 60  0001 C CNN
	1    9950 2750
	1    0    0    -1  
$EndComp
$Comp
L homework-rescue:VCC-power_GOST #PWR016
U 1 1 5DF40324
P 12750 4400
F 0 "#PWR016" H 12750 4300 79  0001 C CNN
F 1 "VCC" H 12750 4621 79  0000 C CNN
F 2 "" V 12750 4525 98  0000 C CNN
F 3 "" H 12750 4525 98  0001 C CNN
	1    12750 4400
	1    0    0    -1  
$EndComp
Wire Wire Line
	14850 6750 15050 6750
Wire Wire Line
	14550 6750 14250 6750
Wire Wire Line
	13550 6750 12750 6750
Wire Wire Line
	12750 6750 12750 6500
Wire Wire Line
	12250 6150 11900 6150
Wire Wire Line
	12750 5400 12750 5800
Wire Wire Line
	12250 5050 11900 5050
Wire Wire Line
	12750 4400 12750 4700
Text Label 9250 6750 0    50   ~ 0
FREQ
Text Label 9650 7050 0    50   ~ 0
OUT
Wire Wire Line
	12700 2850 11250 2850
Wire Wire Line
	11250 4350 10150 4350
Wire Wire Line
	11250 2850 11250 4350
Wire Wire Line
	11350 4450 11350 3450
Wire Wire Line
	11350 3450 12700 3450
Text Label 12100 2850 0    50   ~ 0
LEFT
Text Label 12100 3450 0    50   ~ 0
RIGHT
Wire Wire Line
	13300 2850 13750 2850
Wire Wire Line
	13750 2850 13750 3450
Wire Wire Line
	13300 3450 13750 3450
Connection ~ 13750 3450
Wire Wire Line
	13750 3450 13750 3700
Wire Wire Line
	9100 4800 9400 4800
Wire Wire Line
	9600 1700 9850 1700
Wire Wire Line
	10550 1700 10700 1700
Wire Wire Line
	11300 1700 11700 1700
Wire Wire Line
	10700 1400 10700 1700
Connection ~ 10700 1700
Wire Wire Line
	10700 1700 10900 1700
Wire Wire Line
	9600 1900 10200 1900
Wire Wire Line
	9600 2100 10200 2100
Wire Wire Line
	9600 2300 10200 2300
Wire Wire Line
	9600 2700 9950 2700
Wire Wire Line
	9950 2700 9950 2750
Text Label 9800 1900 0    50   ~ 0
MISO
Text Label 9800 2100 0    50   ~ 0
SCK
Text Label 9800 2300 0    50   ~ 0
MOSI
Wire Wire Line
	8550 6000 9100 6000
Wire Wire Line
	8550 5900 9100 5900
Text Label 8850 6100 0    50   ~ 0
SCK
Text Label 8850 6000 0    50   ~ 0
MISO
Text Label 8850 5900 0    50   ~ 0
MOSI
Wire Wire Line
	5050 6400 5050 6600
Wire Wire Line
	6150 6400 6150 6600
Wire Wire Line
	6150 6000 6150 5700
Wire Wire Line
	6150 5700 5900 5700
Wire Wire Line
	5050 6000 5050 5700
Wire Wire Line
	5050 5700 5400 5700
Wire Wire Line
	5050 5700 5050 4550
Wire Wire Line
	5050 4550 6850 4550
Connection ~ 5050 5700
Wire Wire Line
	6150 5700 6150 4750
Wire Wire Line
	6150 4750 6550 4750
Connection ~ 6150 5700
Wire Wire Line
	4200 3350 4200 3250
Wire Wire Line
	4200 3250 4600 3250
Wire Wire Line
	5200 3250 5800 3250
Wire Wire Line
	5800 3250 5800 3050
Wire Wire Line
	5800 3350 5800 3250
Connection ~ 5800 3250
Wire Wire Line
	5800 4050 5800 3750
Wire Wire Line
	5800 2350 5800 2200
Wire Wire Line
	5800 3250 7150 3250
Wire Wire Line
	10200 3250 10200 2500
Wire Wire Line
	10200 2500 9600 2500
Text Label 9800 2500 0    50   ~ 0
TRST
$Comp
L homework-rescue:PWR_FLAG-power_GOST #FLG0101
U 1 1 5DFA2AE3
P 1800 3650
F 0 "#FLG0101" H 1800 3745 30  0001 C CNN
F 1 "PWR_FLAG" H 1800 3858 30  0000 C CNN
F 2 "" H 1800 3650 79  0000 C CNN
F 3 "" H 1800 3650 79  0001 C CNN
	1    1800 3650
	1    0    0    -1  
$EndComp
$Comp
L homework-rescue:PWR_FLAG-power_GOST #FLG0102
U 1 1 5DFA352A
P 2600 3700
F 0 "#FLG0102" H 2600 3795 30  0001 C CNN
F 1 "PWR_FLAG" H 2600 3908 30  0000 C CNN
F 2 "" H 2600 3700 79  0000 C CNN
F 3 "" H 2600 3700 79  0001 C CNN
	1    2600 3700
	1    0    0    -1  
$EndComp
$Comp
L homework-rescue:GND-power_GOST #PWR0102
U 1 1 5DFA4785
P 2600 3900
F 0 "#PWR0102" H 2600 3950 60  0001 C CNN
F 1 "GND" H 2600 3650 79  0001 C CNN
F 2 "" H 2600 3900 60  0000 C CNN
F 3 "" H 2600 3900 60  0001 C CNN
	1    2600 3900
	1    0    0    -1  
$EndComp
Wire Wire Line
	2600 3900 2600 3700
Wire Wire Line
	1800 3900 1800 3650
Wire Wire Line
	8300 4550 8300 4800
Wire Wire Line
	8700 4800 8300 4800
$Comp
L homework-rescue:VCC-power_GOST #PWR0101
U 1 1 5DF05E1C
P 1800 3900
F 0 "#PWR0101" H 1800 3800 79  0001 C CNN
F 1 "VCC" H 1800 4120 79  0000 C CNN
F 2 "" V 1800 4025 98  0000 C CNN
F 3 "" H 1800 4025 98  0001 C CNN
	1    1800 3900
	-1   0    0    1   
$EndComp
$Comp
L MCU_Microchip_ATmega:ATmega8L-8AU U1
U 1 1 5E029DD6
P 7950 6700
F 0 "U1" H 7950 8281 50  0000 C CNN
F 1 "ATmega8L-8AU" H 7950 8190 50  0000 C CNN
F 2 "Package_QFP:TQFP-32_7x7mm_P0.8mm" H 7950 6700 50  0001 C CIN
F 3 "http://ww1.microchip.com/downloads/en/DeviceDoc/atmel-2486-8-bit-avr-microcontroller-atmega8_l_datasheet.pdf" H 7950 6700 50  0001 C CNN
	1    7950 6700
	1    0    0    -1  
$EndComp
Wire Wire Line
	10850 6150 10850 7100
Wire Wire Line
	10850 7100 8550 7100
Wire Wire Line
	10850 6150 11200 6150
Wire Wire Line
	8550 6100 9100 6100
Wire Wire Line
	11200 5050 10500 5050
Wire Wire Line
	10500 5050 10500 6750
Wire Wire Line
	7950 8250 7950 8100
Wire Wire Line
	8550 5600 8750 5600
Wire Wire Line
	8750 5600 8750 6500
Wire Wire Line
	8750 6500 10150 6500
Wire Wire Line
	10150 6500 10150 4350
Wire Wire Line
	8550 5700 8700 5700
Wire Wire Line
	8700 5700 8700 6600
Wire Wire Line
	8700 6600 10350 6600
Wire Wire Line
	10350 6600 10350 4450
Wire Wire Line
	10350 4450 11350 4450
Wire Wire Line
	7350 5800 6850 5800
Wire Wire Line
	6850 5800 6850 4550
Wire Wire Line
	7350 6000 6550 6000
Wire Wire Line
	6550 6000 6550 4750
Wire Wire Line
	7350 5600 7150 5600
Wire Wire Line
	7150 5600 7150 3250
Connection ~ 7150 3250
Wire Wire Line
	7150 3250 10200 3250
Wire Wire Line
	10500 6750 8650 6750
Wire Wire Line
	8550 5800 8650 5800
Wire Wire Line
	8650 5800 8650 6750
Wire Wire Line
	7950 5300 7950 4800
Wire Wire Line
	7950 4800 8300 4800
Connection ~ 8300 4800
$EndSCHEMATC
