G04 #@! TF.GenerationSoftware,KiCad,Pcbnew,(5.1.4-0-10_14)*
G04 #@! TF.CreationDate,2019-12-11T00:27:07+03:00*
G04 #@! TF.ProjectId,lee,6c65652e-6b69-4636-9164-5f7063625858,rev?*
G04 #@! TF.SameCoordinates,Original*
G04 #@! TF.FileFunction,Copper,L1,Top*
G04 #@! TF.FilePolarity,Positive*
%FSLAX46Y46*%
G04 Gerber Fmt 4.6, Leading zero omitted, Abs format (unit mm)*
G04 Created by KiCad (PCBNEW (5.1.4-0-10_14)) date 2019-12-11 00:27:07*
%MOMM*%
%LPD*%
G04 APERTURE LIST*
%ADD10R,0.900000X1.700000*%
%ADD11C,0.100000*%
%ADD12C,1.600000*%
%ADD13R,1.500000X0.550000*%
%ADD14R,0.550000X1.500000*%
%ADD15O,1.500000X3.000000*%
%ADD16R,1.500000X3.000000*%
%ADD17C,6.500000*%
%ADD18R,2.000000X2.000000*%
%ADD19R,1.780000X0.620000*%
%ADD20R,1.600000X1.600000*%
%ADD21C,1.500000*%
%ADD22R,11.000000X13.500000*%
%ADD23C,10.160000*%
%ADD24C,0.800000*%
%ADD25C,0.250000*%
G04 APERTURE END LIST*
D10*
X113870000Y-99060000D03*
X117270000Y-99060000D03*
X127840000Y-99060000D03*
X131240000Y-99060000D03*
X143940000Y-99060000D03*
X140540000Y-99060000D03*
X113870000Y-106680000D03*
X117270000Y-106680000D03*
X131240000Y-106680000D03*
X127840000Y-106680000D03*
X140540000Y-106680000D03*
X143940000Y-106680000D03*
X113870000Y-115570000D03*
X117270000Y-115570000D03*
X131240000Y-115570000D03*
X127840000Y-115570000D03*
X140540000Y-115570000D03*
X143940000Y-115570000D03*
X117270000Y-123190000D03*
X113870000Y-123190000D03*
X131240000Y-123190000D03*
X127840000Y-123190000D03*
X143940000Y-123190000D03*
X140540000Y-123190000D03*
D11*
G36*
X217514504Y-121121204D02*
G01*
X217538773Y-121124804D01*
X217562571Y-121130765D01*
X217585671Y-121139030D01*
X217607849Y-121149520D01*
X217628893Y-121162133D01*
X217648598Y-121176747D01*
X217666777Y-121193223D01*
X217683253Y-121211402D01*
X217697867Y-121231107D01*
X217710480Y-121252151D01*
X217720970Y-121274329D01*
X217729235Y-121297429D01*
X217735196Y-121321227D01*
X217738796Y-121345496D01*
X217740000Y-121370000D01*
X217740000Y-122470000D01*
X217738796Y-122494504D01*
X217735196Y-122518773D01*
X217729235Y-122542571D01*
X217720970Y-122565671D01*
X217710480Y-122587849D01*
X217697867Y-122608893D01*
X217683253Y-122628598D01*
X217666777Y-122646777D01*
X217648598Y-122663253D01*
X217628893Y-122677867D01*
X217607849Y-122690480D01*
X217585671Y-122700970D01*
X217562571Y-122709235D01*
X217538773Y-122715196D01*
X217514504Y-122718796D01*
X217490000Y-122720000D01*
X214990000Y-122720000D01*
X214965496Y-122718796D01*
X214941227Y-122715196D01*
X214917429Y-122709235D01*
X214894329Y-122700970D01*
X214872151Y-122690480D01*
X214851107Y-122677867D01*
X214831402Y-122663253D01*
X214813223Y-122646777D01*
X214796747Y-122628598D01*
X214782133Y-122608893D01*
X214769520Y-122587849D01*
X214759030Y-122565671D01*
X214750765Y-122542571D01*
X214744804Y-122518773D01*
X214741204Y-122494504D01*
X214740000Y-122470000D01*
X214740000Y-121370000D01*
X214741204Y-121345496D01*
X214744804Y-121321227D01*
X214750765Y-121297429D01*
X214759030Y-121274329D01*
X214769520Y-121252151D01*
X214782133Y-121231107D01*
X214796747Y-121211402D01*
X214813223Y-121193223D01*
X214831402Y-121176747D01*
X214851107Y-121162133D01*
X214872151Y-121149520D01*
X214894329Y-121139030D01*
X214917429Y-121130765D01*
X214941227Y-121124804D01*
X214965496Y-121121204D01*
X214990000Y-121120000D01*
X217490000Y-121120000D01*
X217514504Y-121121204D01*
X217514504Y-121121204D01*
G37*
D12*
X216240000Y-121920000D03*
D11*
G36*
X221914504Y-121121204D02*
G01*
X221938773Y-121124804D01*
X221962571Y-121130765D01*
X221985671Y-121139030D01*
X222007849Y-121149520D01*
X222028893Y-121162133D01*
X222048598Y-121176747D01*
X222066777Y-121193223D01*
X222083253Y-121211402D01*
X222097867Y-121231107D01*
X222110480Y-121252151D01*
X222120970Y-121274329D01*
X222129235Y-121297429D01*
X222135196Y-121321227D01*
X222138796Y-121345496D01*
X222140000Y-121370000D01*
X222140000Y-122470000D01*
X222138796Y-122494504D01*
X222135196Y-122518773D01*
X222129235Y-122542571D01*
X222120970Y-122565671D01*
X222110480Y-122587849D01*
X222097867Y-122608893D01*
X222083253Y-122628598D01*
X222066777Y-122646777D01*
X222048598Y-122663253D01*
X222028893Y-122677867D01*
X222007849Y-122690480D01*
X221985671Y-122700970D01*
X221962571Y-122709235D01*
X221938773Y-122715196D01*
X221914504Y-122718796D01*
X221890000Y-122720000D01*
X219390000Y-122720000D01*
X219365496Y-122718796D01*
X219341227Y-122715196D01*
X219317429Y-122709235D01*
X219294329Y-122700970D01*
X219272151Y-122690480D01*
X219251107Y-122677867D01*
X219231402Y-122663253D01*
X219213223Y-122646777D01*
X219196747Y-122628598D01*
X219182133Y-122608893D01*
X219169520Y-122587849D01*
X219159030Y-122565671D01*
X219150765Y-122542571D01*
X219144804Y-122518773D01*
X219141204Y-122494504D01*
X219140000Y-122470000D01*
X219140000Y-121370000D01*
X219141204Y-121345496D01*
X219144804Y-121321227D01*
X219150765Y-121297429D01*
X219159030Y-121274329D01*
X219169520Y-121252151D01*
X219182133Y-121231107D01*
X219196747Y-121211402D01*
X219213223Y-121193223D01*
X219231402Y-121176747D01*
X219251107Y-121162133D01*
X219272151Y-121149520D01*
X219294329Y-121139030D01*
X219317429Y-121130765D01*
X219341227Y-121124804D01*
X219365496Y-121121204D01*
X219390000Y-121120000D01*
X221890000Y-121120000D01*
X221914504Y-121121204D01*
X221914504Y-121121204D01*
G37*
D12*
X220640000Y-121920000D03*
D11*
G36*
X234614504Y-121121204D02*
G01*
X234638773Y-121124804D01*
X234662571Y-121130765D01*
X234685671Y-121139030D01*
X234707849Y-121149520D01*
X234728893Y-121162133D01*
X234748598Y-121176747D01*
X234766777Y-121193223D01*
X234783253Y-121211402D01*
X234797867Y-121231107D01*
X234810480Y-121252151D01*
X234820970Y-121274329D01*
X234829235Y-121297429D01*
X234835196Y-121321227D01*
X234838796Y-121345496D01*
X234840000Y-121370000D01*
X234840000Y-122470000D01*
X234838796Y-122494504D01*
X234835196Y-122518773D01*
X234829235Y-122542571D01*
X234820970Y-122565671D01*
X234810480Y-122587849D01*
X234797867Y-122608893D01*
X234783253Y-122628598D01*
X234766777Y-122646777D01*
X234748598Y-122663253D01*
X234728893Y-122677867D01*
X234707849Y-122690480D01*
X234685671Y-122700970D01*
X234662571Y-122709235D01*
X234638773Y-122715196D01*
X234614504Y-122718796D01*
X234590000Y-122720000D01*
X232090000Y-122720000D01*
X232065496Y-122718796D01*
X232041227Y-122715196D01*
X232017429Y-122709235D01*
X231994329Y-122700970D01*
X231972151Y-122690480D01*
X231951107Y-122677867D01*
X231931402Y-122663253D01*
X231913223Y-122646777D01*
X231896747Y-122628598D01*
X231882133Y-122608893D01*
X231869520Y-122587849D01*
X231859030Y-122565671D01*
X231850765Y-122542571D01*
X231844804Y-122518773D01*
X231841204Y-122494504D01*
X231840000Y-122470000D01*
X231840000Y-121370000D01*
X231841204Y-121345496D01*
X231844804Y-121321227D01*
X231850765Y-121297429D01*
X231859030Y-121274329D01*
X231869520Y-121252151D01*
X231882133Y-121231107D01*
X231896747Y-121211402D01*
X231913223Y-121193223D01*
X231931402Y-121176747D01*
X231951107Y-121162133D01*
X231972151Y-121149520D01*
X231994329Y-121139030D01*
X232017429Y-121130765D01*
X232041227Y-121124804D01*
X232065496Y-121121204D01*
X232090000Y-121120000D01*
X234590000Y-121120000D01*
X234614504Y-121121204D01*
X234614504Y-121121204D01*
G37*
D12*
X233340000Y-121920000D03*
D11*
G36*
X230214504Y-121121204D02*
G01*
X230238773Y-121124804D01*
X230262571Y-121130765D01*
X230285671Y-121139030D01*
X230307849Y-121149520D01*
X230328893Y-121162133D01*
X230348598Y-121176747D01*
X230366777Y-121193223D01*
X230383253Y-121211402D01*
X230397867Y-121231107D01*
X230410480Y-121252151D01*
X230420970Y-121274329D01*
X230429235Y-121297429D01*
X230435196Y-121321227D01*
X230438796Y-121345496D01*
X230440000Y-121370000D01*
X230440000Y-122470000D01*
X230438796Y-122494504D01*
X230435196Y-122518773D01*
X230429235Y-122542571D01*
X230420970Y-122565671D01*
X230410480Y-122587849D01*
X230397867Y-122608893D01*
X230383253Y-122628598D01*
X230366777Y-122646777D01*
X230348598Y-122663253D01*
X230328893Y-122677867D01*
X230307849Y-122690480D01*
X230285671Y-122700970D01*
X230262571Y-122709235D01*
X230238773Y-122715196D01*
X230214504Y-122718796D01*
X230190000Y-122720000D01*
X227690000Y-122720000D01*
X227665496Y-122718796D01*
X227641227Y-122715196D01*
X227617429Y-122709235D01*
X227594329Y-122700970D01*
X227572151Y-122690480D01*
X227551107Y-122677867D01*
X227531402Y-122663253D01*
X227513223Y-122646777D01*
X227496747Y-122628598D01*
X227482133Y-122608893D01*
X227469520Y-122587849D01*
X227459030Y-122565671D01*
X227450765Y-122542571D01*
X227444804Y-122518773D01*
X227441204Y-122494504D01*
X227440000Y-122470000D01*
X227440000Y-121370000D01*
X227441204Y-121345496D01*
X227444804Y-121321227D01*
X227450765Y-121297429D01*
X227459030Y-121274329D01*
X227469520Y-121252151D01*
X227482133Y-121231107D01*
X227496747Y-121211402D01*
X227513223Y-121193223D01*
X227531402Y-121176747D01*
X227551107Y-121162133D01*
X227572151Y-121149520D01*
X227594329Y-121139030D01*
X227617429Y-121130765D01*
X227641227Y-121124804D01*
X227665496Y-121121204D01*
X227690000Y-121120000D01*
X230190000Y-121120000D01*
X230214504Y-121121204D01*
X230214504Y-121121204D01*
G37*
D12*
X228940000Y-121920000D03*
D13*
X112410000Y-63310000D03*
X112410000Y-64110000D03*
X112410000Y-64910000D03*
X112410000Y-65710000D03*
X112410000Y-66510000D03*
X112410000Y-67310000D03*
X112410000Y-68110000D03*
X112410000Y-68910000D03*
X112410000Y-69710000D03*
X112410000Y-70510000D03*
X112410000Y-71310000D03*
D14*
X114110000Y-73010000D03*
X114910000Y-73010000D03*
X115710000Y-73010000D03*
X116510000Y-73010000D03*
X117310000Y-73010000D03*
X118110000Y-73010000D03*
X118910000Y-73010000D03*
X119710000Y-73010000D03*
X120510000Y-73010000D03*
X121310000Y-73010000D03*
X122110000Y-73010000D03*
D13*
X123810000Y-71310000D03*
X123810000Y-70510000D03*
X123810000Y-69710000D03*
X123810000Y-68910000D03*
X123810000Y-68110000D03*
X123810000Y-67310000D03*
X123810000Y-66510000D03*
X123810000Y-65710000D03*
X123810000Y-64910000D03*
X123810000Y-64110000D03*
X123810000Y-63310000D03*
D14*
X122110000Y-61610000D03*
X121310000Y-61610000D03*
X120510000Y-61610000D03*
X119710000Y-61610000D03*
X118910000Y-61610000D03*
X118110000Y-61610000D03*
X117310000Y-61610000D03*
X116510000Y-61610000D03*
X115710000Y-61610000D03*
X114910000Y-61610000D03*
X114110000Y-61610000D03*
D15*
X157480000Y-72390000D03*
X160020000Y-72390000D03*
X162560000Y-72390000D03*
X165100000Y-72390000D03*
X167640000Y-72390000D03*
X170180000Y-72390000D03*
X172720000Y-72390000D03*
X175260000Y-72390000D03*
X177800000Y-72390000D03*
X180340000Y-72390000D03*
X182880000Y-72390000D03*
X185420000Y-72390000D03*
X187960000Y-72390000D03*
D16*
X190500000Y-72390000D03*
D15*
X193040000Y-72390000D03*
X195580000Y-72390000D03*
D17*
X265000000Y-71390000D03*
X265000000Y-34390000D03*
X150000000Y-71390000D03*
X150000000Y-34390000D03*
D18*
X266000000Y-58390000D03*
X266000000Y-54390000D03*
X266000000Y-47390000D03*
X266000000Y-43390000D03*
D19*
X224220000Y-111125000D03*
X224220000Y-109855000D03*
X224220000Y-108585000D03*
X224220000Y-107315000D03*
X224220000Y-106045000D03*
X224220000Y-104775000D03*
X224220000Y-103505000D03*
X224220000Y-102235000D03*
X215200000Y-102235000D03*
X215200000Y-103505000D03*
X215200000Y-104775000D03*
X215200000Y-106045000D03*
X215200000Y-107315000D03*
X215200000Y-108585000D03*
X215200000Y-109855000D03*
X215200000Y-111125000D03*
D20*
X255270000Y-100330000D03*
D12*
X255270000Y-103100000D03*
X255270000Y-105870000D03*
X255270000Y-108640000D03*
X255270000Y-111410000D03*
X252430000Y-101715000D03*
X252430000Y-104485000D03*
X252430000Y-107255000D03*
X252430000Y-110025000D03*
D21*
X92800000Y-78380000D03*
X97700000Y-78380000D03*
D22*
X95250000Y-87630000D03*
D23*
X66040000Y-39370000D03*
X96010000Y-39370000D03*
D24*
X120650000Y-81280000D03*
X120650000Y-76200000D03*
X119380000Y-120650000D03*
X119380000Y-118110000D03*
X119380000Y-111760000D03*
X119380000Y-109220000D03*
X119380000Y-104140000D03*
X119380000Y-101600000D03*
X119380000Y-81280000D03*
X119380000Y-76200000D03*
X133350000Y-120650000D03*
X133350000Y-118110000D03*
X133350000Y-111760000D03*
X133350000Y-109220000D03*
X133350000Y-104140000D03*
X133350000Y-101600000D03*
X118110000Y-78730001D03*
X121920000Y-83820000D03*
X116840000Y-78730001D03*
X129540000Y-86360000D03*
X121920000Y-76200000D03*
X121920000Y-81280000D03*
X121920000Y-71120000D03*
X125730000Y-73660000D03*
X125730000Y-78730001D03*
X134620000Y-90170000D03*
X128270000Y-71120000D03*
X128270000Y-74240001D03*
X128270000Y-78730001D03*
X132080000Y-85090000D03*
X125730000Y-60960000D03*
X125730000Y-63500000D03*
X118110000Y-71120000D03*
X117197550Y-74240001D03*
X88900000Y-68580000D03*
X93980000Y-68580000D03*
X114300000Y-71120000D03*
X165100000Y-68580000D03*
X109220000Y-72390000D03*
X161290000Y-69850000D03*
X111760000Y-73660000D03*
X160020000Y-69850000D03*
X115138932Y-71664238D03*
X144780000Y-68580000D03*
D25*
X124460000Y-99060000D02*
X127840000Y-99060000D01*
X124460000Y-102870000D02*
X124460000Y-99060000D01*
X138430000Y-102870000D02*
X124460000Y-102870000D01*
X140540000Y-99060000D02*
X138430000Y-99060000D01*
X138430000Y-99060000D02*
X138430000Y-102870000D01*
X124460000Y-102870000D02*
X110490000Y-102870000D01*
X110490000Y-102870000D02*
X110490000Y-99060000D01*
X110490000Y-99060000D02*
X113870000Y-99060000D01*
X124460000Y-99060000D02*
X120650000Y-99060000D01*
X120650000Y-99060000D02*
X120650000Y-81280000D01*
X121310000Y-75540000D02*
X121310000Y-73010000D01*
X120650000Y-76200000D02*
X121310000Y-75540000D01*
X117270000Y-123190000D02*
X119380000Y-123190000D01*
X119380000Y-123190000D02*
X119380000Y-120650000D01*
X119380000Y-118110000D02*
X119380000Y-115570000D01*
X119380000Y-115570000D02*
X117270000Y-115570000D01*
X119380000Y-115570000D02*
X119380000Y-111760000D01*
X119380000Y-109220000D02*
X119380000Y-106680000D01*
X119380000Y-106680000D02*
X117270000Y-106680000D01*
X119380000Y-106680000D02*
X119380000Y-104140000D01*
X119380000Y-101600000D02*
X119380000Y-99060000D01*
X119380000Y-99060000D02*
X117270000Y-99060000D01*
X119380000Y-99060000D02*
X119380000Y-81280000D01*
X120510000Y-75070000D02*
X120510000Y-73010000D01*
X119380000Y-76200000D02*
X120510000Y-75070000D01*
X131240000Y-123190000D02*
X133350000Y-123190000D01*
X133350000Y-123190000D02*
X133350000Y-120650000D01*
X133350000Y-118110000D02*
X133350000Y-115570000D01*
X133350000Y-115570000D02*
X131240000Y-115570000D01*
X133350000Y-115570000D02*
X133350000Y-111760000D01*
X133350000Y-109220000D02*
X133350000Y-106680000D01*
X133350000Y-106680000D02*
X131240000Y-106680000D01*
X133350000Y-106680000D02*
X133350000Y-104140000D01*
X133350000Y-101600000D02*
X133350000Y-99060000D01*
X133350000Y-99060000D02*
X131240000Y-99060000D01*
X118110000Y-76396998D02*
X118110000Y-78730001D01*
X119710000Y-73010000D02*
X119710000Y-74796998D01*
X119710000Y-74796998D02*
X118110000Y-76396998D01*
X121920000Y-83820000D02*
X125730000Y-83820000D01*
X133350000Y-91440000D02*
X133350000Y-99060000D01*
X125730000Y-83820000D02*
X133350000Y-91440000D01*
X143940000Y-123190000D02*
X146050000Y-123190000D01*
X146050000Y-123190000D02*
X146050000Y-115570000D01*
X143940000Y-115570000D02*
X146050000Y-115570000D01*
X146050000Y-115570000D02*
X146050000Y-106680000D01*
X146050000Y-106680000D02*
X143940000Y-106680000D01*
X146050000Y-106680000D02*
X146050000Y-99060000D01*
X146050000Y-99060000D02*
X143940000Y-99060000D01*
X116840000Y-76080000D02*
X116840000Y-78730001D01*
X118910000Y-73010000D02*
X118910000Y-74010000D01*
X118910000Y-74010000D02*
X116840000Y-76080000D01*
X129540000Y-86360000D02*
X138430000Y-86360000D01*
X146050000Y-93980000D02*
X146050000Y-99060000D01*
X138430000Y-86360000D02*
X146050000Y-93980000D01*
X140540000Y-107080000D02*
X137160000Y-110460000D01*
X140540000Y-106680000D02*
X140540000Y-107080000D01*
X137160000Y-110460000D02*
X124490000Y-110460000D01*
X124490000Y-110460000D02*
X124460000Y-110430000D01*
X124460000Y-110430000D02*
X124460000Y-106680000D01*
X124460000Y-106680000D02*
X127840000Y-106680000D01*
X124460000Y-110430000D02*
X110550000Y-110430000D01*
X110550000Y-110430000D02*
X110490000Y-110370000D01*
X110490000Y-110370000D02*
X110490000Y-106680000D01*
X110490000Y-106680000D02*
X113870000Y-106680000D01*
X122110000Y-73010000D02*
X122110000Y-76010000D01*
X122110000Y-76010000D02*
X121920000Y-76200000D01*
X119031999Y-80554999D02*
X107950000Y-91636998D01*
X121920000Y-81280000D02*
X121194999Y-80554999D01*
X121194999Y-80554999D02*
X119031999Y-80554999D01*
X107950000Y-91636998D02*
X107950000Y-104140000D01*
X107950000Y-104140000D02*
X110490000Y-106680000D01*
X113870000Y-115570000D02*
X111760000Y-115570000D01*
X111760000Y-115570000D02*
X111760000Y-119380000D01*
X111760000Y-119380000D02*
X124460000Y-119380000D01*
X124460000Y-119380000D02*
X124460000Y-115570000D01*
X124460000Y-115570000D02*
X127840000Y-115570000D01*
X124460000Y-119380000D02*
X137160000Y-119380000D01*
X137160000Y-119380000D02*
X137160000Y-115570000D01*
X137160000Y-115570000D02*
X140540000Y-115570000D01*
X123810000Y-71310000D02*
X122110000Y-71310000D01*
X122110000Y-71310000D02*
X121920000Y-71120000D01*
X125730000Y-73660000D02*
X126129999Y-73260001D01*
X128363002Y-73260001D02*
X128618001Y-73515000D01*
X126129999Y-73260001D02*
X128363002Y-73260001D01*
X128618001Y-73515000D02*
X127921999Y-73515000D01*
X127921999Y-73515000D02*
X125730000Y-75706999D01*
X125730000Y-75706999D02*
X125730000Y-78730001D01*
X141315001Y-96865001D02*
X141315001Y-111414999D01*
X134620000Y-90170000D02*
X141315001Y-96865001D01*
X140540000Y-112190000D02*
X140540000Y-115570000D01*
X141315001Y-111414999D02*
X140540000Y-112190000D01*
X140540000Y-123590000D02*
X137160000Y-126970000D01*
X140540000Y-123190000D02*
X140540000Y-123590000D01*
X111790000Y-126970000D02*
X111760000Y-126940000D01*
X111760000Y-126940000D02*
X111760000Y-123190000D01*
X111760000Y-123190000D02*
X113870000Y-123190000D01*
X127840000Y-123190000D02*
X124460000Y-123190000D01*
X124460000Y-126940000D02*
X124430000Y-126970000D01*
X124460000Y-123190000D02*
X124460000Y-126940000D01*
X137160000Y-126970000D02*
X124430000Y-126970000D01*
X124430000Y-126970000D02*
X111790000Y-126970000D01*
X123810000Y-70510000D02*
X127660000Y-70510000D01*
X127660000Y-70510000D02*
X128270000Y-71120000D01*
X128270000Y-74240001D02*
X128270000Y-78730001D01*
X132080000Y-85090000D02*
X139700000Y-85090000D01*
X139700000Y-85090000D02*
X147320000Y-92710000D01*
X147320000Y-92710000D02*
X147320000Y-122556410D01*
X147320000Y-122556410D02*
X147320000Y-127000000D01*
X147320000Y-127000000D02*
X137160000Y-127000000D01*
X119710000Y-60610000D02*
X119710000Y-61610000D01*
X103549999Y-44449999D02*
X119710000Y-60610000D01*
X96010000Y-39370000D02*
X101089999Y-44449999D01*
X101089999Y-44449999D02*
X103549999Y-44449999D01*
X119710000Y-61610000D02*
X120510000Y-61610000D01*
X120510000Y-61610000D02*
X121310000Y-61610000D01*
X121310000Y-61610000D02*
X122110000Y-61610000D01*
X122635000Y-61610000D02*
X123285000Y-60960000D01*
X122110000Y-61610000D02*
X122635000Y-61610000D01*
X123285000Y-60960000D02*
X125730000Y-60960000D01*
X124000000Y-63500000D02*
X123810000Y-63310000D01*
X125730000Y-63500000D02*
X124000000Y-63500000D01*
X123810000Y-63310000D02*
X123810000Y-64110000D01*
X123810000Y-64110000D02*
X123810000Y-64910000D01*
X123810000Y-64910000D02*
X123810000Y-65710000D01*
X166564990Y-74215010D02*
X167640000Y-73140000D01*
X164654717Y-74215010D02*
X166564990Y-74215010D01*
X164024990Y-73585283D02*
X164654717Y-74215010D01*
X164024990Y-70678580D02*
X164024990Y-73585283D01*
X156846410Y-63500000D02*
X164024990Y-70678580D01*
X167640000Y-73140000D02*
X167640000Y-72390000D01*
X125730000Y-63500000D02*
X156846410Y-63500000D01*
X167640000Y-72390000D02*
X170180000Y-72390000D01*
X170180000Y-72390000D02*
X172720000Y-72390000D01*
X172720000Y-72390000D02*
X175260000Y-72390000D01*
X179264990Y-70564990D02*
X180340000Y-71640000D01*
X176335010Y-70564990D02*
X179264990Y-70564990D01*
X175260000Y-71640000D02*
X176335010Y-70564990D01*
X175260000Y-72390000D02*
X175260000Y-71640000D01*
X118110000Y-70410000D02*
X118110000Y-71120000D01*
X123810000Y-65710000D02*
X122810000Y-65710000D01*
X122810000Y-65710000D02*
X118110000Y-70410000D01*
X117197550Y-73122450D02*
X117310000Y-73010000D01*
X117197550Y-74240001D02*
X117197550Y-73122450D01*
X215780000Y-109855000D02*
X215200000Y-109855000D01*
X216415001Y-109219999D02*
X215780000Y-109855000D01*
X216415001Y-101664999D02*
X216415001Y-109219999D01*
X190500000Y-72390000D02*
X190500000Y-75749998D01*
X190500000Y-75749998D02*
X216415001Y-101664999D01*
X185415274Y-70114981D02*
X181865019Y-70114981D01*
X186495010Y-71194717D02*
X185415274Y-70114981D01*
X186495010Y-73195303D02*
X186495010Y-71194717D01*
X187514717Y-74215010D02*
X186495010Y-73195303D01*
X181865019Y-70114981D02*
X180340000Y-71640000D01*
X189424990Y-74215010D02*
X187514717Y-74215010D01*
X190500000Y-73140000D02*
X189424990Y-74215010D01*
X180340000Y-71640000D02*
X180340000Y-72390000D01*
X190500000Y-72390000D02*
X190500000Y-73140000D01*
X118910000Y-62610000D02*
X118910000Y-61610000D01*
X118834999Y-62685001D02*
X118910000Y-62610000D01*
X89355001Y-62685001D02*
X118834999Y-62685001D01*
X66040000Y-39370000D02*
X89355001Y-62685001D01*
X215780000Y-111125000D02*
X217170000Y-109735000D01*
X215200000Y-111125000D02*
X215780000Y-111125000D01*
X217170000Y-109735000D02*
X217170000Y-100330000D01*
X217170000Y-100330000D02*
X213360000Y-96520000D01*
X213360000Y-96520000D02*
X213360000Y-82550000D01*
X213360000Y-82550000D02*
X199390000Y-68580000D01*
X199390000Y-68580000D02*
X189230000Y-68580000D01*
X187960000Y-69850000D02*
X187960000Y-72390000D01*
X189230000Y-68580000D02*
X187960000Y-69850000D01*
X187960000Y-71640000D02*
X187960000Y-72390000D01*
X179029999Y-62709999D02*
X187960000Y-71640000D01*
X119199997Y-62709999D02*
X179029999Y-62709999D01*
X118910000Y-62420002D02*
X119199997Y-62709999D01*
X118910000Y-61610000D02*
X118910000Y-62420002D01*
X224800000Y-108585000D02*
X227330000Y-111115000D01*
X224220000Y-108585000D02*
X224800000Y-108585000D01*
X227330000Y-115230000D02*
X220640000Y-121920000D01*
X227330000Y-111115000D02*
X227330000Y-115230000D01*
X224220000Y-113940000D02*
X216240000Y-121920000D01*
X224220000Y-111125000D02*
X224220000Y-113940000D01*
X224220000Y-107315000D02*
X227965000Y-107315000D01*
X227965000Y-107315000D02*
X232410000Y-111760000D01*
X232410000Y-118450000D02*
X228940000Y-121920000D01*
X232410000Y-111760000D02*
X232410000Y-118450000D01*
X224220000Y-106045000D02*
X229235000Y-106045000D01*
X229235000Y-106045000D02*
X234950000Y-111760000D01*
X234950000Y-120310000D02*
X233340000Y-121920000D01*
X234950000Y-111760000D02*
X234950000Y-120310000D01*
X115710000Y-74010000D02*
X114790000Y-74930000D01*
X115710000Y-73010000D02*
X115710000Y-74010000D01*
X96250000Y-74930000D02*
X92800000Y-78380000D01*
X114790000Y-74930000D02*
X96250000Y-74930000D01*
X116510000Y-74010000D02*
X116510000Y-73010000D01*
X112140000Y-78380000D02*
X116510000Y-74010000D01*
X97700000Y-78380000D02*
X112140000Y-78380000D01*
X93510000Y-66510000D02*
X112410000Y-66510000D01*
X166780002Y-102235000D02*
X148590000Y-120425002D01*
X215200000Y-102235000D02*
X166780002Y-102235000D01*
X148590000Y-120425002D02*
X148590000Y-129540000D01*
X148590000Y-129540000D02*
X110490000Y-129540000D01*
X83820000Y-76200000D02*
X93510000Y-66510000D01*
X110490000Y-129540000D02*
X83820000Y-102870000D01*
X83820000Y-102870000D02*
X83820000Y-76200000D01*
X215200000Y-103505000D02*
X167005000Y-103505000D01*
X167005000Y-103505000D02*
X156210000Y-114300000D01*
X156210000Y-114300000D02*
X149860000Y-120650000D01*
X149860000Y-120650000D02*
X149860000Y-130810000D01*
X149860000Y-130810000D02*
X109220000Y-130810000D01*
X109220000Y-130810000D02*
X107950000Y-130810000D01*
X107950000Y-130810000D02*
X81280000Y-104140000D01*
X81280000Y-104140000D02*
X81280000Y-76200000D01*
X81280000Y-76200000D02*
X88900000Y-68580000D01*
X94450000Y-68110000D02*
X112410000Y-68110000D01*
X93980000Y-68580000D02*
X94450000Y-68110000D01*
X181054999Y-74965001D02*
X182880000Y-73140000D01*
X182880000Y-73140000D02*
X182880000Y-72390000D01*
X148283999Y-74965001D02*
X181054999Y-74965001D01*
X145253997Y-71934999D02*
X148283999Y-74965001D01*
X116434999Y-71934999D02*
X145253997Y-71934999D01*
X113410000Y-68910000D02*
X116434999Y-71934999D01*
X112410000Y-68910000D02*
X113410000Y-68910000D01*
X92283999Y-79455001D02*
X91724999Y-78896001D01*
X91724999Y-77863999D02*
X99878998Y-69710000D01*
X91724999Y-78896001D02*
X91724999Y-77863999D01*
X178085292Y-79455001D02*
X92283999Y-79455001D01*
X183955010Y-71194717D02*
X183955010Y-73585283D01*
X183325283Y-70564990D02*
X183955010Y-71194717D01*
X99878998Y-69710000D02*
X112410000Y-69710000D01*
X182434717Y-70564990D02*
X183325283Y-70564990D01*
X177800000Y-72390000D02*
X177800000Y-73140000D01*
X177800000Y-73140000D02*
X178875010Y-74215010D01*
X183955010Y-73585283D02*
X178085292Y-79455001D01*
X180785283Y-74215010D02*
X181415010Y-73585283D01*
X178875010Y-74215010D02*
X180785283Y-74215010D01*
X181415010Y-73585283D02*
X181415010Y-71584697D01*
X181415010Y-71584697D02*
X182434717Y-70564990D01*
X112410000Y-70510000D02*
X113690000Y-70510000D01*
X113690000Y-70510000D02*
X114300000Y-71120000D01*
X165100000Y-68580000D02*
X165100000Y-72390000D01*
X112410000Y-71310000D02*
X110300000Y-71310000D01*
X110300000Y-71310000D02*
X109220000Y-72390000D01*
X161290000Y-69850000D02*
X162560000Y-69850000D01*
X162560000Y-69850000D02*
X162560000Y-72390000D01*
X113935000Y-73660000D02*
X111760000Y-73660000D01*
X114110000Y-73010000D02*
X114110000Y-73485000D01*
X114110000Y-73485000D02*
X113935000Y-73660000D01*
X160020000Y-69850000D02*
X160020000Y-72390000D01*
X114910000Y-73010000D02*
X114910000Y-71893170D01*
X114910000Y-71893170D02*
X115138932Y-71664238D01*
X156480000Y-72390000D02*
X157480000Y-72390000D01*
X151904999Y-67814999D02*
X156480000Y-72390000D01*
X145545001Y-67814999D02*
X151904999Y-67814999D01*
X144780000Y-68580000D02*
X145545001Y-67814999D01*
X255270000Y-107508630D02*
X255270000Y-108640000D01*
X253891369Y-106129999D02*
X255270000Y-107508630D01*
X252179999Y-106129999D02*
X253891369Y-106129999D01*
X249555000Y-103505000D02*
X252179999Y-106129999D01*
X224220000Y-103505000D02*
X249555000Y-103505000D01*
X250180000Y-102235000D02*
X252430000Y-104485000D01*
X224220000Y-102235000D02*
X250180000Y-102235000D01*
M02*
