EESchema Schematic File Version 4
LIBS:lee-cache
EELAYER 30 0
EELAYER END
$Descr A3 16535 11693
encoding utf-8
Sheet 1 1
Title ""
Date ""
Rev ""
Comp ""
Comment1 ""
Comment2 ""
Comment3 ""
Comment4 ""
$EndDescr
Wire Wire Line
	4800 4350 4450 4350
Wire Wire Line
	2500 4350 2850 4350
$Comp
L power:+1V0 #PWR0102
U 1 1 5DE821CE
P 3650 3450
F 0 "#PWR0102" H 3650 3300 50  0001 C CNN
F 1 "+1V0" H 3665 3623 50  0001 C CNN
F 2 "" H 3650 3450 50  0001 C CNN
F 3 "" H 3650 3450 50  0001 C CNN
	1    3650 3450
	1    0    0    -1  
$EndComp
$Comp
L power:Earth #PWR0103
U 1 1 5DE8B9BC
P 6450 2650
F 0 "#PWR0103" H 6450 2400 50  0001 C CNN
F 1 "Earth" H 6450 2500 50  0001 C CNN
F 2 "" H 6450 2650 50  0001 C CNN
F 3 "~" H 6450 2650 50  0001 C CNN
	1    6450 2650
	1    0    0    -1  
$EndComp
$Comp
L power:Earth #PWR0104
U 1 1 5DE8C4D8
P 6850 2650
F 0 "#PWR0104" H 6850 2400 50  0001 C CNN
F 1 "Earth" H 6850 2500 50  0001 C CNN
F 2 "" H 6850 2650 50  0001 C CNN
F 3 "~" H 6850 2650 50  0001 C CNN
	1    6850 2650
	1    0    0    -1  
$EndComp
$Comp
L Device:Crystal Q1
U 1 1 5DE903FB
P 6650 2000
F 0 "Q1" H 6650 2268 50  0000 C CNN
F 1 "8 МГц" H 6650 2177 50  0000 C CNN
F 2 "Crystal:Crystal_HC49-U_Horizontal_1EP_style1" H 6650 2000 50  0001 C CNN
F 3 "~" H 6650 2000 50  0001 C CNN
	1    6650 2000
	1    0    0    -1  
$EndComp
$Comp
L power:Earth #PWR0105
U 1 1 5DE91CD9
P 7850 5200
F 0 "#PWR0105" H 7850 4950 50  0001 C CNN
F 1 "Earth" H 7850 5050 50  0001 C CNN
F 2 "" H 7850 5200 50  0001 C CNN
F 3 "~" H 7850 5200 50  0001 C CNN
	1    7850 5200
	1    0    0    -1  
$EndComp
Wire Wire Line
	7850 5200 7850 5150
$Comp
L Display_Character:LCD-016N002L DD2
U 1 1 5DE9385F
P 8900 7750
F 0 "DD2" H 8900 8731 50  0000 C CNN
F 1 "LCD-016N002L" H 8900 8640 50  0000 C CNN
F 2 "Display:LCD-016N002L" H 8920 6830 50  0001 C CNN
F 3 "http://www.vishay.com/docs/37299/37299.pdf" H 9400 7450 50  0001 C CNN
	1    8900 7750
	1    0    0    -1  
$EndComp
$Comp
L power:Earth #PWR0109
U 1 1 5DEA9D60
P 8900 9000
F 0 "#PWR0109" H 8900 8750 50  0001 C CNN
F 1 "Earth" H 8900 8850 50  0001 C CNN
F 2 "" H 8900 9000 50  0001 C CNN
F 3 "~" H 8900 9000 50  0001 C CNN
	1    8900 9000
	1    0    0    -1  
$EndComp
$Comp
L power:+1V0 #PWR0110
U 1 1 5DEB05B9
P 9750 6450
F 0 "#PWR0110" H 9750 6300 50  0001 C CNN
F 1 "+1V0" H 9765 6623 50  0001 C CNN
F 2 "" H 9750 6450 50  0001 C CNN
F 3 "" H 9750 6450 50  0001 C CNN
	1    9750 6450
	1    0    0    -1  
$EndComp
$Comp
L power:Earth #PWR0111
U 1 1 5DEB05C0
P 9750 7050
F 0 "#PWR0111" H 9750 6800 50  0001 C CNN
F 1 "Earth" H 9750 6900 50  0001 C CNN
F 2 "" H 9750 7050 50  0001 C CNN
F 3 "~" H 9750 7050 50  0001 C CNN
	1    9750 7050
	1    0    0    -1  
$EndComp
Wire Wire Line
	9750 7050 9750 6950
Wire Wire Line
	9750 6450 9750 6600
Wire Wire Line
	9750 6600 8900 6600
Wire Wire Line
	8900 6600 8900 6950
Connection ~ 9750 6600
Wire Wire Line
	9750 6600 9750 6650
$Comp
L Switch:SW_Push BTN2
U 1 1 5E0401EC
P 12750 7100
F 0 "BTN2" H 12750 7385 50  0000 C CNN
F 1 "\"TURBO\"" H 12750 7294 50  0000 C CNN
F 2 "Button_Switch_SMD:SW_SPST_B3U-1000P" H 12750 7300 50  0001 C CNN
F 3 "~" H 12750 7300 50  0001 C CNN
	1    12750 7100
	1    0    0    -1  
$EndComp
$Comp
L Switch:SW_Push BTN3
U 1 1 5E041478
P 13750 7100
F 0 "BTN3" H 13750 7385 50  0000 C CNN
F 1 "POWER1" H 13750 7294 50  0000 C CNN
F 2 "Button_Switch_SMD:SW_SPST_B3U-1000P" H 13750 7300 50  0001 C CNN
F 3 "~" H 13750 7300 50  0001 C CNN
	1    13750 7100
	1    0    0    -1  
$EndComp
$Comp
L Switch:SW_Push BTN4
U 1 1 5E041BFB
P 14800 7100
F 0 "BTN4" H 14800 7385 50  0000 C CNN
F 1 "POWER5" H 14800 7294 50  0000 C CNN
F 2 "Button_Switch_SMD:SW_SPST_B3U-1000P" H 14800 7300 50  0001 C CNN
F 3 "~" H 14800 7300 50  0001 C CNN
	1    14800 7100
	1    0    0    -1  
$EndComp
$Comp
L Switch:SW_Push BTN8
U 1 1 5E054AD8
P 12750 8050
F 0 "BTN8" H 12750 8335 50  0000 C CNN
F 1 "<-" H 12750 8244 50  0000 C CNN
F 2 "Button_Switch_SMD:SW_SPST_B3U-1000P" H 12750 8250 50  0001 C CNN
F 3 "~" H 12750 8250 50  0001 C CNN
	1    12750 8050
	1    0    0    -1  
$EndComp
$Comp
L Switch:SW_Push BTN9
U 1 1 5E054ADE
P 13750 8050
F 0 "BTN9" H 13750 8335 50  0000 C CNN
F 1 "POWER3" H 13750 8244 50  0000 C CNN
F 2 "Button_Switch_SMD:SW_SPST_B3U-1000P" H 13750 8250 50  0001 C CNN
F 3 "~" H 13750 8250 50  0001 C CNN
	1    13750 8050
	1    0    0    -1  
$EndComp
$Comp
L Switch:SW_Push BTN10
U 1 1 5E054AE4
P 14800 8050
F 0 "BTN10" H 14800 8335 50  0000 C CNN
F 1 "POWER7" H 14800 8244 50  0000 C CNN
F 2 "Button_Switch_SMD:SW_SPST_B3U-1000P" H 14800 8250 50  0001 C CNN
F 3 "~" H 14800 8250 50  0001 C CNN
	1    14800 8050
	1    0    0    -1  
$EndComp
$Comp
L Switch:SW_Push BTN11
U 1 1 5E05C732
P 12750 8500
F 0 "BTN11" H 12750 8785 50  0000 C CNN
F 1 "->" H 12750 8694 50  0000 C CNN
F 2 "Button_Switch_SMD:SW_SPST_B3U-1000P" H 12750 8700 50  0001 C CNN
F 3 "~" H 12750 8700 50  0001 C CNN
	1    12750 8500
	1    0    0    -1  
$EndComp
$Comp
L Switch:SW_Push BTN12
U 1 1 5E05C738
P 13750 8500
F 0 "BTN12" H 13750 8785 50  0000 C CNN
F 1 "POWER4" H 13750 8694 50  0000 C CNN
F 2 "Button_Switch_SMD:SW_SPST_B3U-1000P" H 13750 8700 50  0001 C CNN
F 3 "~" H 13750 8700 50  0001 C CNN
	1    13750 8500
	1    0    0    -1  
$EndComp
$Comp
L Switch:SW_Push BTN13
U 1 1 5E05C73E
P 14800 8500
F 0 "BTN13" H 14800 8785 50  0000 C CNN
F 1 "POWER8" H 14800 8694 50  0000 C CNN
F 2 "Button_Switch_SMD:SW_SPST_B3U-1000P" H 14800 8700 50  0001 C CNN
F 3 "~" H 14800 8700 50  0001 C CNN
	1    14800 8500
	1    0    0    -1  
$EndComp
Wire Wire Line
	15000 7100 15150 7100
Wire Wire Line
	15150 7100 15150 5950
Connection ~ 15150 7100
$Comp
L Switch:SW_Push BTN7
U 1 1 5E04CD56
P 14800 7600
F 0 "BTN7" H 14800 7885 50  0000 C CNN
F 1 "POWER6" H 14800 7794 50  0000 C CNN
F 2 "Button_Switch_SMD:SW_SPST_B3U-1000P" H 14800 7800 50  0001 C CNN
F 3 "~" H 14800 7800 50  0001 C CNN
	1    14800 7600
	1    0    0    -1  
$EndComp
$Comp
L Switch:SW_Push BTN6
U 1 1 5E04CD50
P 13750 7600
F 0 "BTN6" H 13750 7885 50  0000 C CNN
F 1 "POWER2" H 13750 7794 50  0000 C CNN
F 2 "Button_Switch_SMD:SW_SPST_B3U-1000P" H 13750 7800 50  0001 C CNN
F 3 "~" H 13750 7800 50  0001 C CNN
	1    13750 7600
	1    0    0    -1  
$EndComp
$Comp
L Switch:SW_Push BTN5
U 1 1 5E04CD4A
P 12750 7600
F 0 "BTN5" H 12750 7885 50  0000 C CNN
F 1 "\"TIME/RES\"" H 12750 7794 50  0000 C CNN
F 2 "Button_Switch_SMD:SW_SPST_B3U-1000P" H 12750 7800 50  0001 C CNN
F 3 "~" H 12750 7800 50  0001 C CNN
	1    12750 7600
	1    0    0    -1  
$EndComp
Wire Wire Line
	15000 8500 15150 8500
Wire Wire Line
	15150 7100 15150 7600
Wire Wire Line
	15000 8050 15150 8050
Connection ~ 15150 8050
Wire Wire Line
	15150 8050 15150 8500
Wire Wire Line
	15000 7600 15150 7600
Connection ~ 15150 7600
Wire Wire Line
	15150 7600 15150 8050
Wire Wire Line
	13950 8500 14100 8500
Wire Wire Line
	14100 8500 14100 8050
Wire Wire Line
	14100 8050 13950 8050
Wire Wire Line
	14100 8050 14100 7600
Wire Wire Line
	14100 7600 13950 7600
Connection ~ 14100 8050
Wire Wire Line
	14100 7600 14100 7100
Wire Wire Line
	14100 7100 13950 7100
Connection ~ 14100 7600
Wire Wire Line
	12950 8500 13100 8500
Wire Wire Line
	13100 8500 13100 8050
Wire Wire Line
	12950 8050 13100 8050
Wire Wire Line
	13100 8050 13100 7600
Wire Wire Line
	13100 7600 12950 7600
Connection ~ 13100 8050
Wire Wire Line
	13100 7600 13100 7100
Wire Wire Line
	13100 7100 12950 7100
Connection ~ 13100 7600
Wire Wire Line
	14600 7100 14600 7250
Wire Wire Line
	14600 7250 13550 7250
Wire Wire Line
	13550 7250 13550 7100
Wire Wire Line
	13550 7250 12550 7250
Wire Wire Line
	12550 7250 12550 7100
Connection ~ 13550 7250
Wire Wire Line
	14600 7600 14600 7750
Wire Wire Line
	14600 7750 13550 7750
Wire Wire Line
	13550 7750 13550 7600
Wire Wire Line
	13550 7750 12550 7750
Wire Wire Line
	12550 7750 12550 7600
Connection ~ 13550 7750
Wire Wire Line
	14600 8050 14600 8200
Wire Wire Line
	14600 8200 13550 8200
Wire Wire Line
	13550 8200 13550 8050
Wire Wire Line
	13550 8200 12550 8200
Wire Wire Line
	12550 8200 12550 8050
Connection ~ 13550 8200
Wire Wire Line
	12550 8050 12550 7900
Connection ~ 12550 8050
Wire Wire Line
	14600 8500 14600 8700
Wire Wire Line
	14600 8700 13550 8700
Wire Wire Line
	13550 8500 13550 8700
Wire Wire Line
	13550 8700 12550 8700
Wire Wire Line
	12550 8700 12550 8500
Connection ~ 13550 8700
Text Notes 11900 9650 0    118  Italic 0
Проектирование регистрирующей МК-системы
Text Notes 9900 10450 0    79   Italic 0
Ли Д. И.
Text Notes 9800 10650 0    79   Italic 0
Хартов В. Я.
Text Notes 14650 11400 0    79   Italic 0
МГТУ им. Н. Э. Баумана\nКафедра ИУ6\nГруппа ИУ6-74Б
NoConn ~ 9300 7150
NoConn ~ 9300 7550
NoConn ~ 9300 7750
NoConn ~ 9300 7850
NoConn ~ 9300 8050
NoConn ~ 9300 8150
NoConn ~ 9750 7150
Wire Wire Line
	8900 8550 8900 9000
Connection ~ 8900 9000
Wire Wire Line
	8900 9000 8900 9050
$Comp
L Regulator_Linear:LM7805_TO220 DD4
U 1 1 5E5F230F
P 2900 1600
F 0 "DD4" H 2900 1842 50  0000 C CNN
F 1 "LM7805_TO220" H 2900 1751 50  0000 C CNN
F 2 "Package_TO_SOT_THT:TO-220-3_Vertical" H 2900 1825 50  0001 C CIN
F 3 "http://www.fairchildsemi.com/ds/LM/LM7805.pdf" H 2900 1550 50  0001 C CNN
	1    2900 1600
	1    0    0    -1  
$EndComp
$Comp
L power:+1V0 #PWR0118
U 1 1 5E6EE6FB
P 3850 1300
F 0 "#PWR0118" H 3850 1150 50  0001 C CNN
F 1 "+1V0" H 3865 1473 50  0001 C CNN
F 2 "" H 3850 1300 50  0001 C CNN
F 3 "" H 3850 1300 50  0001 C CNN
	1    3850 1300
	1    0    0    -1  
$EndComp
Wire Wire Line
	1950 1750 1950 1600
$Comp
L Device:CP C11
U 1 1 5E7B8F15
P 3850 1900
F 0 "C11" H 3968 1946 50  0000 L CNN
F 1 "1 нФ" H 3968 1855 50  0000 L CNN
F 2 "Capacitor_SMD:CP_Elec_5x4.4" H 3888 1750 50  0001 C CNN
F 3 "~" H 3850 1900 50  0001 C CNN
	1    3850 1900
	1    0    0    -1  
$EndComp
$Comp
L Device:CP C1
U 1 1 5E893BAD
P 2350 1900
F 0 "C1" H 2232 1854 50  0000 R CNN
F 1 "100 нФ" H 2232 1945 50  0000 R CNN
F 2 "Capacitor_SMD:CP_Elec_5x4.4" H 2388 1750 50  0001 C CNN
F 3 "~" H 2350 1900 50  0001 C CNN
	1    2350 1900
	-1   0    0    1   
$EndComp
$Comp
L Device:C C7
U 1 1 5E8D7D67
P 2500 4200
F 0 "C7" H 2615 4246 50  0000 L CNN
F 1 "0.1 мкФ" H 2615 4155 50  0000 L CNN
F 2 "Capacitor_SMD:CP_Elec_5x4.4" H 2538 4050 50  0001 C CNN
F 3 "~" H 2500 4200 50  0001 C CNN
	1    2500 4200
	-1   0    0    -1  
$EndComp
$Comp
L Device:C C6
U 1 1 5E9A81C5
P 4800 4200
F 0 "C6" H 4915 4246 50  0000 L CNN
F 1 "0.1 мкФ" H 4915 4155 50  0000 L CNN
F 2 "Capacitor_SMD:CP_Elec_5x4.4" H 4838 4050 50  0001 C CNN
F 3 "~" H 4800 4200 50  0001 C CNN
	1    4800 4200
	-1   0    0    -1  
$EndComp
$Comp
L Device:C C9
U 1 1 5E9EEF49
P 6450 2250
F 0 "C9" H 6565 2296 50  0000 L CNN
F 1 "22 пФ" H 6565 2205 50  0000 L CNN
F 2 "Capacitor_SMD:CP_Elec_5x4.4" H 6488 2100 50  0001 C CNN
F 3 "~" H 6450 2250 50  0001 C CNN
	1    6450 2250
	1    0    0    -1  
$EndComp
Wire Wire Line
	6450 2400 6450 2650
$Comp
L Device:C C10
U 1 1 5EA367BF
P 6850 2250
F 0 "C10" H 6965 2296 50  0000 L CNN
F 1 "22 пФ" H 6965 2205 50  0000 L CNN
F 2 "Capacitor_SMD:CP_Elec_5x4.4" H 6888 2100 50  0001 C CNN
F 3 "~" H 6850 2250 50  0001 C CNN
	1    6850 2250
	1    0    0    -1  
$EndComp
$Comp
L Device:C C8
U 1 1 5EAC78A5
P 9750 6800
F 0 "C8" H 9865 6846 50  0000 L CNN
F 1 "0.1 мкФ" H 9865 6755 50  0000 L CNN
F 2 "Capacitor_SMD:CP_Elec_5x4.4" H 9788 6650 50  0001 C CNN
F 3 "~" H 9750 6800 50  0001 C CNN
	1    9750 6800
	1    0    0    -1  
$EndComp
$Comp
L power:Earth #PWR0115
U 1 1 5EB2B7E2
P 2900 2200
F 0 "#PWR0115" H 2900 1950 50  0001 C CNN
F 1 "Earth" H 2900 2050 50  0001 C CNN
F 2 "" H 2900 2200 50  0001 C CNN
F 3 "~" H 2900 2200 50  0001 C CNN
	1    2900 2200
	1    0    0    -1  
$EndComp
Wire Wire Line
	1950 1600 2150 1600
Wire Wire Line
	1900 1850 1950 1850
Wire Wire Line
	1950 1850 1950 2100
Wire Wire Line
	1950 2100 2150 2100
Wire Wire Line
	2350 2100 2350 2050
Wire Wire Line
	2350 2100 2900 2100
Connection ~ 2350 2100
Wire Wire Line
	2900 2100 2900 1900
Wire Wire Line
	2900 2200 2900 2100
Connection ~ 2900 2100
Wire Wire Line
	2350 1750 2350 1600
Connection ~ 2350 1600
Wire Wire Line
	2350 1600 2600 1600
Wire Wire Line
	2150 2100 2150 1600
Connection ~ 2150 2100
Wire Wire Line
	2150 2100 2350 2100
Connection ~ 2150 1600
Wire Wire Line
	2150 1600 2350 1600
$Comp
L Device:CP C12
U 1 1 5EC6D56C
P 3350 1900
F 0 "C12" H 3468 1946 50  0000 L CNN
F 1 "10 нФ" H 3468 1855 50  0000 L CNN
F 2 "Capacitor_SMD:CP_Elec_5x4.4" H 3388 1750 50  0001 C CNN
F 3 "~" H 3350 1900 50  0001 C CNN
	1    3350 1900
	1    0    0    -1  
$EndComp
Wire Wire Line
	3350 1600 3350 1750
Wire Wire Line
	3200 1600 3350 1600
Wire Wire Line
	3350 2050 3350 2100
Wire Wire Line
	3350 2100 2900 2100
Wire Wire Line
	3350 2100 3850 2100
Wire Wire Line
	3850 2100 3850 2050
Connection ~ 3350 2100
Wire Wire Line
	3850 1750 3850 1600
Wire Wire Line
	3850 1600 3350 1600
Connection ~ 3350 1600
Wire Wire Line
	3850 1600 3850 1300
Connection ~ 3850 1600
$Comp
L MCU_Microchip_ATmega:ATmega8515-16AU DD1
U 1 1 5EEF5D31
P 7850 3150
F 0 "DD1" H 7850 5331 50  0000 C CNN
F 1 "ATmega8515-16AU" H 7850 5240 50  0000 C CNN
F 2 "Package_QFP:TQFP-44_10x10mm_P0.8mm" H 7850 3150 50  0001 C CIN
F 3 "http://ww1.microchip.com/downloads/en/DeviceDoc/doc2512.pdf" H 7850 3150 50  0001 C CNN
	1    7850 3150
	1    0    0    -1  
$EndComp
Wire Wire Line
	15150 5950 10800 5950
Connection ~ 12550 7600
Connection ~ 12550 8500
Wire Wire Line
	6850 2400 6850 2650
Wire Wire Line
	6850 2100 6850 2000
Wire Wire Line
	6850 2000 6800 2000
Wire Wire Line
	6450 2100 6450 2000
Wire Wire Line
	6450 2000 6500 2000
Wire Wire Line
	6850 2000 6850 1650
Wire Wire Line
	6850 1650 7250 1650
Connection ~ 6850 2000
Wire Wire Line
	6450 2000 6450 1850
Wire Wire Line
	6450 1850 7250 1850
Connection ~ 6450 2000
Wire Wire Line
	8450 3350 10800 3350
Wire Wire Line
	8450 3450 10800 3450
Wire Wire Line
	8450 3550 10800 3550
Wire Wire Line
	8450 3650 10800 3650
Wire Wire Line
	8450 3750 10800 3750
NoConn ~ 8450 3950
Wire Bus Line
	9300 5900 5600 5900
Wire Bus Line
	5600 5900 5600 2350
Wire Wire Line
	8450 4150 9300 4150
Wire Wire Line
	8450 4250 9300 4250
Wire Wire Line
	3650 6600 3650 6150
$Comp
L power:Earth #PWR0101
U 1 1 5DE7F782
P 3650 6600
F 0 "#PWR0101" H 3650 6350 50  0001 C CNN
F 1 "Earth" H 3650 6450 50  0001 C CNN
F 2 "" H 3650 6600 50  0001 C CNN
F 3 "~" H 3650 6600 50  0001 C CNN
	1    3650 6600
	1    0    0    -1  
$EndComp
Wire Wire Line
	4450 5250 5600 5250
Wire Wire Line
	4450 5650 5600 5650
Wire Wire Line
	4800 4050 4450 4050
Wire Wire Line
	2500 4050 2850 4050
Wire Wire Line
	3650 3750 3650 3450
NoConn ~ 2850 5050
NoConn ~ 2850 5450
NoConn ~ 4450 5050
NoConn ~ 4450 5450
NoConn ~ 2850 4550
NoConn ~ 2850 4850
Wire Wire Line
	2550 5550 2550 5650
Wire Wire Line
	2550 5650 2850 5650
NoConn ~ 7250 4150
NoConn ~ 7250 4250
NoConn ~ 7250 4350
NoConn ~ 7350 4650
NoConn ~ 7350 4750
NoConn ~ 7350 4850
NoConn ~ 7350 4950
Wire Wire Line
	8450 4350 9300 4350
Wire Wire Line
	8450 4450 9300 4450
Wire Wire Line
	8450 4550 9300 4550
Wire Wire Line
	8450 4650 9300 4650
Wire Wire Line
	8450 4750 9300 4750
Wire Wire Line
	8450 4850 9300 4850
NoConn ~ 9300 7450
Wire Wire Line
	7850 1150 7850 750 
$Comp
L power:+1V0 #0101
U 1 1 5F19A09D
P 7850 750
F 0 "#0101" H 7850 600 50  0001 C CNN
F 1 "+1V0" H 7865 923 50  0001 C CNN
F 2 "" H 7850 750 50  0001 C CNN
F 3 "" H 7850 750 50  0001 C CNN
	1    7850 750 
	1    0    0    -1  
$EndComp
Wire Bus Line
	9300 2250 9300 5900
Text Label 8450 1450 0    50   ~ 0
a0
Text Label 8450 1550 0    50   ~ 0
a1
Text Label 8450 1650 0    50   ~ 0
a2
Text Label 8450 1850 0    50   ~ 0
a4
Text Label 8450 1750 0    50   ~ 0
a3
Text Label 8450 1950 0    50   ~ 0
a5
Text Label 8450 2050 0    50   ~ 0
a6
Text Label 8450 2150 0    50   ~ 0
a7
Wire Wire Line
	14100 7100 14100 6100
Wire Wire Line
	14100 6100 10800 6100
Connection ~ 14100 7100
Wire Wire Line
	13100 7100 13100 6250
Connection ~ 13100 7100
Wire Wire Line
	10800 6250 13100 6250
Text Label 8500 3250 0    50   ~ 0
c0
Text Label 8500 3350 0    50   ~ 0
c1
Text Label 8500 3450 0    50   ~ 0
c2
Text Label 10900 5950 0    50   ~ 0
c0
Text Label 10900 6100 0    50   ~ 0
c1
Text Label 10900 6250 0    50   ~ 0
c2
Text Label 8500 3550 0    50   ~ 0
c3
Wire Wire Line
	12550 7250 12350 7250
Wire Wire Line
	12350 7250 12350 6400
Wire Wire Line
	12350 6400 10800 6400
Connection ~ 12550 7250
Wire Wire Line
	12200 7600 12200 6550
Wire Wire Line
	12200 6550 10800 6550
Wire Wire Line
	12200 7600 12550 7600
Wire Wire Line
	12050 7900 12050 6700
Wire Wire Line
	12050 6700 10800 6700
Wire Wire Line
	12050 7900 12550 7900
Wire Wire Line
	11900 8500 11900 6850
Wire Wire Line
	11900 6850 10800 6850
Wire Wire Line
	11900 8500 12550 8500
Text Label 8500 3650 0    50   ~ 0
c4
Text Label 10900 6550 0    50   ~ 0
c4
Text Label 10900 6400 0    50   ~ 0
c3
Text Label 8500 3750 0    50   ~ 0
c5
Text Label 10900 6700 0    50   ~ 0
c5
Text Label 8500 3850 0    50   ~ 0
c6
Text Label 10900 6850 0    50   ~ 0
c6
Text Label 4550 5250 0    50   ~ 0
d1
Text Label 8550 4250 0    50   ~ 0
d1
Text Label 4550 5650 0    50   ~ 0
d0
Text Label 8550 4150 0    50   ~ 0
d0
Text Label 8550 4350 0    50   ~ 0
LCD_RS
Wire Wire Line
	7450 7250 7450 7650
Wire Wire Line
	7450 7250 8500 7250
$Comp
L power:Earth #PWR0106
U 1 1 5F93E1D6
P 7450 9300
F 0 "#PWR0106" H 7450 9050 50  0001 C CNN
F 1 "Earth" H 7450 9150 50  0001 C CNN
F 2 "" H 7450 9300 50  0001 C CNN
F 3 "~" H 7450 9300 50  0001 C CNN
	1    7450 9300
	1    0    0    -1  
$EndComp
Wire Wire Line
	7450 7650 8500 7650
Connection ~ 7450 7650
Wire Wire Line
	7450 7650 7450 7750
Wire Wire Line
	7450 7750 8500 7750
Connection ~ 7450 7750
Wire Wire Line
	7450 7750 7450 7850
Wire Wire Line
	7450 7850 8500 7850
Connection ~ 7450 7850
Wire Wire Line
	7450 7950 8500 7950
Wire Wire Line
	7450 7850 7450 7950
Connection ~ 7450 7950
Wire Wire Line
	8000 7350 8000 5900
Wire Wire Line
	8000 7350 8500 7350
Text Label 8200 7350 0    50   ~ 0
LCD_RS
Text Label 8550 4450 0    50   ~ 0
LCD_E
Wire Wire Line
	8100 7150 8100 5900
Wire Wire Line
	8100 7150 8500 7150
Text Label 8200 7150 0    50   ~ 0
LCD_E
Wire Wire Line
	7450 7950 7450 9300
Wire Wire Line
	8500 8050 7900 8050
Wire Wire Line
	7900 8050 7900 5900
Wire Wire Line
	7800 8150 7800 5900
Wire Wire Line
	7800 8150 8500 8150
Wire Wire Line
	7700 8250 7700 5900
Wire Wire Line
	7700 8250 8500 8250
Wire Wire Line
	7600 8350 7600 5900
Wire Wire Line
	7600 8350 8500 8350
Text Label 8200 8050 0    50   ~ 0
LCD_D4
Text Label 8550 4550 0    50   ~ 0
LCD_D4
Text Label 8550 4650 0    50   ~ 0
LCD_D5
Text Label 8200 8150 0    50   ~ 0
LCD_D5
Text Label 8200 8250 0    50   ~ 0
LCD_D6
Text Label 8550 4750 0    50   ~ 0
LCD_D6
Text Label 8550 4850 0    50   ~ 0
LCD_D7
Text Label 8200 8350 0    50   ~ 0
LCD_D7
NoConn ~ 8450 2350
NoConn ~ 8450 2450
NoConn ~ 8450 2550
NoConn ~ 8450 2650
NoConn ~ 8450 2750
Wire Wire Line
	8450 3250 10600 3250
Wire Wire Line
	10600 3250 10600 3050
Wire Wire Line
	10600 3050 10800 3050
Wire Wire Line
	8450 3850 10600 3850
Wire Wire Line
	10600 3850 10600 4050
Wire Wire Line
	10600 4050 10800 4050
$Comp
L Connector:DB9_Female J1
U 1 1 5DEF4EAB
P 1650 5450
F 0 "J1" H 1568 4758 50  0000 C CNN
F 1 "DB9_Female" H 1568 4849 50  0000 C CNN
F 2 "Connector_Dsub:DSUB-9_Male_Vertical_P2.77x2.84mm" H 1650 5450 50  0001 C CNN
F 3 " ~" H 1650 5450 50  0001 C CNN
	1    1650 5450
	-1   0    0    1   
$EndComp
Wire Wire Line
	1950 5250 2850 5250
Wire Wire Line
	1950 5550 2550 5550
NoConn ~ 1950 5050
NoConn ~ 1950 5150
NoConn ~ 1950 5350
NoConn ~ 1950 5450
NoConn ~ 1950 5650
NoConn ~ 1950 5750
NoConn ~ 1950 5850
$Comp
L Interface_UART:MAX232 DD3
U 1 1 5F412291
P 3650 4950
F 0 "DD3" H 3650 6331 50  0000 C CNN
F 1 "MAX232" H 3650 6240 50  0000 C CNN
F 2 "Transformer_SMD:Transformer_Ethernet_Bel_S558-5999-T7-F" H 3700 3900 50  0001 L CNN
F 3 "http://www.ti.com/lit/ds/symlink/max232.pdf" H 3650 5050 50  0001 C CNN
	1    3650 4950
	-1   0    0    -1  
$EndComp
$Comp
L lee-rescue:DS-201-my_Library1 XP1
U 1 1 5DF11FD6
P 1550 1500
F 0 "XP1" H 1583 1615 50  0000 C CNN
F 1 "DS-201" H 1583 1524 50  0000 C CNN
F 2 "Connector:Banana_Jack_2Pin" H 1450 1550 50  0001 C CNN
F 3 "" H 1450 1550 50  0001 C CNN
	1    1550 1500
	1    0    0    -1  
$EndComp
Wire Wire Line
	1850 1750 1950 1750
Wire Wire Line
	1900 1850 1900 1900
Wire Wire Line
	1900 1900 1850 1900
NoConn ~ 7250 1450
NoConn ~ 8450 1450
NoConn ~ 8450 1550
NoConn ~ 8450 1650
NoConn ~ 8450 1750
NoConn ~ 8450 1850
NoConn ~ 8450 1950
NoConn ~ 8450 2050
NoConn ~ 8450 2150
NoConn ~ 8450 2850
NoConn ~ 8450 2950
NoConn ~ 8450 3050
Wire Bus Line
	10800 800  10800 6900
$EndSCHEMATC
