EESchema Schematic File Version 4
LIBS:Course_project-cache
EELAYER 30 0
EELAYER END
$Descr A3 16535 11693
encoding utf-8
Sheet 1 1
Title "Схема электрическая принципиальная"
Date "2019-12-17"
Rev ""
Comp ""
Comment1 ""
Comment2 "Королев А. Д."
Comment3 ""
Comment4 ""
$EndDescr
$Comp
L Device:Crystal Y1
U 1 1 5DFAA75F
P 6550 8150
F 0 "Y1" H 6550 8418 50  0000 C CNN
F 1 "8M" H 6550 8327 50  0000 C CNN
F 2 "Crystal:Crystal_SMD_TXC_7A-2Pin_5x3.2mm" H 6550 8150 50  0001 C CNN
F 3 "~" H 6550 8150 50  0001 C CNN
	1    6550 8150
	1    0    0    -1  
$EndComp
$Comp
L Device:C C2
U 1 1 5DFAB870
P 6200 8450
F 0 "C2" H 6315 8496 50  0000 L CNN
F 1 "22p" H 6315 8405 50  0000 L CNN
F 2 "Capacitor_SMD:C_0201_0603Metric" H 6238 8300 50  0001 C CNN
F 3 "~" H 6200 8450 50  0001 C CNN
	1    6200 8450
	1    0    0    -1  
$EndComp
$Comp
L Device:C C3
U 1 1 5DFABE3F
P 6850 8450
F 0 "C3" H 6965 8496 50  0000 L CNN
F 1 "22p" H 6965 8405 50  0000 L CNN
F 2 "Capacitor_SMD:C_0201_0603Metric" H 6888 8300 50  0001 C CNN
F 3 "~" H 6850 8450 50  0001 C CNN
	1    6850 8450
	1    0    0    -1  
$EndComp
Wire Wire Line
	6700 8150 6850 8150
Wire Wire Line
	6850 8150 6850 8300
Wire Wire Line
	6400 8150 6200 8150
Wire Wire Line
	6200 8150 6200 8300
$Comp
L power:GND #PWR06
U 1 1 5DFAD522
P 6200 8800
F 0 "#PWR06" H 6200 8550 50  0001 C CNN
F 1 "GND" H 6205 8627 50  0000 C CNN
F 2 "" H 6200 8800 50  0001 C CNN
F 3 "" H 6200 8800 50  0001 C CNN
	1    6200 8800
	1    0    0    -1  
$EndComp
$Comp
L power:GND #PWR07
U 1 1 5DFADCE8
P 6850 8800
F 0 "#PWR07" H 6850 8550 50  0001 C CNN
F 1 "GND" H 6855 8627 50  0000 C CNN
F 2 "" H 6850 8800 50  0001 C CNN
F 3 "" H 6850 8800 50  0001 C CNN
	1    6850 8800
	1    0    0    -1  
$EndComp
Wire Wire Line
	6200 8600 6200 8800
Wire Wire Line
	6850 8600 6850 8800
Wire Wire Line
	8300 3650 8150 3650
Wire Wire Line
	5400 3450 4850 3450
Wire Wire Line
	4850 3450 4850 7450
Wire Wire Line
	8000 7450 8000 3450
Wire Wire Line
	8000 3450 8300 3450
$Comp
L MCU_Microchip_ATmega:ATmega16-16PU U2
U 1 1 5DF8FDB6
P 8900 4950
F 0 "U2" H 8450 6900 50  0000 C CNN
F 1 "ATmega16-16PU" H 8500 7000 50  0000 C CNN
F 2 "Package_DIP:DIP-40_W15.24mm" H 8900 4950 50  0001 C CIN
F 3 "http://ww1.microchip.com/downloads/en/DeviceDoc/doc2466.pdf" H 8900 4950 50  0001 C CNN
	1    8900 4950
	1    0    0    -1  
$EndComp
Entry Wire Line
	7350 3150 7450 3250
Wire Wire Line
	8300 3250 7450 3250
Text Label 7850 3250 0    50   ~ 0
RESET
Entry Wire Line
	5000 3150 5100 3250
Wire Wire Line
	5400 3250 5100 3250
Text Label 5150 3250 0    50   ~ 0
RESET
$Comp
L power:GND #PWR05
U 1 1 5DFBD02A
P 6000 7150
F 0 "#PWR05" H 6000 6900 50  0001 C CNN
F 1 "GND" H 6005 6977 50  0000 C CNN
F 2 "" H 6000 7150 50  0001 C CNN
F 3 "" H 6000 7150 50  0001 C CNN
	1    6000 7150
	1    0    0    -1  
$EndComp
$Comp
L power:GND #PWR011
U 1 1 5DFBD715
P 8900 7150
F 0 "#PWR011" H 8900 6900 50  0001 C CNN
F 1 "GND" H 8905 6977 50  0000 C CNN
F 2 "" H 8900 7150 50  0001 C CNN
F 3 "" H 8900 7150 50  0001 C CNN
	1    8900 7150
	1    0    0    -1  
$EndComp
Wire Wire Line
	6000 7150 6000 6950
Wire Wire Line
	8900 7150 8900 6950
Entry Wire Line
	7250 6050 7350 6150
Wire Bus Line
	7350 2100 9950 2100
Entry Wire Line
	7250 5950 7350 6050
Wire Wire Line
	6600 6050 7250 6050
Wire Wire Line
	6600 5950 7250 5950
Text Label 7100 5950 0    50   ~ 0
RXD
Text Label 7100 6050 0    50   ~ 0
TXD
Entry Wire Line
	7250 3250 7350 3350
Entry Wire Line
	7250 3350 7350 3450
Entry Wire Line
	7250 3450 7350 3550
Wire Wire Line
	6600 3250 7250 3250
Wire Wire Line
	6600 3350 7250 3350
Wire Wire Line
	6600 3450 7250 3450
Text Label 7000 3250 0    50   ~ 0
PWM0
Text Label 7000 3350 0    50   ~ 0
PWM1
Text Label 7000 3450 0    50   ~ 0
PWM2
Entry Wire Line
	7250 4850 7350 4950
Entry Wire Line
	7250 4750 7350 4850
Entry Wire Line
	7250 4650 7350 4750
Entry Wire Line
	7250 4550 7350 4650
$Comp
L MCU_Microchip_ATmega:ATmega16-16PU U1
U 1 1 5DF8D975
P 6000 4950
F 0 "U1" H 5550 6900 50  0000 C CNN
F 1 "ATmega16-16PU" H 5600 7000 50  0000 C CNN
F 2 "Package_DIP:DIP-40_W15.24mm" H 6000 4950 50  0001 C CIN
F 3 "http://ww1.microchip.com/downloads/en/DeviceDoc/doc2466.pdf" H 6000 4950 50  0001 C CNN
	1    6000 4950
	1    0    0    -1  
$EndComp
Wire Wire Line
	6600 4550 7250 4550
Wire Wire Line
	6600 4650 7250 4650
Wire Wire Line
	6600 4750 7250 4750
Wire Wire Line
	6600 4850 7250 4850
Text Label 7100 4550 0    50   ~ 0
SS
Text Label 7050 4650 0    50   ~ 0
MOSI
Text Label 7050 4750 0    50   ~ 0
MISO
Text Label 7100 4850 0    50   ~ 0
SCK
Entry Wire Line
	9850 4550 9950 4650
Entry Wire Line
	9850 4750 9950 4850
Entry Wire Line
	9850 4850 9950 4950
Wire Wire Line
	9500 4550 9850 4550
Wire Wire Line
	9850 4650 9500 4650
Wire Wire Line
	9500 4750 9850 4750
Wire Wire Line
	9850 4850 9500 4850
Text Label 9750 4550 0    50   ~ 0
SS
Text Label 9650 4650 0    50   ~ 0
MOSI
Text Label 9650 4750 0    50   ~ 0
MISO
Text Label 9700 4850 0    50   ~ 0
SCK
Entry Wire Line
	9850 3250 9950 3350
Entry Wire Line
	9850 3350 9950 3450
Entry Wire Line
	9850 3450 9950 3550
Wire Wire Line
	9500 3250 9850 3250
Wire Wire Line
	9500 3350 9850 3350
Wire Wire Line
	9500 3450 9850 3450
Text Label 9650 3250 0    50   ~ 0
PWM3
Text Label 9650 3350 0    50   ~ 0
PWM4
Text Label 9650 3450 0    50   ~ 0
PWM5
Connection ~ 7350 2100
$Comp
L power:GND #PWR03
U 1 1 5DFDED35
P 5100 2950
F 0 "#PWR03" H 5100 2700 50  0001 C CNN
F 1 "GND" H 5105 2777 50  0000 C CNN
F 2 "" H 5100 2950 50  0001 C CNN
F 3 "" H 5100 2950 50  0001 C CNN
	1    5100 2950
	1    0    0    -1  
$EndComp
$Comp
L Device:C C1
U 1 1 5DFDE017
P 5100 2750
F 0 "C1" H 5215 2796 50  0000 L CNN
F 1 "0.1µ" H 5215 2705 50  0000 L CNN
F 2 "Capacitor_SMD:C_0603_1608Metric" H 5138 2600 50  0001 C CNN
F 3 "~" H 5100 2750 50  0001 C CNN
	1    5100 2750
	1    0    0    -1  
$EndComp
$Comp
L power:VCC #PWR02
U 1 1 5DFBF6C7
P 5100 2500
F 0 "#PWR02" H 5100 2350 50  0001 C CNN
F 1 "VCC" H 5100 2650 50  0000 C CNN
F 2 "" H 5100 2500 50  0001 C CNN
F 3 "" H 5100 2500 50  0001 C CNN
	1    5100 2500
	1    0    0    -1  
$EndComp
Wire Wire Line
	5100 2550 5100 2600
Wire Wire Line
	5100 2900 5100 2950
Wire Wire Line
	6000 2950 6000 2550
Wire Wire Line
	6000 2550 5100 2550
Connection ~ 5100 2550
Wire Wire Line
	5100 2500 5100 2550
$Comp
L power:GND #PWR09
U 1 1 5DFF07EB
P 7500 2750
F 0 "#PWR09" H 7500 2500 50  0001 C CNN
F 1 "GND" H 7505 2577 50  0000 C CNN
F 2 "" H 7500 2750 50  0001 C CNN
F 3 "" H 7500 2750 50  0001 C CNN
	1    7500 2750
	1    0    0    -1  
$EndComp
$Comp
L Device:C C4
U 1 1 5DFF07F1
P 7500 2550
F 0 "C4" H 7615 2596 50  0000 L CNN
F 1 "0.1µ" H 7615 2505 50  0000 L CNN
F 2 "Capacitor_SMD:C_0603_1608Metric" H 7538 2400 50  0001 C CNN
F 3 "~" H 7500 2550 50  0001 C CNN
	1    7500 2550
	1    0    0    -1  
$EndComp
$Comp
L power:VCC #PWR08
U 1 1 5DFF07F7
P 7500 2300
F 0 "#PWR08" H 7500 2150 50  0001 C CNN
F 1 "VCC" H 7500 2450 50  0000 C CNN
F 2 "" H 7500 2300 50  0001 C CNN
F 3 "" H 7500 2300 50  0001 C CNN
	1    7500 2300
	1    0    0    -1  
$EndComp
Wire Wire Line
	7500 2350 7500 2400
Wire Wire Line
	7500 2700 7500 2750
Connection ~ 7500 2350
Wire Wire Line
	7500 2300 7500 2350
Wire Wire Line
	8900 2950 8900 2350
Wire Wire Line
	7500 2350 8900 2350
$Comp
L Switch:SW_Push SW1
U 1 1 5DFF5EDE
P 4950 1700
F 0 "SW1" H 4950 1985 50  0000 C CNN
F 1 "SW_Push" H 4950 1894 50  0000 C CNN
F 2 "Button_Switch_SMD:Nidec_Copal_SH-7010A" H 4950 1900 50  0001 C CNN
F 3 "~" H 4950 1900 50  0001 C CNN
	1    4950 1700
	1    0    0    -1  
$EndComp
$Comp
L Switch:SW_Push SW3
U 1 1 5DFF673B
P 7100 1750
F 0 "SW3" H 7100 2035 50  0000 C CNN
F 1 "SW_Push" H 7100 1944 50  0000 C CNN
F 2 "Button_Switch_SMD:Nidec_Copal_SH-7010A" H 7100 1950 50  0001 C CNN
F 3 "~" H 7100 1950 50  0001 C CNN
	1    7100 1750
	1    0    0    -1  
$EndComp
$Comp
L Switch:SW_Push SW2
U 1 1 5DFF70CE
P 7100 1350
F 0 "SW2" H 7100 1635 50  0000 C CNN
F 1 "SW_Push" H 7100 1544 50  0000 C CNN
F 2 "Button_Switch_SMD:Nidec_Copal_SH-7010A" H 7100 1550 50  0001 C CNN
F 3 "~" H 7100 1550 50  0001 C CNN
	1    7100 1350
	1    0    0    -1  
$EndComp
$Comp
L power:GND #PWR01
U 1 1 5DFF7918
P 4550 1700
F 0 "#PWR01" H 4550 1450 50  0001 C CNN
F 1 "GND" V 4555 1572 50  0000 R CNN
F 2 "" H 4550 1700 50  0001 C CNN
F 3 "" H 4550 1700 50  0001 C CNN
	1    4550 1700
	0    1    -1   0   
$EndComp
$Comp
L power:VCC #PWR04
U 1 1 5DFFE854
P 5250 1050
F 0 "#PWR04" H 5250 900 50  0001 C CNN
F 1 "VCC" H 5267 1223 50  0000 C CNN
F 2 "" H 5250 1050 50  0001 C CNN
F 3 "" H 5250 1050 50  0001 C CNN
	1    5250 1050
	1    0    0    -1  
$EndComp
$Comp
L Device:R R1
U 1 1 5DFFEE0B
P 5250 1350
F 0 "R1" H 5320 1396 50  0000 L CNN
F 1 "10k" H 5320 1305 50  0000 L CNN
F 2 "Resistor_SMD:R_0603_1608Metric_Pad1.05x0.95mm_HandSolder" V 5180 1350 50  0001 C CNN
F 3 "~" H 5250 1350 50  0001 C CNN
	1    5250 1350
	1    0    0    -1  
$EndComp
Wire Wire Line
	5250 1200 5250 1050
Entry Wire Line
	5900 2000 6000 2100
Wire Wire Line
	5900 1700 5900 2000
Wire Wire Line
	5250 1500 5250 1700
Wire Wire Line
	4750 1700 4550 1700
Wire Wire Line
	5150 1700 5250 1700
Wire Wire Line
	5900 1700 5250 1700
Connection ~ 5250 1700
Text Label 5650 1700 0    50   ~ 0
RESET
Entry Wire Line
	6400 2000 6500 2100
Entry Wire Line
	6700 2000 6800 2100
Entry Wire Line
	6700 2000 6800 2100
Wire Wire Line
	6900 1750 6700 1750
Wire Wire Line
	6700 1750 6700 2000
Wire Wire Line
	6900 1350 6400 1350
Wire Wire Line
	6400 1350 6400 2000
Text Label 6450 1350 0    50   ~ 0
FREQUENCY
Text Label 6750 1750 0    50   ~ 0
TIME
$Comp
L power:GND #PWR010
U 1 1 5E01B7CA
P 7850 1500
F 0 "#PWR010" H 7850 1250 50  0001 C CNN
F 1 "GND" V 7855 1372 50  0000 R CNN
F 2 "" H 7850 1500 50  0001 C CNN
F 3 "" H 7850 1500 50  0001 C CNN
	1    7850 1500
	0    -1   -1   0   
$EndComp
Wire Wire Line
	7300 1750 7650 1750
Wire Wire Line
	7300 1350 7650 1350
Wire Wire Line
	7650 1350 7650 1500
Wire Wire Line
	7850 1500 7650 1500
Connection ~ 7650 1500
Wire Wire Line
	7650 1500 7650 1750
Entry Wire Line
	7250 5450 7350 5550
Entry Wire Line
	7250 5350 7350 5450
Wire Wire Line
	6600 5450 7250 5450
Wire Wire Line
	7250 5350 6600 5350
Text Label 6800 5350 0    50   ~ 0
FREQUENCY
Text Label 7100 5450 0    50   ~ 0
TIME
Entry Wire Line
	9950 5950 10050 6050
Entry Wire Line
	9850 4650 9950 4750
Entry Wire Line
	9950 6350 10050 6450
$Comp
L Connector_Generic_GOST:CONN_8 X1
U 1 1 5DFA39FA
P 11650 2900
F 0 "X1" H 12100 3900 79  0000 R CNN
F 1 "CONN_8" H 11650 1900 79  0001 C CNN
F 2 "Connector_PinHeader_1.00mm:PinHeader_1x08_P1.00mm_Vertical_SMD_Pin1Left" H 12250 3900 79  0001 C CNN
F 3 "" H 12250 1900 79  0001 C CNN
F 4 "PWM0" H 11600 3500 79  0000 R CNN "PIN1"
F 5 "PWM1" H 11600 3300 79  0000 R CNN "PIN2"
F 6 "PWM2" H 11600 3100 79  0000 R CNN "PIN3"
F 7 "PWM3" H 11600 2900 79  0000 R CNN "PIN4"
F 8 "PWM4" H 11600 2700 79  0000 R CNN "PIN5"
F 9 "PWM5" H 11600 2500 79  0000 R CNN "PIN6"
F 10 "VCC" H 11600 2300 79  0000 R CNN "PIN7"
F 11 "GND" H 11600 2100 79  0000 R CNN "PIN8"
	1    11650 2900
	-1   0    0    -1  
$EndComp
Entry Wire Line
	9950 2200 10050 2300
Entry Wire Line
	9950 2400 10050 2500
Entry Wire Line
	9950 2600 10050 2700
Entry Wire Line
	9950 2800 10050 2900
Entry Wire Line
	9950 3000 10050 3100
Entry Wire Line
	9950 3200 10050 3300
Wire Wire Line
	10850 2300 10050 2300
Wire Wire Line
	10850 2500 10050 2500
Wire Wire Line
	10050 2700 10850 2700
Wire Wire Line
	10850 2900 10050 2900
Wire Wire Line
	10050 3100 10850 3100
Wire Wire Line
	10850 3300 10050 3300
$Comp
L power:VCC #PWR012
U 1 1 5DFD451B
P 10700 2000
F 0 "#PWR012" H 10700 1850 50  0001 C CNN
F 1 "VCC" H 10717 2173 50  0000 C CNN
F 2 "" H 10700 2000 50  0001 C CNN
F 3 "" H 10700 2000 50  0001 C CNN
	1    10700 2000
	1    0    0    -1  
$EndComp
Wire Wire Line
	10850 3500 10700 3500
Wire Wire Line
	10700 3500 10700 2000
$Comp
L power:GND #PWR013
U 1 1 5DFD8B11
P 10700 3850
F 0 "#PWR013" H 10700 3600 50  0001 C CNN
F 1 "GND" H 10705 3677 50  0000 C CNN
F 2 "" H 10700 3850 50  0001 C CNN
F 3 "" H 10700 3850 50  0001 C CNN
	1    10700 3850
	1    0    0    -1  
$EndComp
Wire Wire Line
	10850 3700 10700 3700
Wire Wire Line
	10700 3700 10700 3850
$Comp
L Connector_Generic_GOST:CONN_9 X2
U 1 1 5DFDD90A
P 12800 5950
F 0 "X2" H 13300 7000 79  0000 R CNN
F 1 "CONN_9" H 12800 4850 79  0001 C CNN
F 2 "Connector_PinHeader_1.00mm:PinHeader_1x09_P1.00mm_Vertical_SMD_Pin1Left" H 13400 7050 79  0001 C CNN
F 3 "" H 13400 4850 79  0001 C CNN
F 4 "CD" H 12700 6650 79  0000 R CNN "PIN1"
F 5 "DTR" H 12700 6450 79  0000 R CNN "PIN2"
F 6 "DSR" H 12700 6250 79  0000 R CNN "PIN3"
F 7 "RI" H 12700 6050 79  0000 R CNN "PIN4"
F 8 "TXD" H 12700 5850 79  0000 R CNN "PIN5"
F 9 "GND" H 12700 5650 79  0000 R CNN "PIN6"
F 10 "RXD" H 12700 5450 79  0000 R CNN "PIN7"
F 11 "RTS" H 12700 5250 79  0000 R CNN "PIN8"
F 12 "CTS" H 12700 5050 79  0000 R CNN "PIN9"
	1    12800 5950
	-1   0    0    -1  
$EndComp
Wire Wire Line
	12000 6650 11800 6650
Wire Wire Line
	11800 6650 11800 6850
Wire Wire Line
	11800 6850 12000 6850
Text Label 10200 2300 0    50   ~ 0
PWM0
Text Label 10200 2500 0    50   ~ 0
PWM1
Text Label 10200 2700 0    50   ~ 0
PWM2
Text Label 10200 2900 0    50   ~ 0
PWM3
Text Label 10200 3100 0    50   ~ 0
PWM4
Text Label 10200 3300 0    50   ~ 0
PWM5
Text Label 10150 6050 0    50   ~ 0
TXD
Text Label 10150 6450 0    50   ~ 0
RXD
NoConn ~ 12000 5250
NoConn ~ 12000 5850
NoConn ~ 6600 3550
NoConn ~ 5400 3850
NoConn ~ 6600 3650
NoConn ~ 6600 3750
NoConn ~ 6600 3850
NoConn ~ 6600 3950
NoConn ~ 6600 4150
NoConn ~ 6600 4250
NoConn ~ 6600 4350
NoConn ~ 6600 4450
NoConn ~ 6600 5050
NoConn ~ 6600 5150
NoConn ~ 6600 5250
NoConn ~ 6600 5550
NoConn ~ 6600 5650
NoConn ~ 6600 5750
NoConn ~ 6600 6150
NoConn ~ 6600 6250
NoConn ~ 6600 6350
NoConn ~ 6600 6450
NoConn ~ 6600 6550
NoConn ~ 6600 6650
NoConn ~ 9500 3550
NoConn ~ 9500 3750
NoConn ~ 8300 3850
NoConn ~ 9500 3850
NoConn ~ 9500 3950
NoConn ~ 9500 4150
NoConn ~ 9500 4250
NoConn ~ 9500 4350
NoConn ~ 9500 4450
NoConn ~ 9500 5050
NoConn ~ 9500 5150
NoConn ~ 9500 5250
NoConn ~ 9500 5350
NoConn ~ 9500 5450
NoConn ~ 9500 5550
NoConn ~ 9500 5650
NoConn ~ 9500 5750
NoConn ~ 9500 5950
NoConn ~ 9500 6050
NoConn ~ 9500 6150
NoConn ~ 9500 6250
NoConn ~ 9500 6350
NoConn ~ 9500 6450
NoConn ~ 9500 6550
NoConn ~ 9500 6650
NoConn ~ 6100 2950
NoConn ~ 9000 2950
NoConn ~ 9500 3650
Wire Wire Line
	4850 7450 6200 7450
Wire Wire Line
	6200 8150 6200 7450
Connection ~ 6200 8150
Connection ~ 6200 7450
Wire Wire Line
	6200 7450 8000 7450
Connection ~ 6850 8150
Wire Wire Line
	6850 7600 8150 7600
Wire Wire Line
	8150 7600 8150 3650
Wire Wire Line
	6850 7600 6850 8150
Wire Wire Line
	5400 3650 5000 3650
Wire Wire Line
	5000 3650 5000 7600
Wire Wire Line
	5000 7600 6850 7600
Connection ~ 6850 7600
Wire Wire Line
	11800 5650 12000 5650
Wire Wire Line
	11800 5450 11800 5650
Wire Wire Line
	12000 5450 11800 5450
Wire Wire Line
	10050 6450 12000 6450
Wire Wire Line
	10050 6050 12000 6050
$Comp
L power:GND #PWR014
U 1 1 5E0790F9
P 11850 7250
F 0 "#PWR014" H 11850 7000 50  0001 C CNN
F 1 "GND" H 11855 7077 50  0000 C CNN
F 2 "" H 11850 7250 50  0001 C CNN
F 3 "" H 11850 7250 50  0001 C CNN
	1    11850 7250
	1    0    0    -1  
$EndComp
Wire Wire Line
	12000 6250 11850 6250
Wire Wire Line
	11850 6250 11850 7250
$Comp
L power:VCC #PWR0101
U 1 1 5E094692
P 3350 7750
F 0 "#PWR0101" H 3350 7600 50  0001 C CNN
F 1 "VCC" H 3367 7923 50  0000 C CNN
F 2 "" H 3350 7750 50  0001 C CNN
F 3 "" H 3350 7750 50  0001 C CNN
	1    3350 7750
	1    0    0    -1  
$EndComp
Wire Wire Line
	3350 8100 3350 7750
$Comp
L Connector_Generic_GOST:CONN_2 X3
U 1 1 5E0A067D
P 2100 8100
F 0 "X3" H 1650 8500 79  0000 C CNN
F 1 "CONN_2" H 2100 7700 79  0001 C CNN
F 2 "Connector_PinHeader_1.00mm:PinHeader_1x02_P1.00mm_Vertical_SMD_Pin1Left" H 2700 8500 79  0001 C CNN
F 3 "" H 2700 7700 79  0001 C CNN
F 4 "VCC" H 1900 8100 79  0000 C CNN "PIN1"
F 5 "GND" H 1900 7900 79  0000 C CNN "PIN2"
	1    2100 8100
	1    0    0    -1  
$EndComp
Wire Wire Line
	2900 8100 3350 8100
$Comp
L power:GND #PWR015
U 1 1 5E0A39F8
P 3500 8300
F 0 "#PWR015" H 3500 8050 50  0001 C CNN
F 1 "GND" V 3505 8172 50  0000 R CNN
F 2 "" H 3500 8300 50  0001 C CNN
F 3 "" H 3500 8300 50  0001 C CNN
	1    3500 8300
	0    -1   -1   0   
$EndComp
Wire Wire Line
	2900 8300 3500 8300
Wire Bus Line
	5000 2100 5000 3400
Wire Bus Line
	5000 2100 7350 2100
Wire Bus Line
	7350 2100 7350 6700
Wire Bus Line
	9950 2100 9950 6750
$EndSCHEMATC
