EESchema Schematic File Version 4
EELAYER 30 0
EELAYER END
$Descr A4 11693 8268
encoding utf-8
Sheet 1 1
Title "Спортивный хронометр"
Date ""
Rev ""
Comp ""
Comment1 ""
Comment2 "Грищенко А.Ф."
Comment3 ""
Comment4 ""
$EndDescr
$Comp
L MCU_Microchip_ATmega:ATmega8515-16AU U1
U 1 1 5E0332DE
P 2300 3550
F 0 "U1" H 2300 5731 50  0000 C CNN
F 1 "ATmega8515-16AU" H 2300 5640 50  0000 C CNN
F 2 "Package_DIP:DIP-48_W15.24mm" H 2300 3550 50  0001 C CIN
F 3 "http://ww1.microchip.com/downloads/en/DeviceDoc/doc2512.pdf" H 2300 3550 50  0001 C CNN
	1    2300 3550
	1    0    0    -1  
$EndComp
$Comp
L Display_Character:LCD-016N002L U2
U 1 1 5E0352FD
P 6250 2150
F 0 "U2" H 6250 3131 50  0000 C CNN
F 1 "LCD-016N002L" H 6250 3040 50  0000 C CNN
F 2 "Display:LCD-016N002L" H 6270 1230 50  0001 C CNN
F 3 "http://www.vishay.com/docs/37299/37299.pdf" H 6750 1850 50  0001 C CNN
	1    6250 2150
	1    0    0    -1  
$EndComp
$Comp
L Interface_UART:MAX232 U3
U 1 1 5E036271
P 6400 5300
F 0 "U3" H 6400 6681 50  0000 C CNN
F 1 "MAX232" H 6400 6590 50  0000 C CNN
F 2 "Package_DIP:DIP-16_W7.62mm" H 6450 4250 50  0001 L CNN
F 3 "http://www.ti.com/lit/ds/symlink/max232.pdf" H 6400 5400 50  0001 C CNN
	1    6400 5300
	1    0    0    -1  
$EndComp
$Comp
L Switch:SW_Push SW8
U 1 1 5E03DBAC
P 3850 1000
F 0 "SW8" H 3850 1285 50  0000 C CNN
F 1 "SW_Push" H 3850 1194 50  0000 C CNN
F 2 "Button_Switch_Keyboard:SW_Cherry_MX_1.00u_Plate" H 3850 1200 50  0001 C CNN
F 3 "~" H 3850 1200 50  0001 C CNN
	1    3850 1000
	1    0    0    -1  
$EndComp
$Comp
L Switch:SW_Push SW9
U 1 1 5E03E6CC
P 3850 1600
F 0 "SW9" H 3850 1885 50  0000 C CNN
F 1 "SW_Push" H 3850 1794 50  0000 C CNN
F 2 "Button_Switch_Keyboard:SW_Cherry_MX_1.00u_Plate" H 3850 1800 50  0001 C CNN
F 3 "~" H 3850 1800 50  0001 C CNN
	1    3850 1600
	1    0    0    -1  
$EndComp
$Comp
L Switch:SW_Push SW2
U 1 1 5E03E901
P 3800 2150
F 0 "SW2" H 3800 2435 50  0000 C CNN
F 1 "SW_Push" H 3800 2344 50  0000 C CNN
F 2 "Button_Switch_Keyboard:SW_Cherry_MX_1.00u_Plate" H 3800 2350 50  0001 C CNN
F 3 "~" H 3800 2350 50  0001 C CNN
	1    3800 2150
	1    0    0    -1  
$EndComp
$Comp
L Switch:SW_Push SW10
U 1 1 5E03E9C8
P 3850 2650
F 0 "SW10" H 3850 2935 50  0000 C CNN
F 1 "SW_Push" H 3850 2844 50  0000 C CNN
F 2 "Button_Switch_Keyboard:SW_Cherry_MX_1.00u_Plate" H 3850 2850 50  0001 C CNN
F 3 "~" H 3850 2850 50  0001 C CNN
	1    3850 2650
	1    0    0    -1  
$EndComp
$Comp
L Switch:SW_Push SW3
U 1 1 5E03EB3B
P 3800 3250
F 0 "SW3" H 3800 3535 50  0000 C CNN
F 1 "SW_Push" H 3800 3444 50  0000 C CNN
F 2 "Button_Switch_Keyboard:SW_Cherry_MX_1.00u_Plate" H 3800 3450 50  0001 C CNN
F 3 "~" H 3800 3450 50  0001 C CNN
	1    3800 3250
	1    0    0    -1  
$EndComp
$Comp
L Switch:SW_Push SW4
U 1 1 5E03EDAE
P 3800 3900
F 0 "SW4" H 3800 4185 50  0000 C CNN
F 1 "SW_Push" H 3800 4094 50  0000 C CNN
F 2 "Button_Switch_Keyboard:SW_Cherry_MX_1.00u_Plate" H 3800 4100 50  0001 C CNN
F 3 "~" H 3800 4100 50  0001 C CNN
	1    3800 3900
	1    0    0    -1  
$EndComp
$Comp
L Switch:SW_Push SW5
U 1 1 5E03EFA1
P 3800 4400
F 0 "SW5" H 3800 4685 50  0000 C CNN
F 1 "SW_Push" H 3800 4594 50  0000 C CNN
F 2 "Button_Switch_Keyboard:SW_Cherry_MX_1.00u_Plate" H 3800 4600 50  0001 C CNN
F 3 "~" H 3800 4600 50  0001 C CNN
	1    3800 4400
	1    0    0    -1  
$EndComp
$Comp
L Switch:SW_Push SW6
U 1 1 5E03F174
P 3800 4950
F 0 "SW6" H 3800 5235 50  0000 C CNN
F 1 "SW_Push" H 3800 5144 50  0000 C CNN
F 2 "Button_Switch_Keyboard:SW_Cherry_MX_1.00u_Plate" H 3800 5150 50  0001 C CNN
F 3 "~" H 3800 5150 50  0001 C CNN
	1    3800 4950
	1    0    0    -1  
$EndComp
$Comp
L Switch:SW_Push SW1
U 1 1 5E03F2EC
P 3750 5550
F 0 "SW1" H 3750 5835 50  0000 C CNN
F 1 "SW_Push" H 3750 5744 50  0000 C CNN
F 2 "Button_Switch_Keyboard:SW_Cherry_MX_1.00u_Plate" H 3750 5750 50  0001 C CNN
F 3 "~" H 3750 5750 50  0001 C CNN
	1    3750 5550
	1    0    0    -1  
$EndComp
$Comp
L Switch:SW_Push SW7
U 1 1 5E03F3FA
P 3800 6050
F 0 "SW7" H 3800 6335 50  0000 C CNN
F 1 "SW_Push" H 3800 6244 50  0000 C CNN
F 2 "Button_Switch_Keyboard:SW_Cherry_MX_1.00u_Plate" H 3800 6250 50  0001 C CNN
F 3 "~" H 3800 6250 50  0001 C CNN
	1    3800 6050
	1    0    0    -1  
$EndComp
Wire Wire Line
	2900 1850 2900 1000
Wire Wire Line
	2900 1000 3650 1000
Wire Wire Line
	2900 1950 3000 1950
Wire Wire Line
	3000 1950 3000 1600
Wire Wire Line
	3000 1600 3650 1600
Wire Wire Line
	3600 2050 3600 2150
Wire Wire Line
	2900 2050 3600 2050
Wire Wire Line
	2900 2150 3550 2150
Wire Wire Line
	3550 2150 3550 2650
Wire Wire Line
	3550 2650 3650 2650
Wire Wire Line
	2900 2250 3500 2250
Wire Wire Line
	3500 2250 3500 3250
Wire Wire Line
	3500 3250 3600 3250
Wire Wire Line
	2900 2350 3450 2350
Wire Wire Line
	3450 2350 3450 3900
Wire Wire Line
	3450 3900 3600 3900
Wire Wire Line
	2900 2450 3400 2450
Wire Wire Line
	3400 2450 3400 4400
Wire Wire Line
	3400 4400 3600 4400
Wire Wire Line
	2900 2550 3350 2550
Wire Wire Line
	3350 2550 3350 4950
Wire Wire Line
	3350 4950 3600 4950
Wire Wire Line
	2900 4750 3250 4750
Wire Wire Line
	3250 5550 3550 5550
Wire Wire Line
	3250 4750 3250 5550
Wire Wire Line
	2900 4850 3200 4850
Wire Wire Line
	3200 4850 3200 6050
Wire Wire Line
	3200 6050 3600 6050
Wire Wire Line
	4050 1000 4050 1600
Wire Wire Line
	4000 2150 4000 1600
Wire Wire Line
	4000 1600 4050 1600
Connection ~ 4050 1600
Wire Wire Line
	4050 2650 4050 2150
Wire Wire Line
	4050 2150 4000 2150
Connection ~ 4000 2150
Wire Wire Line
	4000 3250 4000 2650
Wire Wire Line
	4000 2650 4050 2650
Connection ~ 4050 2650
Wire Wire Line
	4000 3900 4000 3250
Connection ~ 4000 3250
Wire Wire Line
	4000 4400 4000 3900
Connection ~ 4000 3900
Wire Wire Line
	4000 4950 4000 4400
Connection ~ 4000 4400
Wire Wire Line
	3950 5550 3950 4950
Wire Wire Line
	3950 4950 4000 4950
Connection ~ 4000 4950
Wire Wire Line
	4000 6050 4000 5550
Wire Wire Line
	4000 5550 3950 5550
Connection ~ 3950 5550
Wire Wire Line
	2900 4050 5250 4050
Wire Wire Line
	5250 4050 5250 2750
Wire Wire Line
	5250 2750 5850 2750
Wire Wire Line
	2900 4150 5200 4150
Wire Wire Line
	5200 4150 5200 2650
Wire Wire Line
	5200 2650 5850 2650
Wire Wire Line
	2900 4250 5150 4250
Wire Wire Line
	5150 4250 5150 2550
Wire Wire Line
	5150 2550 5850 2550
Wire Wire Line
	2900 4350 5100 4350
Wire Wire Line
	5100 4350 5100 2450
Wire Wire Line
	5100 2450 5850 2450
Wire Wire Line
	5850 1550 4700 1550
Wire Wire Line
	4700 1550 4700 2750
Wire Wire Line
	4700 2750 2900 2750
Wire Wire Line
	2900 2850 4750 2850
Wire Wire Line
	4750 2850 4750 1650
Wire Wire Line
	4750 1650 5850 1650
Wire Wire Line
	5850 1750 4800 1750
Wire Wire Line
	4800 1750 4800 2950
Wire Wire Line
	4800 2950 2900 2950
Wire Wire Line
	6250 3200 6250 2950
Wire Wire Line
	5600 5800 4400 5800
Wire Wire Line
	4400 5800 4400 4550
Wire Wire Line
	4400 4550 2900 4550
Wire Wire Line
	4600 4650 2900 4650
$Comp
L Device:Crystal Y1
U 1 1 5E07B842
P 1300 6400
F 0 "Y1" V 1254 6531 50  0000 L CNN
F 1 "Crystal" V 1345 6531 50  0000 L CNN
F 2 "Crystal:Crystal_AT310_D3.0mm_L10.0mm_Horizontal" H 1300 6400 50  0001 C CNN
F 3 "~" H 1300 6400 50  0001 C CNN
	1    1300 6400
	0    1    1    0   
$EndComp
Wire Wire Line
	1300 6250 1950 6250
Wire Wire Line
	1950 6250 1950 6450
Wire Wire Line
	1300 6550 1000 6550
Wire Wire Line
	5900 6550 6400 6550
Wire Wire Line
	6400 6550 6400 6500
Wire Wire Line
	1300 6250 1300 2250
Wire Wire Line
	1300 2250 1700 2250
Connection ~ 1300 6250
Wire Wire Line
	1000 6550 1000 2050
Wire Wire Line
	1000 2050 1700 2050
$Comp
L Device:C C2
U 1 1 5E09E6D1
P 1950 6600
F 0 "C2" H 2065 6646 50  0000 L CNN
F 1 "C" H 2065 6555 50  0000 L CNN
F 2 "Capacitor_SMD:C_1206_3216Metric" H 1988 6450 50  0001 C CNN
F 3 "~" H 1950 6600 50  0001 C CNN
	1    1950 6600
	1    0    0    -1  
$EndComp
Connection ~ 1000 6550
$Comp
L Device:C C1
U 1 1 5E0AC407
P 1000 6850
F 0 "C1" H 1115 6896 50  0000 L CNN
F 1 "C" H 1115 6805 50  0000 L CNN
F 2 "Capacitor_SMD:C_1206_3216Metric" H 1038 6700 50  0001 C CNN
F 3 "~" H 1000 6850 50  0001 C CNN
	1    1000 6850
	1    0    0    -1  
$EndComp
Wire Wire Line
	1000 6550 1000 6700
$Comp
L Device:C C3
U 1 1 5E0B7DAC
P 5150 4750
F 0 "C3" H 5265 4796 50  0000 L CNN
F 1 "C" H 5265 4705 50  0000 L CNN
F 2 "Capacitor_SMD:C_1206_3216Metric" H 5188 4600 50  0001 C CNN
F 3 "~" H 5150 4750 50  0001 C CNN
	1    5150 4750
	1    0    0    -1  
$EndComp
Wire Wire Line
	5600 4400 5150 4400
Wire Wire Line
	5150 4400 5150 4600
Wire Wire Line
	5600 4700 5600 5000
Wire Wire Line
	5600 5000 5150 5000
Wire Wire Line
	5150 5000 5150 4900
$Comp
L Device:C C4
U 1 1 5E0BCB9F
P 7850 4600
F 0 "C4" H 7965 4646 50  0000 L CNN
F 1 "C" H 7965 4555 50  0000 L CNN
F 2 "Capacitor_SMD:C_1206_3216Metric" H 7888 4450 50  0001 C CNN
F 3 "~" H 7850 4600 50  0001 C CNN
	1    7850 4600
	1    0    0    -1  
$EndComp
Wire Wire Line
	7200 4400 7850 4400
Wire Wire Line
	7850 4400 7850 4450
Wire Wire Line
	7850 4750 7200 4750
Wire Wire Line
	7200 4750 7200 4700
$Comp
L Device:C C5
U 1 1 5E0C21E4
P 7850 5200
F 0 "C5" H 7965 5246 50  0000 L CNN
F 1 "C" H 7965 5155 50  0000 L CNN
F 2 "Capacitor_SMD:C_1206_3216Metric" H 7888 5050 50  0001 C CNN
F 3 "~" H 7850 5200 50  0001 C CNN
	1    7850 5200
	1    0    0    -1  
$EndComp
Wire Wire Line
	7200 5200 7600 5200
Wire Wire Line
	7600 5200 7600 5050
Wire Wire Line
	7600 5050 7850 5050
Wire Wire Line
	6400 4100 6400 3850
Wire Wire Line
	6400 3850 8150 3850
$Comp
L Device:C C6
U 1 1 5E0CB953
P 8350 4450
F 0 "C6" H 8465 4496 50  0000 L CNN
F 1 "C" H 8465 4405 50  0000 L CNN
F 2 "Capacitor_SMD:C_1206_3216Metric" H 8388 4300 50  0001 C CNN
F 3 "~" H 8350 4450 50  0001 C CNN
	1    8350 4450
	1    0    0    -1  
$EndComp
Wire Wire Line
	7200 4900 8350 4900
Wire Wire Line
	8350 4900 8350 4600
Wire Wire Line
	8350 4300 8350 4150
Wire Wire Line
	8350 4150 8150 4150
Wire Wire Line
	8150 3850 8150 3400
Wire Wire Line
	2300 6450 2300 5550
Wire Wire Line
	5900 6550 5900 6700
Wire Wire Line
	8450 5250 8850 5250
$Comp
L Connector_Generic:Conn_01x02 J1
U 1 1 5E06D7A0
P 7700 3100
F 0 "J1" H 7780 3092 50  0000 L CNN
F 1 "Conn_01x02" H 7780 3001 50  0000 L CNN
F 2 "Connector_PinHeader_2.54mm:PinHeader_1x02_P2.54mm_Horizontal" H 7700 3100 50  0001 C CNN
F 3 "~" H 7700 3100 50  0001 C CNN
	1    7700 3100
	1    0    0    -1  
$EndComp
Wire Wire Line
	6250 3200 6900 3200
Wire Wire Line
	6900 3200 6900 3100
Wire Wire Line
	6900 3100 7350 3100
Wire Wire Line
	2300 800  2300 1550
$Comp
L Connector:DB9_Female J2
U 1 1 5E04FD68
P 9150 5450
F 0 "J2" H 9330 5496 50  0000 L CNN
F 1 "DB9_Female" H 9330 5405 50  0000 L CNN
F 2 "Connector_Dsub:DSUB-9_Female_Vertical_P2.77x2.84mm" H 9150 5450 50  0001 C CNN
F 3 " ~" H 9150 5450 50  0001 C CNN
	1    9150 5450
	1    0    0    -1  
$EndComp
Wire Wire Line
	8150 3850 8150 4150
Connection ~ 8150 3850
Wire Wire Line
	5750 7000 5750 6700
Wire Wire Line
	5750 6700 5900 6700
Wire Wire Line
	4600 5400 5600 5400
Wire Wire Line
	4600 4650 4600 5400
Wire Wire Line
	7200 5400 8300 5400
Wire Wire Line
	8300 5400 8300 5150
Wire Wire Line
	8300 5150 8850 5150
Wire Wire Line
	7200 5800 8450 5800
Wire Wire Line
	8450 5800 8450 5250
Wire Wire Line
	8150 3400 7500 3400
Wire Wire Line
	7500 3400 7500 3200
Wire Wire Line
	7850 5350 8100 5350
Wire Wire Line
	8100 5350 8100 3950
Wire Wire Line
	8100 3950 7350 3950
Wire Wire Line
	7350 3950 7350 3100
Connection ~ 7350 3100
Wire Wire Line
	7350 3100 7500 3100
Wire Wire Line
	4000 6050 4000 6100
Wire Wire Line
	4000 6100 4850 6100
Wire Wire Line
	4850 6100 4850 3200
Wire Wire Line
	4850 3200 5500 3200
Connection ~ 4000 6050
Connection ~ 6250 3200
Wire Wire Line
	5750 7000 5500 7000
Wire Wire Line
	5500 7000 5500 3200
Connection ~ 5500 3200
Wire Wire Line
	5500 3200 6250 3200
Wire Wire Line
	4850 6450 4850 6100
Wire Wire Line
	2300 6450 4850 6450
Connection ~ 4850 6100
Wire Wire Line
	1950 6750 4850 6750
Wire Wire Line
	4850 6750 4850 6450
Connection ~ 4850 6450
Wire Wire Line
	1000 7000 1000 7100
Wire Wire Line
	1000 7100 4850 7100
Wire Wire Line
	4850 7100 4850 6750
Connection ~ 4850 6750
Wire Wire Line
	8150 800  8150 3400
Wire Wire Line
	2300 800  8150 800 
Connection ~ 8150 3400
$EndSCHEMATC
