(export (version D)
  (design
    (source C:\Users\Andrew\Desktop\TRSVT\labs_kicad\grishchenko\mps.sch)
    (date "25.12.2019 13:31:24")
    (tool "Eeschema (5.1.5)-2")
    (sheet (number 1) (name /) (tstamps /)
      (title_block
        (title "Спортивный хронометр")
        (company)
        (rev)
        (date)
        (source mps.sch)
        (comment (number 1) (value ""))
        (comment (number 2) (value "Грищенко А.Ф."))
        (comment (number 3) (value ""))
        (comment (number 4) (value "")))))
  (components
    (comp (ref U1)
      (value ATmega8515-16AU)
      (footprint Package_DIP:DIP-48_W15.24mm)
      (datasheet http://ww1.microchip.com/downloads/en/DeviceDoc/doc2512.pdf)
      (libsource (lib MCU_Microchip_ATmega) (part ATmega8515-16AU) (description "16MHz, 8kB Flash, 512B SRAM, 512B EEPROM, TQFP-44"))
      (sheetpath (names /) (tstamps /))
      (tstamp 5E0332DE))
    (comp (ref U2)
      (value LCD-016N002L)
      (footprint Display:LCD-016N002L)
      (datasheet http://www.vishay.com/docs/37299/37299.pdf)
      (libsource (lib Display_Character) (part LCD-016N002L) (description "LCD 12x2, 8 bit parallel bus, 3V or 5V VDD"))
      (sheetpath (names /) (tstamps /))
      (tstamp 5E0352FD))
    (comp (ref U3)
      (value MAX232)
      (footprint Package_DIP:DIP-16_W7.62mm)
      (datasheet http://www.ti.com/lit/ds/symlink/max232.pdf)
      (libsource (lib Interface_UART) (part MAX232) (description "Dual RS232 driver/receiver, 5V supply, 120kb/s, 0C-70C"))
      (sheetpath (names /) (tstamps /))
      (tstamp 5E036271))
    (comp (ref SW8)
      (value SW_Push)
      (footprint Button_Switch_Keyboard:SW_Cherry_MX_1.00u_Plate)
      (datasheet ~)
      (libsource (lib Switch) (part SW_Push) (description "Push button switch, generic, two pins"))
      (sheetpath (names /) (tstamps /))
      (tstamp 5E03DBAC))
    (comp (ref SW9)
      (value SW_Push)
      (footprint Button_Switch_Keyboard:SW_Cherry_MX_1.00u_Plate)
      (datasheet ~)
      (libsource (lib Switch) (part SW_Push) (description "Push button switch, generic, two pins"))
      (sheetpath (names /) (tstamps /))
      (tstamp 5E03E6CC))
    (comp (ref SW2)
      (value SW_Push)
      (footprint Button_Switch_Keyboard:SW_Cherry_MX_1.00u_Plate)
      (datasheet ~)
      (libsource (lib Switch) (part SW_Push) (description "Push button switch, generic, two pins"))
      (sheetpath (names /) (tstamps /))
      (tstamp 5E03E901))
    (comp (ref SW10)
      (value SW_Push)
      (footprint Button_Switch_Keyboard:SW_Cherry_MX_1.00u_Plate)
      (datasheet ~)
      (libsource (lib Switch) (part SW_Push) (description "Push button switch, generic, two pins"))
      (sheetpath (names /) (tstamps /))
      (tstamp 5E03E9C8))
    (comp (ref SW3)
      (value SW_Push)
      (footprint Button_Switch_Keyboard:SW_Cherry_MX_1.00u_Plate)
      (datasheet ~)
      (libsource (lib Switch) (part SW_Push) (description "Push button switch, generic, two pins"))
      (sheetpath (names /) (tstamps /))
      (tstamp 5E03EB3B))
    (comp (ref SW4)
      (value SW_Push)
      (footprint Button_Switch_Keyboard:SW_Cherry_MX_1.00u_Plate)
      (datasheet ~)
      (libsource (lib Switch) (part SW_Push) (description "Push button switch, generic, two pins"))
      (sheetpath (names /) (tstamps /))
      (tstamp 5E03EDAE))
    (comp (ref SW5)
      (value SW_Push)
      (footprint Button_Switch_Keyboard:SW_Cherry_MX_1.00u_Plate)
      (datasheet ~)
      (libsource (lib Switch) (part SW_Push) (description "Push button switch, generic, two pins"))
      (sheetpath (names /) (tstamps /))
      (tstamp 5E03EFA1))
    (comp (ref SW6)
      (value SW_Push)
      (footprint Button_Switch_Keyboard:SW_Cherry_MX_1.00u_Plate)
      (datasheet ~)
      (libsource (lib Switch) (part SW_Push) (description "Push button switch, generic, two pins"))
      (sheetpath (names /) (tstamps /))
      (tstamp 5E03F174))
    (comp (ref SW1)
      (value SW_Push)
      (footprint Button_Switch_Keyboard:SW_Cherry_MX_1.00u_Plate)
      (datasheet ~)
      (libsource (lib Switch) (part SW_Push) (description "Push button switch, generic, two pins"))
      (sheetpath (names /) (tstamps /))
      (tstamp 5E03F2EC))
    (comp (ref SW7)
      (value SW_Push)
      (footprint Button_Switch_Keyboard:SW_Cherry_MX_1.00u_Plate)
      (datasheet ~)
      (libsource (lib Switch) (part SW_Push) (description "Push button switch, generic, two pins"))
      (sheetpath (names /) (tstamps /))
      (tstamp 5E03F3FA))
    (comp (ref Y1)
      (value Crystal)
      (footprint Crystal:Crystal_AT310_D3.0mm_L10.0mm_Horizontal)
      (datasheet ~)
      (libsource (lib Device) (part Crystal) (description "Two pin crystal"))
      (sheetpath (names /) (tstamps /))
      (tstamp 5E07B842))
    (comp (ref C2)
      (value C)
      (footprint Capacitor_SMD:C_1206_3216Metric)
      (datasheet ~)
      (libsource (lib Device) (part C) (description "Unpolarized capacitor"))
      (sheetpath (names /) (tstamps /))
      (tstamp 5E09E6D1))
    (comp (ref C1)
      (value C)
      (footprint Capacitor_SMD:C_1206_3216Metric)
      (datasheet ~)
      (libsource (lib Device) (part C) (description "Unpolarized capacitor"))
      (sheetpath (names /) (tstamps /))
      (tstamp 5E0AC407))
    (comp (ref C3)
      (value C)
      (footprint Capacitor_SMD:C_1206_3216Metric)
      (datasheet ~)
      (libsource (lib Device) (part C) (description "Unpolarized capacitor"))
      (sheetpath (names /) (tstamps /))
      (tstamp 5E0B7DAC))
    (comp (ref C4)
      (value C)
      (footprint Capacitor_SMD:C_1206_3216Metric)
      (datasheet ~)
      (libsource (lib Device) (part C) (description "Unpolarized capacitor"))
      (sheetpath (names /) (tstamps /))
      (tstamp 5E0BCB9F))
    (comp (ref C5)
      (value C)
      (footprint Capacitor_SMD:C_1206_3216Metric)
      (datasheet ~)
      (libsource (lib Device) (part C) (description "Unpolarized capacitor"))
      (sheetpath (names /) (tstamps /))
      (tstamp 5E0C21E4))
    (comp (ref C6)
      (value C)
      (footprint Capacitor_SMD:C_1206_3216Metric)
      (datasheet ~)
      (libsource (lib Device) (part C) (description "Unpolarized capacitor"))
      (sheetpath (names /) (tstamps /))
      (tstamp 5E0CB953))
    (comp (ref J1)
      (value Conn_01x02)
      (footprint Connector_PinHeader_2.54mm:PinHeader_1x02_P2.54mm_Horizontal)
      (datasheet ~)
      (libsource (lib Connector_Generic) (part Conn_01x02) (description "Generic connector, single row, 01x02, script generated (kicad-library-utils/schlib/autogen/connector/)"))
      (sheetpath (names /) (tstamps /))
      (tstamp 5E06D7A0))
    (comp (ref J2)
      (value DB9_Female)
      (footprint Connector_Dsub:DSUB-9_Female_Vertical_P2.77x2.84mm)
      (datasheet " ~")
      (libsource (lib Connector) (part DB9_Female) (description "9-pin female D-SUB connector"))
      (sheetpath (names /) (tstamps /))
      (tstamp 5E04FD68)))
  (libparts
    (libpart (lib Connector) (part DB9_Female)
      (description "9-pin female D-SUB connector")
      (docs " ~")
      (footprints
        (fp DSUB*Female*))
      (fields
        (field (name Reference) J)
        (field (name Value) DB9_Female))
      (pins
        (pin (num 1) (name 1) (type passive))
        (pin (num 2) (name 2) (type passive))
        (pin (num 3) (name 3) (type passive))
        (pin (num 4) (name 4) (type passive))
        (pin (num 5) (name 5) (type passive))
        (pin (num 6) (name 6) (type passive))
        (pin (num 7) (name 7) (type passive))
        (pin (num 8) (name 8) (type passive))
        (pin (num 9) (name 9) (type passive))))
    (libpart (lib Connector_Generic) (part Conn_01x02)
      (description "Generic connector, single row, 01x02, script generated (kicad-library-utils/schlib/autogen/connector/)")
      (docs ~)
      (footprints
        (fp Connector*:*_1x??_*))
      (fields
        (field (name Reference) J)
        (field (name Value) Conn_01x02))
      (pins
        (pin (num 1) (name Pin_1) (type passive))
        (pin (num 2) (name Pin_2) (type passive))))
    (libpart (lib Device) (part C)
      (description "Unpolarized capacitor")
      (docs ~)
      (footprints
        (fp C_*))
      (fields
        (field (name Reference) C)
        (field (name Value) C))
      (pins
        (pin (num 1) (name ~) (type passive))
        (pin (num 2) (name ~) (type passive))))
    (libpart (lib Device) (part Crystal)
      (description "Two pin crystal")
      (docs ~)
      (footprints
        (fp Crystal*))
      (fields
        (field (name Reference) Y)
        (field (name Value) Crystal))
      (pins
        (pin (num 1) (name 1) (type passive))
        (pin (num 2) (name 2) (type passive))))
    (libpart (lib Display_Character) (part LCD-016N002L)
      (description "LCD 12x2, 8 bit parallel bus, 3V or 5V VDD")
      (docs http://www.vishay.com/docs/37299/37299.pdf)
      (footprints
        (fp *LCD*016N002L*))
      (fields
        (field (name Reference) U)
        (field (name Value) LCD-016N002L)
        (field (name Footprint) Display:LCD-016N002L))
      (pins
        (pin (num 1) (name VSS) (type power_in))
        (pin (num 2) (name VDD) (type power_in))
        (pin (num 3) (name VO) (type input))
        (pin (num 4) (name RS) (type input))
        (pin (num 5) (name R/~W) (type input))
        (pin (num 6) (name E) (type input))
        (pin (num 7) (name DB0) (type BiDi))
        (pin (num 8) (name DB1) (type BiDi))
        (pin (num 9) (name DB2) (type BiDi))
        (pin (num 10) (name DB3) (type BiDi))
        (pin (num 11) (name DB4) (type BiDi))
        (pin (num 12) (name DB5) (type BiDi))
        (pin (num 13) (name DB6) (type BiDi))
        (pin (num 14) (name DB7) (type BiDi))
        (pin (num 15) (name A/VEE) (type power_in))
        (pin (num 16) (name K) (type power_in))
        (pin (num A1) (name A1) (type power_in))
        (pin (num A2) (name A2) (type power_in))
        (pin (num K1) (name K1) (type power_in))
        (pin (num K2) (name K2) (type power_in))))
    (libpart (lib Interface_UART) (part MAX232)
      (aliases
        (alias MAX232I)
        (alias MAX202)
        (alias ADM232A)
        (alias MAX3232)
        (alias ICL3232))
      (description "Dual RS232 driver/receiver, 5V supply, 120kb/s, 0C-70C")
      (docs http://www.ti.com/lit/ds/symlink/max232.pdf)
      (footprints
        (fp SOIC*P1.27mm*)
        (fp DIP*W7.62mm*)
        (fp TSSOP*4.4x5mm*P0.65mm*))
      (fields
        (field (name Reference) U)
        (field (name Value) MAX232))
      (pins
        (pin (num 1) (name C1+) (type passive))
        (pin (num 2) (name VS+) (type power_out))
        (pin (num 3) (name C1-) (type passive))
        (pin (num 4) (name C2+) (type passive))
        (pin (num 5) (name C2-) (type passive))
        (pin (num 6) (name VS-) (type power_out))
        (pin (num 7) (name T2OUT) (type output))
        (pin (num 8) (name R2IN) (type input))
        (pin (num 9) (name R2OUT) (type output))
        (pin (num 10) (name T2IN) (type input))
        (pin (num 11) (name T1IN) (type input))
        (pin (num 12) (name R1OUT) (type output))
        (pin (num 13) (name R1IN) (type input))
        (pin (num 14) (name T1OUT) (type output))
        (pin (num 15) (name GND) (type power_in))
        (pin (num 16) (name VCC) (type power_in))))
    (libpart (lib MCU_Microchip_ATmega) (part ATmega8515L-8AU)
      (aliases
        (alias ATmega8515-16AU))
      (description "8MHz, 8kB Flash, 512B SRAM, 512B EEPROM, TQFP-44")
      (docs http://ww1.microchip.com/downloads/en/DeviceDoc/doc2512.pdf)
      (footprints
        (fp TQFP*10x10mm*P0.8mm*))
      (fields
        (field (name Reference) U)
        (field (name Value) ATmega8515L-8AU)
        (field (name Footprint) Package_QFP:TQFP-44_10x10mm_P0.8mm))
      (pins
        (pin (num 1) (name PB5) (type BiDi))
        (pin (num 2) (name PB6) (type BiDi))
        (pin (num 3) (name PB7) (type BiDi))
        (pin (num 4) (name ~RESET) (type input))
        (pin (num 5) (name PD0) (type BiDi))
        (pin (num 6) (name NC) (type NotConnected))
        (pin (num 7) (name PD1) (type BiDi))
        (pin (num 8) (name PD2) (type BiDi))
        (pin (num 9) (name PD3) (type BiDi))
        (pin (num 10) (name PD4) (type BiDi))
        (pin (num 11) (name PD5) (type BiDi))
        (pin (num 12) (name PD6) (type BiDi))
        (pin (num 13) (name PD7) (type BiDi))
        (pin (num 14) (name XTAL2) (type output))
        (pin (num 15) (name XTAL1) (type input))
        (pin (num 16) (name GND) (type power_in))
        (pin (num 17) (name NC) (type NotConnected))
        (pin (num 18) (name PC0) (type BiDi))
        (pin (num 19) (name PC1) (type BiDi))
        (pin (num 20) (name PC2) (type BiDi))
        (pin (num 21) (name PC3) (type BiDi))
        (pin (num 22) (name PC4) (type BiDi))
        (pin (num 23) (name PC5) (type BiDi))
        (pin (num 24) (name PC6) (type BiDi))
        (pin (num 25) (name PC7) (type BiDi))
        (pin (num 26) (name PE2) (type BiDi))
        (pin (num 27) (name PE1) (type BiDi))
        (pin (num 28) (name NC) (type NotConnected))
        (pin (num 29) (name PE0) (type BiDi))
        (pin (num 30) (name PA7) (type BiDi))
        (pin (num 31) (name PA6) (type BiDi))
        (pin (num 32) (name PA5) (type BiDi))
        (pin (num 33) (name PA4) (type BiDi))
        (pin (num 34) (name PA3) (type BiDi))
        (pin (num 35) (name PA2) (type BiDi))
        (pin (num 36) (name PA1) (type BiDi))
        (pin (num 37) (name PA0) (type BiDi))
        (pin (num 38) (name VCC) (type power_in))
        (pin (num 39) (name NC) (type NotConnected))
        (pin (num 40) (name PB0) (type BiDi))
        (pin (num 41) (name PB1) (type BiDi))
        (pin (num 42) (name PB2) (type BiDi))
        (pin (num 43) (name PB3) (type BiDi))
        (pin (num 44) (name PB4) (type BiDi))))
    (libpart (lib Switch) (part SW_Push)
      (description "Push button switch, generic, two pins")
      (docs ~)
      (fields
        (field (name Reference) SW)
        (field (name Value) SW_Push))
      (pins
        (pin (num 1) (name 1) (type passive))
        (pin (num 2) (name 2) (type passive)))))
  (libraries
    (library (logical Connector)
      (uri "C:\\Program Files\\KiCad\\share\\kicad\\library/Connector.lib"))
    (library (logical Connector_Generic)
      (uri "C:\\Program Files\\KiCad\\share\\kicad\\library/Connector_Generic.lib"))
    (library (logical Device)
      (uri "C:\\Program Files\\KiCad\\share\\kicad\\library/Device.lib"))
    (library (logical Display_Character)
      (uri "C:\\Program Files\\KiCad\\share\\kicad\\library/Display_Character.lib"))
    (library (logical Interface_UART)
      (uri "C:\\Program Files\\KiCad\\share\\kicad\\library/Interface_UART.lib"))
    (library (logical MCU_Microchip_ATmega)
      (uri "C:\\Program Files\\KiCad\\share\\kicad\\library/MCU_Microchip_ATmega.lib"))
    (library (logical Switch)
      (uri "C:\\Program Files\\KiCad\\share\\kicad\\library/Switch.lib")))
  (nets
    (net (code 1) (name "Net-(C2-Pad1)")
      (node (ref U1) (pin 14))
      (node (ref Y1) (pin 1))
      (node (ref C2) (pin 1)))
    (net (code 2) (name "Net-(C1-Pad1)")
      (node (ref Y1) (pin 2))
      (node (ref U1) (pin 15))
      (node (ref C1) (pin 1)))
    (net (code 3) (name "Net-(C5-Pad1)")
      (node (ref C5) (pin 1))
      (node (ref U3) (pin 6)))
    (net (code 4) (name "Net-(C4-Pad2)")
      (node (ref U3) (pin 5))
      (node (ref C4) (pin 2)))
    (net (code 5) (name "Net-(C4-Pad1)")
      (node (ref U3) (pin 4))
      (node (ref C4) (pin 1)))
    (net (code 6) (name "Net-(U1-Pad7)")
      (node (ref U3) (pin 11))
      (node (ref U1) (pin 7)))
    (net (code 7) (name "Net-(C3-Pad2)")
      (node (ref C3) (pin 2))
      (node (ref U3) (pin 3)))
    (net (code 8) (name "Net-(C3-Pad1)")
      (node (ref U3) (pin 1))
      (node (ref C3) (pin 1)))
    (net (code 9) (name "Net-(U1-Pad24)")
      (node (ref U1) (pin 24))
      (node (ref U2) (pin 12)))
    (net (code 10) (name "Net-(U1-Pad23)")
      (node (ref U1) (pin 23))
      (node (ref U2) (pin 13)))
    (net (code 11) (name "Net-(U1-Pad22)")
      (node (ref U2) (pin 14))
      (node (ref U1) (pin 22)))
    (net (code 12) (name "Net-(U1-Pad41)")
      (node (ref U1) (pin 41))
      (node (ref U2) (pin 5)))
    (net (code 13) (name "Net-(U1-Pad5)")
      (node (ref U1) (pin 5))
      (node (ref U3) (pin 12)))
    (net (code 14) (name "Net-(U1-Pad42)")
      (node (ref U2) (pin 4))
      (node (ref U1) (pin 42)))
    (net (code 15) (name "Net-(U1-Pad40)")
      (node (ref U2) (pin 6))
      (node (ref U1) (pin 40)))
    (net (code 16) (name "Net-(U1-Pad25)")
      (node (ref U2) (pin 11))
      (node (ref U1) (pin 25)))
    (net (code 17) (name "Net-(J2-Pad2)")
      (node (ref U3) (pin 13))
      (node (ref J2) (pin 2)))
    (net (code 18) (name "Net-(J2-Pad6)")
      (node (ref U3) (pin 14))
      (node (ref J2) (pin 6)))
    (net (code 19) (name "Net-(C6-Pad1)")
      (node (ref U3) (pin 16))
      (node (ref J1) (pin 2))
      (node (ref C6) (pin 1))
      (node (ref U1) (pin 38)))
    (net (code 20) (name "Net-(C6-Pad2)")
      (node (ref C6) (pin 2))
      (node (ref U3) (pin 2)))
    (net (code 21) (name "Net-(J2-Pad8)")
      (node (ref J2) (pin 8)))
    (net (code 22) (name "Net-(J2-Pad9)")
      (node (ref J2) (pin 9)))
    (net (code 23) (name "Net-(J2-Pad7)")
      (node (ref J2) (pin 7)))
    (net (code 24) (name "Net-(J2-Pad5)")
      (node (ref J2) (pin 5)))
    (net (code 25) (name "Net-(J2-Pad4)")
      (node (ref J2) (pin 4)))
    (net (code 26) (name "Net-(J2-Pad3)")
      (node (ref J2) (pin 3)))
    (net (code 27) (name "Net-(J2-Pad1)")
      (node (ref J2) (pin 1)))
    (net (code 28) (name "Net-(U2-Pad2)")
      (node (ref U2) (pin 2)))
    (net (code 29) (name "Net-(U2-Pad16)")
      (node (ref U2) (pin 16)))
    (net (code 30) (name "Net-(U2-Pad15)")
      (node (ref U2) (pin 15)))
    (net (code 31) (name "Net-(U2-Pad10)")
      (node (ref U2) (pin 10)))
    (net (code 32) (name "Net-(U2-Pad3)")
      (node (ref U2) (pin 3)))
    (net (code 33) (name "Net-(U1-Pad6)")
      (node (ref U1) (pin 6)))
    (net (code 34) (name "Net-(U1-Pad44)")
      (node (ref U1) (pin 44)))
    (net (code 35) (name "Net-(U1-Pad43)")
      (node (ref U1) (pin 43)))
    (net (code 36) (name "Net-(U2-PadA2)")
      (node (ref U2) (pin A2)))
    (net (code 37) (name "Net-(U3-Pad10)")
      (node (ref U3) (pin 10)))
    (net (code 38) (name "Net-(U2-PadK2)")
      (node (ref U2) (pin K2)))
    (net (code 39) (name "Net-(U2-PadK1)")
      (node (ref U2) (pin K1)))
    (net (code 40) (name "Net-(U2-PadA1)")
      (node (ref U2) (pin A1)))
    (net (code 41) (name "Net-(U2-Pad9)")
      (node (ref U2) (pin 9)))
    (net (code 42) (name "Net-(U2-Pad8)")
      (node (ref U2) (pin 8)))
    (net (code 43) (name "Net-(U2-Pad7)")
      (node (ref U2) (pin 7)))
    (net (code 44) (name "Net-(U1-Pad18)")
      (node (ref U1) (pin 18)))
    (net (code 45) (name "Net-(U1-Pad21)")
      (node (ref U1) (pin 21)))
    (net (code 46) (name "Net-(U1-Pad20)")
      (node (ref U1) (pin 20)))
    (net (code 47) (name "Net-(U1-Pad2)")
      (node (ref U1) (pin 2)))
    (net (code 48) (name "Net-(U1-Pad19)")
      (node (ref U1) (pin 19)))
    (net (code 49) (name "Net-(U1-Pad26)")
      (node (ref U1) (pin 26)))
    (net (code 50) (name "Net-(U1-Pad17)")
      (node (ref U1) (pin 17)))
    (net (code 51) (name "Net-(U1-Pad13)")
      (node (ref U1) (pin 13)))
    (net (code 52) (name "Net-(U1-Pad12)")
      (node (ref U1) (pin 12)))
    (net (code 53) (name "Net-(U1-Pad11)")
      (node (ref U1) (pin 11)))
    (net (code 54) (name "Net-(U1-Pad10)")
      (node (ref U1) (pin 10)))
    (net (code 55) (name "Net-(U1-Pad4)")
      (node (ref U1) (pin 4)))
    (net (code 56) (name "Net-(U1-Pad39)")
      (node (ref U1) (pin 39)))
    (net (code 57) (name "Net-(SW2-Pad1)")
      (node (ref SW2) (pin 1))
      (node (ref U1) (pin 35)))
    (net (code 58) (name "Net-(U1-Pad3)")
      (node (ref U1) (pin 3)))
    (net (code 59) (name "Net-(U1-Pad29)")
      (node (ref U1) (pin 29)))
    (net (code 60) (name "Net-(U1-Pad28)")
      (node (ref U1) (pin 28)))
    (net (code 61) (name "Net-(U1-Pad27)")
      (node (ref U1) (pin 27)))
    (net (code 62) (name "Net-(SW4-Pad1)")
      (node (ref U1) (pin 32))
      (node (ref SW4) (pin 1)))
    (net (code 63) (name "Net-(SW6-Pad1)")
      (node (ref SW6) (pin 1))
      (node (ref U1) (pin 30)))
    (net (code 64) (name "Net-(SW5-Pad1)")
      (node (ref SW5) (pin 1))
      (node (ref U1) (pin 31)))
    (net (code 65) (name "Net-(SW1-Pad1)")
      (node (ref SW1) (pin 1))
      (node (ref U1) (pin 8)))
    (net (code 66) (name "Net-(SW3-Pad1)")
      (node (ref SW3) (pin 1))
      (node (ref U1) (pin 33)))
    (net (code 67) (name "Net-(SW10-Pad1)")
      (node (ref SW10) (pin 1))
      (node (ref U1) (pin 34)))
    (net (code 68) (name "Net-(C1-Pad2)")
      (node (ref SW5) (pin 2))
      (node (ref SW3) (pin 2))
      (node (ref SW6) (pin 2))
      (node (ref SW1) (pin 2))
      (node (ref SW4) (pin 2))
      (node (ref SW7) (pin 2))
      (node (ref SW10) (pin 2))
      (node (ref SW2) (pin 2))
      (node (ref SW9) (pin 2))
      (node (ref SW8) (pin 2))
      (node (ref U3) (pin 15))
      (node (ref C5) (pin 2))
      (node (ref C2) (pin 2))
      (node (ref C1) (pin 2))
      (node (ref U1) (pin 16))
      (node (ref U2) (pin 1))
      (node (ref J1) (pin 1)))
    (net (code 69) (name "Net-(SW7-Pad1)")
      (node (ref SW7) (pin 1))
      (node (ref U1) (pin 9)))
    (net (code 70) (name "Net-(U3-Pad9)")
      (node (ref U3) (pin 9)))
    (net (code 71) (name "Net-(SW9-Pad1)")
      (node (ref U1) (pin 36))
      (node (ref SW9) (pin 1)))
    (net (code 72) (name "Net-(SW8-Pad1)")
      (node (ref U1) (pin 37))
      (node (ref SW8) (pin 1)))
    (net (code 73) (name "Net-(U3-Pad8)")
      (node (ref U3) (pin 8)))
    (net (code 74) (name "Net-(U3-Pad7)")
      (node (ref U3) (pin 7)))
    (net (code 75) (name "Net-(U1-Pad1)")
      (node (ref U1) (pin 1)))))