EESchema Schematic File Version 4
LIBS:lab-cache
EELAYER 30 0
EELAYER END
$Descr A4 11693 8268
encoding utf-8
Sheet 1 1
Title ""
Date ""
Rev ""
Comp ""
Comment1 ""
Comment2 ""
Comment3 ""
Comment4 ""
$EndDescr
$Comp
L Device:LED D1
U 1 1 5E1B587B
P 4050 5900
F 0 "D1" V 3997 5978 50  0000 L CNN
F 1 "LED" V 4088 5978 50  0000 L CNN
F 2 "LED_THT:LED_D3.0mm" H 4050 5900 50  0001 C CNN
F 3 "~" H 4050 5900 50  0001 C CNN
	1    4050 5900
	0    1    1    0   
$EndComp
$Comp
L Device:LED D2
U 1 1 5E1B5DAE
P 4300 5900
F 0 "D2" V 4247 5978 50  0000 L CNN
F 1 "LED" V 4338 5978 50  0000 L CNN
F 2 "LED_THT:LED_D3.0mm" H 4300 5900 50  0001 C CNN
F 3 "~" H 4300 5900 50  0001 C CNN
	1    4300 5900
	0    1    1    0   
$EndComp
$Comp
L Device:LED D3
U 1 1 5E1B6112
P 4600 5900
F 0 "D3" V 4547 5978 50  0000 L CNN
F 1 "LED" V 4638 5978 50  0000 L CNN
F 2 "LED_THT:LED_D3.0mm" H 4600 5900 50  0001 C CNN
F 3 "~" H 4600 5900 50  0001 C CNN
	1    4600 5900
	0    1    1    0   
$EndComp
$Comp
L lab-rescue:LM016L-LM016L DS1
U 1 1 5E1D4471
P 5700 1350
F 0 "DS1" V 5646 620 50  0000 R CNN
F 1 "LM016L" V 5555 620 50  0000 R CNN
F 2 "Display:LM16255" H 5700 1350 50  0000 L BNN
F 3 "Hitachi" H 5700 1350 50  0001 L BNN
	1    5700 1350
	0    -1   -1   0   
$EndComp
$Comp
L power:Earth #PWR06
U 1 1 5E1DACFC
P 7250 950
F 0 "#PWR06" H 7250 700 50  0001 C CNN
F 1 "Earth" H 7250 800 50  0001 C CNN
F 2 "" H 7250 950 50  0001 C CNN
F 3 "~" H 7250 950 50  0001 C CNN
	1    7250 950 
	0    -1   -1   0   
$EndComp
Wire Wire Line
	4050 5600 4050 5750
Wire Wire Line
	4300 5600 4300 5750
Wire Wire Line
	4600 5600 4600 5750
$Comp
L my_Library1:DS-201 XP1
U 1 1 5E21F687
P 1300 1050
F 0 "XP1" H 1333 1165 50  0000 C CNN
F 1 "DS-201" H 1333 1074 50  0000 C CNN
F 2 "Connector:Banana_Jack_2Pin" H 1200 1100 50  0001 C CNN
F 3 "" H 1200 1100 50  0001 C CNN
	1    1300 1050
	1    0    0    -1  
$EndComp
$Comp
L my_Library1:IDC-06MS XP3
U 1 1 5E220780
P 8050 900
F 0 "XP3" H 8378 320 50  0000 L CNN
F 1 "IDC-06MS" H 8378 229 50  0000 L CNN
F 2 "Connector_IDC:IDC-Header_2x03_P2.54mm_Horizontal" H 8050 900 50  0001 C CNN
F 3 "" H 8050 900 50  0001 C CNN
	1    8050 900 
	1    0    0    -1  
$EndComp
$Comp
L lab-rescue:ATmega8515-16AU-MCU_Microchip_ATmega U3
U 1 1 5E1C5533
P 7250 4600
F 0 "U3" H 7250 6781 50  0000 C CNN
F 1 "ATmega8515-16AU" H 7250 6690 50  0000 C CNN
F 2 "Package_QFP:TQFP-44_10x10mm_P0.8mm" H 7250 4600 50  0001 C CIN
F 3 "http://ww1.microchip.com/downloads/en/DeviceDoc/doc2512.pdf" H 7250 4600 50  0001 C CNN
	1    7250 4600
	-1   0    0    -1  
$EndComp
NoConn ~ 6650 6100
NoConn ~ 6650 6200
NoConn ~ 6650 3900
NoConn ~ 6650 4000
NoConn ~ 6650 4100
NoConn ~ 6650 4200
Wire Wire Line
	6500 3600 6650 3600
Wire Wire Line
	6500 3500 6650 3500
Wire Wire Line
	6500 3400 6650 3400
Wire Wire Line
	6500 3300 6650 3300
Wire Wire Line
	6500 3200 6650 3200
Wire Wire Line
	6500 3100 6650 3100
Wire Wire Line
	6500 3000 6650 3000
Entry Wire Line
	5600 2250 5700 2350
Entry Wire Line
	5700 2250 5800 2350
Entry Wire Line
	5800 2250 5900 2350
Entry Wire Line
	5900 2250 6000 2350
Entry Wire Line
	6000 2250 6100 2350
Entry Wire Line
	6100 2250 6200 2350
Entry Wire Line
	6200 2250 6300 2350
Entry Wire Line
	6300 2250 6400 2350
Wire Wire Line
	5600 1950 5600 2250
Wire Wire Line
	5700 1950 5700 2250
Wire Wire Line
	5800 1950 5800 2250
Wire Wire Line
	5900 1950 5900 2250
Wire Wire Line
	6000 1950 6000 2250
Wire Wire Line
	6300 1950 6300 2250
Entry Wire Line
	6300 4700 6200 4600
Entry Wire Line
	6200 4700 6300 4800
Entry Wire Line
	6200 4800 6300 4900
Wire Wire Line
	6300 4700 6650 4700
Wire Wire Line
	6300 4800 6650 4800
Wire Wire Line
	6300 4900 6650 4900
Entry Wire Line
	5300 2350 5200 2250
Entry Wire Line
	5400 2350 5300 2250
Wire Wire Line
	5200 1950 5200 2250
Wire Wire Line
	5300 1950 5300 2250
Wire Wire Line
	5400 2250 5400 1950
Entry Wire Line
	5500 2350 5400 2250
Wire Bus Line
	7350 2550 5950 2550
Wire Wire Line
	6650 4500 6050 4500
Entry Wire Line
	5950 4400 6050 4500
Wire Wire Line
	6050 4400 6650 4400
Wire Wire Line
	6050 4300 6650 4300
Entry Wire Line
	5950 4300 6050 4400
Entry Wire Line
	5950 4200 6050 4300
Entry Wire Line
	7350 1150 7450 1250
Wire Wire Line
	7650 1550 7450 1550
Wire Wire Line
	7650 1700 7450 1700
Entry Wire Line
	7350 1450 7450 1550
Entry Wire Line
	7350 1600 7450 1700
$Comp
L power:+5V #PWR09
U 1 1 5E359D76
P 7500 800
F 0 "#PWR09" H 7500 650 50  0001 C CNN
F 1 "+5V" H 7515 973 50  0000 C CNN
F 2 "" H 7500 800 50  0001 C CNN
F 3 "" H 7500 800 50  0001 C CNN
	1    7500 800 
	1    0    0    -1  
$EndComp
Wire Wire Line
	7650 2000 7550 2000
Wire Wire Line
	7550 2000 7550 2150
$Comp
L power:Earth #PWR010
U 1 1 5E35DFD9
P 7550 2150
F 0 "#PWR010" H 7550 1900 50  0001 C CNN
F 1 "Earth" H 7550 2000 50  0001 C CNN
F 2 "" H 7550 2150 50  0001 C CNN
F 3 "~" H 7550 2150 50  0001 C CNN
	1    7550 2150
	1    0    0    -1  
$EndComp
Wire Wire Line
	7650 1850 7600 1850
Wire Wire Line
	7600 1850 7600 2100
Wire Wire Line
	7600 2100 7950 2100
Wire Wire Line
	7950 2100 7950 2850
Wire Wire Line
	7950 2900 7850 2900
$Comp
L Device:R R1
U 1 1 5E3661EF
P 8450 2300
F 0 "R1" H 8520 2346 50  0000 L CNN
F 1 "10кОм" H 8520 2255 50  0000 L CNN
F 2 "Resistor_THT:R_Axial_DIN0204_L3.6mm_D1.6mm_P7.62mm_Horizontal" V 8380 2300 50  0001 C CNN
F 3 "~" H 8450 2300 50  0001 C CNN
	1    8450 2300
	1    0    0    -1  
$EndComp
$Comp
L Device:C C5
U 1 1 5E21EC54
P 8450 2700
F 0 "C5" H 8565 2746 50  0000 L CNN
F 1 "22пф" H 8565 2655 50  0000 L CNN
F 2 "Capacitor_SMD:C_0201_0603Metric" H 8488 2550 50  0001 C CNN
F 3 "~" H 8450 2700 50  0001 C CNN
	1    8450 2700
	1    0    0    -1  
$EndComp
Wire Wire Line
	8450 2850 8150 2850
Connection ~ 7950 2850
Wire Wire Line
	7950 2850 7950 2900
Wire Wire Line
	8450 2550 8450 2450
$Comp
L power:+5V #PWR011
U 1 1 5E2256A1
P 8450 2000
F 0 "#PWR011" H 8450 1850 50  0001 C CNN
F 1 "+5V" H 8465 2173 50  0000 C CNN
F 2 "" H 8450 2000 50  0001 C CNN
F 3 "" H 8450 2000 50  0001 C CNN
	1    8450 2000
	1    0    0    -1  
$EndComp
Wire Wire Line
	8450 2000 8450 2150
Wire Wire Line
	8150 2850 8150 3150
Wire Wire Line
	8150 3150 8250 3150
Connection ~ 8150 2850
Wire Wire Line
	8150 2850 7950 2850
$Comp
L Switch:SW_Push SW1
U 1 1 5E22C8D3
P 8450 3150
F 0 "SW1" H 8450 3435 50  0000 C CNN
F 1 "SW_Push" H 8450 3344 50  0000 C CNN
F 2 "Button_Switch_SMD:SW_Push_1P1T_NO_6x6mm_H9.5mm" H 8450 3350 50  0001 C CNN
F 3 "~" H 8450 3350 50  0001 C CNN
	1    8450 3150
	1    0    0    -1  
$EndComp
$Comp
L Regulator_Linear:LM78M05_TO220 U1
U 1 1 5E231E9B
P 2600 950
F 0 "U1" H 2600 1192 50  0000 C CNN
F 1 "LM78M05_TO220" H 2600 1101 50  0000 C CNN
F 2 "Package_TO_SOT_THT:TO-220-3_Vertical" H 2600 1175 50  0001 C CIN
F 3 "http://www.fairchildsemi.com/ds/LM/LM78M05.pdf" H 2600 900 50  0001 C CNN
	1    2600 950 
	1    0    0    -1  
$EndComp
Wire Wire Line
	1600 1300 1700 1300
Wire Wire Line
	1700 1300 1700 950 
Wire Wire Line
	1700 950  1850 950 
Wire Wire Line
	2800 950  2900 950 
Wire Wire Line
	1600 1450 1850 1450
$Comp
L Device:C C3
U 1 1 5E244E7B
P 3100 1200
F 0 "C3" H 3215 1246 50  0000 L CNN
F 1 "1мкФ" H 3215 1155 50  0000 L CNN
F 2 "Capacitor_SMD:C_0201_0603Metric" H 3138 1050 50  0001 C CNN
F 3 "~" H 3100 1200 50  0001 C CNN
	1    3100 1200
	1    0    0    -1  
$EndComp
$Comp
L Device:C C2
U 1 1 5E2458C1
P 2150 1200
F 0 "C2" H 2265 1246 50  0000 L CNN
F 1 "100нФ" H 2265 1155 50  0000 L CNN
F 2 "Capacitor_SMD:C_0201_0603Metric" H 2188 1050 50  0001 C CNN
F 3 "~" H 2150 1200 50  0001 C CNN
	1    2150 1200
	1    0    0    -1  
$EndComp
Wire Wire Line
	3100 950  3100 1050
Wire Wire Line
	3100 1350 3100 1450
Wire Wire Line
	1850 950  1850 1050
Connection ~ 1850 950 
Wire Wire Line
	1850 1350 1850 1450
Connection ~ 1850 1450
Wire Wire Line
	2900 950  3100 950 
Connection ~ 2900 950 
Wire Wire Line
	1850 1450 2150 1450
Wire Wire Line
	1850 950  2150 950 
Wire Wire Line
	2150 950  2150 1050
Connection ~ 2150 950 
Wire Wire Line
	2150 950  2300 950 
Wire Wire Line
	2150 1350 2150 1450
Connection ~ 2150 1450
$Comp
L Device:CP C1
U 1 1 5E28291F
P 1850 1200
F 0 "C1" H 1968 1246 50  0000 L CNN
F 1 "100нф" H 1968 1155 50  0000 L CNN
F 2 "Capacitor_SMD:CP_Elec_3x5.3" H 1888 1050 50  0001 C CNN
F 3 "~" H 1850 1200 50  0001 C CNN
	1    1850 1200
	1    0    0    -1  
$EndComp
$Comp
L power:+5V #PWR04
U 1 1 5E283055
P 5200 800
F 0 "#PWR04" H 5200 650 50  0001 C CNN
F 1 "+5V" H 5215 973 50  0000 C CNN
F 2 "" H 5200 800 50  0001 C CNN
F 3 "" H 5200 800 50  0001 C CNN
	1    5200 800 
	1    0    0    -1  
$EndComp
$Comp
L power:+5V #PWR03
U 1 1 5E283CFF
P 2600 2000
F 0 "#PWR03" H 2600 1850 50  0001 C CNN
F 1 "+5V" H 2615 2173 50  0000 C CNN
F 2 "" H 2600 2000 50  0001 C CNN
F 3 "" H 2600 2000 50  0001 C CNN
	1    2600 2000
	1    0    0    -1  
$EndComp
Wire Wire Line
	7850 3100 8100 3100
Wire Wire Line
	8100 3100 8100 3550
Wire Wire Line
	7850 3300 7900 3300
$Comp
L Device:Crystal Y1
U 1 1 5E29BB75
P 8250 3700
F 0 "Y1" V 8204 3831 50  0000 L CNN
F 1 "4MHz" V 8295 3831 50  0000 L CNN
F 2 "Crystal:Crystal_HC49-U_Horizontal" H 8250 3700 50  0001 C CNN
F 3 "~" H 8250 3700 50  0001 C CNN
	1    8250 3700
	0    1    1    0   
$EndComp
Connection ~ 8250 3550
Wire Wire Line
	8250 3550 8450 3550
Wire Wire Line
	7900 3300 7900 3850
Connection ~ 8250 3850
Wire Wire Line
	8250 3850 8450 3850
$Comp
L Device:C C6
U 1 1 5E2A88F4
P 8600 3550
F 0 "C6" V 8348 3550 50  0000 C CNN
F 1 "22пФ" V 8439 3550 50  0000 C CNN
F 2 "Capacitor_SMD:C_0201_0603Metric" H 8638 3400 50  0001 C CNN
F 3 "~" H 8600 3550 50  0001 C CNN
	1    8600 3550
	0    1    1    0   
$EndComp
$Comp
L Device:C C7
U 1 1 5E2A8F5B
P 8600 3850
F 0 "C7" V 8348 3850 50  0000 C CNN
F 1 "22пФ" V 8439 3850 50  0000 C CNN
F 2 "Capacitor_SMD:C_0201_0603Metric" H 8638 3700 50  0001 C CNN
F 3 "~" H 8600 3850 50  0001 C CNN
	1    8600 3850
	0    1    1    0   
$EndComp
Wire Wire Line
	7900 3850 8250 3850
Wire Wire Line
	8100 3550 8250 3550
Wire Wire Line
	8750 3550 9000 3550
Wire Wire Line
	9000 3550 9000 3700
Wire Wire Line
	8750 3850 8850 3850
$Comp
L power:Earth #PWR013
U 1 1 5E2BB6B8
P 9000 3700
F 0 "#PWR013" H 9000 3450 50  0001 C CNN
F 1 "Earth" H 9000 3550 50  0001 C CNN
F 2 "" H 9000 3700 50  0001 C CNN
F 3 "~" H 9000 3700 50  0001 C CNN
	1    9000 3700
	1    0    0    -1  
$EndComp
Wire Wire Line
	8850 3850 8850 4000
$Comp
L power:Earth #PWR012
U 1 1 5E2BC299
P 8850 4000
F 0 "#PWR012" H 8850 3750 50  0001 C CNN
F 1 "Earth" H 8850 3850 50  0001 C CNN
F 2 "" H 8850 4000 50  0001 C CNN
F 3 "~" H 8850 4000 50  0001 C CNN
	1    8850 4000
	1    0    0    -1  
$EndComp
NoConn ~ 6650 6300
Entry Wire Line
	6400 3700 6500 3600
Entry Wire Line
	6400 3600 6500 3500
Entry Wire Line
	6400 3500 6500 3400
Entry Wire Line
	6400 3400 6500 3300
Entry Wire Line
	6400 3300 6500 3200
Entry Wire Line
	6400 3200 6500 3100
Entry Wire Line
	6400 3100 6500 3000
Entry Wire Line
	6400 3000 6500 2900
Wire Wire Line
	6500 2900 6650 2900
Wire Wire Line
	7450 1250 7650 1250
Text Label 5200 2000 0    50   ~ 0
A1
Text Label 5300 2000 0    50   ~ 0
A2
Text Label 5400 2000 0    50   ~ 0
A3
Text Label 5600 2000 0    50   ~ 0
A4
Text Label 5700 2000 0    50   ~ 0
A5
Text Label 5800 2000 0    50   ~ 0
A6
Text Label 5900 2000 0    50   ~ 0
A7
Text Label 6550 2900 0    50   ~ 0
A4
Text Label 6550 3000 0    50   ~ 0
A5
Text Label 6550 3100 0    50   ~ 0
A6
Text Label 6550 3200 0    50   ~ 0
A7
Text Label 6550 3400 0    50   ~ 0
A9
Text Label 6500 3600 0    50   ~ 0
A11
Text Label 6500 3500 0    50   ~ 0
A10
Text Label 6550 3300 0    50   ~ 0
A8
Text Label 7900 5800 0    50   ~ 0
A1
Text Label 7900 5700 0    50   ~ 0
A3
Text Label 7900 5600 0    50   ~ 0
A2
NoConn ~ 6650 5100
Wire Wire Line
	6100 1950 6100 2250
Wire Wire Line
	6200 1950 6200 2250
Text Label 6000 2000 0    50   ~ 0
A8
Text Label 6100 2000 0    50   ~ 0
A9
Text Label 6200 2000 0    50   ~ 0
A10
Text Label 6300 2000 0    50   ~ 0
A11
Text Label 6300 4300 0    50   ~ 0
SPI_MOSI
Text Label 6300 4400 0    50   ~ 0
SPI_MISO
Text Label 6300 4500 0    50   ~ 0
SPI_SCK
Text Label 7450 1250 0    50   ~ 0
SPI_MISO
Text Label 7450 1550 0    50   ~ 0
SPI_SCK
Text Label 7450 1700 0    50   ~ 0
SPI_MOSI
NoConn ~ 5300 950 
Text Label 6500 5600 0    50   ~ 0
Rout
Text Label 6500 5700 0    50   ~ 0
Tin
Wire Wire Line
	2150 1450 2600 1450
Wire Wire Line
	6300 950  7250 950 
Wire Wire Line
	7500 800  7500 1400
Wire Wire Line
	7500 1400 7650 1400
Wire Wire Line
	4050 5600 4300 5600
Connection ~ 4300 5600
Wire Wire Line
	4300 5600 4600 5600
Connection ~ 4600 5600
$Comp
L power:Earth #PWR05
U 1 1 5E432DE3
P 5550 5850
F 0 "#PWR05" H 5550 5600 50  0001 C CNN
F 1 "Earth" H 5550 5700 50  0001 C CNN
F 2 "" H 5550 5850 50  0001 C CNN
F 3 "~" H 5550 5850 50  0001 C CNN
	1    5550 5850
	1    0    0    -1  
$EndComp
Wire Wire Line
	5200 800  5200 950 
Wire Wire Line
	5550 5850 5550 5600
$Comp
L power:+5V #PWR07
U 1 1 5E2D5CCD
P 7250 2200
F 0 "#PWR07" H 7250 2050 50  0001 C CNN
F 1 "+5V" H 7265 2373 50  0000 C CNN
F 2 "" H 7250 2200 50  0001 C CNN
F 3 "" H 7250 2200 50  0001 C CNN
	1    7250 2200
	1    0    0    -1  
$EndComp
Wire Wire Line
	7250 2200 7250 2600
$Comp
L power:Earth #PWR08
U 1 1 5E2E5CA0
P 7250 6600
F 0 "#PWR08" H 7250 6350 50  0001 C CNN
F 1 "Earth" H 7250 6450 50  0001 C CNN
F 2 "" H 7250 6600 50  0001 C CNN
F 3 "~" H 7250 6600 50  0001 C CNN
	1    7250 6600
	1    0    0    -1  
$EndComp
Wire Wire Line
	2600 1250 2600 1450
Connection ~ 2600 1450
Wire Wire Line
	2600 1450 3100 1450
$Comp
L power:Earth #PWR01
U 1 1 5E310F82
P 2600 1550
F 0 "#PWR01" H 2600 1300 50  0001 C CNN
F 1 "Earth" H 2600 1400 50  0001 C CNN
F 2 "" H 2600 1550 50  0001 C CNN
F 3 "~" H 2600 1550 50  0001 C CNN
	1    2600 1550
	1    0    0    -1  
$EndComp
Wire Wire Line
	2600 1450 2600 1550
$Comp
L my_Library1:RS-232 XP2
U 1 1 5E3AFF43
P 4650 2600
F 0 "XP2" H 4978 1795 50  0000 L CNN
F 1 "RS-232" H 4978 1704 50  0000 L CNN
F 2 "Connector_Dsub:DSUB-9_Female_Vertical_P2.77x2.84mm" H 4600 3050 50  0001 C CNN
F 3 "" H 4600 3050 50  0001 C CNN
	1    4650 2600
	1    0    0    -1  
$EndComp
Wire Bus Line
	6400 6800 8100 6800
Entry Wire Line
	8000 5600 8100 5500
Wire Wire Line
	8000 5600 7850 5600
Wire Wire Line
	7850 5700 8000 5700
Wire Wire Line
	7850 5800 8000 5800
Entry Wire Line
	8000 5700 8100 5600
Entry Wire Line
	8000 5800 8100 5700
NoConn ~ 6650 5200
NoConn ~ 6650 5300
NoConn ~ 6650 5400
NoConn ~ 6650 5800
NoConn ~ 6650 5900
NoConn ~ 6650 6000
Entry Wire Line
	6200 4900 6300 5000
Wire Wire Line
	6300 5000 6650 5000
Entry Wire Line
	4050 6300 4150 6400
Wire Wire Line
	4050 6050 4050 6300
Wire Wire Line
	4300 6050 4300 6300
Wire Wire Line
	4600 6050 4600 6300
Entry Wire Line
	4300 6300 4400 6400
Entry Wire Line
	4600 6300 4700 6400
Wire Wire Line
	4900 5600 5550 5600
Wire Wire Line
	4600 5600 4900 5600
Connection ~ 4900 5600
Wire Bus Line
	3750 6400 3750 6450
Text Label 6450 5000 0    50   ~ 0
DC1
Text Label 6450 4900 0    50   ~ 0
DC2
Text Label 6450 4800 0    50   ~ 0
DC3
Text Label 6450 4700 0    50   ~ 0
BM1
Text Label 4050 6250 0    50   ~ 0
DC1
Text Label 4300 6250 0    50   ~ 0
DC2
Text Label 4600 6250 0    50   ~ 0
DC3
Text Label 4900 6250 0    50   ~ 0
BM1
Wire Wire Line
	6050 5600 6650 5600
Wire Wire Line
	6050 5700 6650 5700
Entry Wire Line
	6050 5600 5950 5500
Entry Wire Line
	5950 5600 6050 5700
Wire Wire Line
	3100 4900 3100 5300
Wire Wire Line
	1800 4200 1650 4200
Wire Wire Line
	1650 4200 1650 4800
Wire Wire Line
	1650 4800 3350 4800
Wire Wire Line
	3350 4800 3350 5300
Entry Wire Line
	3100 5300 3200 5400
Entry Wire Line
	3350 5300 3450 5400
Text Label 1650 4450 0    50   ~ 0
Rout
Text Label 1250 4450 0    50   ~ 0
Tin
Wire Wire Line
	3400 4200 3950 4200
Wire Wire Line
	3950 4200 3950 3100
Wire Wire Line
	3950 3100 4250 3100
Wire Wire Line
	3400 3800 4150 3800
Wire Wire Line
	4150 3800 4150 3250
Wire Wire Line
	4150 3250 4250 3250
Wire Wire Line
	4250 3850 4250 4000
Wire Wire Line
	4250 3400 4200 3400
Wire Wire Line
	4200 3400 4200 3700
Wire Wire Line
	4200 3700 4250 3700
Wire Wire Line
	9200 3150 9200 7000
Wire Wire Line
	9200 7000 3650 7000
Wire Wire Line
	3450 7000 3450 7200
Wire Wire Line
	8650 3150 9200 3150
$Comp
L power:Earth #PWR02
U 1 1 5E46C7AE
P 3450 7200
F 0 "#PWR02" H 3450 6950 50  0001 C CNN
F 1 "Earth" H 3450 7050 50  0001 C CNN
F 2 "" H 3450 7200 50  0001 C CNN
F 3 "~" H 3450 7200 50  0001 C CNN
	1    3450 7200
	1    0    0    -1  
$EndComp
Wire Wire Line
	3650 4700 3650 4850
Connection ~ 3650 7000
Wire Wire Line
	3650 7000 3450 7000
Wire Wire Line
	4250 3550 4100 3550
Wire Wire Line
	4100 3550 4100 4850
Wire Wire Line
	4100 4850 3650 4850
Connection ~ 3650 4850
Wire Wire Line
	3650 4850 3650 7000
NoConn ~ 1800 3600
NoConn ~ 1800 4000
NoConn ~ 3400 4000
NoConn ~ 3400 3600
$Comp
L Device:Buzzer BZ1
U 1 1 5E4AEE29
P 5000 5900
F 0 "BZ1" H 5152 5929 50  0000 L CNN
F 1 "Buzzer" H 5152 5838 50  0000 L CNN
F 2 "Buzzer_Beeper:Buzzer_12x9.5RM7.6" V 4975 6000 50  0001 C CNN
F 3 "~" V 4975 6000 50  0001 C CNN
	1    5000 5900
	1    0    0    -1  
$EndComp
Wire Wire Line
	4900 5600 4900 5800
Wire Wire Line
	4900 6000 4900 6300
Entry Wire Line
	4900 6300 5000 6400
NoConn ~ 6650 3800
NoConn ~ 4250 2950
NoConn ~ 4250 4150
Wire Wire Line
	1250 4900 3100 4900
Wire Wire Line
	1800 3800 1250 3800
Wire Wire Line
	1250 3800 1250 4900
Wire Wire Line
	2600 2300 2600 2000
Wire Wire Line
	2600 2300 2350 2300
$Comp
L power:Earth #PWR0101
U 1 1 5E43C989
P 1800 2350
F 0 "#PWR0101" H 1800 2100 50  0001 C CNN
F 1 "Earth" H 1800 2200 50  0001 C CNN
F 2 "" H 1800 2350 50  0001 C CNN
F 3 "~" H 1800 2350 50  0001 C CNN
	1    1800 2350
	1    0    0    -1  
$EndComp
Wire Wire Line
	2050 2300 1800 2300
Wire Wire Line
	1800 2300 1800 2350
Wire Wire Line
	2600 4700 3650 4700
Wire Wire Line
	3400 3400 3650 3400
Wire Wire Line
	3650 3700 3650 4700
Connection ~ 3650 4700
$Comp
L Device:CP C9
U 1 1 5E42C2CD
P 1800 2750
F 0 "C9" H 1918 2796 50  0000 L CNN
F 1 "100нф" H 1918 2705 50  0000 L CNN
F 2 "Capacitor_SMD:CP_Elec_3x5.3" H 1838 2600 50  0001 C CNN
F 3 "~" H 1800 2750 50  0001 C CNN
	1    1800 2750
	1    0    0    -1  
$EndComp
$Comp
L Device:CP C8
U 1 1 5E42E560
P 3400 2750
F 0 "C8" H 3200 2800 50  0000 L CNN
F 1 "100нф" H 3100 2700 50  0000 L CNN
F 2 "Capacitor_SMD:CP_Elec_3x5.3" H 3438 2600 50  0001 C CNN
F 3 "~" H 3400 2750 50  0001 C CNN
	1    3400 2750
	1    0    0    -1  
$EndComp
$Comp
L power:+8V #PWR0102
U 1 1 5E438389
P 3800 3100
F 0 "#PWR0102" H 3800 2950 50  0001 C CNN
F 1 "+8V" V 3900 3050 50  0000 L CNN
F 2 "" H 3800 3100 50  0001 C CNN
F 3 "" H 3800 3100 50  0001 C CNN
	1    3800 3100
	0    1    1    0   
$EndComp
$Comp
L Device:CP C4
U 1 1 5E43A42B
P 3700 2900
F 0 "C4" H 3582 2854 50  0000 R CNN
F 1 "100нф" H 3582 2945 50  0000 R CNN
F 2 "Capacitor_SMD:CP_Elec_3x5.3" H 3738 2750 50  0001 C CNN
F 3 "~" H 3700 2900 50  0001 C CNN
	1    3700 2900
	-1   0    0    1   
$EndComp
$Comp
L power:-8V #PWR0103
U 1 1 5E43B788
P 3750 3400
F 0 "#PWR0103" H 3750 3500 50  0001 C CNN
F 1 "-8V" V 3765 3528 50  0000 L CNN
F 2 "" H 3750 3400 50  0001 C CNN
F 3 "" H 3750 3400 50  0001 C CNN
	1    3750 3400
	0    1    1    0   
$EndComp
$Comp
L Device:CP C11
U 1 1 5E43BAFE
P 3650 3550
F 0 "C11" H 3532 3504 50  0000 R CNN
F 1 "100нф" H 3532 3595 50  0000 R CNN
F 2 "Capacitor_SMD:CP_Elec_3x5.3" H 3688 3400 50  0001 C CNN
F 3 "~" H 3650 3550 50  0001 C CNN
	1    3650 3550
	-1   0    0    1   
$EndComp
$Comp
L Device:CP C10
U 1 1 5E4503A6
P 2200 2300
F 0 "C10" V 1945 2300 50  0000 C CNN
F 1 "100нф" V 2036 2300 50  0000 C CNN
F 2 "Capacitor_SMD:CP_Elec_3x5.3" H 2238 2150 50  0001 C CNN
F 3 "~" H 2200 2300 50  0001 C CNN
	1    2200 2300
	0    1    1    0   
$EndComp
Wire Wire Line
	3650 3400 3750 3400
Connection ~ 3650 3400
Wire Wire Line
	3400 3100 3700 3100
Wire Wire Line
	3700 3050 3700 3100
Connection ~ 3700 3100
Wire Wire Line
	3700 3100 3800 3100
$Comp
L power:Earth #PWR0104
U 1 1 5E47452A
P 3950 2750
F 0 "#PWR0104" H 3950 2500 50  0001 C CNN
F 1 "Earth" H 3950 2600 50  0001 C CNN
F 2 "" H 3950 2750 50  0001 C CNN
F 3 "~" H 3950 2750 50  0001 C CNN
	1    3950 2750
	0    -1   -1   0   
$EndComp
Wire Wire Line
	3700 2750 3950 2750
Connection ~ 2600 2300
$Comp
L Interface_UART:MAX232 U2
U 1 1 5E3A1279
P 2600 3500
F 0 "U2" H 2600 4881 50  0000 C CNN
F 1 "MAX232" H 2600 4790 50  0000 C CNN
F 2 "Package_DIP:DIP-16_W7.62mm" H 2650 2450 50  0001 L CNN
F 3 "http://www.ti.com/lit/ds/symlink/max232.pdf" H 2600 3600 50  0001 C CNN
	1    2600 3500
	1    0    0    -1  
$EndComp
Wire Bus Line
	5950 5400 5950 5700
Wire Bus Line
	2400 5400 5950 5400
Wire Bus Line
	3750 6400 6200 6400
Wire Bus Line
	8100 5400 8100 6800
Wire Bus Line
	7350 1100 7350 2550
Wire Bus Line
	5950 2550 5950 4500
Wire Bus Line
	6200 4550 6200 6400
Wire Bus Line
	5050 2350 6400 2350
Wire Bus Line
	6400 2350 6400 6800
$EndSCHEMATC
