EESchema Schematic File Version 4
EELAYER 30 0
EELAYER END
$Descr A4 11693 8268
encoding utf-8
Sheet 1 1
Title ""
Date ""
Rev ""
Comp ""
Comment1 ""
Comment2 ""
Comment3 ""
Comment4 ""
$EndDescr
$Comp
L MCU_Microchip_ATmega:ATmega8515-16AU U3
U 1 1 5E6AA74B
P 5900 3600
F 0 "U3" H 5900 5781 50  0000 C CNN
F 1 "ATmega8515-16AU" H 5900 5690 50  0000 C CNN
F 2 "Package_QFP:TQFP-44_10x10mm_P0.8mm" H 5900 3600 50  0001 C CIN
F 3 "http://ww1.microchip.com/downloads/en/DeviceDoc/doc2512.pdf" H 5900 3600 50  0001 C CNN
	1    5900 3600
	1    0    0    -1  
$EndComp
$Comp
L Display_Character:HY1602E DS1
U 1 1 5E6ACE15
P 7650 2500
F 0 "DS1" H 7650 3481 50  0000 C CNN
F 1 "HY1602E" H 7650 3390 50  0000 C CNN
F 2 "Display:HY1602E" H 7650 1600 50  0001 C CIN
F 3 "http://www.icbank.com/data/ICBShop/board/HY1602E.pdf" H 7850 2600 50  0001 C CNN
	1    7650 2500
	1    0    0    -1  
$EndComp
$Comp
L Switch:SW_Push SW2
U 1 1 5E6B0F2E
P 8000 5150
F 0 "SW2" H 8000 5435 50  0000 C CNN
F 1 "SW_Push" H 8000 5344 50  0000 C CNN
F 2 "Resistor_SMD:R_0201_0603Metric" H 8000 5350 50  0001 C CNN
F 3 "~" H 8000 5350 50  0001 C CNN
	1    8000 5150
	1    0    0    -1  
$EndComp
$Comp
L Switch:SW_Push SW3
U 1 1 5E6B290F
P 8000 5550
F 0 "SW3" H 8000 5835 50  0000 C CNN
F 1 "SW_Push" H 8000 5744 50  0000 C CNN
F 2 "Resistor_SMD:R_0201_0603Metric" H 8000 5750 50  0001 C CNN
F 3 "~" H 8000 5750 50  0001 C CNN
	1    8000 5550
	1    0    0    -1  
$EndComp
$Comp
L Switch:SW_Push SW4
U 1 1 5E6B2D1B
P 8000 5950
F 0 "SW4" H 8000 6235 50  0000 C CNN
F 1 "SW_Push" H 8000 6144 50  0000 C CNN
F 2 "Resistor_SMD:R_0201_0603Metric" H 8000 6150 50  0001 C CNN
F 3 "~" H 8000 6150 50  0001 C CNN
	1    8000 5950
	1    0    0    -1  
$EndComp
$Comp
L Switch:SW_Push SW5
U 1 1 5E6B30EB
P 8000 6400
F 0 "SW5" H 8000 6685 50  0000 C CNN
F 1 "SW_Push" H 8000 6594 50  0000 C CNN
F 2 "Resistor_SMD:R_0201_0603Metric" H 8000 6600 50  0001 C CNN
F 3 "~" H 8000 6600 50  0001 C CNN
	1    8000 6400
	1    0    0    -1  
$EndComp
$Comp
L Device:LED D2
U 1 1 5E6B9040
P 8900 4000
F 0 "D2" H 8893 4216 50  0000 C CNN
F 1 "LED" H 8893 4125 50  0000 C CNN
F 2 "LED_SMD:LED_0201_0603Metric" H 8900 4000 50  0001 C CNN
F 3 "~" H 8900 4000 50  0001 C CNN
	1    8900 4000
	1    0    0    -1  
$EndComp
$Comp
L Device:LED D3
U 1 1 5E6B91F2
P 8900 4300
F 0 "D3" H 8893 4516 50  0000 C CNN
F 1 "LED" H 8893 4425 50  0000 C CNN
F 2 "LED_SMD:LED_0201_0603Metric" H 8900 4300 50  0001 C CNN
F 3 "~" H 8900 4300 50  0001 C CNN
	1    8900 4300
	1    0    0    -1  
$EndComp
$Comp
L Device:LED D4
U 1 1 5E6B951A
P 8900 4550
F 0 "D4" H 8893 4766 50  0000 C CNN
F 1 "LED" H 8893 4675 50  0000 C CNN
F 2 "LED_SMD:LED_0201_0603Metric" H 8900 4550 50  0001 C CNN
F 3 "~" H 8900 4550 50  0001 C CNN
	1    8900 4550
	1    0    0    -1  
$EndComp
Wire Wire Line
	6500 1900 7250 1900
Wire Wire Line
	6500 2000 7250 2000
Wire Wire Line
	7250 2000 7250 2100
Wire Wire Line
	6500 2100 7200 2100
Wire Wire Line
	7200 2100 7200 2200
Wire Wire Line
	7200 2200 7250 2200
Wire Wire Line
	6500 2800 6650 2800
Wire Wire Line
	6650 2800 6650 2400
Wire Wire Line
	6650 2400 7250 2400
Wire Wire Line
	6500 2900 6700 2900
Wire Wire Line
	6700 2900 6700 2500
Wire Wire Line
	6700 2500 7250 2500
Wire Wire Line
	6500 3000 6750 3000
Wire Wire Line
	6750 3000 6750 2600
Wire Wire Line
	6750 2600 7250 2600
Wire Wire Line
	6500 3100 6800 3100
Wire Wire Line
	6800 3100 6800 2700
Wire Wire Line
	6800 2700 7250 2700
Wire Wire Line
	6500 3200 6850 3200
Wire Wire Line
	6850 2800 7250 2800
Wire Wire Line
	7250 2900 6900 2900
Wire Wire Line
	6900 4200 6500 4200
Wire Wire Line
	6500 4300 7000 4300
Wire Wire Line
	7000 3000 7250 3000
Wire Wire Line
	6500 4400 7050 4400
Wire Wire Line
	7050 3100 7250 3100
Wire Wire Line
	7750 3750 7750 3700
Wire Wire Line
	7750 3700 6500 3700
$Comp
L Device:LED D1
U 1 1 5E6B6846
P 8900 3750
F 0 "D1" H 8893 3966 50  0000 C CNN
F 1 "LED" H 8893 3875 50  0000 C CNN
F 2 "LED_SMD:LED_0201_0603Metric" H 8900 3750 50  0001 C CNN
F 3 "~" H 8900 3750 50  0001 C CNN
	1    8900 3750
	1    0    0    -1  
$EndComp
Wire Wire Line
	6500 3800 7700 3800
Wire Wire Line
	7700 3800 7700 4000
Wire Wire Line
	7600 4300 7600 3900
Wire Wire Line
	7600 3900 6500 3900
Wire Wire Line
	6500 4000 7500 4000
Wire Wire Line
	7800 5150 7800 4700
Wire Wire Line
	7800 4700 7100 4700
Wire Wire Line
	7100 4700 7100 4600
Wire Wire Line
	7100 4600 6500 4600
Wire Wire Line
	6500 4700 7050 4700
Wire Wire Line
	7050 4700 7050 5550
Wire Wire Line
	7050 5550 7800 5550
Wire Wire Line
	7800 5950 6950 5950
Wire Wire Line
	6950 5950 6950 4800
Wire Wire Line
	6950 4800 6500 4800
Wire Wire Line
	6500 4900 6850 4900
Wire Wire Line
	6850 4900 6850 6400
Wire Wire Line
	6850 6400 7800 6400
$Comp
L my_lib:MyCONN XP1
U 1 1 5E6D6024
P 2450 4250
F 0 "XP1" H 1808 4415 50  0000 C CNN
F 1 "MyCONN" H 1808 4324 50  0000 C CNN
F 2 "Inductor_THT:L_Axial_L5.0mm_D3.6mm_P10.00mm_Horizontal_Murata_BL01RN1A2A2" H 2450 3850 50  0001 C CNN
F 3 "" H 2450 3850 50  0001 C CNN
	1    2450 4250
	1    0    0    -1  
$EndComp
$Comp
L my_lib:IDC-06MS U2
U 1 1 5E6D7DA2
P 4800 700
F 0 "U2" H 4918 905 50  0000 C CNN
F 1 "IDC-06MS" H 4918 814 50  0000 C CNN
F 2 "Inductor_THT:L_Mount_Lodestone_VTM950-6" H 4770 870 50  0001 C CNN
F 3 "" H 4770 870 50  0001 C CNN
	1    4800 700 
	1    0    0    -1  
$EndComp
$Comp
L Regulator_Linear:L78L05_SO8 U1
U 1 1 5E6DB864
P 3750 4400
F 0 "U1" H 3750 4642 50  0000 C CNN
F 1 "L78L05_SO8" H 3750 4551 50  0000 C CNN
F 2 "Package_SO:SOIC-8_3.9x4.9mm_P1.27mm" H 3850 4600 50  0001 C CIN
F 3 "http://www.st.com/content/ccc/resource/technical/document/datasheet/15/55/e5/aa/23/5b/43/fd/CD00000446.pdf/files/CD00000446.pdf/jcr:content/translations/en.CD00000446.pdf" H 3950 4400 50  0001 C CNN
	1    3750 4400
	1    0    0    -1  
$EndComp
$Comp
L Device:C C2
U 1 1 5E6DD8EE
P 3300 4600
F 0 "C2" H 3415 4646 50  0000 L CNN
F 1 "100n" H 3415 4555 50  0000 L CNN
F 2 "Capacitor_SMD:C_0201_0603Metric" H 3338 4450 50  0001 C CNN
F 3 "~" H 3300 4600 50  0001 C CNN
	1    3300 4600
	1    0    0    -1  
$EndComp
$Comp
L Device:CP C1
U 1 1 5E6DE384
P 2900 4600
F 0 "C1" H 3018 4646 50  0000 L CNN
F 1 "100u" H 3018 4555 50  0000 L CNN
F 2 "Capacitor_SMD:CP_Elec_3x5.3" H 2938 4450 50  0001 C CNN
F 3 "~" H 2900 4600 50  0001 C CNN
	1    2900 4600
	1    0    0    -1  
$EndComp
$Comp
L power:Earth #PWR0101
U 1 1 5E6DFA62
P 4450 2250
F 0 "#PWR0101" H 4450 2000 50  0001 C CNN
F 1 "Earth" H 4450 2100 50  0001 C CNN
F 2 "" H 4450 2250 50  0001 C CNN
F 3 "~" H 4450 2250 50  0001 C CNN
	1    4450 2250
	1    0    0    -1  
$EndComp
$Comp
L power:Earth #PWR0102
U 1 1 5E6E0213
P 3750 4900
F 0 "#PWR0102" H 3750 4650 50  0001 C CNN
F 1 "Earth" H 3750 4750 50  0001 C CNN
F 2 "" H 3750 4900 50  0001 C CNN
F 3 "~" H 3750 4900 50  0001 C CNN
	1    3750 4900
	1    0    0    -1  
$EndComp
$Comp
L power:Earth #PWR0103
U 1 1 5E6E0D18
P 3450 2200
F 0 "#PWR0103" H 3450 1950 50  0001 C CNN
F 1 "Earth" H 3450 2050 50  0001 C CNN
F 2 "" H 3450 2200 50  0001 C CNN
F 3 "~" H 3450 2200 50  0001 C CNN
	1    3450 2200
	1    0    0    -1  
$EndComp
$Comp
L Device:Resonator Y1
U 1 1 5E6E1640
P 4750 2200
F 0 "Y1" H 4750 2448 50  0000 C CNN
F 1 "Resonator" H 4750 2357 50  0000 C CNN
F 2 "Filter:Filter_Mini-Circuits_FV1206-7" H 4725 2200 50  0001 C CNN
F 3 "~" H 4725 2200 50  0001 C CNN
	1    4750 2200
	0    1    1    0   
$EndComp
$Comp
L Device:R R1
U 1 1 5E6E8E3C
P 4450 1750
F 0 "R1" H 4520 1796 50  0000 L CNN
F 1 "10k" H 4520 1705 50  0000 L CNN
F 2 "Resistor_SMD:R_0201_0603Metric" V 4380 1750 50  0001 C CNN
F 3 "~" H 4450 1750 50  0001 C CNN
	1    4450 1750
	1    0    0    -1  
$EndComp
$Comp
L power:VCC #PWR0104
U 1 1 5E6E97F2
P 5900 1250
F 0 "#PWR0104" H 5900 1100 50  0001 C CNN
F 1 "VCC" H 5917 1423 50  0000 C CNN
F 2 "" H 5900 1250 50  0001 C CNN
F 3 "" H 5900 1250 50  0001 C CNN
	1    5900 1250
	1    0    0    -1  
$EndComp
$Comp
L power:Earth #PWR0105
U 1 1 5E6EAEBF
P 5900 5700
F 0 "#PWR0105" H 5900 5450 50  0001 C CNN
F 1 "Earth" H 5900 5550 50  0001 C CNN
F 2 "" H 5900 5700 50  0001 C CNN
F 3 "~" H 5900 5700 50  0001 C CNN
	1    5900 5700
	1    0    0    -1  
$EndComp
Wire Wire Line
	5900 5600 5900 5700
Wire Wire Line
	5900 1600 5900 1250
$Comp
L power:VCC #PWR0106
U 1 1 5E6EFE75
P 7650 1350
F 0 "#PWR0106" H 7650 1200 50  0001 C CNN
F 1 "VCC" H 7667 1523 50  0000 C CNN
F 2 "" H 7650 1350 50  0001 C CNN
F 3 "" H 7650 1350 50  0001 C CNN
	1    7650 1350
	1    0    0    -1  
$EndComp
$Comp
L power:Earth #PWR0107
U 1 1 5E6F1D66
P 7650 3350
F 0 "#PWR0107" H 7650 3100 50  0001 C CNN
F 1 "Earth" H 7650 3200 50  0001 C CNN
F 2 "" H 7650 3350 50  0001 C CNN
F 3 "~" H 7650 3350 50  0001 C CNN
	1    7650 3350
	1    0    0    -1  
$EndComp
Wire Wire Line
	7650 3350 7650 3300
Wire Wire Line
	7650 1700 7650 1350
Wire Wire Line
	4750 2050 5300 2050
Wire Wire Line
	5300 2050 5300 2100
Wire Wire Line
	4750 2350 5300 2350
Wire Wire Line
	5300 2350 5300 2300
Wire Wire Line
	4550 2200 4450 2200
Wire Wire Line
	4450 2200 4450 2250
Wire Wire Line
	2650 4400 2900 4400
Wire Wire Line
	3300 4450 3300 4400
Connection ~ 3300 4400
Wire Wire Line
	3300 4400 3450 4400
Wire Wire Line
	2900 4450 2900 4400
Connection ~ 2900 4400
Wire Wire Line
	2900 4400 3300 4400
$Comp
L Device:C C3
U 1 1 5E708CEF
P 4200 4600
F 0 "C3" H 4315 4646 50  0000 L CNN
F 1 "1u" H 4315 4555 50  0000 L CNN
F 2 "Capacitor_SMD:C_0201_0603Metric" H 4238 4450 50  0001 C CNN
F 3 "~" H 4200 4600 50  0001 C CNN
	1    4200 4600
	1    0    0    -1  
$EndComp
$Comp
L Device:C C4
U 1 1 5E70A56B
P 4550 4600
F 0 "C4" H 4665 4646 50  0000 L CNN
F 1 "100n" H 4665 4555 50  0000 L CNN
F 2 "Capacitor_SMD:C_0201_0603Metric" H 4588 4450 50  0001 C CNN
F 3 "~" H 4550 4600 50  0001 C CNN
	1    4550 4600
	1    0    0    -1  
$EndComp
Wire Wire Line
	2650 4500 2650 4850
Wire Wire Line
	2650 4850 2900 4850
Wire Wire Line
	3750 4850 3750 4900
Wire Wire Line
	3750 4850 4200 4850
Wire Wire Line
	4550 4850 4550 4750
Connection ~ 3750 4850
Wire Wire Line
	4200 4750 4200 4850
Connection ~ 4200 4850
Wire Wire Line
	4200 4850 4550 4850
Wire Wire Line
	3750 4700 3750 4850
Wire Wire Line
	3300 4750 3300 4850
Connection ~ 3300 4850
Wire Wire Line
	3300 4850 3750 4850
Wire Wire Line
	2900 4850 2900 4750
Connection ~ 2900 4850
Wire Wire Line
	2900 4850 3300 4850
Wire Wire Line
	4050 4400 4200 4400
Wire Wire Line
	4200 4400 4200 4450
Wire Wire Line
	4200 4400 4550 4400
Wire Wire Line
	4550 4400 4550 4450
Connection ~ 4200 4400
Wire Notes Line style solid
	4550 4050 4550 4150
Wire Notes Line style solid
	4600 4100 4550 4050
Wire Notes Line style solid
	4550 4050 4500 4100
Connection ~ 4550 4400
Wire Wire Line
	4550 4150 4550 4400
$Comp
L Switch:SW_Push SW1
U 1 1 5E746176
P 3750 2050
F 0 "SW1" H 3750 2335 50  0000 C CNN
F 1 "SW_Push" H 3750 2244 50  0000 C CNN
F 2 "Resistor_SMD:R_0201_0603Metric" H 3750 2250 50  0001 C CNN
F 3 "~" H 3750 2250 50  0001 C CNN
	1    3750 2050
	1    0    0    -1  
$EndComp
Wire Wire Line
	3950 2050 4450 2050
Wire Wire Line
	4450 2050 4450 1900
Wire Wire Line
	5300 1900 5200 1900
Connection ~ 4450 1900
Wire Wire Line
	3550 2050 3450 2050
Wire Wire Line
	3450 2050 3450 2200
$Comp
L power:VCC #PWR0108
U 1 1 5E75F853
P 4300 1450
F 0 "#PWR0108" H 4300 1300 50  0001 C CNN
F 1 "VCC" H 4317 1623 50  0000 C CNN
F 2 "" H 4300 1450 50  0001 C CNN
F 3 "" H 4300 1450 50  0001 C CNN
	1    4300 1450
	1    0    0    -1  
$EndComp
Wire Wire Line
	4450 1600 4450 1450
Wire Wire Line
	4300 1450 4450 1450
Wire Wire Line
	5300 1200 5450 1200
Wire Wire Line
	5450 1200 5450 1600
Wire Wire Line
	5450 1600 5200 1600
Wire Wire Line
	5200 1600 5200 1900
Connection ~ 5200 1900
Wire Wire Line
	5200 1900 4450 1900
$Comp
L power:Earth #PWR0109
U 1 1 5E779191
P 5350 1400
F 0 "#PWR0109" H 5350 1150 50  0001 C CNN
F 1 "Earth" H 5350 1250 50  0001 C CNN
F 2 "" H 5350 1400 50  0001 C CNN
F 3 "~" H 5350 1400 50  0001 C CNN
	1    5350 1400
	1    0    0    -1  
$EndComp
Wire Wire Line
	5300 1300 5350 1300
Wire Wire Line
	5350 1300 5350 1400
Wire Wire Line
	6900 2900 6900 4200
Wire Wire Line
	7000 3000 7000 4300
Wire Wire Line
	7050 3100 7050 4400
Wire Wire Line
	6850 3200 6850 2800
Wire Wire Line
	6500 3400 7150 3400
Wire Wire Line
	7150 3400 7150 800 
Wire Wire Line
	7150 800  5300 800 
Wire Wire Line
	5300 1100 6600 1100
Wire Wire Line
	6600 1100 6600 3300
Wire Wire Line
	6600 3300 6500 3300
Wire Wire Line
	6500 3500 7100 3500
Wire Wire Line
	7100 3500 7100 1000
Wire Wire Line
	7100 1000 5300 1000
Wire Wire Line
	5300 900  5400 900 
Wire Wire Line
	5400 900  5400 750 
$Comp
L power:VCC #PWR0110
U 1 1 5E7A24AF
P 5400 750
F 0 "#PWR0110" H 5400 600 50  0001 C CNN
F 1 "VCC" H 5417 923 50  0000 C CNN
F 2 "" H 5400 750 50  0001 C CNN
F 3 "" H 5400 750 50  0001 C CNN
	1    5400 750 
	1    0    0    -1  
$EndComp
Text Notes 4600 4150 0    50   ~ 0
+5В
Wire Wire Line
	8200 5150 9400 5150
Wire Wire Line
	9400 5150 9400 4550
Wire Wire Line
	9400 4550 9050 4550
Wire Wire Line
	9050 4300 9400 4300
Wire Wire Line
	9400 4300 9400 4550
Connection ~ 9400 4550
Wire Wire Line
	9050 4000 9400 4000
Wire Wire Line
	9400 4000 9400 4300
Connection ~ 9400 4300
Wire Wire Line
	9050 3750 9400 3750
Wire Wire Line
	9400 3750 9400 4000
Connection ~ 9400 4000
Wire Wire Line
	9400 5150 9400 5550
Wire Wire Line
	9400 5550 8200 5550
Connection ~ 9400 5150
Wire Wire Line
	8200 5950 9400 5950
Wire Wire Line
	9400 5950 9400 5550
Connection ~ 9400 5550
Wire Wire Line
	8200 6400 9400 6400
Wire Wire Line
	9400 6400 9400 5950
Connection ~ 9400 5950
Wire Wire Line
	9400 3750 9400 3450
Connection ~ 9400 3750
$Comp
L power:VCC #PWR0111
U 1 1 5E7CC8B9
P 9400 3450
F 0 "#PWR0111" H 9400 3300 50  0001 C CNN
F 1 "VCC" H 9417 3623 50  0000 C CNN
F 2 "" H 9400 3450 50  0001 C CNN
F 3 "" H 9400 3450 50  0001 C CNN
	1    9400 3450
	1    0    0    -1  
$EndComp
$Comp
L Device:R R2
U 1 1 5E7D3D2B
P 8300 3750
F 0 "R2" V 8507 3750 50  0000 C CNN
F 1 "150" V 8416 3750 50  0000 C CNN
F 2 "Resistor_SMD:R_0201_0603Metric" V 8230 3750 50  0001 C CNN
F 3 "~" H 8300 3750 50  0001 C CNN
	1    8300 3750
	0    -1   -1   0   
$EndComp
$Comp
L Device:R R3
U 1 1 5E7E2AF1
P 8300 4000
F 0 "R3" V 8507 4000 50  0000 C CNN
F 1 "150" V 8416 4000 50  0000 C CNN
F 2 "Resistor_SMD:R_0201_0603Metric" V 8230 4000 50  0001 C CNN
F 3 "~" H 8300 4000 50  0001 C CNN
	1    8300 4000
	0    -1   -1   0   
$EndComp
$Comp
L Device:R R4
U 1 1 5E7E6F5A
P 8300 4300
F 0 "R4" V 8507 4300 50  0000 C CNN
F 1 "150" V 8416 4300 50  0000 C CNN
F 2 "Resistor_SMD:R_0201_0603Metric" V 8230 4300 50  0001 C CNN
F 3 "~" H 8300 4300 50  0001 C CNN
	1    8300 4300
	0    -1   -1   0   
$EndComp
$Comp
L Device:R R5
U 1 1 5E7EB460
P 8300 4550
F 0 "R5" V 8507 4550 50  0000 C CNN
F 1 "150" V 8416 4550 50  0000 C CNN
F 2 "Resistor_SMD:R_0201_0603Metric" V 8230 4550 50  0001 C CNN
F 3 "~" H 8300 4550 50  0001 C CNN
	1    8300 4550
	0    -1   -1   0   
$EndComp
Wire Wire Line
	8750 3750 8450 3750
Wire Wire Line
	8150 3750 7750 3750
Wire Wire Line
	7700 4000 8150 4000
Wire Wire Line
	8450 4000 8750 4000
Wire Wire Line
	8750 4300 8450 4300
Wire Wire Line
	8150 4300 7600 4300
Wire Wire Line
	8150 4550 7500 4550
Wire Wire Line
	7500 4000 7500 4550
Wire Wire Line
	8450 4550 8750 4550
NoConn ~ 8050 2600
NoConn ~ 8050 2500
NoConn ~ 8050 1900
NoConn ~ 6500 5300
NoConn ~ 6500 5200
NoConn ~ 6500 5100
NoConn ~ 6500 5000
NoConn ~ 6500 4100
NoConn ~ 5300 4800
NoConn ~ 5350 4700
NoConn ~ 5300 4700
NoConn ~ 5300 4600
NoConn ~ 6500 2600
NoConn ~ 6500 2500
NoConn ~ 6500 2400
NoConn ~ 6500 2300
NoConn ~ 6500 2200
$EndSCHEMATC
