G04 #@! TF.GenerationSoftware,KiCad,Pcbnew,(5.1.4-0-10_14)*
G04 #@! TF.CreationDate,2019-12-25T11:05:12+03:00*
G04 #@! TF.ProjectId,lab1,6c616231-2e6b-4696-9361-645f70636258,rev?*
G04 #@! TF.SameCoordinates,Original*
G04 #@! TF.FileFunction,Copper,L2,Bot*
G04 #@! TF.FilePolarity,Positive*
%FSLAX46Y46*%
G04 Gerber Fmt 4.6, Leading zero omitted, Abs format (unit mm)*
G04 Created by KiCad (PCBNEW (5.1.4-0-10_14)) date 2019-12-25 11:05:12*
%MOMM*%
%LPD*%
G04 APERTURE LIST*
%ADD10C,0.100000*%
%ADD11O,1.600000X1.600000*%
%ADD12C,1.600000*%
%ADD13R,1.600000X1.600000*%
%ADD14R,1.500000X1.500000*%
%ADD15C,1.500000*%
%ADD16C,2.200000*%
%ADD17C,10.160000*%
%ADD18R,1.727200X1.727200*%
%ADD19O,1.727200X1.727200*%
%ADD20C,0.250000*%
G04 APERTURE END LIST*
D10*
G36*
X227330000Y-163830000D02*
G01*
X55880000Y-162560000D01*
X55880000Y-38100000D01*
X227330000Y-38100000D01*
X227330000Y-163830000D01*
G37*
X227330000Y-163830000D02*
X55880000Y-162560000D01*
X55880000Y-38100000D01*
X227330000Y-38100000D01*
X227330000Y-163830000D01*
D11*
X200660000Y-54490000D03*
D12*
X200660000Y-46990000D03*
X184150000Y-53340000D03*
D11*
X184150000Y-60840000D03*
X205620000Y-85090000D03*
D12*
X198120000Y-85090000D03*
X191770000Y-111760000D03*
D11*
X184270000Y-111760000D03*
D12*
X186690000Y-63500000D03*
D11*
X186690000Y-71000000D03*
X201930000Y-62350000D03*
D12*
X201930000Y-69850000D03*
D13*
X170180000Y-110490000D03*
D11*
X154940000Y-62230000D03*
X170180000Y-107950000D03*
X154940000Y-64770000D03*
X170180000Y-105410000D03*
X154940000Y-67310000D03*
X170180000Y-102870000D03*
X154940000Y-69850000D03*
X170180000Y-100330000D03*
X154940000Y-72390000D03*
X170180000Y-97790000D03*
X154940000Y-74930000D03*
X170180000Y-95250000D03*
X154940000Y-77470000D03*
X170180000Y-92710000D03*
X154940000Y-80010000D03*
X170180000Y-90170000D03*
X154940000Y-82550000D03*
X170180000Y-87630000D03*
X154940000Y-85090000D03*
X170180000Y-85090000D03*
X154940000Y-87630000D03*
X170180000Y-82550000D03*
X154940000Y-90170000D03*
X170180000Y-80010000D03*
X154940000Y-92710000D03*
X170180000Y-77470000D03*
X154940000Y-95250000D03*
X170180000Y-74930000D03*
X154940000Y-97790000D03*
X170180000Y-72390000D03*
X154940000Y-100330000D03*
X170180000Y-69850000D03*
X154940000Y-102870000D03*
X170180000Y-67310000D03*
X154940000Y-105410000D03*
X170180000Y-64770000D03*
X154940000Y-107950000D03*
X170180000Y-62230000D03*
X154940000Y-110490000D03*
D13*
X214630000Y-46990000D03*
D11*
X222250000Y-64770000D03*
X214630000Y-49530000D03*
X222250000Y-62230000D03*
X214630000Y-52070000D03*
X222250000Y-59690000D03*
X214630000Y-54610000D03*
X222250000Y-57150000D03*
X214630000Y-57150000D03*
X222250000Y-54610000D03*
X214630000Y-59690000D03*
X222250000Y-52070000D03*
X214630000Y-62230000D03*
X222250000Y-49530000D03*
X214630000Y-64770000D03*
X222250000Y-46990000D03*
D14*
X63520001Y-57645001D03*
D15*
X63520001Y-60185001D03*
X63520001Y-62725001D03*
X63520001Y-65265001D03*
X63520001Y-67805001D03*
X63520001Y-70345001D03*
X63520001Y-72885001D03*
X63520001Y-75425001D03*
X138520001Y-60185001D03*
X138520001Y-62725001D03*
X138520001Y-65265001D03*
X138520001Y-67805001D03*
X138520001Y-70345001D03*
X138520001Y-57645001D03*
X138520001Y-75425001D03*
X138520001Y-72885001D03*
D11*
X74930000Y-135890000D03*
D12*
X69850000Y-135890000D03*
X92710000Y-135890000D03*
D11*
X97790000Y-135890000D03*
X120650000Y-135890000D03*
D12*
X115570000Y-135890000D03*
D11*
X223520000Y-142240000D03*
D12*
X218440000Y-142240000D03*
X209550000Y-148590000D03*
D11*
X214630000Y-148590000D03*
D16*
X81280000Y-144780000D03*
X74930000Y-147320000D03*
X97790000Y-147320000D03*
X104140000Y-144780000D03*
X127000000Y-144780000D03*
X120650000Y-147320000D03*
D17*
X66040000Y-101600000D03*
X96010000Y-101600000D03*
D18*
X208280000Y-105410000D03*
D19*
X205740000Y-105410000D03*
X208280000Y-102870000D03*
X205740000Y-102870000D03*
X208280000Y-100330000D03*
X205740000Y-100330000D03*
D13*
X200660000Y-128270000D03*
D12*
X197890000Y-128270000D03*
X195120000Y-128270000D03*
X192350000Y-128270000D03*
X189580000Y-128270000D03*
X199275000Y-131110000D03*
X196505000Y-131110000D03*
X193735000Y-131110000D03*
X190965000Y-131110000D03*
D20*
X62520001Y-57645001D02*
X63520001Y-57645001D01*
X62195000Y-57970002D02*
X62520001Y-57645001D01*
X62195000Y-83171002D02*
X62195000Y-57970002D01*
X96010000Y-101600000D02*
X80623998Y-101600000D01*
X81280000Y-144780000D02*
X81280000Y-102870000D01*
X81280000Y-102870000D02*
X80010000Y-101600000D01*
X80623998Y-101600000D02*
X80010000Y-101600000D01*
X80010000Y-101600000D02*
X62195000Y-83171002D01*
X81280000Y-144780000D02*
X87630000Y-144780000D01*
X104140000Y-146335634D02*
X104140000Y-144780000D01*
X104140000Y-150761002D02*
X104140000Y-146335634D01*
X102716001Y-152185001D02*
X104140000Y-150761002D01*
X95035001Y-152185001D02*
X102716001Y-152185001D01*
X87630000Y-144780000D02*
X95035001Y-152185001D01*
X127000000Y-146335634D02*
X127000000Y-144780000D01*
X127000000Y-150761002D02*
X127000000Y-146335634D01*
X125576001Y-152185001D02*
X127000000Y-150761002D01*
X111545001Y-152185001D02*
X125576001Y-152185001D01*
X104140000Y-144780000D02*
X111545001Y-152185001D01*
X173070000Y-144780000D02*
X189580000Y-128270000D01*
X127000000Y-144780000D02*
X173070000Y-144780000D01*
X184270000Y-122960000D02*
X184270000Y-111760000D01*
X189580000Y-128270000D02*
X184270000Y-122960000D01*
X204876401Y-101193599D02*
X205740000Y-100330000D01*
X193184999Y-112885001D02*
X204876401Y-101193599D01*
X191229999Y-112885001D02*
X193184999Y-112885001D01*
X190104998Y-111760000D02*
X191229999Y-112885001D01*
X184270000Y-111760000D02*
X190104998Y-111760000D01*
X205740000Y-85210000D02*
X205620000Y-85090000D01*
X205740000Y-100330000D02*
X205740000Y-85210000D01*
X205620000Y-85090000D02*
X202050000Y-85090000D01*
X206419999Y-84290001D02*
X205620000Y-85090000D01*
X221124999Y-69585001D02*
X206419999Y-84290001D01*
X221124999Y-50655001D02*
X221124999Y-69585001D01*
X222250000Y-49530000D02*
X221124999Y-50655001D01*
X187960000Y-71000000D02*
X186690000Y-71000000D01*
X202050000Y-85090000D02*
X187960000Y-71000000D01*
X186690000Y-71000000D02*
X178950000Y-71000000D01*
X178950000Y-71000000D02*
X170180000Y-62230000D01*
M02*
