G04 #@! TF.GenerationSoftware,KiCad,Pcbnew,(5.1.4-0-10_14)*
G04 #@! TF.CreationDate,2019-12-25T11:05:12+03:00*
G04 #@! TF.ProjectId,lab1,6c616231-2e6b-4696-9361-645f70636258,rev?*
G04 #@! TF.SameCoordinates,Original*
G04 #@! TF.FileFunction,Soldermask,Top*
G04 #@! TF.FilePolarity,Negative*
%FSLAX46Y46*%
G04 Gerber Fmt 4.6, Leading zero omitted, Abs format (unit mm)*
G04 Created by KiCad (PCBNEW (5.1.4-0-10_14)) date 2019-12-25 11:05:12*
%MOMM*%
%LPD*%
G04 APERTURE LIST*
%ADD10O,1.600000X1.600000*%
%ADD11C,1.600000*%
%ADD12R,1.600000X1.600000*%
%ADD13R,1.500000X1.500000*%
%ADD14C,1.500000*%
%ADD15C,2.000000*%
%ADD16C,2.200000*%
%ADD17C,4.000000*%
%ADD18C,1.700000*%
%ADD19C,10.160000*%
%ADD20R,1.727200X1.727200*%
%ADD21O,1.727200X1.727200*%
G04 APERTURE END LIST*
D10*
X200660000Y-54490000D03*
D11*
X200660000Y-46990000D03*
X184150000Y-53340000D03*
D10*
X184150000Y-60840000D03*
X205620000Y-85090000D03*
D11*
X198120000Y-85090000D03*
X191770000Y-111760000D03*
D10*
X184270000Y-111760000D03*
D11*
X186690000Y-63500000D03*
D10*
X186690000Y-71000000D03*
X201930000Y-62350000D03*
D11*
X201930000Y-69850000D03*
D12*
X170180000Y-110490000D03*
D10*
X154940000Y-62230000D03*
X170180000Y-107950000D03*
X154940000Y-64770000D03*
X170180000Y-105410000D03*
X154940000Y-67310000D03*
X170180000Y-102870000D03*
X154940000Y-69850000D03*
X170180000Y-100330000D03*
X154940000Y-72390000D03*
X170180000Y-97790000D03*
X154940000Y-74930000D03*
X170180000Y-95250000D03*
X154940000Y-77470000D03*
X170180000Y-92710000D03*
X154940000Y-80010000D03*
X170180000Y-90170000D03*
X154940000Y-82550000D03*
X170180000Y-87630000D03*
X154940000Y-85090000D03*
X170180000Y-85090000D03*
X154940000Y-87630000D03*
X170180000Y-82550000D03*
X154940000Y-90170000D03*
X170180000Y-80010000D03*
X154940000Y-92710000D03*
X170180000Y-77470000D03*
X154940000Y-95250000D03*
X170180000Y-74930000D03*
X154940000Y-97790000D03*
X170180000Y-72390000D03*
X154940000Y-100330000D03*
X170180000Y-69850000D03*
X154940000Y-102870000D03*
X170180000Y-67310000D03*
X154940000Y-105410000D03*
X170180000Y-64770000D03*
X154940000Y-107950000D03*
X170180000Y-62230000D03*
X154940000Y-110490000D03*
D12*
X214630000Y-46990000D03*
D10*
X222250000Y-64770000D03*
X214630000Y-49530000D03*
X222250000Y-62230000D03*
X214630000Y-52070000D03*
X222250000Y-59690000D03*
X214630000Y-54610000D03*
X222250000Y-57150000D03*
X214630000Y-57150000D03*
X222250000Y-54610000D03*
X214630000Y-59690000D03*
X222250000Y-52070000D03*
X214630000Y-62230000D03*
X222250000Y-49530000D03*
X214630000Y-64770000D03*
X222250000Y-46990000D03*
D13*
X63520001Y-57645001D03*
D14*
X63520001Y-60185001D03*
X63520001Y-62725001D03*
X63520001Y-65265001D03*
X63520001Y-67805001D03*
X63520001Y-70345001D03*
X63520001Y-72885001D03*
X63520001Y-75425001D03*
X138520001Y-60185001D03*
X138520001Y-62725001D03*
X138520001Y-65265001D03*
X138520001Y-67805001D03*
X138520001Y-70345001D03*
D15*
X138520001Y-50535001D03*
X63520001Y-82535001D03*
D14*
X138520001Y-57645001D03*
X138520001Y-75425001D03*
X138520001Y-72885001D03*
D10*
X74930000Y-135890000D03*
D11*
X69850000Y-135890000D03*
X92710000Y-135890000D03*
D10*
X97790000Y-135890000D03*
X120650000Y-135890000D03*
D11*
X115570000Y-135890000D03*
D10*
X223520000Y-142240000D03*
D11*
X218440000Y-142240000D03*
X209550000Y-148590000D03*
D10*
X214630000Y-148590000D03*
D16*
X81280000Y-144780000D03*
X74930000Y-147320000D03*
D17*
X78740000Y-149860000D03*
D18*
X73660000Y-149860000D03*
X83820000Y-149860000D03*
X106680000Y-149860000D03*
X96520000Y-149860000D03*
D17*
X101600000Y-149860000D03*
D16*
X97790000Y-147320000D03*
X104140000Y-144780000D03*
X127000000Y-144780000D03*
X120650000Y-147320000D03*
D17*
X124460000Y-149860000D03*
D18*
X119380000Y-149860000D03*
X129540000Y-149860000D03*
D19*
X66040000Y-101600000D03*
X96010000Y-101600000D03*
D20*
X208280000Y-105410000D03*
D21*
X205740000Y-105410000D03*
X208280000Y-102870000D03*
X205740000Y-102870000D03*
X208280000Y-100330000D03*
X205740000Y-100330000D03*
D12*
X200660000Y-128270000D03*
D11*
X197890000Y-128270000D03*
X195120000Y-128270000D03*
X192350000Y-128270000D03*
X189580000Y-128270000D03*
X199275000Y-131110000D03*
X196505000Y-131110000D03*
X193735000Y-131110000D03*
X190965000Y-131110000D03*
M02*
