EESchema Schematic File Version 4
EELAYER 30 0
EELAYER END
$Descr A3 16535 11693
encoding utf-8
Sheet 1 1
Title "Схема электрическая принципиальная"
Date ""
Rev ""
Comp "МГТУ им. Н.Э.Баумана ИУ6-71"
Comment1 ""
Comment2 "Барков Д.А."
Comment3 ""
Comment4 ""
$EndDescr
$Comp
L my_Library1:DS-201 XP1
U 1 1 5DD4FB5D
P 2200 9050
F 0 "XP1" H 2233 9165 50  0000 C CNN
F 1 "DS-201" H 2233 9074 50  0000 C CNN
F 2 "Connector:Banana_Jack_2Pin" H 2200 9050 50  0001 C CNN
F 3 "" H 2200 9050 50  0001 C CNN
	1    2200 9050
	1    0    0    -1  
$EndComp
Wire Wire Line
	2500 9300 2600 9300
Wire Wire Line
	2600 9300 2600 9100
Wire Wire Line
	2950 9100 2950 9200
Wire Wire Line
	2500 9450 2600 9450
Wire Wire Line
	2600 9450 2600 9650
$Comp
L Device:CP C1
U 1 1 5DD598A2
P 2950 9350
F 0 "C1" H 3068 9396 50  0000 L CNN
F 1 "100 u" H 3068 9305 50  0000 L CNN
F 2 "Capacitor_SMD:CP_Elec_5x5.3" H 2988 9200 50  0001 C CNN
F 3 "~" H 2950 9350 50  0001 C CNN
	1    2950 9350
	1    0    0    -1  
$EndComp
$Comp
L Device:Crystal ZQ1
U 1 1 5DD61E2D
P 5100 3200
F 0 "ZQ1" H 5100 3468 50  0000 C CNN
F 1 "4 MHz" H 5100 3377 50  0000 C CNN
F 2 "Crystal:Crystal_HC49-U_Horizontal_1EP_style1" H 5100 3200 50  0001 C CNN
F 3 "~" H 5100 3200 50  0001 C CNN
	1    5100 3200
	1    0    0    -1  
$EndComp
$Comp
L Device:C C2
U 1 1 5DD62AD6
P 4800 3550
F 0 "C2" H 4915 3596 50  0000 L CNN
F 1 "22 p" H 4915 3505 50  0000 L CNN
F 2 "Capacitor_THT:C_Disc_D5.0mm_W2.5mm_P5.00mm" H 4838 3400 50  0001 C CNN
F 3 "~" H 4800 3550 50  0001 C CNN
	1    4800 3550
	1    0    0    -1  
$EndComp
$Comp
L Device:C C4
U 1 1 5DD6322B
P 5350 3550
F 0 "C4" H 5465 3596 50  0000 L CNN
F 1 "22 p" H 5465 3505 50  0000 L CNN
F 2 "Capacitor_THT:C_Disc_D5.0mm_W2.5mm_P5.00mm" H 5388 3400 50  0001 C CNN
F 3 "~" H 5350 3550 50  0001 C CNN
	1    5350 3550
	1    0    0    -1  
$EndComp
Wire Wire Line
	4800 3400 4800 3200
Wire Wire Line
	4800 3200 4950 3200
Wire Wire Line
	5250 3200 5350 3200
Wire Wire Line
	5350 3200 5350 3400
Wire Wire Line
	5350 2600 5350 3200
Connection ~ 5350 3200
Wire Wire Line
	4800 2800 4800 3200
Connection ~ 4800 3200
$Comp
L Interface_UART:MAX232 DD4
U 1 1 5DD68D27
P 9750 4150
F 0 "DD4" H 9750 5531 50  0000 C CNN
F 1 "MAX232" H 9750 5440 50  0000 C CNN
F 2 "Transformer_SMD:Transformer_Ethernet_Bel_S558-5999-T7-F" H 9800 3100 50  0001 L CNN
F 3 "http://www.ti.com/lit/ds/symlink/max232.pdf" H 9750 4250 50  0001 C CNN
	1    9750 4150
	1    0    0    -1  
$EndComp
$Comp
L power:+5V #PWR0101
U 1 1 5DD85D51
P 10000 2850
F 0 "#PWR0101" H 10000 2700 50  0001 C CNN
F 1 "+5V" H 10015 3023 50  0000 C CNN
F 2 "" H 10000 2850 50  0001 C CNN
F 3 "" H 10000 2850 50  0001 C CNN
	1    10000 2850
	1    0    0    -1  
$EndComp
Wire Wire Line
	10000 2850 10000 2900
Wire Wire Line
	10000 2950 9750 2950
$Comp
L Device:CP C6
U 1 1 5DD875D5
P 8650 3400
F 0 "C6" H 8768 3446 50  0000 L CNN
F 1 "1 u" H 8768 3355 50  0000 L CNN
F 2 "Capacitor_SMD:CP_Elec_5x3" H 8688 3250 50  0001 C CNN
F 3 "~" H 8650 3400 50  0001 C CNN
	1    8650 3400
	1    0    0    -1  
$EndComp
$Comp
L Device:CP C8
U 1 1 5DD88A12
P 10950 3400
F 0 "C8" H 11068 3446 50  0000 L CNN
F 1 "1 u" H 11068 3355 50  0000 L CNN
F 2 "Capacitor_SMD:CP_Elec_5x3" H 10988 3250 50  0001 C CNN
F 3 "~" H 10950 3400 50  0001 C CNN
	1    10950 3400
	1    0    0    -1  
$EndComp
$Comp
L Device:CP C12
U 1 1 5DD89408
P 11600 3150
F 0 "C12" H 11718 3196 50  0000 L CNN
F 1 "1 u" H 11718 3105 50  0000 L CNN
F 2 "Capacitor_SMD:CP_Elec_5x3" H 11638 3000 50  0001 C CNN
F 3 "~" H 11600 3150 50  0001 C CNN
	1    11600 3150
	1    0    0    -1  
$EndComp
$Comp
L Device:CP C11
U 1 1 5DD8A4ED
P 11550 3900
F 0 "C11" H 11668 3946 50  0000 L CNN
F 1 "1 u" H 11668 3855 50  0000 L CNN
F 2 "Capacitor_SMD:CP_Elec_5x3" H 11588 3750 50  0001 C CNN
F 3 "~" H 11550 3900 50  0001 C CNN
	1    11550 3900
	1    0    0    -1  
$EndComp
Wire Wire Line
	10550 3250 10950 3250
Wire Wire Line
	10950 3550 10550 3550
Wire Wire Line
	8950 3250 8650 3250
Wire Wire Line
	8950 3550 8650 3550
Wire Wire Line
	10550 3750 11100 3750
Wire Wire Line
	11100 3750 11100 3600
Wire Wire Line
	11100 3600 11600 3600
Wire Wire Line
	11600 3600 11600 3300
Wire Wire Line
	11600 3000 11600 2900
Wire Wire Line
	11600 2900 10000 2900
Connection ~ 10000 2900
Wire Wire Line
	10000 2900 10000 2950
Wire Wire Line
	10550 4050 11250 4050
Wire Wire Line
	11250 4050 11250 3650
Wire Wire Line
	11250 3650 11550 3650
Wire Wire Line
	11550 3650 11550 3750
$Comp
L my_Library1:RS-232 XP3
U 1 1 5DD9B81A
P 12700 4000
F 0 "XP3" H 12650 4050 50  0000 L CNN
F 1 "RS-232" H 12600 3950 50  0000 L CNN
F 2 "Connector_Dsub:DSUB-9_Male_Vertical_P2.77x2.84mm" H 12700 4000 50  0001 C CNN
F 3 "" H 12700 4000 50  0001 C CNN
	1    12700 4000
	1    0    0    -1  
$EndComp
Wire Wire Line
	12300 5250 12200 5250
Wire Wire Line
	12200 5250 12200 5400
Wire Wire Line
	12200 5400 12300 5400
Wire Wire Line
	12300 5550 12200 5550
Wire Wire Line
	12300 4350 12200 4350
Wire Wire Line
	12300 5100 12200 5100
Wire Wire Line
	12300 4800 12200 4800
Wire Wire Line
	12300 4950 11950 4950
$Comp
L Device:C C10
U 1 1 5DDB07DC
P 11400 5200
F 0 "C10" H 11515 5246 50  0000 L CNN
F 1 "1.2 n" H 11515 5155 50  0000 L CNN
F 2 "Capacitor_THT:C_Disc_D5.0mm_W2.5mm_P5.00mm" H 11438 5050 50  0001 C CNN
F 3 "~" H 11400 5200 50  0001 C CNN
	1    11400 5200
	1    0    0    -1  
$EndComp
$Comp
L Device:C C9
U 1 1 5DDB1099
P 10950 5200
F 0 "C9" H 11065 5246 50  0000 L CNN
F 1 "1.2 n" H 11065 5155 50  0000 L CNN
F 2 "Capacitor_THT:C_Disc_D5.0mm_W2.5mm_P5.00mm" H 10988 5050 50  0001 C CNN
F 3 "~" H 10950 5200 50  0001 C CNN
	1    10950 5200
	1    0    0    -1  
$EndComp
$Comp
L Device:R R2
U 1 1 5DDB24C3
P 10900 4450
F 0 "R2" V 10693 4450 50  0000 C CNN
F 1 "470" V 10784 4450 50  0000 C CNN
F 2 "Resistor_THT:R_Axial_DIN0207_L6.3mm_D2.5mm_P7.62mm_Horizontal" V 10830 4450 50  0001 C CNN
F 3 "~" H 10900 4450 50  0001 C CNN
	1    10900 4450
	0    1    1    0   
$EndComp
$Comp
L Device:R R3
U 1 1 5DDB2E05
P 10900 4850
F 0 "R3" V 10693 4850 50  0000 C CNN
F 1 "470" V 10784 4850 50  0000 C CNN
F 2 "Resistor_THT:R_Axial_DIN0207_L6.3mm_D2.5mm_P7.62mm_Horizontal" V 10830 4850 50  0001 C CNN
F 3 "~" H 10900 4850 50  0001 C CNN
	1    10900 4850
	0    1    1    0   
$EndComp
Wire Wire Line
	10750 4450 10550 4450
Wire Wire Line
	12000 4450 12000 4500
Wire Wire Line
	12000 4500 12300 4500
Wire Wire Line
	11050 4450 11200 4450
Wire Wire Line
	10750 4850 10550 4850
Wire Wire Line
	11050 4850 11400 4850
Wire Wire Line
	12000 4850 12000 4650
Wire Wire Line
	12000 4650 12300 4650
Wire Wire Line
	10950 5050 10950 5000
Wire Wire Line
	10950 5000 11200 5000
Wire Wire Line
	11200 5000 11200 4450
Connection ~ 11200 4450
Wire Wire Line
	11200 4450 12000 4450
Wire Wire Line
	11400 5050 11400 4850
Connection ~ 11400 4850
Wire Wire Line
	11400 4850 12000 4850
$Comp
L newfile-rescue:IDC-06MS-my_Library1 XP2
U 1 1 5DDDDB61
P 8150 7150
F 0 "XP2" H 8100 7200 50  0000 L CNN
F 1 "IDC-06MS" H 8000 7100 50  0000 L CNN
F 2 "Connector_IDC:IDC-Header_2x03_P2.54mm_Horizontal" H 8150 7150 50  0001 C CNN
F 3 "" H 8150 7150 50  0001 C CNN
	1    8150 7150
	1    0    0    -1  
$EndComp
Entry Wire Line
	7300 8050 7400 7950
Entry Wire Line
	7300 7900 7400 7800
Entry Wire Line
	7300 7600 7400 7500
Wire Wire Line
	7750 7500 7400 7500
Wire Wire Line
	7750 7800 7400 7800
Wire Wire Line
	7750 7950 7400 7950
Wire Wire Line
	7750 8250 7550 8250
Entry Wire Line
	4450 2500 4550 2400
Text Label 7400 7500 0    50   ~ 0
MOSI
Text Label 7400 7800 0    50   ~ 0
SCK
Text Label 7400 7950 0    50   ~ 0
RESET
Text Label 4550 2400 0    50   ~ 0
RESET
NoConn ~ 10550 4250
NoConn ~ 10550 4650
NoConn ~ 12200 4350
NoConn ~ 12200 4800
NoConn ~ 12200 5100
NoConn ~ 12200 5550
NoConn ~ 8950 4650
NoConn ~ 8950 4250
$Comp
L power:+5V #PWR0102
U 1 1 5DD5FD3F
P 6650 2000
F 0 "#PWR0102" H 6650 1850 50  0001 C CNN
F 1 "+5V" H 6665 2173 50  0000 C CNN
F 2 "" H 6650 2000 50  0001 C CNN
F 3 "" H 6650 2000 50  0001 C CNN
	1    6650 2000
	1    0    0    -1  
$EndComp
Wire Wire Line
	5300 4000 5300 3700
Wire Wire Line
	5300 3700 5350 3700
Wire Wire Line
	9700 5350 9750 5350
Wire Wire Line
	4800 4000 4800 3700
Wire Wire Line
	11400 5650 11400 5350
Wire Wire Line
	11950 5250 11950 4950
Wire Wire Line
	11550 4050 11550 4150
NoConn ~ 9700 5350
$Comp
L power:GND #PWR0103
U 1 1 5E039DB1
P 10950 5700
F 0 "#PWR0103" H 10950 5450 50  0001 C CNN
F 1 "GND" H 10955 5527 50  0000 C CNN
F 2 "" H 10950 5700 50  0001 C CNN
F 3 "" H 10950 5700 50  0001 C CNN
	1    10950 5700
	1    0    0    -1  
$EndComp
Wire Wire Line
	10950 5350 10950 5700
$Comp
L power:GND #PWR0104
U 1 1 5E06297B
P 11400 5650
F 0 "#PWR0104" H 11400 5400 50  0001 C CNN
F 1 "GND" H 11405 5477 50  0000 C CNN
F 2 "" H 11400 5650 50  0001 C CNN
F 3 "" H 11400 5650 50  0001 C CNN
	1    11400 5650
	1    0    0    -1  
$EndComp
$Comp
L power:GND #PWR0105
U 1 1 5E071AF0
P 11950 5250
F 0 "#PWR0105" H 11950 5000 50  0001 C CNN
F 1 "GND" H 11955 5077 50  0000 C CNN
F 2 "" H 11950 5250 50  0001 C CNN
F 3 "" H 11950 5250 50  0001 C CNN
	1    11950 5250
	1    0    0    -1  
$EndComp
$Comp
L power:GND #PWR0106
U 1 1 5E080E36
P 7550 8450
F 0 "#PWR0106" H 7550 8200 50  0001 C CNN
F 1 "GND" H 7555 8277 50  0000 C CNN
F 2 "" H 7550 8450 50  0001 C CNN
F 3 "" H 7550 8450 50  0001 C CNN
	1    7550 8450
	1    0    0    -1  
$EndComp
$Comp
L power:GND #PWR0107
U 1 1 5E0B5CC5
P 4800 4000
F 0 "#PWR0107" H 4800 3750 50  0001 C CNN
F 1 "GND" H 4805 3827 50  0000 C CNN
F 2 "" H 4800 4000 50  0001 C CNN
F 3 "" H 4800 4000 50  0001 C CNN
	1    4800 4000
	1    0    0    -1  
$EndComp
$Comp
L power:GND #PWR0108
U 1 1 5E0BD62A
P 5300 4000
F 0 "#PWR0108" H 5300 3750 50  0001 C CNN
F 1 "GND" H 5305 3827 50  0000 C CNN
F 2 "" H 5300 4000 50  0001 C CNN
F 3 "" H 5300 4000 50  0001 C CNN
	1    5300 4000
	1    0    0    -1  
$EndComp
$Comp
L power:GND #PWR0109
U 1 1 5E0CC708
P 11550 4150
F 0 "#PWR0109" H 11550 3900 50  0001 C CNN
F 1 "GND" H 11555 3977 50  0000 C CNN
F 2 "" H 11550 4150 50  0001 C CNN
F 3 "" H 11550 4150 50  0001 C CNN
	1    11550 4150
	1    0    0    -1  
$EndComp
Wire Wire Line
	2600 9650 2950 9650
$Comp
L power:GND #PWR0110
U 1 1 5E0121AE
P 1950 10450
F 0 "#PWR0110" H 1950 10200 50  0001 C CNN
F 1 "GND" H 1955 10277 50  0000 C CNN
F 2 "" H 1950 10450 50  0001 C CNN
F 3 "" H 1950 10450 50  0001 C CNN
	1    1950 10450
	1    0    0    -1  
$EndComp
Wire Wire Line
	5550 2800 4800 2800
Wire Wire Line
	5350 2600 5550 2600
Wire Wire Line
	5550 2400 4550 2400
Wire Wire Line
	6150 2100 6650 2100
Wire Wire Line
	6650 2100 6650 2000
NoConn ~ 5550 5100
NoConn ~ 5550 5200
NoConn ~ 5550 5300
NoConn ~ 6750 5500
NoConn ~ 6750 5700
NoConn ~ 6750 5800
Wire Wire Line
	8350 4450 8950 4450
Wire Wire Line
	8350 4450 8350 5150
Wire Wire Line
	8600 5350 8600 4850
Wire Wire Line
	8600 4850 8950 4850
NoConn ~ 6750 4200
NoConn ~ 6750 4300
NoConn ~ 6750 4400
NoConn ~ 6750 4500
NoConn ~ 6750 4600
NoConn ~ 6750 4700
NoConn ~ 6750 4800
NoConn ~ 6750 4900
$Comp
L power:GND #PWR0111
U 1 1 5E2D87AA
P 6350 6150
F 0 "#PWR0111" H 6350 5900 50  0001 C CNN
F 1 "GND" H 6355 5977 50  0000 C CNN
F 2 "" H 6350 6150 50  0001 C CNN
F 3 "" H 6350 6150 50  0001 C CNN
	1    6350 6150
	1    0    0    -1  
$EndComp
Wire Wire Line
	6150 6100 6150 6150
Wire Wire Line
	6150 6150 6350 6150
Text Label 7400 5350 0    50   ~ 0
RXD
$Comp
L power:GND #PWR0112
U 1 1 5E0E4376
P 4650 9400
F 0 "#PWR0112" H 4650 9150 50  0001 C CNN
F 1 "GND" H 4655 9227 50  0000 C CNN
F 2 "" H 4650 9400 50  0001 C CNN
F 3 "" H 4650 9400 50  0001 C CNN
	1    4650 9400
	1    0    0    -1  
$EndComp
$Comp
L power:GND #PWR0113
U 1 1 5E0978F2
P 4650 10050
F 0 "#PWR0113" H 4650 9800 50  0001 C CNN
F 1 "GND" H 4655 9877 50  0000 C CNN
F 2 "" H 4650 10050 50  0001 C CNN
F 3 "" H 4650 10050 50  0001 C CNN
	1    4650 10050
	1    0    0    -1  
$EndComp
Wire Wire Line
	4650 9650 4650 10050
$Comp
L Device:CP C5
U 1 1 5DD5B013
P 5650 9400
F 0 "C5" H 5768 9446 50  0000 L CNN
F 1 "1 u" H 5768 9355 50  0000 L CNN
F 2 "Capacitor_SMD:CP_Elec_5x3" H 5688 9250 50  0001 C CNN
F 3 "~" H 5650 9400 50  0001 C CNN
	1    5650 9400
	1    0    0    -1  
$EndComp
$Comp
L Device:CP C3
U 1 1 5DD5A843
P 5150 9400
F 0 "C3" H 5268 9446 50  0000 L CNN
F 1 "10 u" H 5268 9355 50  0000 L CNN
F 2 "Capacitor_SMD:CP_Elec_5x5.3" H 5188 9250 50  0001 C CNN
F 3 "~" H 5150 9400 50  0001 C CNN
	1    5150 9400
	1    0    0    -1  
$EndComp
Connection ~ 5650 9100
Connection ~ 5150 9650
Wire Wire Line
	5650 9650 5150 9650
Wire Wire Line
	5650 9550 5650 9650
Connection ~ 5150 9100
Wire Wire Line
	5650 9100 5150 9100
Wire Wire Line
	5650 9250 5650 9100
Wire Wire Line
	5150 9650 4650 9650
Wire Wire Line
	5150 9550 5150 9650
Wire Wire Line
	5150 9100 5150 9250
Wire Wire Line
	4950 9100 5150 9100
$Comp
L Regulator_Linear:LM7805_TO220 DD1
U 1 1 5DD54E4A
P 4650 9100
F 0 "DD1" H 4650 9342 50  0000 C CNN
F 1 "LM7805_TO220" H 4650 9251 50  0000 C CNN
F 2 "Package_TO_SOT_THT:TO-220-3_Vertical" H 4650 9325 50  0001 C CIN
F 3 "http://www.fairchildsemi.com/ds/LM/LM7805.pdf" H 4650 9050 50  0001 C CNN
	1    4650 9100
	1    0    0    -1  
$EndComp
$Comp
L Filter:BNX025 FL1
U 1 1 5E05BCBE
P 3750 9350
F 0 "FL1" H 3750 9675 50  0000 C CNN
F 1 "BNX025" H 3750 9584 50  0000 C CNN
F 2 "Filter:Filter_Murata_BNX025" H 3750 9150 50  0001 C CNN
F 3 "https://www.murata.com/en-us/products/productdetail.aspx?cate=luNoiseSupprFilteBlockType&partno=BNX025H01%23" V 3725 9325 50  0001 C CNN
	1    3750 9350
	1    0    0    -1  
$EndComp
Wire Wire Line
	3350 9250 3350 9100
Wire Wire Line
	2600 9100 2950 9100
Connection ~ 2950 9100
Wire Wire Line
	2950 9100 3350 9100
Wire Wire Line
	4200 9450 4200 9650
Wire Wire Line
	4200 9650 4650 9650
Connection ~ 4650 9650
Wire Wire Line
	4200 9450 4150 9450
Wire Wire Line
	2950 9650 2950 9500
Wire Wire Line
	3350 9450 3350 9650
Wire Wire Line
	3350 9650 2950 9650
Connection ~ 2950 9650
Entry Wire Line
	7200 3800 7300 3900
Entry Wire Line
	7200 3900 7300 4000
Wire Wire Line
	6750 4000 7200 4000
Wire Wire Line
	6750 3900 7200 3900
Wire Wire Line
	6750 3800 7200 3800
Text Label 7000 4000 0    50   ~ 0
SCK
Text Label 7000 3900 0    50   ~ 0
MISO
Text Label 7000 3800 0    50   ~ 0
MOSI
Entry Wire Line
	7200 4000 7300 4100
$Comp
L atmega8515-16au-mcu_microchip_atmega:LM016L DD3
U 1 1 5EB03076
P 8700 6350
F 0 "DD3" H 8600 7117 50  0000 C CNN
F 1 "LM016L" H 8600 7026 50  0000 C CNN
F 2 "main:LCD_LM016L" H 8700 6350 50  0001 L BNN
F 3 "Hitachi" H 8700 6350 50  0001 L BNN
	1    8700 6350
	1    0    0    -1  
$EndComp
Text Label 7400 6850 0    50   ~ 0
DATA3
Text Label 7400 6950 0    50   ~ 0
DATA4
Text Label 7400 5850 0    50   ~ 0
E
Text Label 7400 5950 0    50   ~ 0
RS
$Comp
L Device:C C7
U 1 1 5EB54135
P 9300 6250
F 0 "C7" H 9415 6296 50  0000 L CNN
F 1 "0.1u" H 9415 6205 50  0000 L CNN
F 2 "Capacitor_THT:C_Disc_D5.0mm_W2.5mm_P5.00mm" H 9338 6100 50  0001 C CNN
F 3 "~" H 9300 6250 50  0001 C CNN
	1    9300 6250
	1    0    0    -1  
$EndComp
$Comp
L Device:R_POT RV1
U 1 1 5EB54EB6
P 9700 5950
F 0 "RV1" H 9630 5996 50  0000 R CNN
F 1 "10k" H 9630 5905 50  0000 R CNN
F 2 "Potentiometer_THT:Potentiometer_ACP_CA6-H2,5_Horizontal" H 9700 5950 50  0001 C CNN
F 3 "~" H 9700 5950 50  0001 C CNN
	1    9700 5950
	-1   0    0    -1  
$EndComp
$Comp
L power:GND #PWR0115
U 1 1 5EB55D9A
P 9300 7000
F 0 "#PWR0115" H 9300 6750 50  0001 C CNN
F 1 "GND" H 9305 6827 50  0000 C CNN
F 2 "" H 9300 7000 50  0001 C CNN
F 3 "" H 9300 7000 50  0001 C CNN
	1    9300 7000
	1    0    0    -1  
$EndComp
$Comp
L power:GND #PWR0116
U 1 1 5EB568EA
P 9300 6550
F 0 "#PWR0116" H 9300 6300 50  0001 C CNN
F 1 "GND" H 9305 6377 50  0000 C CNN
F 2 "" H 9300 6550 50  0001 C CNN
F 3 "" H 9300 6550 50  0001 C CNN
	1    9300 6550
	1    0    0    -1  
$EndComp
$Comp
L power:GND #PWR0117
U 1 1 5EB57AC4
P 9700 6550
F 0 "#PWR0117" H 9700 6300 50  0001 C CNN
F 1 "GND" H 9705 6377 50  0000 C CNN
F 2 "" H 9700 6550 50  0001 C CNN
F 3 "" H 9700 6550 50  0001 C CNN
	1    9700 6550
	1    0    0    -1  
$EndComp
Wire Wire Line
	9300 7000 9300 6950
Wire Wire Line
	9300 6950 9100 6950
Wire Wire Line
	9300 6400 9300 6550
Wire Wire Line
	9700 6100 9700 6550
Wire Wire Line
	9550 5950 9100 5950
Wire Wire Line
	9700 5700 9700 5800
Text Label 7400 6650 0    50   ~ 0
DATA1
Entry Wire Line
	7200 3300 7300 3400
Entry Wire Line
	7200 3400 7300 3500
Entry Wire Line
	7200 3500 7300 3600
Entry Wire Line
	7200 3600 7300 3700
Entry Wire Line
	7200 3700 7300 3800
Wire Wire Line
	7200 3500 6750 3500
Wire Wire Line
	7200 3600 6750 3600
Wire Wire Line
	7200 3700 6750 3700
Wire Wire Line
	7200 3400 6750 3400
Wire Wire Line
	7200 3300 6750 3300
$Comp
L newfile-rescue:ATmega8515-16AU-MCU_Microchip_ATmega DD2
U 1 1 5E022FAB
P 6150 4100
F 0 "DD2" H 6150 6281 50  0000 C CNN
F 1 "ATmega8515-16AU" H 6150 6190 50  0000 C CNN
F 2 "Package_QFP:TQFP-44_10x10mm_P0.8mm" H 6150 4100 50  0001 C CIN
F 3 "http://ww1.microchip.com/downloads/en/DeviceDoc/doc2512.pdf" H 6150 4100 50  0001 C CNN
	1    6150 4100
	1    0    0    -1  
$EndComp
Text Label 7000 3300 0    50   ~ 0
DATA1
Text Label 7000 3400 0    50   ~ 0
DATA2
Text Label 7000 3500 0    50   ~ 0
DATA3
Text Label 7000 3600 0    50   ~ 0
DATA4
Text Label 7000 3700 0    50   ~ 0
SS
Entry Wire Line
	7300 7750 7400 7650
Wire Wire Line
	7400 7650 7750 7650
Text Label 7400 7650 0    50   ~ 0
MISO
Entry Wire Line
	7300 8200 7400 8100
Wire Wire Line
	7750 8100 7400 8100
Text Label 7400 8100 0    50   ~ 0
SS
Wire Wire Line
	7550 8250 7550 8450
Entry Wire Line
	7200 5100 7300 5200
Entry Wire Line
	7200 5200 7300 5300
Entry Wire Line
	7200 5300 7300 5400
Entry Wire Line
	7200 5400 7300 5500
Entry Wire Line
	7200 5600 7300 5700
Wire Wire Line
	6750 5100 7200 5100
Wire Wire Line
	7200 5200 6750 5200
Wire Wire Line
	6750 5300 7200 5300
Wire Wire Line
	7200 5400 6750 5400
Wire Wire Line
	7200 5600 6750 5600
Entry Wire Line
	7300 5050 7400 5150
Entry Wire Line
	7300 5250 7400 5350
Wire Wire Line
	7400 5350 8600 5350
Wire Wire Line
	7400 5150 8350 5150
Text Label 7400 5150 0    50   ~ 0
TXD
Text Label 7100 5100 0    50   ~ 0
RXD
Text Label 7100 5200 0    50   ~ 0
TXD
Text Label 7100 5300 0    50   ~ 0
RS
Text Label 7100 5400 0    50   ~ 0
RW
Text Label 7100 5600 0    50   ~ 0
E
Wire Wire Line
	7400 6750 8100 6750
Wire Wire Line
	7400 6850 8100 6850
Wire Wire Line
	7400 6950 8100 6950
Entry Wire Line
	7300 5750 7400 5850
Entry Wire Line
	7300 5850 7400 5950
Entry Wire Line
	7300 5950 7400 6050
Entry Wire Line
	7300 6550 7400 6650
Entry Wire Line
	7300 6650 7400 6750
Entry Wire Line
	7300 6750 7400 6850
Entry Wire Line
	7300 6850 7400 6950
Text Label 7400 6050 0    50   ~ 0
RW
Wire Wire Line
	7400 6650 8100 6650
Text Label 7400 6750 0    50   ~ 0
DATA2
Wire Bus Line
	7300 1750 4450 1750
$Comp
L Switch:SW_Push SW1
U 1 1 5EA87018
P 2750 2200
F 0 "SW1" H 2750 2485 50  0000 C CNN
F 1 "\"Reset\"" H 2750 2394 50  0000 C CNN
F 2 "Button_Switch_Keyboard:SW_Cherry_MX_1.00u_PCB" H 2750 2400 50  0001 C CNN
F 3 "~" H 2750 2400 50  0001 C CNN
	1    2750 2200
	1    0    0    -1  
$EndComp
$Comp
L power:GND #PWR0121
U 1 1 5EAA615F
P 2400 2300
F 0 "#PWR0121" H 2400 2050 50  0001 C CNN
F 1 "GND" H 2405 2127 50  0000 C CNN
F 2 "" H 2400 2300 50  0001 C CNN
F 3 "" H 2400 2300 50  0001 C CNN
	1    2400 2300
	1    0    0    -1  
$EndComp
Wire Wire Line
	2550 2200 2400 2200
Wire Wire Line
	2400 2200 2400 2300
$Comp
L power:+5V #PWR0122
U 1 1 5EABA1EC
P 3300 1700
F 0 "#PWR0122" H 3300 1550 50  0001 C CNN
F 1 "+5V" V 3315 1828 50  0000 L CNN
F 2 "" H 3300 1700 50  0001 C CNN
F 3 "" H 3300 1700 50  0001 C CNN
	1    3300 1700
	0    1    1    0   
$EndComp
$Comp
L Device:R R1
U 1 1 5EAC8717
P 3050 1850
F 0 "R1" H 3120 1896 50  0000 L CNN
F 1 "10K" H 3120 1805 50  0000 L CNN
F 2 "Resistor_THT:R_Axial_DIN0207_L6.3mm_D2.5mm_P7.62mm_Horizontal" V 2980 1850 50  0001 C CNN
F 3 "~" H 3050 1850 50  0001 C CNN
	1    3050 1850
	1    0    0    -1  
$EndComp
Wire Wire Line
	3300 1700 3050 1700
Wire Wire Line
	3050 2000 3050 2200
Connection ~ 3050 2200
Wire Wire Line
	3050 2200 2950 2200
Entry Wire Line
	4350 2200 4450 2300
Text Label 4150 2200 0    50   ~ 0
RESET
Wire Wire Line
	3050 2200 4350 2200
Wire Wire Line
	7400 5850 8100 5850
Wire Wire Line
	8100 5950 7400 5950
Wire Wire Line
	8100 6050 7400 6050
NoConn ~ 8100 6250
NoConn ~ 8100 6350
NoConn ~ 8100 6450
NoConn ~ 8100 6550
NoConn ~ 6750 2400
NoConn ~ 6750 2500
NoConn ~ 6750 2600
NoConn ~ 6750 2700
NoConn ~ 6750 2800
NoConn ~ 6750 2900
NoConn ~ 6750 3000
NoConn ~ 6750 3100
Wire Wire Line
	4150 9250 4200 9250
Wire Wire Line
	4200 9250 4200 9100
Wire Wire Line
	4200 9100 4350 9100
Wire Wire Line
	9300 6100 9300 5850
Wire Wire Line
	9300 5850 9100 5850
Wire Wire Line
	9300 5750 9300 5850
Connection ~ 9300 5850
Wire Wire Line
	1950 10200 1950 10450
$Comp
L power:PWR_FLAG #FLG0101
U 1 1 5E011221
P 1950 10200
F 0 "#FLG0101" H 1950 10275 50  0001 C CNN
F 1 "PWR_FLAG" H 1950 10373 50  0000 C CNN
F 2 "" H 1950 10200 50  0001 C CNN
F 3 "~" H 1950 10200 50  0001 C CNN
	1    1950 10200
	1    0    0    -1  
$EndComp
$Comp
L power:PWR_FLAG #FLG0102
U 1 1 5EAA6958
P 4200 9050
F 0 "#FLG0102" H 4200 9125 50  0001 C CNN
F 1 "PWR_FLAG" H 4200 9223 50  0000 C CNN
F 2 "" H 4200 9050 50  0001 C CNN
F 3 "~" H 4200 9050 50  0001 C CNN
	1    4200 9050
	1    0    0    -1  
$EndComp
$Comp
L power:PWR_FLAG #FLG0103
U 1 1 5EAACC38
P 2350 10200
F 0 "#FLG0103" H 2350 10275 50  0001 C CNN
F 1 "PWR_FLAG" H 2350 10373 50  0000 C CNN
F 2 "" H 2350 10200 50  0001 C CNN
F 3 "~" H 2350 10200 50  0001 C CNN
	1    2350 10200
	1    0    0    -1  
$EndComp
$Comp
L power:VCC #PWR0120
U 1 1 5EAB31D8
P 2350 10450
F 0 "#PWR0120" H 2350 10300 50  0001 C CNN
F 1 "VCC" H 2368 10623 50  0000 C CNN
F 2 "" H 2350 10450 50  0001 C CNN
F 3 "" H 2350 10450 50  0001 C CNN
	1    2350 10450
	-1   0    0    1   
$EndComp
Wire Wire Line
	2350 10200 2350 10450
Wire Wire Line
	4200 9100 4200 9050
Connection ~ 4200 9100
Wire Wire Line
	5650 8850 5650 9100
$Comp
L power:+5V #PWR0114
U 1 1 5DD58EEC
P 5650 8850
F 0 "#PWR0114" H 5650 8700 50  0001 C CNN
F 1 "+5V" H 5665 9023 50  0000 C CNN
F 2 "" H 5650 8850 50  0001 C CNN
F 3 "" H 5650 8850 50  0001 C CNN
	1    5650 8850
	1    0    0    -1  
$EndComp
$Comp
L power:+5V #PWR?
U 1 1 5EAB5D67
P 9300 5750
F 0 "#PWR?" H 9300 5600 50  0001 C CNN
F 1 "+5V" H 9315 5923 50  0000 C CNN
F 2 "" H 9300 5750 50  0001 C CNN
F 3 "" H 9300 5750 50  0001 C CNN
	1    9300 5750
	1    0    0    -1  
$EndComp
$Comp
L power:+5V #PWR?
U 1 1 5EABC16A
P 9700 5700
F 0 "#PWR?" H 9700 5550 50  0001 C CNN
F 1 "+5V" H 9715 5873 50  0000 C CNN
F 2 "" H 9700 5700 50  0001 C CNN
F 3 "" H 9700 5700 50  0001 C CNN
	1    9700 5700
	1    0    0    -1  
$EndComp
Wire Bus Line
	4450 1750 4450 2900
Wire Bus Line
	7300 1750 7300 8400
$EndSCHEMATC
