
(module TSSOP16 (layer F.Cu) (tedit 5E4ECDAC)
  (descr "")
  (fp_text reference REF** (at -2.50000000013e-06 0.9654805 0) (layer F.SilkS)
    (effects (font (size 0.480140944882 0.480140944882) (thickness 0.015)))
  )
  (fp_text value TSSOP16 (at 0.6106565 -1.1958745 0) (layer F.Fab)
    (effects (font (size 0.480833858268 0.480833858268) (thickness 0.015)))
  )
  (fp_line (start 3.1 2.4) (end -3.0 2.4) (layer F.Fab) (width 0.2032))
  (fp_line (start -3.0 -2.6) (end 3.1 -2.6) (layer F.Fab) (width 0.2032))
  (fp_line (start 3.1 2.4) (end 3.1 -2.6) (layer F.Fab) (width 0.2032))
  (fp_line (start -3.0 -2.6) (end -2.8 -2.6) (layer F.SilkS) (width 0.2032))
  (fp_line (start -3.0 -2.6) (end -3.0 -0.5) (layer F.SilkS) (width 0.2032))
  (fp_line (start -3.0 0.5) (end -3.0 2.4) (layer F.SilkS) (width 0.2032))
  (fp_line (start -3.0 2.4) (end -2.8 2.4) (layer F.SilkS) (width 0.2032))
  (fp_line (start 2.9 2.4) (end 3.1 2.4) (layer F.SilkS) (width 0.2032))
  (fp_line (start 3.1 2.4) (end 3.1 -2.6) (layer F.SilkS) (width 0.2032))
  (fp_line (start 3.1 -2.6) (end 2.9 -2.6) (layer F.SilkS) (width 0.2032))
  (fp_arc (start -3.0 0.0) (end -3.0 0.5) (angle -180.0) (layer F.SilkS) (width 0.2032))
  (fp_poly
    (pts
      (xy -2.42631 2.5299)
      (xy -2.0249 2.5299)
      (xy -2.0249 3.35192)
      (xy -2.42631 3.35192)
    ) (layer F.Fab) (width 0.01)
  )
  (fp_poly
    (pts
      (xy -1.77554 2.5299)
      (xy -1.3749 2.5299)
      (xy -1.3749 3.35111)
      (xy -1.77554 3.35111)
    ) (layer F.Fab) (width 0.01)
  )
  (fp_poly
    (pts
      (xy -1.12573 2.5299)
      (xy -0.725 2.5299)
      (xy -0.725 3.35228)
      (xy -1.12573 3.35228)
    ) (layer F.Fab) (width 0.01)
  )
  (fp_poly
    (pts
      (xy -0.47574 2.5299)
      (xy -0.075 2.5299)
      (xy -0.075 3.35532)
      (xy -0.47574 3.35532)
    ) (layer F.Fab) (width 0.01)
  )
  (fp_poly
    (pts
      (xy 0.175141 2.5299)
      (xy 0.575 2.5299)
      (xy 0.575 3.35279)
      (xy 0.175141 3.35279)
    ) (layer F.Fab) (width 0.01)
  )
  (fp_poly
    (pts
      (xy 0.826192 2.5299)
      (xy 1.225 2.5299)
      (xy 1.225 3.35494)
      (xy 0.826192 3.35494)
    ) (layer F.Fab) (width 0.01)
  )
  (fp_poly
    (pts
      (xy 1.47634 2.5299)
      (xy 1.875 2.5299)
      (xy 1.875 3.35336)
      (xy 1.47634 3.35336)
    ) (layer F.Fab) (width 0.01)
  )
  (fp_poly
    (pts
      (xy 2.12856 2.5299)
      (xy 2.525 2.5299)
      (xy 2.525 3.35587)
      (xy 2.12856 3.35587)
    ) (layer F.Fab) (width 0.01)
  )
  (fp_poly
    (pts
      (xy 2.12533 -3.5501)
      (xy 2.525 -3.5501)
      (xy 2.525 -2.73045)
      (xy 2.12533 -2.73045)
    ) (layer F.Fab) (width 0.01)
  )
  (fp_poly
    (pts
      (xy 1.47707 -3.5501)
      (xy 1.875 -3.5501)
      (xy 1.875 -2.73392)
      (xy 1.47707 -2.73392)
    ) (layer F.Fab) (width 0.01)
  )
  (fp_poly
    (pts
      (xy 0.826497 -3.5501)
      (xy 1.225 -3.5501)
      (xy 1.225 -2.73485)
      (xy 0.826497 -2.73485)
    ) (layer F.Fab) (width 0.01)
  )
  (fp_poly
    (pts
      (xy 0.175321 -3.5501)
      (xy 0.575 -3.5501)
      (xy 0.575 -2.7349)
      (xy 0.175321 -2.7349)
    ) (layer F.Fab) (width 0.01)
  )
  (fp_poly
    (pts
      (xy -0.475097 -3.5501)
      (xy -0.075 -3.5501)
      (xy -0.075 -2.73046)
      (xy -0.475097 -2.73046)
    ) (layer F.Fab) (width 0.01)
  )
  (fp_poly
    (pts
      (xy -1.12569 -3.5501)
      (xy -0.725 -3.5501)
      (xy -0.725 -2.73156)
      (xy -1.12569 -2.73156)
    ) (layer F.Fab) (width 0.01)
  )
  (fp_poly
    (pts
      (xy -1.77768 -3.5501)
      (xy -1.3749 -3.5501)
      (xy -1.3749 -2.73402)
      (xy -1.77768 -2.73402)
    ) (layer F.Fab) (width 0.01)
  )
  (fp_poly
    (pts
      (xy -2.42523 -3.5501)
      (xy -2.0249 -3.5501)
      (xy -2.0249 -2.73016)
      (xy -2.42523 -2.73016)
    ) (layer F.Fab) (width 0.01)
  )
  (fp_poly
    (pts
      (xy -2.42507 2.5299)
      (xy -2.0249 2.5299)
      (xy -2.0249 3.3502)
      (xy -2.42507 3.3502)
    ) (layer F.Fab) (width 0.01)
  )
  (fp_poly
    (pts
      (xy -1.77505 2.5299)
      (xy -1.3749 2.5299)
      (xy -1.3749 3.3502)
      (xy -1.77505 3.3502)
    ) (layer F.Fab) (width 0.01)
  )
  (fp_poly
    (pts
      (xy -1.12618 2.5299)
      (xy -0.725 2.5299)
      (xy -0.725 3.35363)
      (xy -1.12618 3.35363)
    ) (layer F.Fab) (width 0.01)
  )
  (fp_poly
    (pts
      (xy -0.475427 2.5299)
      (xy -0.075 2.5299)
      (xy -0.075 3.35311)
      (xy -0.475427 3.35311)
    ) (layer F.Fab) (width 0.01)
  )
  (fp_poly
    (pts
      (xy 0.175306 2.5299)
      (xy 0.575 2.5299)
      (xy 0.575 3.35596)
      (xy 0.175306 3.35596)
    ) (layer F.Fab) (width 0.01)
  )
  (fp_poly
    (pts
      (xy 0.825438 2.5299)
      (xy 1.225 2.5299)
      (xy 1.225 3.35188)
      (xy 0.825438 3.35188)
    ) (layer F.Fab) (width 0.01)
  )
  (fp_poly
    (pts
      (xy 1.47566 2.5299)
      (xy 1.875 2.5299)
      (xy 1.875 3.35182)
      (xy 1.47566 3.35182)
    ) (layer F.Fab) (width 0.01)
  )
  (fp_poly
    (pts
      (xy 2.12868 2.5299)
      (xy 2.525 2.5299)
      (xy 2.525 3.35606)
      (xy 2.12868 3.35606)
    ) (layer F.Fab) (width 0.01)
  )
  (fp_poly
    (pts
      (xy 2.12551 -3.5501)
      (xy 2.525 -3.5501)
      (xy 2.525 -2.73068)
      (xy 2.12551 -2.73068)
    ) (layer F.Fab) (width 0.01)
  )
  (fp_poly
    (pts
      (xy 1.47707 -3.5501)
      (xy 1.875 -3.5501)
      (xy 1.875 -2.73391)
      (xy 1.47707 -2.73391)
    ) (layer F.Fab) (width 0.01)
  )
  (fp_poly
    (pts
      (xy 0.825389 -3.5501)
      (xy 1.225 -3.5501)
      (xy 1.225 -2.73119)
      (xy 0.825389 -2.73119)
    ) (layer F.Fab) (width 0.01)
  )
  (fp_poly
    (pts
      (xy 0.175123 -3.5501)
      (xy 0.575 -3.5501)
      (xy 0.575 -2.73182)
      (xy 0.175123 -2.73182)
    ) (layer F.Fab) (width 0.01)
  )
  (fp_poly
    (pts
      (xy -0.475423 -3.5501)
      (xy -0.075 -3.5501)
      (xy -0.075 -2.73233)
      (xy -0.475423 -2.73233)
    ) (layer F.Fab) (width 0.01)
  )
  (fp_poly
    (pts
      (xy -1.12508 -3.5501)
      (xy -0.725 -3.5501)
      (xy -0.725 -2.7301)
      (xy -1.12508 -2.7301)
    ) (layer F.Fab) (width 0.01)
  )
  (fp_poly
    (pts
      (xy -1.77792 -3.5501)
      (xy -1.3749 -3.5501)
      (xy -1.3749 -2.73438)
      (xy -1.77792 -2.73438)
    ) (layer F.Fab) (width 0.01)
  )
  (fp_poly
    (pts
      (xy -2.42721 -3.5501)
      (xy -2.0249 -3.5501)
      (xy -2.0249 -2.73239)
      (xy -2.42721 -2.73239)
    ) (layer F.Fab) (width 0.01)
  )
  (pad 1 smd rect (at -2.225 2.85) (size 0.4 1.6) (layers F.Cu F.Mask F.Paste))
  (pad 2 smd rect (at -1.575 2.85) (size 0.4 1.6) (layers F.Cu F.Mask F.Paste))
  (pad 3 smd rect (at -0.925 2.85) (size 0.4 1.6) (layers F.Cu F.Mask F.Paste))
  (pad 4 smd rect (at -0.275 2.85) (size 0.4 1.6) (layers F.Cu F.Mask F.Paste))
  (pad 5 smd rect (at 0.375 2.85) (size 0.4 1.6) (layers F.Cu F.Mask F.Paste))
  (pad 6 smd rect (at 1.025 2.85) (size 0.4 1.6) (layers F.Cu F.Mask F.Paste))
  (pad 7 smd rect (at 1.675 2.85) (size 0.4 1.6) (layers F.Cu F.Mask F.Paste))
  (pad 8 smd rect (at 2.325 2.85) (size 0.4 1.6) (layers F.Cu F.Mask F.Paste))
  (pad 9 smd rect (at 2.325 -3.05) (size 0.4 1.6) (layers F.Cu F.Mask F.Paste))
  (pad 10 smd rect (at 1.675 -3.05) (size 0.4 1.6) (layers F.Cu F.Mask F.Paste))
  (pad 11 smd rect (at 1.025 -3.05) (size 0.4 1.6) (layers F.Cu F.Mask F.Paste))
  (pad 12 smd rect (at 0.375 -3.05) (size 0.4 1.6) (layers F.Cu F.Mask F.Paste))
  (pad 13 smd rect (at -0.275 -3.05) (size 0.4 1.6) (layers F.Cu F.Mask F.Paste))
  (pad 14 smd rect (at -0.925 -3.05) (size 0.4 1.6) (layers F.Cu F.Mask F.Paste))
  (pad 15 smd rect (at -1.575 -3.05) (size 0.4 1.6) (layers F.Cu F.Mask F.Paste))
  (pad 16 smd rect (at -2.225 -3.05) (size 0.4 1.6) (layers F.Cu F.Mask F.Paste))
)