(export (version D)
  (design
    (source C:\Users\grish\Desktop\Kicad_project\project\project.sch)
    (date "19.01.2020 16:18:17")
    (tool "Eeschema (5.1.4)-1")
    (sheet (number 1) (name /) (tstamps /)
      (title_block
        (title)
        (company)
        (rev)
        (date)
        (source project.sch)
        (comment (number 1) (value ""))
        (comment (number 2) (value ""))
        (comment (number 3) (value ""))
        (comment (number 4) (value "")))))
  (components
    (comp (ref U1)
      (value ATmega8A-PU)
      (footprint Package_DIP:DIP-28_W7.62mm)
      (datasheet http://ww1.microchip.com/downloads/en/DeviceDoc/Microchip%208bit%20mcu%20AVR%20ATmega8A%20data%20sheet%2040001974A.pdf)
      (libsource (lib MCU_Microchip_ATmega) (part ATmega8A-PU) (description "16MHz, 8kB Flash, 1kB SRAM, 512B EEPROM, DIP-28"))
      (sheetpath (names /) (tstamps /))
      (tstamp 5E23E1EE))
    (comp (ref U2)
      (value ATmega8A-PU)
      (footprint Package_DIP:DIP-28_W7.62mm)
      (datasheet http://ww1.microchip.com/downloads/en/DeviceDoc/Microchip%208bit%20mcu%20AVR%20ATmega8A%20data%20sheet%2040001974A.pdf)
      (libsource (lib MCU_Microchip_ATmega) (part ATmega8A-PU) (description "16MHz, 8kB Flash, 1kB SRAM, 512B EEPROM, DIP-28"))
      (sheetpath (names /) (tstamps /))
      (tstamp 5E23FC56))
    (comp (ref U3)
      (value MAX232)
      (footprint Package_DIP:DIP-16_W7.62mm)
      (datasheet http://www.ti.com/lit/ds/symlink/max232.pdf)
      (libsource (lib Interface_UART) (part MAX232) (description "Dual RS232 driver/receiver, 5V supply, 120kb/s, 0C-70C"))
      (sheetpath (names /) (tstamps /))
      (tstamp 5E24106D))
    (comp (ref DS1)
      (value LM016L)
      (footprint Display:LCD-016N002L)
      (datasheet Unavailable)
      (fields
        (field (name Поле4) "Display Lcd 35x75mm")
        (field (name Поле5) Hitachi)
        (field (name Поле6) None)
        (field (name Поле7) None)
        (field (name Поле8) LM016L))
      (libsource (lib LM016L) (part LM016L) (description ""))
      (sheetpath (names /) (tstamps /))
      (tstamp 5E24289D))
    (comp (ref SW2)
      (value SW_Push)
      (footprint Button_Switch_THT:SW_CW_GPTS203211B)
      (datasheet ~)
      (libsource (lib Switch) (part SW_Push) (description "Push button switch, generic, two pins"))
      (sheetpath (names /) (tstamps /))
      (tstamp 5E25130B))
    (comp (ref SW3)
      (value SW_Push)
      (footprint Button_Switch_THT:SW_CW_GPTS203211B)
      (datasheet ~)
      (libsource (lib Switch) (part SW_Push) (description "Push button switch, generic, two pins"))
      (sheetpath (names /) (tstamps /))
      (tstamp 5E25281C))
    (comp (ref SW4)
      (value SW_Push)
      (footprint Button_Switch_THT:SW_CW_GPTS203211B)
      (datasheet ~)
      (libsource (lib Switch) (part SW_Push) (description "Push button switch, generic, two pins"))
      (sheetpath (names /) (tstamps /))
      (tstamp 5E252FAB))
    (comp (ref R3)
      (value R)
      (footprint Resistor_THT:R_Axial_DIN0207_L6.3mm_D2.5mm_P10.16mm_Horizontal)
      (datasheet ~)
      (libsource (lib Device) (part R) (description Resistor))
      (sheetpath (names /) (tstamps /))
      (tstamp 5E255022))
    (comp (ref R2)
      (value R)
      (footprint Resistor_THT:R_Axial_DIN0207_L6.3mm_D2.5mm_P10.16mm_Horizontal)
      (datasheet ~)
      (libsource (lib Device) (part R) (description Resistor))
      (sheetpath (names /) (tstamps /))
      (tstamp 5E256371))
    (comp (ref R1)
      (value R)
      (footprint Resistor_THT:R_Axial_DIN0207_L6.3mm_D2.5mm_P10.16mm_Horizontal)
      (datasheet ~)
      (libsource (lib Device) (part R) (description Resistor))
      (sheetpath (names /) (tstamps /))
      (tstamp 5E25659E))
    (comp (ref SW1)
      (value SW_Push)
      (footprint Button_Switch_THT:SW_CW_GPTS203211B)
      (datasheet ~)
      (libsource (lib Switch) (part SW_Push) (description "Push button switch, generic, two pins"))
      (sheetpath (names /) (tstamps /))
      (tstamp 5E25FA00))
    (comp (ref R4)
      (value R)
      (footprint Resistor_THT:R_Axial_DIN0207_L6.3mm_D2.5mm_P10.16mm_Horizontal)
      (datasheet ~)
      (libsource (lib Device) (part R) (description Resistor))
      (sheetpath (names /) (tstamps /))
      (tstamp 5E261392))
    (comp (ref C5)
      (value CP)
      (footprint Capacitor_SMD:CP_Elec_5x3)
      (datasheet ~)
      (libsource (lib Device) (part CP) (description "Polarized capacitor"))
      (sheetpath (names /) (tstamps /))
      (tstamp 5E26C833))
    (comp (ref C6)
      (value CP)
      (footprint Capacitor_SMD:CP_Elec_5x3)
      (datasheet ~)
      (libsource (lib Device) (part CP) (description "Polarized capacitor"))
      (sheetpath (names /) (tstamps /))
      (tstamp 5E26EDC9))
    (comp (ref C8)
      (value C)
      (footprint Capacitor_THT:C_Axial_L5.1mm_D3.1mm_P7.50mm_Horizontal)
      (datasheet ~)
      (libsource (lib Device) (part C) (description "Unpolarized capacitor"))
      (sheetpath (names /) (tstamps /))
      (tstamp 5E271963))
    (comp (ref C9)
      (value C)
      (footprint Capacitor_THT:C_Axial_L5.1mm_D3.1mm_P7.50mm_Horizontal)
      (datasheet ~)
      (libsource (lib Device) (part C) (description "Unpolarized capacitor"))
      (sheetpath (names /) (tstamps /))
      (tstamp 5E27257E))
    (comp (ref XP1)
      (value lab1-rescue_DS-201-New_Library1-lab1-cache)
      (footprint Connector:Banana_Jack_2Pin)
      (libsource (lib project-rescue) (part lab1-rescue_DS-201-New_Library1-lab1-cache-xmem-rescue-poekt-rescue) (description ""))
      (sheetpath (names /) (tstamps /))
      (tstamp 5E239D76))
    (comp (ref C1)
      (value CP)
      (footprint Capacitor_SMD:CP_Elec_5x3)
      (datasheet ~)
      (libsource (lib Device) (part CP) (description "Polarized capacitor"))
      (sheetpath (names /) (tstamps /))
      (tstamp 5E321F86))
    (comp (ref С2)
      (value CP)
      (footprint Capacitor_SMD:CP_Elec_5x3)
      (datasheet ~)
      (libsource (lib Device) (part CP) (description "Polarized capacitor"))
      (sheetpath (names /) (tstamps /))
      (tstamp 5E32557B))
    (comp (ref XP2)
      (value lab1-rescue_RS-232-New_Library1-lab1-cache)
      (footprint Connector_Dsub:DSUB-9_Male_Vertical_P2.77x2.84mm)
      (libsource (lib project-rescue) (part lab1-rescue_RS-232-New_Library1-lab1-cache-xmem-rescue-poekt-rescue) (description ""))
      (sheetpath (names /) (tstamps /))
      (tstamp 5E21867C))
    (comp (ref C4)
      (value C)
      (footprint Capacitor_THT:C_Axial_L5.1mm_D3.1mm_P7.50mm_Horizontal)
      (datasheet ~)
      (libsource (lib Device) (part C) (description "Unpolarized capacitor"))
      (sheetpath (names /) (tstamps /))
      (tstamp 5E2DE34A))
    (comp (ref C7)
      (value C)
      (footprint Capacitor_THT:C_Axial_L5.1mm_D3.1mm_P7.50mm_Horizontal)
      (datasheet ~)
      (libsource (lib Device) (part C) (description "Unpolarized capacitor"))
      (sheetpath (names /) (tstamps /))
      (tstamp 5E2E8DB4))
    (comp (ref C3)
      (value C)
      (footprint Capacitor_THT:C_Axial_L5.1mm_D3.1mm_P7.50mm_Horizontal)
      (datasheet ~)
      (libsource (lib Device) (part C) (description "Unpolarized capacitor"))
      (sheetpath (names /) (tstamps /))
      (tstamp 5E2F1F90)))
  (libparts
    (libpart (lib Device) (part C)
      (description "Unpolarized capacitor")
      (docs ~)
      (footprints
        (fp C_*))
      (fields
        (field (name Reference) C)
        (field (name Value) C))
      (pins
        (pin (num 1) (name ~) (type passive))
        (pin (num 2) (name ~) (type passive))))
    (libpart (lib Device) (part CP)
      (description "Polarized capacitor")
      (docs ~)
      (footprints
        (fp CP_*))
      (fields
        (field (name Reference) C)
        (field (name Value) CP))
      (pins
        (pin (num 1) (name ~) (type passive))
        (pin (num 2) (name ~) (type passive))))
    (libpart (lib Device) (part R)
      (description Resistor)
      (docs ~)
      (footprints
        (fp R_*))
      (fields
        (field (name Reference) R)
        (field (name Value) R))
      (pins
        (pin (num 1) (name ~) (type passive))
        (pin (num 2) (name ~) (type passive))))
    (libpart (lib Interface_UART) (part MAX232)
      (aliases
        (alias MAX232I)
        (alias MAX202)
        (alias ADM232A)
        (alias MAX3232)
        (alias ICL3232))
      (description "Dual RS232 driver/receiver, 5V supply, 120kb/s, 0C-70C")
      (docs http://www.ti.com/lit/ds/symlink/max232.pdf)
      (footprints
        (fp SOIC*P1.27mm*)
        (fp DIP*W7.62mm*)
        (fp TSSOP*4.4x5mm*P0.65mm*))
      (fields
        (field (name Reference) U)
        (field (name Value) MAX232))
      (pins
        (pin (num 1) (name C1+) (type passive))
        (pin (num 2) (name VS+) (type power_out))
        (pin (num 3) (name C1-) (type passive))
        (pin (num 4) (name C2+) (type passive))
        (pin (num 5) (name C2-) (type passive))
        (pin (num 6) (name VS-) (type power_out))
        (pin (num 7) (name T2OUT) (type output))
        (pin (num 8) (name R2IN) (type input))
        (pin (num 9) (name R2OUT) (type output))
        (pin (num 10) (name T2IN) (type input))
        (pin (num 11) (name T1IN) (type input))
        (pin (num 12) (name R1OUT) (type output))
        (pin (num 13) (name R1IN) (type input))
        (pin (num 14) (name T1OUT) (type output))
        (pin (num 15) (name GND) (type power_in))
        (pin (num 16) (name VCC) (type power_in))))
    (libpart (lib LM016L) (part LM016L)
      (fields
        (field (name Reference) DS)
        (field (name Value) LM016L)
        (field (name Footprint) LCD_LM016L)
        (field (name Datasheet) Unavailable)
        (field (name Поле4) "Display Lcd 35x75mm")
        (field (name Поле5) Hitachi)
        (field (name Поле6) None)
        (field (name Поле7) None)
        (field (name Поле8) LM016L))
      (pins
        (pin (num 1) (name VSS) (type power_in))
        (pin (num 2) (name VDD) (type power_in))
        (pin (num 3) (name VO) (type power_in))
        (pin (num 4) (name RS) (type input))
        (pin (num 5) (name R/W) (type input))
        (pin (num 6) (name E) (type input))
        (pin (num 7) (name DB0) (type BiDi))
        (pin (num 8) (name DB1) (type BiDi))
        (pin (num 9) (name DB2) (type BiDi))
        (pin (num 10) (name DB3) (type BiDi))
        (pin (num 11) (name DB4) (type BiDi))
        (pin (num 12) (name DB5) (type BiDi))
        (pin (num 13) (name DB6) (type BiDi))
        (pin (num 14) (name DB7) (type BiDi))))
    (libpart (lib MCU_Microchip_ATmega) (part ATmega8L-8PU)
      (aliases
        (alias ATmega8-16PU)
        (alias ATmega8A-PU))
      (description "8MHz, 8kB Flash, 1kB SRAM, 512B EEPROM, DIP-28")
      (docs http://ww1.microchip.com/downloads/en/DeviceDoc/atmel-2486-8-bit-avr-microcontroller-atmega8_l_datasheet.pdf)
      (footprints
        (fp DIP*W7.62mm*))
      (fields
        (field (name Reference) U)
        (field (name Value) ATmega8L-8PU)
        (field (name Footprint) Package_DIP:DIP-28_W7.62mm))
      (pins
        (pin (num 1) (name PC6/~RESET) (type 3state))
        (pin (num 2) (name PD0) (type 3state))
        (pin (num 3) (name PD1) (type 3state))
        (pin (num 4) (name PD2) (type 3state))
        (pin (num 5) (name PD3) (type 3state))
        (pin (num 6) (name PD4) (type 3state))
        (pin (num 7) (name VCC) (type power_in))
        (pin (num 8) (name GND) (type power_in))
        (pin (num 9) (name PB6/XTAL1) (type 3state))
        (pin (num 10) (name PB7/XTAL2) (type 3state))
        (pin (num 11) (name PD5) (type 3state))
        (pin (num 12) (name PD6) (type 3state))
        (pin (num 13) (name PD7) (type 3state))
        (pin (num 14) (name PB0) (type 3state))
        (pin (num 15) (name PB1) (type 3state))
        (pin (num 16) (name PB2) (type 3state))
        (pin (num 17) (name PB3) (type 3state))
        (pin (num 18) (name PB4) (type 3state))
        (pin (num 19) (name PB5) (type 3state))
        (pin (num 20) (name AVCC) (type power_in))
        (pin (num 21) (name AREF) (type passive))
        (pin (num 22) (name AGND) (type power_in))
        (pin (num 23) (name PC0) (type 3state))
        (pin (num 24) (name PC1) (type 3state))
        (pin (num 25) (name PC2) (type 3state))
        (pin (num 26) (name PC3) (type 3state))
        (pin (num 27) (name PC4) (type 3state))
        (pin (num 28) (name PC5) (type 3state))))
    (libpart (lib Switch) (part SW_Push)
      (description "Push button switch, generic, two pins")
      (docs ~)
      (fields
        (field (name Reference) SW)
        (field (name Value) SW_Push))
      (pins
        (pin (num 1) (name 1) (type passive))
        (pin (num 2) (name 2) (type passive))))
    (libpart (lib project-rescue) (part lab1-rescue_DS-201-New_Library1-lab1-cache-xmem-rescue-poekt-rescue)
      (fields
        (field (name Reference) XP)
        (field (name Value) lab1-rescue_DS-201-New_Library1-lab1-cache-xmem-rescue-poekt-rescue))
      (pins
        (pin (num 1) (name ~) (type power_out))
        (pin (num 2) (name ~) (type passive))))
    (libpart (lib project-rescue) (part lab1-rescue_RS-232-New_Library1-lab1-cache-xmem-rescue-poekt-rescue)
      (fields
        (field (name Reference) XP)
        (field (name Value) lab1-rescue_RS-232-New_Library1-lab1-cache-xmem-rescue-poekt-rescue))
      (pins
        (pin (num 1) (name DCD) (type passive))
        (pin (num 2) (name RxD) (type passive))
        (pin (num 3) (name TxD) (type passive))
        (pin (num 4) (name DTR) (type passive))
        (pin (num 5) (name GND) (type passive))
        (pin (num 6) (name DSR) (type passive))
        (pin (num 7) (name RTS) (type passive))
        (pin (num 8) (name CTS) (type passive))
        (pin (num 9) (name RI) (type passive)))))
  (libraries
    (library (logical Device)
      (uri "C:\\Program Files\\KiCad\\share\\kicad\\library/Device.lib"))
    (library (logical Interface_UART)
      (uri "C:\\Program Files\\KiCad\\share\\kicad\\library/Interface_UART.lib"))
    (library (logical LM016L)
      (uri C:/Users/grish/Documents/LM016L.lib))
    (library (logical MCU_Microchip_ATmega)
      (uri "C:\\Program Files\\KiCad\\share\\kicad\\library/MCU_Microchip_ATmega.lib"))
    (library (logical Switch)
      (uri "C:\\Program Files\\KiCad\\share\\kicad\\library/Switch.lib"))
    (library (logical project-rescue)
      (uri C:\Users\grish\Desktop\Kicad_project\project/project-rescue.lib)))
  (nets
    (net (code 1) (name Earth)
      (node (ref SW1) (pin 1))
      (node (ref U1) (pin 8))
      (node (ref C1) (pin 2))
      (node (ref С2) (pin 2))
      (node (ref XP1) (pin 2))
      (node (ref XP2) (pin 5))
      (node (ref U2) (pin 8))
      (node (ref SW2) (pin 2))
      (node (ref SW3) (pin 2))
      (node (ref SW4) (pin 2))
      (node (ref DS1) (pin 1))
      (node (ref U3) (pin 15))
      (node (ref C3) (pin 2))
      (node (ref C4) (pin 2))
      (node (ref C7) (pin 2))
      (node (ref C9) (pin 2)))
    (net (code 2) (name "Net-(XP2-Pad9)")
      (node (ref XP2) (pin 9)))
    (net (code 3) (name "Net-(XP2-Pad8)")
      (node (ref XP2) (pin 8)))
    (net (code 4) (name "Net-(XP2-Pad7)")
      (node (ref XP2) (pin 7)))
    (net (code 5) (name "Net-(XP2-Pad6)")
      (node (ref XP2) (pin 6)))
    (net (code 6) (name "Net-(XP2-Pad4)")
      (node (ref XP2) (pin 4)))
    (net (code 7) (name "Net-(XP2-Pad1)")
      (node (ref XP2) (pin 1)))
    (net (code 8) (name +5V)
      (node (ref C8) (pin 1))
      (node (ref U1) (pin 7))
      (node (ref U3) (pin 16))
      (node (ref DS1) (pin 2))
      (node (ref DS1) (pin 3))
      (node (ref C3) (pin 1))
      (node (ref C4) (pin 1))
      (node (ref С2) (pin 1))
      (node (ref C1) (pin 1))
      (node (ref XP1) (pin 1))
      (node (ref U2) (pin 7))
      (node (ref C7) (pin 1))
      (node (ref R4) (pin 1)))
    (net (code 9) (name "Net-(C6-Pad2)")
      (node (ref U3) (pin 5))
      (node (ref C6) (pin 2)))
    (net (code 10) (name "Net-(C9-Pad1)")
      (node (ref U3) (pin 6))
      (node (ref C9) (pin 1)))
    (net (code 11) (name "Net-(C8-Pad2)")
      (node (ref U3) (pin 2))
      (node (ref C8) (pin 2)))
    (net (code 12) (name "Net-(C6-Pad1)")
      (node (ref C6) (pin 1))
      (node (ref U3) (pin 4)))
    (net (code 13) (name "Net-(C5-Pad2)")
      (node (ref U3) (pin 3))
      (node (ref C5) (pin 2)))
    (net (code 14) (name "Net-(C5-Pad1)")
      (node (ref U3) (pin 1))
      (node (ref C5) (pin 1)))
    (net (code 15) (name "Net-(R4-Pad2)")
      (node (ref R4) (pin 2))
      (node (ref U1) (pin 1))
      (node (ref SW1) (pin 2))
      (node (ref U2) (pin 1)))
    (net (code 16) (name "Net-(DS1-Pad12)")
      (node (ref DS1) (pin 12)))
    (net (code 17) (name "Net-(U1-Pad22)")
      (node (ref U1) (pin 22)))
    (net (code 18) (name "Net-(U1-Pad13)")
      (node (ref U1) (pin 13)))
    (net (code 19) (name "Net-(DS1-Pad14)")
      (node (ref DS1) (pin 14)))
    (net (code 20) (name "Net-(DS1-Pad13)")
      (node (ref DS1) (pin 13)))
    (net (code 21) (name "Net-(U1-Pad16)")
      (node (ref U1) (pin 16)))
    (net (code 22) (name "Net-(DS1-Pad11)")
      (node (ref DS1) (pin 11)))
    (net (code 23) (name "Net-(U2-Pad20)")
      (node (ref U2) (pin 20)))
    (net (code 24) (name "Net-(U2-Pad28)")
      (node (ref U2) (pin 28)))
    (net (code 25) (name "Net-(U2-Pad27)")
      (node (ref U2) (pin 27)))
    (net (code 26) (name "Net-(U2-Pad26)")
      (node (ref U2) (pin 26)))
    (net (code 27) (name "Net-(U2-Pad25)")
      (node (ref U2) (pin 25)))
    (net (code 28) (name "Net-(U2-Pad24)")
      (node (ref U2) (pin 24)))
    (net (code 29) (name "Net-(U2-Pad23)")
      (node (ref U2) (pin 23)))
    (net (code 30) (name "Net-(U2-Pad19)")
      (node (ref U2) (pin 19)))
    (net (code 31) (name "Net-(U1-Pad20)")
      (node (ref U1) (pin 20)))
    (net (code 32) (name "Net-(U2-Pad3)")
      (node (ref U3) (pin 12))
      (node (ref U2) (pin 3)))
    (net (code 33) (name "Net-(U2-Pad21)")
      (node (ref U2) (pin 21)))
    (net (code 34) (name "Net-(U2-Pad10)")
      (node (ref U2) (pin 10)))
    (net (code 35) (name "Net-(U2-Pad9)")
      (node (ref U2) (pin 9)))
    (net (code 36) (name "Net-(U2-Pad18)")
      (node (ref U2) (pin 18)))
    (net (code 37) (name "Net-(U1-Pad21)")
      (node (ref U1) (pin 21)))
    (net (code 38) (name "Net-(U1-Pad10)")
      (node (ref U1) (pin 10)))
    (net (code 39) (name "Net-(U1-Pad9)")
      (node (ref U1) (pin 9)))
    (net (code 40) (name "Net-(U1-Pad25)")
      (node (ref U1) (pin 25)))
    (net (code 41) (name "Net-(U1-Pad24)")
      (node (ref U1) (pin 24)))
    (net (code 42) (name "Net-(U1-Pad23)")
      (node (ref U1) (pin 23)))
    (net (code 43) (name "Net-(U1-Pad19)")
      (node (ref U1) (pin 19)))
    (net (code 44) (name "Net-(U1-Pad18)")
      (node (ref U1) (pin 18)))
    (net (code 45) (name "Net-(U1-Pad17)")
      (node (ref U1) (pin 17)))
    (net (code 46) (name "Net-(U3-Pad14)")
      (node (ref XP2) (pin 3))
      (node (ref U3) (pin 14)))
    (net (code 47) (name "Net-(U3-Pad13)")
      (node (ref U3) (pin 13))
      (node (ref XP2) (pin 2)))
    (net (code 48) (name "Net-(U3-Pad7)")
      (node (ref U3) (pin 7)))
    (net (code 49) (name "Net-(U2-Pad17)")
      (node (ref U2) (pin 17)))
    (net (code 50) (name "Net-(U2-Pad16)")
      (node (ref U2) (pin 16)))
    (net (code 51) (name "Net-(U3-Pad8)")
      (node (ref U3) (pin 8)))
    (net (code 52) (name "Net-(U3-Pad9)")
      (node (ref U3) (pin 9)))
    (net (code 53) (name "Net-(U3-Pad10)")
      (node (ref U3) (pin 10)))
    (net (code 54) (name "Net-(U2-Pad22)")
      (node (ref U2) (pin 22)))
    (net (code 55) (name "Net-(U2-Pad13)")
      (node (ref U2) (pin 13)))
    (net (code 56) (name "Net-(U2-Pad12)")
      (node (ref U2) (pin 12)))
    (net (code 57) (name "Net-(U2-Pad11)")
      (node (ref U2) (pin 11)))
    (net (code 58) (name "Net-(U2-Pad6)")
      (node (ref U2) (pin 6)))
    (net (code 59) (name "Net-(U2-Pad5)")
      (node (ref U2) (pin 5)))
    (net (code 60) (name "Net-(U2-Pad4)")
      (node (ref U2) (pin 4)))
    (net (code 61) (name "Net-(U2-Pad2)")
      (node (ref U2) (pin 2))
      (node (ref U3) (pin 11)))
    (net (code 62) (name "Net-(DS1-Pad4)")
      (node (ref DS1) (pin 4))
      (node (ref U1) (pin 27)))
    (net (code 63) (name "Net-(DS1-Pad6)")
      (node (ref DS1) (pin 6))
      (node (ref U1) (pin 26)))
    (net (code 64) (name "Net-(DS1-Pad7)")
      (node (ref DS1) (pin 7))
      (node (ref U1) (pin 2)))
    (net (code 65) (name "Net-(DS1-Pad5)")
      (node (ref DS1) (pin 5))
      (node (ref U1) (pin 28)))
    (net (code 66) (name "Net-(U1-Pad15)")
      (node (ref U2) (pin 14))
      (node (ref U1) (pin 15)))
    (net (code 67) (name "Net-(U1-Pad14)")
      (node (ref U1) (pin 14))
      (node (ref U2) (pin 15)))
    (net (code 68) (name "Net-(R1-Pad1)")
      (node (ref U1) (pin 12))
      (node (ref R1) (pin 1)))
    (net (code 69) (name "Net-(R2-Pad1)")
      (node (ref R2) (pin 1))
      (node (ref U1) (pin 11)))
    (net (code 70) (name "Net-(R3-Pad1)")
      (node (ref R3) (pin 1))
      (node (ref U1) (pin 6)))
    (net (code 71) (name "Net-(DS1-Pad10)")
      (node (ref U1) (pin 5))
      (node (ref DS1) (pin 10)))
    (net (code 72) (name "Net-(DS1-Pad9)")
      (node (ref U1) (pin 4))
      (node (ref DS1) (pin 9)))
    (net (code 73) (name "Net-(DS1-Pad8)")
      (node (ref DS1) (pin 8))
      (node (ref U1) (pin 3)))
    (net (code 74) (name "Net-(R2-Pad2)")
      (node (ref SW3) (pin 1))
      (node (ref R2) (pin 2)))
    (net (code 75) (name "Net-(R1-Pad2)")
      (node (ref R1) (pin 2))
      (node (ref SW4) (pin 1)))
    (net (code 76) (name "Net-(R3-Pad2)")
      (node (ref SW2) (pin 1))
      (node (ref R3) (pin 2)))))