EESchema Schematic File Version 4
LIBS:project-cache
EELAYER 30 0
EELAYER END
$Descr A4 11693 8268
encoding utf-8
Sheet 1 1
Title ""
Date ""
Rev ""
Comp ""
Comment1 ""
Comment2 ""
Comment3 ""
Comment4 ""
$EndDescr
$Comp
L MCU_Microchip_ATmega:ATmega8A-PU U1
U 1 1 5E23E1EE
P 2950 3250
F 0 "U1" H 2600 4750 50  0000 C CNN
F 1 "ATmega8A-PU" H 2600 4650 50  0000 C CNN
F 2 "Package_DIP:DIP-28_W7.62mm" H 2950 3250 50  0001 C CIN
F 3 "http://ww1.microchip.com/downloads/en/DeviceDoc/Microchip%208bit%20mcu%20AVR%20ATmega8A%20data%20sheet%2040001974A.pdf" H 2950 3250 50  0001 C CNN
	1    2950 3250
	1    0    0    -1  
$EndComp
$Comp
L MCU_Microchip_ATmega:ATmega8A-PU U2
U 1 1 5E23FC56
P 6100 3300
F 0 "U2" H 6550 4650 50  0000 C CNN
F 1 "ATmega8A-PU" H 6100 4790 50  0000 C CNN
F 2 "Package_DIP:DIP-28_W7.62mm" H 6100 3300 50  0001 C CIN
F 3 "http://ww1.microchip.com/downloads/en/DeviceDoc/Microchip%208bit%20mcu%20AVR%20ATmega8A%20data%20sheet%2040001974A.pdf" H 6100 3300 50  0001 C CNN
	1    6100 3300
	1    0    0    -1  
$EndComp
$Comp
L Interface_UART:MAX232 U3
U 1 1 5E24106D
P 8450 4850
F 0 "U3" H 8950 5900 50  0000 C CNN
F 1 "MAX232" H 8450 6140 50  0000 C CNN
F 2 "Package_DIP:DIP-16_W7.62mm" H 8500 3800 50  0001 L CNN
F 3 "http://www.ti.com/lit/ds/symlink/max232.pdf" H 8450 4950 50  0001 C CNN
	1    8450 4850
	1    0    0    -1  
$EndComp
$Comp
L LM016L:LM016L DS1
U 1 1 5E24289D
P 4700 3650
F 0 "DS1" H 4600 4417 50  0000 C CNN
F 1 "LM016L" H 4600 4326 50  0000 C CNN
F 2 "Display:LCD-016N002L" H 4700 3650 50  0001 L BNN
F 3 "Unavailable" H 4700 3650 50  0001 L BNN
F 4 "Display Lcd 35x75mm" H 4700 3650 50  0001 L BNN "Поле4"
F 5 "Hitachi" H 4700 3650 50  0001 L BNN "Поле5"
F 6 "None" H 4700 3650 50  0001 L BNN "Поле6"
F 7 "None" H 4700 3650 50  0001 L BNN "Поле7"
F 8 "LM016L" H 4700 3650 50  0001 L BNN "Поле8"
	1    4700 3650
	1    0    0    -1  
$EndComp
Wire Wire Line
	3550 3150 4100 3150
Wire Wire Line
	3550 3250 4100 3250
Wire Wire Line
	3550 3350 4100 3350
Wire Wire Line
	4100 3550 3550 3550
Wire Wire Line
	4100 3650 3550 3650
Wire Wire Line
	3550 3750 4100 3750
Wire Wire Line
	3550 3850 4100 3850
$Comp
L power:Earth #PWR0101
U 1 1 5E248C98
P 5100 4250
F 0 "#PWR0101" H 5100 4000 50  0001 C CNN
F 1 "Earth" H 5100 4100 50  0001 C CNN
F 2 "" H 5100 4250 50  0001 C CNN
F 3 "~" H 5100 4250 50  0001 C CNN
	1    5100 4250
	1    0    0    -1  
$EndComp
Wire Wire Line
	6700 2200 6900 2200
Wire Wire Line
	6900 2200 6900 1700
Wire Wire Line
	6900 1700 3850 1700
Wire Wire Line
	3850 1700 3850 2250
Wire Wire Line
	3850 2250 3550 2250
Wire Wire Line
	6700 2300 7050 2300
Wire Wire Line
	7050 2300 7050 1650
Wire Wire Line
	7050 1650 3550 1650
Wire Wire Line
	3550 1650 3550 2150
Wire Wire Line
	6700 3600 7400 3600
Wire Wire Line
	7400 3600 7400 4950
Wire Wire Line
	7400 4950 7650 4950
$Comp
L power:Earth #PWR0102
U 1 1 5E24B83D
P 2950 4650
F 0 "#PWR0102" H 2950 4400 50  0001 C CNN
F 1 "Earth" H 2950 4500 50  0001 C CNN
F 2 "" H 2950 4650 50  0001 C CNN
F 3 "~" H 2950 4650 50  0001 C CNN
	1    2950 4650
	1    0    0    -1  
$EndComp
$Comp
L power:Earth #PWR0104
U 1 1 5E24CBD0
P 8450 6050
F 0 "#PWR0104" H 8450 5800 50  0001 C CNN
F 1 "Earth" H 8450 5900 50  0001 C CNN
F 2 "" H 8450 6050 50  0001 C CNN
F 3 "~" H 8450 6050 50  0001 C CNN
	1    8450 6050
	1    0    0    -1  
$EndComp
$Comp
L Switch:SW_Push SW2
U 1 1 5E25130B
P 4150 4900
F 0 "SW2" H 4150 5185 50  0000 C CNN
F 1 "SW_Push" H 4150 5094 50  0000 C CNN
F 2 "Button_Switch_THT:SW_CW_GPTS203211B" H 4150 5100 50  0001 C CNN
F 3 "~" H 4150 5100 50  0001 C CNN
	1    4150 4900
	1    0    0    -1  
$EndComp
$Comp
L Switch:SW_Push SW3
U 1 1 5E25281C
P 4150 5350
F 0 "SW3" H 4150 5635 50  0000 C CNN
F 1 "SW_Push" H 4150 5544 50  0000 C CNN
F 2 "Button_Switch_THT:SW_CW_GPTS203211B" H 4150 5550 50  0001 C CNN
F 3 "~" H 4150 5550 50  0001 C CNN
	1    4150 5350
	1    0    0    -1  
$EndComp
$Comp
L Switch:SW_Push SW4
U 1 1 5E252FAB
P 4150 5750
F 0 "SW4" H 4150 6035 50  0000 C CNN
F 1 "SW_Push" H 4150 5944 50  0000 C CNN
F 2 "Button_Switch_THT:SW_CW_GPTS203211B" H 4150 5950 50  0001 C CNN
F 3 "~" H 4150 5950 50  0001 C CNN
	1    4150 5750
	1    0    0    -1  
$EndComp
$Comp
L Device:R R3
U 1 1 5E255022
P 3950 4450
F 0 "R3" H 4020 4496 50  0000 L CNN
F 1 "R" H 4020 4405 50  0000 L CNN
F 2 "Resistor_THT:R_Axial_DIN0207_L6.3mm_D2.5mm_P10.16mm_Horizontal" V 3880 4450 50  0001 C CNN
F 3 "~" H 3950 4450 50  0001 C CNN
	1    3950 4450
	1    0    0    -1  
$EndComp
$Comp
L Device:R R2
U 1 1 5E256371
P 3800 4800
F 0 "R2" H 3870 4846 50  0000 L CNN
F 1 "R" H 3870 4755 50  0000 L CNN
F 2 "Resistor_THT:R_Axial_DIN0207_L6.3mm_D2.5mm_P10.16mm_Horizontal" V 3730 4800 50  0001 C CNN
F 3 "~" H 3800 4800 50  0001 C CNN
	1    3800 4800
	1    0    0    -1  
$EndComp
$Comp
L Device:R R1
U 1 1 5E25659E
P 3650 5250
F 0 "R1" H 3720 5296 50  0000 L CNN
F 1 "R" H 3720 5205 50  0000 L CNN
F 2 "Resistor_THT:R_Axial_DIN0207_L6.3mm_D2.5mm_P10.16mm_Horizontal" V 3580 5250 50  0001 C CNN
F 3 "~" H 3650 5250 50  0001 C CNN
	1    3650 5250
	1    0    0    -1  
$EndComp
Wire Wire Line
	3950 4900 3950 4600
Wire Wire Line
	3950 4300 3950 3950
Wire Wire Line
	3950 3950 3550 3950
Wire Wire Line
	3800 4650 3800 4050
Wire Wire Line
	3800 4050 3550 4050
Wire Wire Line
	3950 5350 3800 5350
Wire Wire Line
	3800 5350 3800 4950
Wire Wire Line
	3950 5750 3650 5750
Wire Wire Line
	3650 5750 3650 5400
Wire Wire Line
	3650 5100 3650 4150
Wire Wire Line
	3650 4150 3550 4150
$Comp
L power:Earth #PWR0106
U 1 1 5E25D365
P 4700 6000
F 0 "#PWR0106" H 4700 5750 50  0001 C CNN
F 1 "Earth" H 4700 5850 50  0001 C CNN
F 2 "" H 4700 6000 50  0001 C CNN
F 3 "~" H 4700 6000 50  0001 C CNN
	1    4700 6000
	1    0    0    -1  
$EndComp
Wire Wire Line
	4350 5750 4700 5750
Wire Wire Line
	4700 5750 4700 6000
Wire Wire Line
	4350 5350 4700 5350
Wire Wire Line
	4700 5350 4700 5750
Connection ~ 4700 5750
Wire Wire Line
	4350 4900 4700 4900
Wire Wire Line
	4700 4900 4700 5350
Connection ~ 4700 5350
$Comp
L Switch:SW_Push SW1
U 1 1 5E25FA00
P 1500 1550
F 0 "SW1" H 1500 1835 50  0000 C CNN
F 1 "SW_Push" H 1500 1744 50  0000 C CNN
F 2 "Button_Switch_THT:SW_CW_GPTS203211B" H 1500 1750 50  0001 C CNN
F 3 "~" H 1500 1750 50  0001 C CNN
	1    1500 1550
	1    0    0    -1  
$EndComp
$Comp
L power:Earth #PWR0107
U 1 1 5E2609BB
P 1050 1950
F 0 "#PWR0107" H 1050 1700 50  0001 C CNN
F 1 "Earth" H 1050 1800 50  0001 C CNN
F 2 "" H 1050 1950 50  0001 C CNN
F 3 "~" H 1050 1950 50  0001 C CNN
	1    1050 1950
	1    0    0    -1  
$EndComp
Wire Wire Line
	5300 1550 5300 2200
Wire Wire Line
	5300 2200 5500 2200
Wire Wire Line
	2350 2150 2250 2150
Wire Wire Line
	2250 2150 2250 1550
Connection ~ 2250 1550
Wire Wire Line
	2250 1550 5300 1550
Wire Wire Line
	1700 1550 2000 1550
$Comp
L Device:R R4
U 1 1 5E261392
P 2000 1200
F 0 "R4" H 2070 1246 50  0000 L CNN
F 1 "R" H 2070 1155 50  0000 L CNN
F 2 "Resistor_THT:R_Axial_DIN0207_L6.3mm_D2.5mm_P10.16mm_Horizontal" V 1930 1200 50  0001 C CNN
F 3 "~" H 2000 1200 50  0001 C CNN
	1    2000 1200
	1    0    0    -1  
$EndComp
$Comp
L power:+5V #PWR0108
U 1 1 5E269F56
P 2000 1050
F 0 "#PWR0108" H 2000 900 50  0001 C CNN
F 1 "+5V" H 2015 1223 50  0000 C CNN
F 2 "" H 2000 1050 50  0001 C CNN
F 3 "" H 2000 1050 50  0001 C CNN
	1    2000 1050
	1    0    0    -1  
$EndComp
Wire Wire Line
	2000 1350 2000 1550
Connection ~ 2000 1550
Wire Wire Line
	2000 1550 2250 1550
Wire Wire Line
	1300 1550 1050 1550
Wire Wire Line
	1050 1550 1050 1950
$Comp
L Device:CP C5
U 1 1 5E26C833
P 7550 4100
F 0 "C5" H 7668 4146 50  0000 L CNN
F 1 "CP" H 7668 4055 50  0000 L CNN
F 2 "Capacitor_SMD:CP_Elec_5x3" H 7588 3950 50  0001 C CNN
F 3 "~" H 7550 4100 50  0001 C CNN
	1    7550 4100
	1    0    0    -1  
$EndComp
Wire Wire Line
	7650 3950 7550 3950
Wire Wire Line
	7550 4250 7650 4250
$Comp
L Device:CP C6
U 1 1 5E26EDC9
P 9450 4100
F 0 "C6" H 9568 4146 50  0000 L CNN
F 1 "CP" H 9568 4055 50  0000 L CNN
F 2 "Capacitor_SMD:CP_Elec_5x3" H 9488 3950 50  0001 C CNN
F 3 "~" H 9450 4100 50  0001 C CNN
	1    9450 4100
	1    0    0    -1  
$EndComp
Wire Wire Line
	9450 3950 9250 3950
Wire Wire Line
	9450 4250 9250 4250
$Comp
L Device:C C8
U 1 1 5E271963
P 9900 4100
F 0 "C8" H 10015 4146 50  0000 L CNN
F 1 "C" H 10015 4055 50  0000 L CNN
F 2 "Capacitor_THT:C_Axial_L5.1mm_D3.1mm_P7.50mm_Horizontal" H 9938 3950 50  0001 C CNN
F 3 "~" H 9900 4100 50  0001 C CNN
	1    9900 4100
	1    0    0    -1  
$EndComp
$Comp
L Device:C C9
U 1 1 5E27257E
P 9900 5850
F 0 "C9" H 10015 5896 50  0000 L CNN
F 1 "C" H 10015 5805 50  0000 L CNN
F 2 "Capacitor_THT:C_Axial_L5.1mm_D3.1mm_P7.50mm_Horizontal" H 9938 5700 50  0001 C CNN
F 3 "~" H 9900 5850 50  0001 C CNN
	1    9900 5850
	1    0    0    -1  
$EndComp
Wire Wire Line
	9250 4450 9900 4450
Wire Wire Line
	9900 4450 9900 4250
Wire Wire Line
	9900 5700 9900 4750
Wire Wire Line
	9900 4750 9250 4750
$Comp
L power:+5V #PWR0109
U 1 1 5E275374
P 9900 3950
F 0 "#PWR0109" H 9900 3800 50  0001 C CNN
F 1 "+5V" H 9915 4123 50  0000 C CNN
F 2 "" H 9900 3950 50  0001 C CNN
F 3 "" H 9900 3950 50  0001 C CNN
	1    9900 3950
	1    0    0    -1  
$EndComp
$Comp
L power:Earth #PWR0110
U 1 1 5E2759AD
P 9900 6000
F 0 "#PWR0110" H 9900 5750 50  0001 C CNN
F 1 "Earth" H 9900 5850 50  0001 C CNN
F 2 "" H 9900 6000 50  0001 C CNN
F 3 "~" H 9900 6000 50  0001 C CNN
	1    9900 6000
	1    0    0    -1  
$EndComp
$Comp
L power:Earth #PWR0111
U 1 1 5E295327
P 3700 6850
F 0 "#PWR0111" H 3700 6600 50  0001 C CNN
F 1 "Earth" H 3700 6700 50  0001 C CNN
F 2 "" H 3700 6850 50  0001 C CNN
F 3 "~" H 3700 6850 50  0001 C CNN
	1    3700 6850
	1    0    0    -1  
$EndComp
$Comp
L power:+5V #PWR0112
U 1 1 5E29FC0C
P 3700 6250
F 0 "#PWR0112" H 3700 6100 50  0001 C CNN
F 1 "+5V" H 3715 6423 50  0000 C CNN
F 2 "" H 3700 6250 50  0001 C CNN
F 3 "" H 3700 6250 50  0001 C CNN
	1    3700 6250
	1    0    0    -1  
$EndComp
$Comp
L project-rescue:lab1-rescue_DS-201-New_Library1-lab1-cache-xmem-rescue-poekt-rescue XP1
U 1 1 5E239D76
P 2700 6550
F 0 "XP1" H 2733 6865 50  0000 C CNN
F 1 "lab1-rescue_DS-201-New_Library1-lab1-cache" H 2733 6774 50  0001 C CNN
F 2 "Connector:Banana_Jack_2Pin" H 2950 6750 50  0001 C CNN
F 3 "" H 2950 6750 50  0001 C CNN
	1    2700 6550
	1    0    0    -1  
$EndComp
$Comp
L Device:CP C1
U 1 1 5E321F86
P 3300 6500
F 0 "C1" H 3418 6546 50  0000 L CNN
F 1 "CP" H 3418 6455 50  0000 L CNN
F 2 "Capacitor_SMD:CP_Elec_5x3" H 3338 6350 50  0001 C CNN
F 3 "~" H 3300 6500 50  0001 C CNN
	1    3300 6500
	1    0    0    -1  
$EndComp
$Comp
L Device:CP С2
U 1 1 5E32557B
P 3700 6500
F 0 "С2" H 3818 6546 50  0000 L CNN
F 1 "CP" H 3818 6455 50  0000 L CNN
F 2 "Capacitor_SMD:CP_Elec_5x3" H 3738 6350 50  0001 C CNN
F 3 "~" H 3700 6500 50  0001 C CNN
	1    3700 6500
	1    0    0    -1  
$EndComp
Wire Wire Line
	3050 6650 3300 6650
Connection ~ 3300 6650
Wire Wire Line
	3300 6650 3700 6650
Wire Wire Line
	3700 6650 3700 6850
Connection ~ 3700 6650
Wire Wire Line
	3700 6350 3300 6350
Wire Wire Line
	3050 6350 3050 6550
Connection ~ 3300 6350
Wire Wire Line
	3300 6350 3050 6350
Wire Wire Line
	3700 6350 3700 6250
Connection ~ 3700 6350
$Comp
L project-rescue:lab1-rescue_RS-232-New_Library1-lab1-cache-xmem-rescue-poekt-rescue XP2
U 1 1 5E21867C
P 10400 4300
F 0 "XP2" H 10669 3801 50  0000 L CNN
F 1 "lab1-rescue_RS-232-New_Library1-lab1-cache" H 10669 3710 50  0001 L CNN
F 2 "Connector_Dsub:DSUB-9_Male_Vertical_P2.77x2.84mm" H 10400 4300 50  0001 C CNN
F 3 "" H 10400 4300 50  0001 C CNN
	1    10400 4300
	-1   0    0    -1  
$EndComp
$Comp
L power:+5V #PWR0113
U 1 1 5E2DD74A
P 6100 1250
F 0 "#PWR0113" H 6100 1100 50  0001 C CNN
F 1 "+5V" H 6115 1423 50  0000 C CNN
F 2 "" H 6100 1250 50  0001 C CNN
F 3 "" H 6100 1250 50  0001 C CNN
	1    6100 1250
	1    0    0    -1  
$EndComp
$Comp
L Device:C C4
U 1 1 5E2DE34A
P 6550 1450
F 0 "C4" V 6802 1450 50  0000 C CNN
F 1 "C" V 6711 1450 50  0000 C CNN
F 2 "Capacitor_THT:C_Axial_L5.1mm_D3.1mm_P7.50mm_Horizontal" H 6588 1300 50  0001 C CNN
F 3 "~" H 6550 1450 50  0001 C CNN
	1    6550 1450
	0    -1   -1   0   
$EndComp
$Comp
L power:Earth #PWR0114
U 1 1 5E2E113D
P 6950 1500
F 0 "#PWR0114" H 6950 1250 50  0001 C CNN
F 1 "Earth" H 6950 1350 50  0001 C CNN
F 2 "" H 6950 1500 50  0001 C CNN
F 3 "~" H 6950 1500 50  0001 C CNN
	1    6950 1500
	1    0    0    -1  
$EndComp
Wire Wire Line
	6700 1450 6950 1450
Wire Wire Line
	6950 1450 6950 1500
Wire Wire Line
	6100 1250 6100 1450
Wire Wire Line
	6400 1450 6100 1450
Connection ~ 6100 1450
Wire Wire Line
	6100 1450 6100 1900
$Comp
L Device:C C7
U 1 1 5E2E8DB4
P 9200 3600
F 0 "C7" V 9452 3600 50  0000 C CNN
F 1 "C" V 9361 3600 50  0000 C CNN
F 2 "Capacitor_THT:C_Axial_L5.1mm_D3.1mm_P7.50mm_Horizontal" H 9238 3450 50  0001 C CNN
F 3 "~" H 9200 3600 50  0001 C CNN
	1    9200 3600
	0    -1   -1   0   
$EndComp
$Comp
L power:Earth #PWR0115
U 1 1 5E2E8DBA
P 9600 3650
F 0 "#PWR0115" H 9600 3400 50  0001 C CNN
F 1 "Earth" H 9600 3500 50  0001 C CNN
F 2 "" H 9600 3650 50  0001 C CNN
F 3 "~" H 9600 3650 50  0001 C CNN
	1    9600 3650
	1    0    0    -1  
$EndComp
Wire Wire Line
	9350 3600 9600 3600
Wire Wire Line
	9600 3600 9600 3650
$Comp
L Device:C C3
U 1 1 5E2F1F90
P 3450 1300
F 0 "C3" V 3702 1300 50  0000 C CNN
F 1 "C" V 3611 1300 50  0000 C CNN
F 2 "Capacitor_THT:C_Axial_L5.1mm_D3.1mm_P7.50mm_Horizontal" H 3488 1150 50  0001 C CNN
F 3 "~" H 3450 1300 50  0001 C CNN
	1    3450 1300
	0    -1   -1   0   
$EndComp
$Comp
L power:Earth #PWR0116
U 1 1 5E2F1F96
P 3850 1350
F 0 "#PWR0116" H 3850 1100 50  0001 C CNN
F 1 "Earth" H 3850 1200 50  0001 C CNN
F 2 "" H 3850 1350 50  0001 C CNN
F 3 "~" H 3850 1350 50  0001 C CNN
	1    3850 1350
	1    0    0    -1  
$EndComp
Wire Wire Line
	3600 1300 3850 1300
Wire Wire Line
	3850 1300 3850 1350
$Comp
L power:+5V #PWR0117
U 1 1 5E2F38A3
P 2950 1100
F 0 "#PWR0117" H 2950 950 50  0001 C CNN
F 1 "+5V" H 2965 1273 50  0000 C CNN
F 2 "" H 2950 1100 50  0001 C CNN
F 3 "" H 2950 1100 50  0001 C CNN
	1    2950 1100
	1    0    0    -1  
$EndComp
Wire Wire Line
	2950 1100 2950 1300
Wire Wire Line
	2950 1300 3300 1300
Connection ~ 2950 1300
Wire Wire Line
	2950 1300 2950 1850
$Comp
L power:+5V #PWR0118
U 1 1 5E2F9EDA
P 8450 3100
F 0 "#PWR0118" H 8450 2950 50  0001 C CNN
F 1 "+5V" H 8465 3273 50  0000 C CNN
F 2 "" H 8450 3100 50  0001 C CNN
F 3 "" H 8450 3100 50  0001 C CNN
	1    8450 3100
	1    0    0    -1  
$EndComp
Wire Wire Line
	8450 3100 8450 3600
Wire Wire Line
	8450 3600 9050 3600
Connection ~ 8450 3600
Wire Wire Line
	8450 3600 8450 3650
Wire Wire Line
	10350 4550 10150 4550
Wire Wire Line
	10150 4550 10150 5350
Wire Wire Line
	10150 5350 9250 5350
Wire Wire Line
	9350 4650 9350 4950
Wire Wire Line
	9350 4950 9250 4950
Wire Wire Line
	9350 4650 10350 4650
$Comp
L power:Earth #PWR0119
U 1 1 5E307283
P 10250 5450
F 0 "#PWR0119" H 10250 5200 50  0001 C CNN
F 1 "Earth" H 10250 5300 50  0001 C CNN
F 2 "" H 10250 5450 50  0001 C CNN
F 3 "~" H 10250 5450 50  0001 C CNN
	1    10250 5450
	1    0    0    -1  
$EndComp
Wire Wire Line
	10350 4850 10250 4850
Wire Wire Line
	10250 4850 10250 5450
NoConn ~ 6700 3800
NoConn ~ 6700 3900
NoConn ~ 6700 4000
NoConn ~ 6700 4100
NoConn ~ 6700 4200
NoConn ~ 6700 4300
NoConn ~ 6200 4700
NoConn ~ 7650 5150
NoConn ~ 7650 5550
NoConn ~ 9250 5150
NoConn ~ 9250 5550
NoConn ~ 10350 4750
NoConn ~ 10350 4450
NoConn ~ 10350 4950
NoConn ~ 10350 5050
NoConn ~ 10350 5150
NoConn ~ 10350 5250
NoConn ~ 6700 2400
NoConn ~ 6700 2500
NoConn ~ 6700 2600
NoConn ~ 6700 2700
NoConn ~ 6700 2900
NoConn ~ 6700 3000
NoConn ~ 6700 3100
NoConn ~ 6700 3200
NoConn ~ 6700 3300
NoConn ~ 6700 3400
NoConn ~ 6200 1900
NoConn ~ 4100 3950
NoConn ~ 4100 4050
NoConn ~ 4100 4150
NoConn ~ 4100 4250
NoConn ~ 3550 4250
NoConn ~ 3050 4650
$Comp
L power:+5V #PWR0105
U 1 1 5E37768B
P 5100 2950
F 0 "#PWR0105" H 5100 2800 50  0001 C CNN
F 1 "+5V" H 5115 3123 50  0000 C CNN
F 2 "" H 5100 2950 50  0001 C CNN
F 3 "" H 5100 2950 50  0001 C CNN
	1    5100 2950
	1    0    0    -1  
$EndComp
Wire Wire Line
	5100 2950 5100 3150
Wire Wire Line
	5100 3250 5100 3150
Connection ~ 5100 3150
NoConn ~ 3550 2350
NoConn ~ 3550 2450
NoConn ~ 3550 2550
NoConn ~ 3550 2650
NoConn ~ 3550 2850
NoConn ~ 3550 2950
NoConn ~ 3550 3050
NoConn ~ 2350 2350
NoConn ~ 2350 2550
NoConn ~ 2350 2750
NoConn ~ 3050 1850
NoConn ~ 5500 2400
NoConn ~ 5500 2600
NoConn ~ 5500 2800
$Comp
L power:Earth #PWR0103
U 1 1 5E39B7F9
P 6100 4900
F 0 "#PWR0103" H 6100 4650 50  0001 C CNN
F 1 "Earth" H 6100 4750 50  0001 C CNN
F 2 "" H 6100 4900 50  0001 C CNN
F 3 "~" H 6100 4900 50  0001 C CNN
	1    6100 4900
	1    0    0    -1  
$EndComp
Wire Wire Line
	6100 4700 6100 4900
Wire Wire Line
	6700 3700 7250 3700
Wire Wire Line
	7250 3700 7250 5350
Wire Wire Line
	7250 5350 7650 5350
$EndSCHEMATC
