EESchema Schematic File Version 4
LIBS:poekt-cache
EELAYER 30 0
EELAYER END
$Descr A4 11693 8268
encoding utf-8
Sheet 1 1
Title ""
Date ""
Rev ""
Comp ""
Comment1 ""
Comment2 ""
Comment3 ""
Comment4 ""
$EndDescr
$Comp
L MCU_Microchip_ATmega:ATmega8A-PU U1
U 1 1 5E1D8B13
P 4700 3050
F 0 "U1" H 4700 4631 50  0000 C CNN
F 1 "ATmega8A-PU" H 4700 4540 50  0000 C CNN
F 2 "Package_DIP:DIP-28_W7.62mm" H 4700 3050 50  0001 C CIN
F 3 "http://ww1.microchip.com/downloads/en/DeviceDoc/Microchip%208bit%20mcu%20AVR%20ATmega8A%20data%20sheet%2040001974A.pdf" H 4700 3050 50  0001 C CNN
	1    4700 3050
	1    0    0    -1  
$EndComp
$Comp
L Device:Crystal Y1
U 1 1 5E1D9B1C
P 3450 2250
F 0 "Y1" H 3450 2518 50  0000 C CNN
F 1 "Crystal" H 3450 2427 50  0000 C CNN
F 2 "Crystal:Crystal_HC18-U_Vertical" H 3450 2250 50  0001 C CNN
F 3 "~" H 3450 2250 50  0001 C CNN
	1    3450 2250
	0    -1   -1   0   
$EndComp
$Comp
L Device:C C3
U 1 1 5E1DAF1C
P 2950 2100
F 0 "C3" H 3065 2146 50  0000 L CNN
F 1 "C" H 3065 2055 50  0000 L CNN
F 2 "Capacitor_THT:C_Axial_L5.1mm_D3.1mm_P7.50mm_Horizontal" H 2988 1950 50  0001 C CNN
F 3 "~" H 2950 2100 50  0001 C CNN
	1    2950 2100
	0    -1   -1   0   
$EndComp
$Comp
L Device:C C4
U 1 1 5E1DB74F
P 2950 2400
F 0 "C4" H 3065 2446 50  0000 L CNN
F 1 "C" H 3065 2355 50  0000 L CNN
F 2 "Capacitor_THT:C_Axial_L5.1mm_D3.1mm_P7.50mm_Horizontal" H 2988 2250 50  0001 C CNN
F 3 "~" H 2950 2400 50  0001 C CNN
	1    2950 2400
	0    -1   -1   0   
$EndComp
$Comp
L Device:R R1
U 1 1 5E1DBF42
P 2700 1300
F 0 "R1" H 2770 1346 50  0000 L CNN
F 1 "R" H 2770 1255 50  0000 L CNN
F 2 "Resistor_THT:R_Axial_DIN0207_L6.3mm_D2.5mm_P10.16mm_Horizontal" V 2630 1300 50  0001 C CNN
F 3 "~" H 2700 1300 50  0001 C CNN
	1    2700 1300
	1    0    0    -1  
$EndComp
$Comp
L Switch:SW_Push SW1
U 1 1 5E1DCF6D
P 2250 1450
F 0 "SW1" H 2250 1735 50  0000 C CNN
F 1 "SW_Push" H 2250 1644 50  0000 C CNN
F 2 "Button_Switch_THT:SW_CW_GPTS203211B" H 2250 1650 50  0001 C CNN
F 3 "~" H 2250 1650 50  0001 C CNN
	1    2250 1450
	1    0    0    -1  
$EndComp
$Comp
L Display_Character:HY1602E DS1
U 1 1 5E1E02AA
P 8900 1900
F 0 "DS1" H 8900 2881 50  0000 C CNN
F 1 "HY1602E" H 8900 2790 50  0000 C CNN
F 2 "Display:HY1602E" H 8900 1000 50  0001 C CIN
F 3 "http://www.icbank.com/data/ICBShop/board/HY1602E.pdf" H 9100 2000 50  0001 C CNN
	1    8900 1900
	1    0    0    -1  
$EndComp
$Comp
L Device:CP C5
U 1 1 5E1E15A9
P 6650 4150
F 0 "C5" H 6768 4196 50  0000 L CNN
F 1 "CP" H 6768 4105 50  0000 L CNN
F 2 "Capacitor_SMD:CP_Elec_5x3" H 6688 4000 50  0001 C CNN
F 3 "~" H 6650 4150 50  0001 C CNN
	1    6650 4150
	1    0    0    -1  
$EndComp
$Comp
L xmem-rescue:lab1-rescue_IDC-06MS-New_Library1-lab1-cache XP2
U 1 1 5E21BFE5
P 7650 800
F 0 "XP2" H 8018 451 50  0000 L CNN
F 1 "lab1-rescue_IDC-06MS-New_Library1-lab1-cache" H 8018 360 50  0001 L CNN
F 2 "Connector_PinSocket_2.54mm:PinSocket_2x03_P2.54mm_Vertical" H 7650 800 50  0001 C CNN
F 3 "" H 7650 800 50  0001 C CNN
	1    7650 800 
	-1   0    0    -1  
$EndComp
Wire Wire Line
	3450 2400 4100 2400
Wire Wire Line
	4100 2400 4100 2350
Wire Wire Line
	4100 2150 4100 2100
Wire Wire Line
	4100 2100 3450 2100
Wire Wire Line
	3100 2100 3450 2100
Connection ~ 3450 2100
Wire Wire Line
	3450 2400 3100 2400
Connection ~ 3450 2400
Wire Wire Line
	2800 2100 2700 2100
Wire Wire Line
	2700 2400 2700 2100
Wire Wire Line
	2700 2400 2800 2400
Wire Wire Line
	2700 2400 2700 2600
Connection ~ 2700 2400
$Comp
L power:Earth #PWR0101
U 1 1 5E258C76
P 2700 2600
F 0 "#PWR0101" H 2700 2350 50  0001 C CNN
F 1 "Earth" H 2700 2450 50  0001 C CNN
F 2 "" H 2700 2600 50  0001 C CNN
F 3 "~" H 2700 2600 50  0001 C CNN
	1    2700 2600
	1    0    0    -1  
$EndComp
$Comp
L power:Earth #PWR0102
U 1 1 5E259992
P 2050 1600
F 0 "#PWR0102" H 2050 1350 50  0001 C CNN
F 1 "Earth" H 2050 1450 50  0001 C CNN
F 2 "" H 2050 1600 50  0001 C CNN
F 3 "~" H 2050 1600 50  0001 C CNN
	1    2050 1600
	1    0    0    -1  
$EndComp
Wire Wire Line
	2050 1600 2050 1450
Wire Wire Line
	2450 1450 2700 1450
Wire Wire Line
	2700 1450 4100 1450
Wire Wire Line
	4100 1450 4100 1950
Connection ~ 2700 1450
Wire Wire Line
	4700 1650 4700 1500
$Comp
L power:+5V #PWR0103
U 1 1 5E25AFBA
P 4700 1500
F 0 "#PWR0103" H 4700 1350 50  0001 C CNN
F 1 "+5V" H 4715 1673 50  0000 C CNN
F 2 "" H 4700 1500 50  0001 C CNN
F 3 "" H 4700 1500 50  0001 C CNN
	1    4700 1500
	1    0    0    -1  
$EndComp
Wire Wire Line
	6750 1050 7650 1050
Wire Wire Line
	6900 1250 7650 1250
Wire Wire Line
	7050 1150 7650 1150
Wire Wire Line
	7600 1350 4100 1350
Wire Wire Line
	4100 1350 4100 1450
Connection ~ 4100 1450
Wire Wire Line
	7500 1450 7650 1450
Wire Wire Line
	7550 950  7350 950 
Wire Wire Line
	7350 950  7350 800 
$Comp
L power:+5V #PWR0104
U 1 1 5E27F275
P 7350 800
F 0 "#PWR0104" H 7350 650 50  0001 C CNN
F 1 "+5V" H 7365 973 50  0000 C CNN
F 2 "" H 7350 800 50  0001 C CNN
F 3 "" H 7350 800 50  0001 C CNN
	1    7350 800 
	1    0    0    -1  
$EndComp
$Comp
L power:Earth #PWR0105
U 1 1 5E280BA8
P 7500 1650
F 0 "#PWR0105" H 7500 1400 50  0001 C CNN
F 1 "Earth" H 7500 1500 50  0001 C CNN
F 2 "" H 7500 1650 50  0001 C CNN
F 3 "~" H 7500 1650 50  0001 C CNN
	1    7500 1650
	1    0    0    -1  
$EndComp
Wire Wire Line
	7500 1450 7500 1650
Wire Wire Line
	5300 2450 7050 2450
Wire Wire Line
	7050 2450 7050 1150
Wire Wire Line
	5300 2350 6900 2350
Wire Wire Line
	6900 2350 6900 1250
Wire Wire Line
	5300 2250 6750 2250
Wire Wire Line
	6750 2250 6750 1050
Wire Wire Line
	9850 4650 8800 4650
Wire Wire Line
	8800 4650 8800 5400
Wire Wire Line
	8850 5000 8850 4750
Wire Wire Line
	8850 4750 9850 4750
Wire Wire Line
	9850 4950 9650 4950
$Comp
L power:Earth #PWR0106
U 1 1 5E2899F7
P 9650 5150
F 0 "#PWR0106" H 9650 4900 50  0001 C CNN
F 1 "Earth" H 9650 5000 50  0001 C CNN
F 2 "" H 9650 5150 50  0001 C CNN
F 3 "~" H 9650 5150 50  0001 C CNN
	1    9650 5150
	1    0    0    -1  
$EndComp
Wire Wire Line
	9650 4950 9650 5150
Wire Wire Line
	7600 6200 7600 6100
$Comp
L power:Earth #PWR0107
U 1 1 5E28A28C
P 7600 6200
F 0 "#PWR0107" H 7600 5950 50  0001 C CNN
F 1 "Earth" H 7600 6050 50  0001 C CNN
F 2 "" H 7600 6200 50  0001 C CNN
F 3 "~" H 7600 6200 50  0001 C CNN
	1    7600 6200
	1    0    0    -1  
$EndComp
$Comp
L power:Earth #PWR0108
U 1 1 5E290534
P 4700 4550
F 0 "#PWR0108" H 4700 4300 50  0001 C CNN
F 1 "Earth" H 4700 4400 50  0001 C CNN
F 2 "" H 4700 4550 50  0001 C CNN
F 3 "~" H 4700 4550 50  0001 C CNN
	1    4700 4550
	1    0    0    -1  
$EndComp
Wire Wire Line
	4700 4550 4700 4450
$Comp
L power:Earth #PWR0109
U 1 1 5E291B35
P 8900 2800
F 0 "#PWR0109" H 8900 2550 50  0001 C CNN
F 1 "Earth" H 8900 2650 50  0001 C CNN
F 2 "" H 8900 2800 50  0001 C CNN
F 3 "~" H 8900 2800 50  0001 C CNN
	1    8900 2800
	1    0    0    -1  
$EndComp
Wire Wire Line
	8900 2800 8900 2700
$Comp
L power:Earth #PWR0110
U 1 1 5E295327
P 2650 6800
F 0 "#PWR0110" H 2650 6550 50  0001 C CNN
F 1 "Earth" H 2650 6650 50  0001 C CNN
F 2 "" H 2650 6800 50  0001 C CNN
F 3 "~" H 2650 6800 50  0001 C CNN
	1    2650 6800
	1    0    0    -1  
$EndComp
Wire Wire Line
	2700 1150 2700 1000
$Comp
L power:+5V #PWR0111
U 1 1 5E29AA32
P 2700 1000
F 0 "#PWR0111" H 2700 850 50  0001 C CNN
F 1 "+5V" H 2715 1173 50  0000 C CNN
F 2 "" H 2700 1000 50  0001 C CNN
F 3 "" H 2700 1000 50  0001 C CNN
	1    2700 1000
	1    0    0    -1  
$EndComp
Wire Wire Line
	7600 3700 7600 3550
$Comp
L power:+5V #PWR0112
U 1 1 5E29C100
P 7600 3550
F 0 "#PWR0112" H 7600 3400 50  0001 C CNN
F 1 "+5V" H 7615 3723 50  0000 C CNN
F 2 "" H 7600 3550 50  0001 C CNN
F 3 "" H 7600 3550 50  0001 C CNN
	1    7600 3550
	1    0    0    -1  
$EndComp
Wire Wire Line
	8900 1100 8900 950 
$Comp
L power:+5V #PWR0113
U 1 1 5E29D61E
P 8900 950
F 0 "#PWR0113" H 8900 800 50  0001 C CNN
F 1 "+5V" H 8915 1123 50  0000 C CNN
F 2 "" H 8900 950 50  0001 C CNN
F 3 "" H 8900 950 50  0001 C CNN
	1    8900 950 
	1    0    0    -1  
$EndComp
$Comp
L power:+5V #PWR0114
U 1 1 5E29FC0C
P 2650 6200
F 0 "#PWR0114" H 2650 6050 50  0001 C CNN
F 1 "+5V" H 2665 6373 50  0000 C CNN
F 2 "" H 2650 6200 50  0001 C CNN
F 3 "" H 2650 6200 50  0001 C CNN
	1    2650 6200
	1    0    0    -1  
$EndComp
Wire Wire Line
	5300 2650 8100 2650
Wire Wire Line
	8100 2650 8100 1600
Wire Wire Line
	8100 1600 8500 1600
Wire Wire Line
	8500 1300 8150 1300
Wire Wire Line
	8150 1300 8150 2750
Wire Wire Line
	8150 2750 5300 2750
$Comp
L power:Earth #PWR0115
U 1 1 5E2B6914
P 8350 1600
F 0 "#PWR0115" H 8350 1350 50  0001 C CNN
F 1 "Earth" H 8350 1450 50  0001 C CNN
F 2 "" H 8350 1600 50  0001 C CNN
F 3 "~" H 8350 1600 50  0001 C CNN
	1    8350 1600
	1    0    0    -1  
$EndComp
Wire Wire Line
	8350 1600 8350 1500
Wire Wire Line
	8500 1500 8350 1500
Wire Wire Line
	5300 2850 8200 2850
Wire Wire Line
	8200 2850 8200 2200
Wire Wire Line
	8200 2200 8500 2200
Wire Wire Line
	8500 2300 8250 2300
Wire Wire Line
	8250 2300 8250 2950
Wire Wire Line
	8250 2950 5300 2950
Wire Wire Line
	5300 3050 8300 3050
Wire Wire Line
	8300 3050 8300 2400
Wire Wire Line
	8300 2400 8500 2400
Wire Wire Line
	8500 2500 8350 2500
Wire Wire Line
	8350 2500 8350 3150
Wire Wire Line
	8350 3150 5300 3150
Wire Wire Line
	8800 5400 8400 5400
Wire Wire Line
	8400 5000 8850 5000
$Comp
L Interface_UART:MAX232 U2
U 1 1 5E1DDD48
P 7600 4900
F 0 "U2" H 7600 6281 50  0000 C CNN
F 1 "MAX232" H 7600 6190 50  0000 C CNN
F 2 "Package_DIP:DIP-16_W7.62mm" H 7650 3850 50  0001 L CNN
F 3 "http://www.ti.com/lit/ds/symlink/max232.pdf" H 7600 5000 50  0001 C CNN
	1    7600 4900
	1    0    0    -1  
$EndComp
$Comp
L Device:CP C6
U 1 1 5E2C9F30
P 8650 4150
F 0 "C6" H 8768 4196 50  0000 L CNN
F 1 "CP" H 8768 4105 50  0000 L CNN
F 2 "Capacitor_SMD:CP_Elec_5x3" H 8688 4000 50  0001 C CNN
F 3 "~" H 8650 4150 50  0001 C CNN
	1    8650 4150
	1    0    0    -1  
$EndComp
Wire Wire Line
	8400 4000 8650 4000
Wire Wire Line
	8650 4300 8400 4300
Wire Wire Line
	6650 4000 6800 4000
Wire Wire Line
	6800 4300 6650 4300
Wire Wire Line
	8400 4500 9050 4500
$Comp
L Device:C C8
U 1 1 5E2D75CF
P 9200 4300
F 0 "C8" H 9315 4346 50  0000 L CNN
F 1 "C" H 9315 4255 50  0000 L CNN
F 2 "Capacitor_THT:C_Axial_L5.1mm_D3.1mm_P7.50mm_Horizontal" H 9238 4150 50  0001 C CNN
F 3 "~" H 9200 4300 50  0001 C CNN
	1    9200 4300
	0    -1   -1   0   
$EndComp
Wire Wire Line
	9350 4300 9350 4150
$Comp
L power:+5V #PWR0116
U 1 1 5E2DAA93
P 9350 4150
F 0 "#PWR0116" H 9350 4000 50  0001 C CNN
F 1 "+5V" H 9365 4323 50  0000 C CNN
F 2 "" H 9350 4150 50  0001 C CNN
F 3 "" H 9350 4150 50  0001 C CNN
	1    9350 4150
	1    0    0    -1  
$EndComp
$Comp
L Device:C C7
U 1 1 5E2E0D04
P 9050 4950
F 0 "C7" H 9165 4996 50  0000 L CNN
F 1 "C" H 9165 4905 50  0000 L CNN
F 2 "Capacitor_THT:C_Axial_L5.1mm_D3.1mm_P7.50mm_Horizontal" H 9088 4800 50  0001 C CNN
F 3 "~" H 9050 4950 50  0001 C CNN
	1    9050 4950
	1    0    0    -1  
$EndComp
Wire Wire Line
	8400 4800 9050 4800
$Comp
L power:Earth #PWR0117
U 1 1 5E2E6D58
P 9050 5300
F 0 "#PWR0117" H 9050 5050 50  0001 C CNN
F 1 "Earth" H 9050 5150 50  0001 C CNN
F 2 "" H 9050 5300 50  0001 C CNN
F 3 "~" H 9050 5300 50  0001 C CNN
	1    9050 5300
	1    0    0    -1  
$EndComp
Wire Wire Line
	9050 5100 9050 5300
Wire Wire Line
	6350 5000 6800 5000
Wire Wire Line
	5300 3450 6350 3450
Wire Wire Line
	6350 3450 6350 5000
Wire Wire Line
	5300 3350 6400 3350
Wire Wire Line
	6400 3350 6400 5400
Wire Wire Line
	6400 5400 6800 5400
$Comp
L xmem-rescue:lab1-rescue_DS-201-New_Library1-lab1-cache XP1
U 1 1 5E239D76
P 1650 6500
F 0 "XP1" H 1683 6815 50  0000 C CNN
F 1 "lab1-rescue_DS-201-New_Library1-lab1-cache" H 1683 6724 50  0001 C CNN
F 2 "Connector:Banana_Jack_2Pin" H 1900 6700 50  0001 C CNN
F 3 "" H 1900 6700 50  0001 C CNN
	1    1650 6500
	1    0    0    -1  
$EndComp
$Comp
L Device:CP C1
U 1 1 5E321F86
P 2250 6450
F 0 "C1" H 2368 6496 50  0000 L CNN
F 1 "CP" H 2368 6405 50  0000 L CNN
F 2 "Capacitor_SMD:CP_Elec_5x3" H 2288 6300 50  0001 C CNN
F 3 "~" H 2250 6450 50  0001 C CNN
	1    2250 6450
	1    0    0    -1  
$EndComp
$Comp
L Device:CP C2
U 1 1 5E32557B
P 2650 6450
F 0 "C2" H 2768 6496 50  0000 L CNN
F 1 "CP" H 2768 6405 50  0000 L CNN
F 2 "Capacitor_SMD:CP_Elec_5x3" H 2688 6300 50  0001 C CNN
F 3 "~" H 2650 6450 50  0001 C CNN
	1    2650 6450
	1    0    0    -1  
$EndComp
Wire Wire Line
	2000 6600 2250 6600
Connection ~ 2250 6600
Wire Wire Line
	2250 6600 2650 6600
Wire Wire Line
	2650 6600 2650 6800
Connection ~ 2650 6600
Wire Wire Line
	2650 6300 2250 6300
Wire Wire Line
	2000 6300 2000 6500
Connection ~ 2250 6300
Wire Wire Line
	2250 6300 2000 6300
Wire Wire Line
	2650 6300 2650 6200
Connection ~ 2650 6300
Wire Wire Line
	5300 1950 5700 1950
Wire Wire Line
	5700 1950 5700 1000
Wire Wire Line
	5700 1000 5800 1000
Wire Wire Line
	6100 1000 6200 1000
$Comp
L Device:R R8
U 1 1 5E33FE0B
P 5950 1000
F 0 "R8" H 6020 1046 50  0000 L CNN
F 1 "R" H 6020 955 50  0000 L CNN
F 2 "Resistor_THT:R_Axial_DIN0207_L6.3mm_D2.5mm_P10.16mm_Horizontal" V 5880 1000 50  0001 C CNN
F 3 "~" H 5950 1000 50  0001 C CNN
	1    5950 1000
	0    1    1    0   
$EndComp
Wire Wire Line
	6600 1150 6600 1000
$Comp
L power:Earth #PWR0118
U 1 1 5E337D7B
P 6600 1150
F 0 "#PWR0118" H 6600 900 50  0001 C CNN
F 1 "Earth" H 6600 1000 50  0001 C CNN
F 2 "" H 6600 1150 50  0001 C CNN
F 3 "~" H 6600 1150 50  0001 C CNN
	1    6600 1150
	-1   0    0    -1  
$EndComp
$Comp
L Switch:SW_Push SW8
U 1 1 5E337D75
P 6400 1000
F 0 "SW8" H 6400 1285 50  0000 C CNN
F 1 "SW_Push" H 6400 1194 50  0000 C CNN
F 2 "Button_Switch_THT:SW_CW_GPTS203211B" H 6400 1200 50  0001 C CNN
F 3 "~" H 6400 1200 50  0001 C CNN
	1    6400 1000
	-1   0    0    -1  
$EndComp
Wire Wire Line
	5650 5550 5650 5650
$Comp
L Device:R R7
U 1 1 5E34F32E
P 5650 5400
F 0 "R7" H 5720 5446 50  0000 L CNN
F 1 "R" H 5720 5355 50  0000 L CNN
F 2 "Resistor_THT:R_Axial_DIN0207_L6.3mm_D2.5mm_P10.16mm_Horizontal" V 5580 5400 50  0001 C CNN
F 3 "~" H 5650 5400 50  0001 C CNN
	1    5650 5400
	-1   0    0    1   
$EndComp
$Comp
L Switch:SW_Push SW7
U 1 1 5E34F33B
P 5650 5850
F 0 "SW7" H 5650 6135 50  0000 C CNN
F 1 "SW_Push" H 5650 6044 50  0000 C CNN
F 2 "Button_Switch_THT:SW_CW_GPTS203211B" H 5650 6050 50  0001 C CNN
F 3 "~" H 5650 6050 50  0001 C CNN
	1    5650 5850
	0    1    -1   0   
$EndComp
Wire Wire Line
	5100 5550 5100 5650
$Comp
L Device:R R6
U 1 1 5E351D92
P 5100 5400
F 0 "R6" H 5170 5446 50  0000 L CNN
F 1 "R" H 5170 5355 50  0000 L CNN
F 2 "Resistor_THT:R_Axial_DIN0207_L6.3mm_D2.5mm_P10.16mm_Horizontal" V 5030 5400 50  0001 C CNN
F 3 "~" H 5100 5400 50  0001 C CNN
	1    5100 5400
	-1   0    0    1   
$EndComp
$Comp
L Switch:SW_Push SW6
U 1 1 5E351D9F
P 5100 5850
F 0 "SW6" H 5100 6135 50  0000 C CNN
F 1 "SW_Push" H 5100 6044 50  0000 C CNN
F 2 "Button_Switch_THT:SW_CW_GPTS203211B" H 5100 6050 50  0001 C CNN
F 3 "~" H 5100 6050 50  0001 C CNN
	1    5100 5850
	0    1    -1   0   
$EndComp
Wire Wire Line
	4550 5550 4550 5650
$Comp
L Device:R R5
U 1 1 5E354B33
P 4550 5400
F 0 "R5" H 4620 5446 50  0000 L CNN
F 1 "R" H 4620 5355 50  0000 L CNN
F 2 "Resistor_THT:R_Axial_DIN0207_L6.3mm_D2.5mm_P10.16mm_Horizontal" V 4480 5400 50  0001 C CNN
F 3 "~" H 4550 5400 50  0001 C CNN
	1    4550 5400
	-1   0    0    1   
$EndComp
$Comp
L Switch:SW_Push SW5
U 1 1 5E354B40
P 4550 5850
F 0 "SW5" H 4550 6135 50  0000 C CNN
F 1 "SW_Push" H 4550 6044 50  0000 C CNN
F 2 "Button_Switch_THT:SW_CW_GPTS203211B" H 4550 6050 50  0001 C CNN
F 3 "~" H 4550 6050 50  0001 C CNN
	1    4550 5850
	0    1    -1   0   
$EndComp
Wire Wire Line
	4000 5550 4000 5650
$Comp
L Device:R R4
U 1 1 5E357B47
P 4000 5400
F 0 "R4" H 4070 5446 50  0000 L CNN
F 1 "R" H 4070 5355 50  0000 L CNN
F 2 "Resistor_THT:R_Axial_DIN0207_L6.3mm_D2.5mm_P10.16mm_Horizontal" V 3930 5400 50  0001 C CNN
F 3 "~" H 4000 5400 50  0001 C CNN
	1    4000 5400
	-1   0    0    1   
$EndComp
$Comp
L Switch:SW_Push SW4
U 1 1 5E357B54
P 4000 5850
F 0 "SW4" H 4000 6135 50  0000 C CNN
F 1 "SW_Push" H 4000 6044 50  0000 C CNN
F 2 "Button_Switch_THT:SW_CW_GPTS203211B" H 4000 6050 50  0001 C CNN
F 3 "~" H 4000 6050 50  0001 C CNN
	1    4000 5850
	0    1    -1   0   
$EndComp
Wire Wire Line
	3500 5550 3500 5650
$Comp
L Device:R R3
U 1 1 5E35AC04
P 3500 5400
F 0 "R3" H 3570 5446 50  0000 L CNN
F 1 "R" H 3570 5355 50  0000 L CNN
F 2 "Resistor_THT:R_Axial_DIN0207_L6.3mm_D2.5mm_P10.16mm_Horizontal" V 3430 5400 50  0001 C CNN
F 3 "~" H 3500 5400 50  0001 C CNN
	1    3500 5400
	-1   0    0    1   
$EndComp
$Comp
L Switch:SW_Push SW3
U 1 1 5E35AC11
P 3500 5850
F 0 "SW3" H 3500 6135 50  0000 C CNN
F 1 "SW_Push" H 3500 6044 50  0000 C CNN
F 2 "Button_Switch_THT:SW_CW_GPTS203211B" H 3500 6050 50  0001 C CNN
F 3 "~" H 3500 6050 50  0001 C CNN
	1    3500 5850
	0    1    -1   0   
$EndComp
Wire Wire Line
	3100 5600 3100 5700
$Comp
L Device:R R2
U 1 1 5E35E3A1
P 3100 5450
F 0 "R2" H 3170 5496 50  0000 L CNN
F 1 "R" H 3170 5405 50  0000 L CNN
F 2 "Resistor_THT:R_Axial_DIN0207_L6.3mm_D2.5mm_P10.16mm_Horizontal" V 3030 5450 50  0001 C CNN
F 3 "~" H 3100 5450 50  0001 C CNN
	1    3100 5450
	-1   0    0    1   
$EndComp
$Comp
L power:Earth #PWR0119
U 1 1 5E35E3A8
P 3100 6250
F 0 "#PWR0119" H 3100 6000 50  0001 C CNN
F 1 "Earth" H 3100 6100 50  0001 C CNN
F 2 "" H 3100 6250 50  0001 C CNN
F 3 "~" H 3100 6250 50  0001 C CNN
	1    3100 6250
	-1   0    0    -1  
$EndComp
$Comp
L Switch:SW_Push SW2
U 1 1 5E35E3AE
P 3100 5900
F 0 "SW2" H 3100 6185 50  0000 C CNN
F 1 "SW_Push" H 3100 6094 50  0000 C CNN
F 2 "Button_Switch_THT:SW_CW_GPTS203211B" H 3100 6100 50  0001 C CNN
F 3 "~" H 3100 6100 50  0001 C CNN
	1    3100 5900
	0    1    -1   0   
$EndComp
Wire Wire Line
	5650 5250 6250 5250
Wire Wire Line
	6250 5250 6250 3550
Wire Wire Line
	6250 3550 5300 3550
Wire Wire Line
	5300 3650 6200 3650
Wire Wire Line
	6200 3650 6200 5200
Wire Wire Line
	6200 5200 5100 5200
Wire Wire Line
	5100 5200 5100 5250
Wire Wire Line
	4550 5250 4550 5150
Wire Wire Line
	4550 5150 6150 5150
Wire Wire Line
	6150 5150 6150 3750
Wire Wire Line
	6150 3750 5300 3750
Wire Wire Line
	5300 3850 6100 3850
Wire Wire Line
	6100 3850 6100 5100
Wire Wire Line
	6100 5100 4000 5100
Wire Wire Line
	4000 5100 4000 5250
Wire Wire Line
	5300 3950 6050 3950
Wire Wire Line
	6050 3950 6050 5050
Wire Wire Line
	6050 5050 3500 5050
Wire Wire Line
	3500 5050 3500 5250
Wire Wire Line
	3100 5300 3100 5000
Wire Wire Line
	3100 5000 6000 5000
Wire Wire Line
	6000 5000 6000 4050
Wire Wire Line
	6000 4050 5300 4050
Wire Wire Line
	3100 6250 3100 6100
$Comp
L power:Earth #PWR0120
U 1 1 5E3BB652
P 3500 6200
F 0 "#PWR0120" H 3500 5950 50  0001 C CNN
F 1 "Earth" H 3500 6050 50  0001 C CNN
F 2 "" H 3500 6200 50  0001 C CNN
F 3 "~" H 3500 6200 50  0001 C CNN
	1    3500 6200
	-1   0    0    -1  
$EndComp
Wire Wire Line
	3500 6200 3500 6050
$Comp
L power:Earth #PWR0121
U 1 1 5E3BFC18
P 4000 6200
F 0 "#PWR0121" H 4000 5950 50  0001 C CNN
F 1 "Earth" H 4000 6050 50  0001 C CNN
F 2 "" H 4000 6200 50  0001 C CNN
F 3 "~" H 4000 6200 50  0001 C CNN
	1    4000 6200
	-1   0    0    -1  
$EndComp
Wire Wire Line
	4000 6200 4000 6050
$Comp
L power:Earth #PWR0122
U 1 1 5E3C43AB
P 4550 6200
F 0 "#PWR0122" H 4550 5950 50  0001 C CNN
F 1 "Earth" H 4550 6050 50  0001 C CNN
F 2 "" H 4550 6200 50  0001 C CNN
F 3 "~" H 4550 6200 50  0001 C CNN
	1    4550 6200
	-1   0    0    -1  
$EndComp
Wire Wire Line
	4550 6200 4550 6050
$Comp
L power:Earth #PWR0123
U 1 1 5E3C8C36
P 5100 6200
F 0 "#PWR0123" H 5100 5950 50  0001 C CNN
F 1 "Earth" H 5100 6050 50  0001 C CNN
F 2 "" H 5100 6200 50  0001 C CNN
F 3 "~" H 5100 6200 50  0001 C CNN
	1    5100 6200
	-1   0    0    -1  
$EndComp
Wire Wire Line
	5100 6200 5100 6050
$Comp
L power:Earth #PWR0124
U 1 1 5E3CD5B6
P 5650 6200
F 0 "#PWR0124" H 5650 5950 50  0001 C CNN
F 1 "Earth" H 5650 6050 50  0001 C CNN
F 2 "" H 5650 6200 50  0001 C CNN
F 3 "~" H 5650 6200 50  0001 C CNN
	1    5650 6200
	-1   0    0    -1  
$EndComp
Wire Wire Line
	5650 6200 5650 6050
Wire Wire Line
	9050 4500 9050 4300
$Comp
L xmem-rescue:lab1-rescue_RS-232-New_Library1-lab1-cache XP3
U 1 1 5E21867C
P 9900 4400
F 0 "XP3" H 10169 3901 50  0000 L CNN
F 1 "lab1-rescue_RS-232-New_Library1-lab1-cache" H 10169 3810 50  0001 L CNN
F 2 "Connector_Dsub:DSUB-9_Male_Vertical_P2.77x2.84mm" H 9900 4400 50  0001 C CNN
F 3 "" H 9900 4400 50  0001 C CNN
	1    9900 4400
	-1   0    0    -1  
$EndComp
$EndSCHEMATC
