(export (version D)
  (design
    (source /Users/edobryanskaya/Documents/GitHub/labs_kicad/Dobryanskaya/test.sch)
    (date "понедельник, 30 декабря 2019 г., 14:34:54")
    (tool "Eeschema (5.1.4-0-10_14)")
    (sheet (number 1) (name /) (tstamps /)
      (title_block
        (title "Схема принципиальная\\nэлектрическая")
        (company "МГТУ им. Н.Э. Баумана\\nИУ6-74")
        (rev)
        (date)
        (source test.sch)
        (comment (number 1) (value "Электронные часы\\nдля настольной игры"))
        (comment (number 2) (value "Добрянская Е.М."))
        (comment (number 3) (value "Хартов В.Я."))
        (comment (number 4) (value "")))))
  (components
    (comp (ref C1)
      (value CP_Small)
      (footprint Capacitor_SMD:CP_Elec_5x5.3)
      (datasheet ~)
      (libsource (lib Device) (part CP_Small) (description "Polarized capacitor, small symbol"))
      (sheetpath (names /) (tstamps /))
      (tstamp 5DCBEE91))
    (comp (ref C2)
      (value CP_Small)
      (footprint Capacitor_SMD:CP_Elec_5x5.3)
      (datasheet ~)
      (libsource (lib Device) (part CP_Small) (description "Polarized capacitor, small symbol"))
      (sheetpath (names /) (tstamps /))
      (tstamp 5DCBF507))
    (comp (ref U2)
      (value L7805)
      (footprint Package_TO_SOT_THT:TO-220-3_Vertical)
      (datasheet http://www.st.com/content/ccc/resource/technical/document/datasheet/41/4f/b3/b0/12/d4/47/88/CD00000444.pdf/files/CD00000444.pdf/jcr:content/translations/en.CD00000444.pdf)
      (libsource (lib Regulator_Linear) (part L7805) (description "Positive 1.5A 35V Linear Regulator, Fixed Output 5V, TO-220/TO-263/TO-252"))
      (sheetpath (names /) (tstamps /))
      (tstamp 5DCC199A))
    (comp (ref HG1)
      (value CC56-12EWA)
      (footprint Display_7Segment:CA56-12EWA)
      (datasheet http://www.kingbrightusa.com/images/catalog/SPEC/CA56-12EWA.pdf)
      (libsource (lib Display_Character) (part CC56-12EWA) (description "4 digit 7 segment high efficiency red LED, common cathode"))
      (sheetpath (names /) (tstamps /))
      (tstamp 5DDB54C0))
    (comp (ref XP3)
      (value table3)
      (footprint Connector_Dsub:DSUB-9_Male_Vertical_P2.77x2.84mm)
      (libsource (lib test-rescue) (part table3-tables) (description ""))
      (sheetpath (names /) (tstamps /))
      (tstamp 5E390272))
    (comp (ref C4)
      (value "22 пФ")
      (footprint Capacitor_THT:C_Disc_D5.0mm_W2.5mm_P5.00mm)
      (datasheet ~)
      (libsource (lib Device) (part C_Small) (description "Unpolarized capacitor, small symbol"))
      (sheetpath (names /) (tstamps /))
      (tstamp 5DC6E890))
    (comp (ref C5)
      (value "22 пФ")
      (footprint Capacitor_THT:C_Disc_D5.0mm_W2.5mm_P5.00mm)
      (datasheet ~)
      (libsource (lib Device) (part C_Small) (description "Unpolarized capacitor, small symbol"))
      (sheetpath (names /) (tstamps /))
      (tstamp 5DC7074B))
    (comp (ref Y1)
      (value "4 МГц")
      (footprint Crystal:Crystal_HC49-U_Horizontal_1EP_style1)
      (datasheet ~)
      (libsource (lib Device) (part Crystal) (description "Two pin crystal"))
      (sheetpath (names /) (tstamps /))
      (tstamp 5DC71A7C))
    (comp (ref R1)
      (value "10 кОм")
      (footprint Resistor_THT:R_Axial_DIN0207_L6.3mm_D2.5mm_P7.62mm_Horizontal)
      (datasheet ~)
      (libsource (lib Device) (part R_Small) (description "Resistor, small symbol"))
      (sheetpath (names /) (tstamps /))
      (tstamp 5DE05FC4))
    (comp (ref XP2)
      (value SPI-XP)
      (footprint Connector_IDC:IDC-Header_2x03_P2.54mm_Horizontal)
      (libsource (lib tables) (part SPI-XP) (description ""))
      (sheetpath (names /) (tstamps /))
      (tstamp 5E4F4CC7))
    (comp (ref SW1)
      (value SW_DPDT_x2)
      (footprint Button_Switch_SMD:SW_DIP_SPSTx01_Slide_9.78x4.72mm_W8.61mm_P2.54mm)
      (libsource (lib Switch) (part SW_DPDT_x2) (description "Switch, dual pole double throw, separate symbols"))
      (sheetpath (names /) (tstamps /))
      (tstamp 5E58EB98))
    (comp (ref SW4)
      (value "\"Игрок Б\"")
      (footprint Button_Switch_Keyboard:SW_Cherry_MX_1.00u_PCB)
      (datasheet ~)
      (libsource (lib Switch) (part SW_Push) (description "Push button switch, generic, two pins"))
      (sheetpath (names /) (tstamps /))
      (tstamp 5E3B8CE7))
    (comp (ref SW3)
      (value "\"Игрок А\"")
      (footprint Button_Switch_Keyboard:SW_Cherry_MX_1.00u_PCB)
      (datasheet ~)
      (libsource (lib Switch) (part SW_Push) (description "Push button switch, generic, two pins"))
      (sheetpath (names /) (tstamps /))
      (tstamp 5E3AD4CB))
    (comp (ref HG2)
      (value CC56-12EWA)
      (footprint Display_7Segment:CA56-12EWA)
      (datasheet http://www.kingbrightusa.com/images/catalog/SPEC/CA56-12EWA.pdf)
      (libsource (lib Display_Character) (part CC56-12EWA) (description "4 digit 7 segment high efficiency red LED, common cathode"))
      (sheetpath (names /) (tstamps /))
      (tstamp 5DDB8B41))
    (comp (ref SW5)
      (value "\"reset\"")
      (footprint Button_Switch_Keyboard:SW_Cherry_MX_1.00u_PCB)
      (datasheet ~)
      (libsource (lib Switch) (part SW_Push) (description "Push button switch, generic, two pins"))
      (sheetpath (names /) (tstamps /))
      (tstamp 5DC6866E))
    (comp (ref DD1)
      (value ATmega8515L-8PU)
      (footprint Package_DIP:DIP-40_W15.24mm)
      (datasheet http://ww1.microchip.com/downloads/en/DeviceDoc/doc2512.pdf)
      (libsource (lib atmega8515-pdip) (part ATmega8515L-8PU) (description "8MHz, 8kB Flash, 512B SRAM, 512B EEPROM, DIP-40"))
      (sheetpath (names /) (tstamps /))
      (tstamp 5E113515))
    (comp (ref SW2)
      (value "\"result\"")
      (footprint Button_Switch_Keyboard:SW_Cherry_MX_1.00u_PCB)
      (datasheet ~)
      (libsource (lib Switch) (part SW_Push) (description "Push button switch, generic, two pins"))
      (sheetpath (names /) (tstamps /))
      (tstamp 5E397CBC))
    (comp (ref R3)
      (value 2кОм)
      (footprint Resistor_THT:R_Axial_DIN0207_L6.3mm_D2.5mm_P7.62mm_Horizontal)
      (datasheet ~)
      (libsource (lib Device) (part R) (description Resistor))
      (sheetpath (names /) (tstamps /))
      (tstamp 5EB4EF62))
    (comp (ref LS1)
      (value Speaker)
      (footprint Buzzer_Beeper:Buzzer_TDK_PS1240P02BT_D12.2mm_H6.5mm)
      (datasheet ~)
      (libsource (lib Device) (part Speaker) (description Speaker))
      (sheetpath (names /) (tstamps /))
      (tstamp 5E5188E5))
    (comp (ref C3)
      (value CP_Small)
      (footprint Capacitor_SMD:CP_Elec_5x3)
      (datasheet ~)
      (libsource (lib Device) (part CP_Small) (description "Polarized capacitor, small symbol"))
      (sheetpath (names /) (tstamps /))
      (tstamp 5DCC057E))
    (comp (ref C7)
      (value "1 мкФ")
      (footprint Capacitor_SMD:CP_Elec_5x3)
      (datasheet ~)
      (libsource (lib Device) (part CP_Small) (description "Polarized capacitor, small symbol"))
      (sheetpath (names /) (tstamps /))
      (tstamp 5EE49F45))
    (comp (ref C8)
      (value "1 мкФ")
      (footprint Capacitor_SMD:CP_Elec_4x5.8)
      (datasheet ~)
      (libsource (lib Device) (part CP_Small) (description "Polarized capacitor, small symbol"))
      (sheetpath (names /) (tstamps /))
      (tstamp 5EE8E5F7))
    (comp (ref C6)
      (value "1 мкФ")
      (footprint Capacitor_SMD:CP_Elec_5x3)
      (datasheet ~)
      (libsource (lib Device) (part CP_Small) (description "Polarized capacitor, small symbol"))
      (sheetpath (names /) (tstamps /))
      (tstamp 5EE21197))
    (comp (ref DD2)
      (value MAX232)
      (footprint Package_DIP:DIP-4_W7.62mm)
      (datasheet http://www.ti.com/lit/ds/symlink/max232.pdf)
      (libsource (lib Interface_UART) (part MAX232) (description "Dual RS232 driver/receiver, 5V supply, 120kb/s, 0C-70C"))
      (sheetpath (names /) (tstamps /))
      (tstamp 5E39EBED))
    (comp (ref C9)
      (value "1 мкФ")
      (footprint Capacitor_SMD:CP_Elec_5x3)
      (datasheet ~)
      (libsource (lib Device) (part CP_Small) (description "Polarized capacitor, small symbol"))
      (sheetpath (names /) (tstamps /))
      (tstamp 5EED398A))
    (comp (ref XP1)
      (value pwr)
      (footprint Connector:Banana_Jack_2Pin)
      (libsource (lib power_upd) (part pwr) (description ""))
      (sheetpath (names /) (tstamps /))
      (tstamp 5E32A102))
    (comp (ref R2)
      (value 2кОм)
      (footprint Resistor_THT:R_Axial_DIN0207_L6.3mm_D2.5mm_P7.62mm_Horizontal)
      (datasheet ~)
      (libsource (lib Device) (part R) (description Resistor))
      (sheetpath (names /) (tstamps /))
      (tstamp 5E3666F3))
    (comp (ref R4)
      (value 2кОм)
      (footprint Resistor_THT:R_Axial_DIN0207_L6.3mm_D2.5mm_P7.62mm_Horizontal)
      (datasheet ~)
      (libsource (lib Device) (part R) (description Resistor))
      (sheetpath (names /) (tstamps /))
      (tstamp 5E370AC0))
    (comp (ref R5)
      (value 2кОм)
      (footprint Resistor_THT:R_Axial_DIN0207_L6.3mm_D2.5mm_P7.62mm_Horizontal)
      (datasheet ~)
      (libsource (lib Device) (part R) (description Resistor))
      (sheetpath (names /) (tstamps /))
      (tstamp 5E3E9DA8))
    (comp (ref R7)
      (value 2кОм)
      (footprint Resistor_THT:R_Axial_DIN0207_L6.3mm_D2.5mm_P7.62mm_Horizontal)
      (datasheet ~)
      (libsource (lib Device) (part R) (description Resistor))
      (sheetpath (names /) (tstamps /))
      (tstamp 5E413B67))
    (comp (ref R8)
      (value 2кОм)
      (footprint Resistor_THT:R_Axial_DIN0207_L6.3mm_D2.5mm_P7.62mm_Horizontal)
      (datasheet ~)
      (libsource (lib Device) (part R) (description Resistor))
      (sheetpath (names /) (tstamps /))
      (tstamp 5E41D951))
    (comp (ref R9)
      (value 2кОм)
      (footprint Resistor_THT:R_Axial_DIN0207_L6.3mm_D2.5mm_P7.62mm_Horizontal)
      (datasheet ~)
      (libsource (lib Device) (part R) (description Resistor))
      (sheetpath (names /) (tstamps /))
      (tstamp 5E427582))
    (comp (ref R10)
      (value 2кОм)
      (footprint Resistor_THT:R_Axial_DIN0207_L6.3mm_D2.5mm_P7.62mm_Horizontal)
      (datasheet ~)
      (libsource (lib Device) (part R) (description Resistor))
      (sheetpath (names /) (tstamps /))
      (tstamp 5E43154F))
    (comp (ref R11)
      (value 2кОм)
      (footprint Resistor_THT:R_Axial_DIN0207_L6.3mm_D2.5mm_P7.62mm_Horizontal)
      (datasheet ~)
      (libsource (lib Device) (part R) (description Resistor))
      (sheetpath (names /) (tstamps /))
      (tstamp 5E43B2E5))
    (comp (ref R12)
      (value 2кОм)
      (footprint Resistor_THT:R_Axial_DIN0207_L6.3mm_D2.5mm_P7.62mm_Horizontal)
      (datasheet ~)
      (libsource (lib Device) (part R) (description Resistor))
      (sheetpath (names /) (tstamps /))
      (tstamp 5E444FD3))
    (comp (ref R6)
      (value 2кОм)
      (footprint Resistor_THT:R_Axial_DIN0207_L6.3mm_D2.5mm_P7.62mm_Horizontal)
      (datasheet ~)
      (libsource (lib Device) (part R) (description Resistor))
      (sheetpath (names /) (tstamps /))
      (tstamp 5E3F452E))
    (comp (ref R13)
      (value 470)
      (footprint Resistor_THT:R_Axial_DIN0207_L6.3mm_D2.5mm_P7.62mm_Horizontal)
      (datasheet ~)
      (libsource (lib Device) (part R) (description Resistor))
      (sheetpath (names /) (tstamps /))
      (tstamp 5E6DA0ED))
    (comp (ref R14)
      (value 470)
      (footprint Resistor_THT:R_Axial_DIN0207_L6.3mm_D2.5mm_P7.62mm_Horizontal)
      (datasheet ~)
      (libsource (lib Device) (part R) (description Resistor))
      (sheetpath (names /) (tstamps /))
      (tstamp 5E6E41B8))
    (comp (ref C10)
      (value "1.2 пФ")
      (footprint Capacitor_THT:C_Axial_L3.8mm_D2.6mm_P7.50mm_Horizontal)
      (datasheet ~)
      (libsource (lib Device) (part C) (description "Unpolarized capacitor"))
      (sheetpath (names /) (tstamps /))
      (tstamp 5E778ADD))
    (comp (ref C11)
      (value "1.2 пФ")
      (footprint Capacitor_THT:C_Axial_L3.8mm_D2.6mm_P7.50mm_Horizontal)
      (datasheet ~)
      (libsource (lib Device) (part C) (description "Unpolarized capacitor"))
      (sheetpath (names /) (tstamps /))
      (tstamp 5E77A6C6)))
  (libparts
    (libpart (lib Device) (part C)
      (description "Unpolarized capacitor")
      (docs ~)
      (footprints
        (fp C_*))
      (fields
        (field (name Reference) C)
        (field (name Value) C))
      (pins
        (pin (num 1) (name ~) (type passive))
        (pin (num 2) (name ~) (type passive))))
    (libpart (lib Device) (part CP_Small)
      (description "Polarized capacitor, small symbol")
      (docs ~)
      (footprints
        (fp CP_*))
      (fields
        (field (name Reference) C)
        (field (name Value) CP_Small))
      (pins
        (pin (num 1) (name ~) (type passive))
        (pin (num 2) (name ~) (type passive))))
    (libpart (lib Device) (part C_Small)
      (description "Unpolarized capacitor, small symbol")
      (docs ~)
      (footprints
        (fp C_*))
      (fields
        (field (name Reference) C)
        (field (name Value) C_Small))
      (pins
        (pin (num 1) (name ~) (type passive))
        (pin (num 2) (name ~) (type passive))))
    (libpart (lib Device) (part Crystal)
      (description "Two pin crystal")
      (docs ~)
      (footprints
        (fp Crystal*))
      (fields
        (field (name Reference) Y)
        (field (name Value) Crystal))
      (pins
        (pin (num 1) (name 1) (type passive))
        (pin (num 2) (name 2) (type passive))))
    (libpart (lib Device) (part R)
      (description Resistor)
      (docs ~)
      (footprints
        (fp R_*))
      (fields
        (field (name Reference) R)
        (field (name Value) R))
      (pins
        (pin (num 1) (name ~) (type passive))
        (pin (num 2) (name ~) (type passive))))
    (libpart (lib Device) (part R_Small)
      (description "Resistor, small symbol")
      (docs ~)
      (footprints
        (fp R_*))
      (fields
        (field (name Reference) R)
        (field (name Value) R_Small))
      (pins
        (pin (num 1) (name ~) (type passive))
        (pin (num 2) (name ~) (type passive))))
    (libpart (lib Device) (part Speaker)
      (description Speaker)
      (docs ~)
      (fields
        (field (name Reference) LS)
        (field (name Value) Speaker))
      (pins
        (pin (num 1) (name 1) (type input))
        (pin (num 2) (name 2) (type input))))
    (libpart (lib Display_Character) (part CC56-12EWA)
      (description "4 digit 7 segment high efficiency red LED, common cathode")
      (docs http://www.kingbrightusa.com/images/catalog/SPEC/CA56-12EWA.pdf)
      (footprints
        (fp *CA56*12EWA*))
      (fields
        (field (name Reference) U)
        (field (name Value) CC56-12EWA)
        (field (name Footprint) Display_7Segment:CA56-12EWA))
      (pins
        (pin (num 1) (name e) (type input))
        (pin (num 2) (name d) (type input))
        (pin (num 3) (name DPX) (type input))
        (pin (num 4) (name c) (type input))
        (pin (num 5) (name g) (type input))
        (pin (num 6) (name CC4) (type input))
        (pin (num 7) (name b) (type input))
        (pin (num 8) (name CC3) (type input))
        (pin (num 9) (name CC2) (type input))
        (pin (num 10) (name f) (type input))
        (pin (num 11) (name a) (type input))
        (pin (num 12) (name CC1) (type input))))
    (libpart (lib Interface_UART) (part MAX232)
      (aliases
        (alias MAX232I)
        (alias MAX202)
        (alias ADM232A)
        (alias MAX3232)
        (alias ICL3232))
      (description "Dual RS232 driver/receiver, 5V supply, 120kb/s, 0C-70C")
      (docs http://www.ti.com/lit/ds/symlink/max232.pdf)
      (footprints
        (fp SOIC*P1.27mm*)
        (fp DIP*W7.62mm*)
        (fp TSSOP*4.4x5mm*P0.65mm*))
      (fields
        (field (name Reference) U)
        (field (name Value) MAX232)
        (field (name Footprint) Package_DIP:DIP-16_W7.62mm))
      (pins
        (pin (num 1) (name C1+) (type passive))
        (pin (num 2) (name VS+) (type power_out))
        (pin (num 3) (name C1-) (type passive))
        (pin (num 4) (name C2+) (type passive))
        (pin (num 5) (name C2-) (type passive))
        (pin (num 6) (name VS-) (type power_out))
        (pin (num 7) (name T2OUT) (type output))
        (pin (num 8) (name R2IN) (type input))
        (pin (num 9) (name R2OUT) (type output))
        (pin (num 10) (name T2IN) (type input))
        (pin (num 11) (name T1IN) (type input))
        (pin (num 12) (name R1OUT) (type output))
        (pin (num 13) (name R1IN) (type input))
        (pin (num 14) (name T1OUT) (type output))
        (pin (num 15) (name GND) (type power_in))
        (pin (num 16) (name VCC) (type power_in))))
    (libpart (lib Regulator_Linear) (part L7805)
      (aliases
        (alias L7806)
        (alias L7808)
        (alias L7885)
        (alias L7809)
        (alias L7812)
        (alias L7815)
        (alias L7818)
        (alias L7824))
      (description "Positive 1.5A 35V Linear Regulator, Fixed Output 5V, TO-220/TO-263/TO-252")
      (docs http://www.st.com/content/ccc/resource/technical/document/datasheet/41/4f/b3/b0/12/d4/47/88/CD00000444.pdf/files/CD00000444.pdf/jcr:content/translations/en.CD00000444.pdf)
      (footprints
        (fp TO?252*)
        (fp TO?263*)
        (fp TO?220*))
      (fields
        (field (name Reference) U)
        (field (name Value) L7805))
      (pins
        (pin (num 1) (name IN) (type power_in))
        (pin (num 2) (name GND) (type power_in))
        (pin (num 3) (name OUT) (type power_out))))
    (libpart (lib Switch) (part SW_DPDT_x2)
      (description "Switch, dual pole double throw, separate symbols")
      (docs ~)
      (footprints
        (fp SW*DPDT*))
      (fields
        (field (name Reference) SW)
        (field (name Value) SW_DPDT_x2))
      (pins
        (pin (num 1) (name A) (type passive))
        (pin (num 2) (name B) (type passive))
        (pin (num 3) (name C) (type passive))
        (pin (num 4) (name A) (type passive))
        (pin (num 5) (name B) (type passive))
        (pin (num 6) (name C) (type passive))))
    (libpart (lib Switch) (part SW_Push)
      (description "Push button switch, generic, two pins")
      (docs ~)
      (fields
        (field (name Reference) SW)
        (field (name Value) SW_Push))
      (pins
        (pin (num 1) (name 1) (type passive))
        (pin (num 2) (name 2) (type passive))))
    (libpart (lib atmega8515-pdip) (part ATmega8515L-8PU)
      (aliases
        (alias ATmega8515-16PU))
      (description "8MHz, 8kB Flash, 512B SRAM, 512B EEPROM, DIP-40")
      (docs http://ww1.microchip.com/downloads/en/DeviceDoc/doc2512.pdf)
      (footprints
        (fp DIP*W15.24mm*))
      (fields
        (field (name Reference) DD)
        (field (name Value) ATmega8515L-8PU)
        (field (name Footprint) Package_DIP:DIP-40_W15.24mm))
      (pins
        (pin (num 1) (name PB0) (type 3state))
        (pin (num 2) (name PB1) (type 3state))
        (pin (num 3) (name PB2) (type 3state))
        (pin (num 4) (name PB3) (type 3state))
        (pin (num 5) (name PB4) (type 3state))
        (pin (num 6) (name PB5) (type 3state))
        (pin (num 7) (name PB6) (type 3state))
        (pin (num 8) (name PB7) (type 3state))
        (pin (num 9) (name ~RESET) (type input))
        (pin (num 10) (name PD0) (type 3state))
        (pin (num 11) (name PD1) (type 3state))
        (pin (num 12) (name PD2) (type 3state))
        (pin (num 13) (name PD3) (type 3state))
        (pin (num 14) (name PD4) (type 3state))
        (pin (num 15) (name PD5) (type 3state))
        (pin (num 16) (name PD6) (type 3state))
        (pin (num 17) (name PD7) (type 3state))
        (pin (num 18) (name XTAL2) (type output))
        (pin (num 19) (name XTAL1) (type input))
        (pin (num 20) (name GND) (type power_in))
        (pin (num 21) (name PC0) (type 3state))
        (pin (num 22) (name PC1) (type 3state))
        (pin (num 23) (name PC2) (type 3state))
        (pin (num 24) (name PC3) (type 3state))
        (pin (num 25) (name PC4) (type 3state))
        (pin (num 26) (name PC5) (type 3state))
        (pin (num 27) (name PC6) (type 3state))
        (pin (num 28) (name PC7) (type 3state))
        (pin (num 29) (name PE2) (type 3state))
        (pin (num 30) (name PE1) (type 3state))
        (pin (num 31) (name PE0) (type 3state))
        (pin (num 32) (name PA7) (type 3state))
        (pin (num 33) (name PA6) (type 3state))
        (pin (num 34) (name PA5) (type 3state))
        (pin (num 35) (name PA4) (type 3state))
        (pin (num 36) (name PA3) (type 3state))
        (pin (num 37) (name PA2) (type 3state))
        (pin (num 38) (name PA1) (type 3state))
        (pin (num 39) (name PA0) (type 3state))
        (pin (num 40) (name VCC) (type power_in))))
    (libpart (lib power_upd) (part pwr)
      (fields
        (field (name Reference) XP)
        (field (name Value) pwr)
        (field (name Footprint) Connector:Banana_Jack_2Pin))
      (pins
        (pin (num GND) (name 2) (type passive))
        (pin (num VCC) (name 1) (type power_out))))
    (libpart (lib tables) (part SPI-XP)
      (fields
        (field (name Reference) XP)
        (field (name Value) SPI-XP))
      (pins
        (pin (num GND) (name 6) (type passive))
        (pin (num MISO) (name 2) (type passive))
        (pin (num MOSI) (name 4) (type passive))
        (pin (num Reset) (name 5) (type passive))
        (pin (num SCK) (name 3) (type passive))
        (pin (num VCC) (name 1) (type power_in))))
    (libpart (lib test-rescue) (part table3-tables)
      (fields
        (field (name Reference) XP)
        (field (name Value) table3-tables))
      (pins
        (pin (num CTS) (name 8) (type passive))
        (pin (num DCD) (name 1) (type passive))
        (pin (num DSR) (name 6) (type passive))
        (pin (num DTR) (name 4) (type passive))
        (pin (num RI) (name 9) (type passive))
        (pin (num RTS) (name 7) (type passive))
        (pin (num RxD) (name 2) (type passive))
        (pin (num SG) (name 5) (type passive))
        (pin (num TxD) (name 3) (type passive)))))
  (libraries
    (library (logical Device)
      (uri "/Library/Application Support/kicad/library/Device.lib"))
    (library (logical Display_Character)
      (uri "/Library/Application Support/kicad/library/Display_Character.lib"))
    (library (logical Interface_UART)
      (uri "/Library/Application Support/kicad/library/Interface_UART.lib"))
    (library (logical Regulator_Linear)
      (uri "/Library/Application Support/kicad/library/Regulator_Linear.lib"))
    (library (logical Switch)
      (uri "/Library/Application Support/kicad/library/Switch.lib"))
    (library (logical atmega8515-pdip)
      (uri /Users/edobryanskaya/Desktop/principal/libs/MCU_Microchip_ATmega.lib))
    (library (logical power_upd)
      (uri /Users/edobryanskaya/Documents/GitHub/labs_kicad/Dobryanskaya/power_upd.lib))
    (library (logical tables)
      (uri /Users/edobryanskaya/Documents/GitHub/labs_kicad/Dobryanskaya/libs/BC56-12EWA.lib))
    (library (logical test-rescue)
      (uri /Users/edobryanskaya/Documents/GitHub/labs_kicad/Dobryanskaya/test-rescue.lib)))
  (nets
    (net (code 1) (name "Net-(XP3-PadDCD)")
      (node (ref XP3) (pin DCD)))
    (net (code 2) (name "Net-(XP3-PadDSR)")
      (node (ref XP3) (pin DSR)))
    (net (code 3) (name "Net-(XP3-PadDTR)")
      (node (ref XP3) (pin DTR)))
    (net (code 4) (name "Net-(XP3-PadRI)")
      (node (ref XP3) (pin RI)))
    (net (code 5) (name "Net-(XP3-PadCTS)")
      (node (ref XP3) (pin RTS))
      (node (ref XP3) (pin CTS)))
    (net (code 6) (name /digit1)
      (node (ref DD1) (pin 22))
      (node (ref HG1) (pin 9)))
    (net (code 7) (name /digit0)
      (node (ref DD1) (pin 21))
      (node (ref HG1) (pin 12)))
    (net (code 8) (name /a)
      (node (ref R5) (pin 2))
      (node (ref DD1) (pin 39)))
    (net (code 9) (name /b)
      (node (ref DD1) (pin 38))
      (node (ref R6) (pin 2)))
    (net (code 10) (name /c)
      (node (ref R7) (pin 2))
      (node (ref DD1) (pin 37)))
    (net (code 11) (name /d)
      (node (ref DD1) (pin 36))
      (node (ref R8) (pin 2)))
    (net (code 12) (name /e)
      (node (ref R9) (pin 2))
      (node (ref DD1) (pin 35)))
    (net (code 13) (name /g)
      (node (ref R11) (pin 2))
      (node (ref DD1) (pin 33)))
    (net (code 14) (name /f)
      (node (ref R10) (pin 2))
      (node (ref DD1) (pin 34)))
    (net (code 15) (name /dp)
      (node (ref DD1) (pin 32))
      (node (ref R12) (pin 2)))
    (net (code 16) (name +5V)
      (node (ref DD2) (pin 16))
      (node (ref C8) (pin 1))
      (node (ref C3) (pin 1))
      (node (ref R1) (pin 1))
      (node (ref XP2) (pin VCC))
      (node (ref C2) (pin 1))
      (node (ref SW1) (pin 1))
      (node (ref U2) (pin 3))
      (node (ref DD1) (pin 40)))
    (net (code 17) (name /MISO)
      (node (ref DD1) (pin 4))
      (node (ref XP2) (pin MISO)))
    (net (code 18) (name /MOSI)
      (node (ref DD1) (pin 3))
      (node (ref XP2) (pin MOSI)))
    (net (code 19) (name /SCK)
      (node (ref XP2) (pin SCK))
      (node (ref DD1) (pin 5)))
    (net (code 20) (name /digit4)
      (node (ref HG2) (pin 12))
      (node (ref DD1) (pin 25)))
    (net (code 21) (name /digit7)
      (node (ref DD1) (pin 28))
      (node (ref HG2) (pin 6)))
    (net (code 22) (name "Net-(HG1-Pad7)")
      (node (ref HG1) (pin 7))
      (node (ref R6) (pin 1))
      (node (ref HG2) (pin 7)))
    (net (code 23) (name /digit6)
      (node (ref HG2) (pin 8))
      (node (ref DD1) (pin 27)))
    (net (code 24) (name /digit5)
      (node (ref DD1) (pin 26))
      (node (ref HG2) (pin 9)))
    (net (code 25) (name /digit2)
      (node (ref HG1) (pin 8))
      (node (ref DD1) (pin 23)))
    (net (code 26) (name /digit3)
      (node (ref HG1) (pin 6))
      (node (ref DD1) (pin 24)))
    (net (code 27) (name "Net-(DD1-Pad1)")
      (node (ref DD1) (pin 1)))
    (net (code 28) (name /INT0)
      (node (ref DD1) (pin 12))
      (node (ref R2) (pin 1)))
    (net (code 29) (name "Net-(DD1-Pad16)")
      (node (ref DD1) (pin 16)))
    (net (code 30) (name "Net-(DD1-Pad17)")
      (node (ref DD1) (pin 17)))
    (net (code 31) (name "Net-(C5-Pad1)")
      (node (ref DD1) (pin 18))
      (node (ref C5) (pin 1))
      (node (ref Y1) (pin 2)))
    (net (code 32) (name "Net-(C4-Pad1)")
      (node (ref C4) (pin 1))
      (node (ref DD1) (pin 19))
      (node (ref Y1) (pin 1)))
    (net (code 33) (name "Net-(DD1-Pad2)")
      (node (ref DD1) (pin 2)))
    (net (code 34) (name "Net-(DD1-Pad29)")
      (node (ref DD1) (pin 29)))
    (net (code 35) (name "Net-(DD1-Pad30)")
      (node (ref DD1) (pin 30)))
    (net (code 36) (name "Net-(DD1-Pad6)")
      (node (ref DD1) (pin 6)))
    (net (code 37) (name "Net-(DD1-Pad7)")
      (node (ref DD1) (pin 7)))
    (net (code 38) (name "Net-(DD1-Pad8)")
      (node (ref DD1) (pin 8)))
    (net (code 39) (name "Net-(DD1-Pad9)")
      (node (ref SW5) (pin 2))
      (node (ref DD1) (pin 9))
      (node (ref R1) (pin 2))
      (node (ref XP2) (pin Reset)))
    (net (code 40) (name /XCK)
      (node (ref DD1) (pin 14))
      (node (ref SW1) (pin 2)))
    (net (code 41) (name "Net-(R3-Pad1)")
      (node (ref R3) (pin 1))
      (node (ref SW2) (pin 2)))
    (net (code 42) (name "Net-(DD1-Pad31)")
      (node (ref R3) (pin 2))
      (node (ref DD1) (pin 31)))
    (net (code 43) (name /OC1A)
      (node (ref LS1) (pin 1))
      (node (ref DD1) (pin 15)))
    (net (code 44) (name "Net-(C6-Pad2)")
      (node (ref C6) (pin 2))
      (node (ref DD2) (pin 3)))
    (net (code 45) (name "Net-(C6-Pad1)")
      (node (ref C6) (pin 1))
      (node (ref DD2) (pin 1)))
    (net (code 46) (name "Net-(C7-Pad2)")
      (node (ref DD2) (pin 5))
      (node (ref C7) (pin 2)))
    (net (code 47) (name "Net-(C7-Pad1)")
      (node (ref C7) (pin 1))
      (node (ref DD2) (pin 4)))
    (net (code 48) (name /TX)
      (node (ref DD2) (pin 10))
      (node (ref DD1) (pin 11)))
    (net (code 49) (name "Net-(DD2-Pad11)")
      (node (ref DD2) (pin 11)))
    (net (code 50) (name "Net-(DD2-Pad12)")
      (node (ref DD2) (pin 12)))
    (net (code 51) (name "Net-(DD2-Pad13)")
      (node (ref DD2) (pin 13)))
    (net (code 52) (name "Net-(DD2-Pad14)")
      (node (ref DD2) (pin 14)))
    (net (code 53) (name "Net-(C8-Pad2)")
      (node (ref DD2) (pin 2))
      (node (ref C8) (pin 2)))
    (net (code 54) (name /RX)
      (node (ref DD2) (pin 9))
      (node (ref DD1) (pin 10)))
    (net (code 55) (name "Net-(C9-Pad2)")
      (node (ref DD2) (pin 6))
      (node (ref C9) (pin 2)))
    (net (code 56) (name GND)
      (node (ref LS1) (pin 2))
      (node (ref C1) (pin 2))
      (node (ref C3) (pin 2))
      (node (ref XP2) (pin GND))
      (node (ref SW2) (pin 1))
      (node (ref C2) (pin 2))
      (node (ref U2) (pin 2))
      (node (ref SW1) (pin 3))
      (node (ref DD2) (pin 15))
      (node (ref C5) (pin 2))
      (node (ref C9) (pin 1))
      (node (ref C11) (pin 2))
      (node (ref C10) (pin 2))
      (node (ref C4) (pin 2))
      (node (ref SW5) (pin 1))
      (node (ref DD1) (pin 20))
      (node (ref SW3) (pin 1))
      (node (ref XP1) (pin GND))
      (node (ref SW4) (pin 1))
      (node (ref XP3) (pin SG)))
    (net (code 57) (name "Net-(C1-Pad1)")
      (node (ref C1) (pin 1))
      (node (ref XP1) (pin VCC))
      (node (ref U2) (pin 1)))
    (net (code 58) (name "Net-(R2-Pad2)")
      (node (ref R2) (pin 2))
      (node (ref SW3) (pin 2)))
    (net (code 59) (name /INT1)
      (node (ref R4) (pin 1))
      (node (ref DD1) (pin 13)))
    (net (code 60) (name "Net-(R4-Pad2)")
      (node (ref R4) (pin 2))
      (node (ref SW4) (pin 2)))
    (net (code 61) (name "Net-(HG1-Pad11)")
      (node (ref R5) (pin 1))
      (node (ref HG2) (pin 11))
      (node (ref HG1) (pin 11)))
    (net (code 62) (name "Net-(HG1-Pad4)")
      (node (ref R7) (pin 1))
      (node (ref HG2) (pin 4))
      (node (ref HG1) (pin 4)))
    (net (code 63) (name "Net-(HG1-Pad2)")
      (node (ref R8) (pin 1))
      (node (ref HG1) (pin 2))
      (node (ref HG2) (pin 2)))
    (net (code 64) (name "Net-(HG1-Pad1)")
      (node (ref HG1) (pin 1))
      (node (ref HG2) (pin 1))
      (node (ref R9) (pin 1)))
    (net (code 65) (name "Net-(HG1-Pad10)")
      (node (ref HG1) (pin 10))
      (node (ref R10) (pin 1))
      (node (ref HG2) (pin 10)))
    (net (code 66) (name "Net-(HG1-Pad5)")
      (node (ref R11) (pin 1))
      (node (ref HG1) (pin 5))
      (node (ref HG2) (pin 5)))
    (net (code 67) (name "Net-(HG1-Pad3)")
      (node (ref R12) (pin 1))
      (node (ref HG1) (pin 3))
      (node (ref HG2) (pin 3)))
    (net (code 68) (name "Net-(DD2-Pad7)")
      (node (ref R13) (pin 2))
      (node (ref DD2) (pin 7)))
    (net (code 69) (name "Net-(DD2-Pad8)")
      (node (ref R14) (pin 2))
      (node (ref DD2) (pin 8)))
    (net (code 70) (name "Net-(C10-Pad1)")
      (node (ref XP3) (pin RxD))
      (node (ref C10) (pin 1))
      (node (ref R13) (pin 1)))
    (net (code 71) (name "Net-(C11-Pad1)")
      (node (ref C11) (pin 1))
      (node (ref XP3) (pin TxD))
      (node (ref R14) (pin 1)))))