EESchema Schematic File Version 4
LIBS:_autosave-lab1-cache
EELAYER 30 0
EELAYER END
$Descr A3 16535 11693
encoding utf-8
Sheet 1 1
Title "Схема электрическая принципиальная"
Date ""
Rev ""
Comp "МГТУ им. Н.Э.Баумана Группа ИУ6-71Б"
Comment1 "Электронные часы-календарь"
Comment2 "Головнёв К.А."
Comment3 ""
Comment4 ""
$EndDescr
$Comp
L power:Earth #PWR013
U 1 1 5DD84A03
P 11450 8700
F 0 "#PWR013" H 11450 8450 50  0001 C CNN
F 1 "Earth" H 11450 8550 50  0001 C CNN
F 2 "" H 11450 8700 50  0001 C CNN
F 3 "~" H 11450 8700 50  0001 C CNN
	1    11450 8700
	1    0    0    -1  
$EndComp
Wire Wire Line
	11450 8550 11450 8700
$Comp
L Device:CP C6
U 1 1 5DD875D5
P 10350 6600
F 0 "C6" H 10468 6646 50  0000 L CNN
F 1 "1 u" H 10468 6555 50  0000 L CNN
F 2 "Capacitor_SMD:C_Elec_4x5.4" H 10388 6450 50  0001 C CNN
F 3 "~" H 10350 6600 50  0001 C CNN
	1    10350 6600
	1    0    0    -1  
$EndComp
$Comp
L Device:CP C7
U 1 1 5DD88A12
P 12650 6600
F 0 "C7" H 12768 6646 50  0000 L CNN
F 1 "1 u" H 12768 6555 50  0000 L CNN
F 2 "Capacitor_SMD:CP_Elec_3x5.4" H 12688 6450 50  0001 C CNN
F 3 "~" H 12650 6600 50  0001 C CNN
	1    12650 6600
	1    0    0    -1  
$EndComp
$Comp
L Device:CP C11
U 1 1 5DD89408
P 13300 6350
F 0 "C11" H 13418 6396 50  0000 L CNN
F 1 "1 u" H 13418 6305 50  0000 L CNN
F 2 "Capacitor_SMD:CP_Elec_3x5.4" H 13338 6200 50  0001 C CNN
F 3 "~" H 13300 6350 50  0001 C CNN
	1    13300 6350
	1    0    0    -1  
$EndComp
$Comp
L Device:CP C10
U 1 1 5DD8A4ED
P 13250 7100
F 0 "C10" H 13368 7146 50  0000 L CNN
F 1 "1 u" H 13368 7055 50  0000 L CNN
F 2 "Capacitor_SMD:CP_Elec_3x5.4" H 13288 6950 50  0001 C CNN
F 3 "~" H 13250 7100 50  0001 C CNN
	1    13250 7100
	1    0    0    -1  
$EndComp
Wire Wire Line
	12250 6450 12650 6450
Wire Wire Line
	12650 6750 12250 6750
Wire Wire Line
	10650 6450 10350 6450
Wire Wire Line
	10650 6750 10350 6750
Wire Wire Line
	12250 6950 12800 6950
Wire Wire Line
	12800 6950 12800 6800
Wire Wire Line
	12800 6800 13300 6800
Wire Wire Line
	13300 6800 13300 6500
Wire Wire Line
	13300 6200 13300 6100
Wire Wire Line
	12250 7250 12950 7250
Wire Wire Line
	12950 7250 12950 6850
Wire Wire Line
	12950 6850 13250 6850
Wire Wire Line
	13250 6850 13250 6950
$Comp
L power:Earth #PWR017
U 1 1 5DD95367
P 13250 7350
F 0 "#PWR017" H 13250 7100 50  0001 C CNN
F 1 "Earth" H 13250 7200 50  0001 C CNN
F 2 "" H 13250 7350 50  0001 C CNN
F 3 "~" H 13250 7350 50  0001 C CNN
	1    13250 7350
	1    0    0    -1  
$EndComp
Wire Wire Line
	13250 7250 13250 7350
$Comp
L Device:C C9
U 1 1 5DDB07DC
P 13100 8400
F 0 "C9" H 13215 8446 50  0000 L CNN
F 1 "1.2 n" H 13215 8355 50  0000 L CNN
F 2 "Capacitor_SMD:C_Elec_3x5.4" H 13138 8250 50  0001 C CNN
F 3 "~" H 13100 8400 50  0001 C CNN
	1    13100 8400
	1    0    0    -1  
$EndComp
$Comp
L Device:C C8
U 1 1 5DDB1099
P 12650 8400
F 0 "C8" H 12765 8446 50  0000 L CNN
F 1 "1.2 n" H 12765 8355 50  0000 L CNN
F 2 "Capacitor_SMD:C_Elec_3x5.4" H 12688 8250 50  0001 C CNN
F 3 "~" H 12650 8400 50  0001 C CNN
	1    12650 8400
	1    0    0    -1  
$EndComp
$Comp
L Device:R R17
U 1 1 5DDB24C3
P 12600 7650
F 0 "R17" V 12393 7650 50  0000 C CNN
F 1 "470" V 12484 7650 50  0000 C CNN
F 2 "Resistor_THT:R_Axial_DIN0516_L15.5mm_D5.0mm_P30.48mm_Horizontal" V 12530 7650 50  0001 C CNN
F 3 "~" H 12600 7650 50  0001 C CNN
	1    12600 7650
	0    1    1    0   
$EndComp
$Comp
L Device:R R18
U 1 1 5DDB2E05
P 12600 8050
F 0 "R18" V 12393 8050 50  0000 C CNN
F 1 "470" V 12484 8050 50  0000 C CNN
F 2 "Resistor_THT:R_Axial_DIN0516_L15.5mm_D5.0mm_P30.48mm_Horizontal" V 12530 8050 50  0001 C CNN
F 3 "~" H 12600 8050 50  0001 C CNN
	1    12600 8050
	0    1    1    0   
$EndComp
Wire Wire Line
	12450 7650 12250 7650
Wire Wire Line
	13700 7650 13700 7700
Wire Wire Line
	12750 7650 12900 7650
Wire Wire Line
	12450 8050 12250 8050
Wire Wire Line
	12750 8050 13100 8050
Wire Wire Line
	12650 8250 12650 8200
Wire Wire Line
	12650 8200 12900 8200
Wire Wire Line
	12900 8200 12900 7650
Connection ~ 12900 7650
Wire Wire Line
	13100 8250 13100 8050
Connection ~ 13100 8050
$Comp
L power:Earth #PWR015
U 1 1 5DDC44F2
P 12650 8700
F 0 "#PWR015" H 12650 8450 50  0001 C CNN
F 1 "Earth" H 12650 8550 50  0001 C CNN
F 2 "" H 12650 8700 50  0001 C CNN
F 3 "~" H 12650 8700 50  0001 C CNN
	1    12650 8700
	1    0    0    -1  
$EndComp
$Comp
L power:Earth #PWR016
U 1 1 5DDC4DC9
P 13100 8700
F 0 "#PWR016" H 13100 8450 50  0001 C CNN
F 1 "Earth" H 13100 8550 50  0001 C CNN
F 2 "" H 13100 8700 50  0001 C CNN
F 3 "~" H 13100 8700 50  0001 C CNN
	1    13100 8700
	1    0    0    -1  
$EndComp
Wire Wire Line
	12650 8700 12650 8550
Wire Wire Line
	13100 8550 13100 8700
Wire Wire Line
	3750 2550 3400 2550
Wire Wire Line
	3400 2550 3400 3000
Wire Wire Line
	3750 3000 3400 3000
Connection ~ 3400 3000
Wire Wire Line
	3400 3000 3400 3450
Wire Wire Line
	3750 3450 3400 3450
Connection ~ 3400 3450
Wire Wire Line
	3400 3450 3400 3950
Wire Wire Line
	3750 3950 3400 3950
Connection ~ 3400 3950
Wire Wire Line
	3400 3950 3400 4400
Wire Wire Line
	3750 4400 3400 4400
Connection ~ 3400 4400
Wire Wire Line
	3400 4400 3400 4800
Wire Wire Line
	3750 4800 3400 4800
$Comp
L Device:R R1
U 1 1 5DEE3953
P 4800 2550
F 0 "R1" V 4593 2550 50  0000 C CNN
F 1 "1 k" V 4684 2550 50  0000 C CNN
F 2 "Resistor_THT:R_Axial_DIN0516_L15.5mm_D5.0mm_P30.48mm_Horizontal" V 4730 2550 50  0001 C CNN
F 3 "~" H 4800 2550 50  0001 C CNN
	1    4800 2550
	0    1    1    0   
$EndComp
$Comp
L Device:R R2
U 1 1 5DEEA2DB
P 4800 3000
F 0 "R2" V 4593 3000 50  0000 C CNN
F 1 "1 k" V 4684 3000 50  0000 C CNN
F 2 "Resistor_THT:R_Axial_DIN0516_L15.5mm_D5.0mm_P30.48mm_Horizontal" V 4730 3000 50  0001 C CNN
F 3 "~" H 4800 3000 50  0001 C CNN
	1    4800 3000
	0    1    1    0   
$EndComp
$Comp
L Device:R R3
U 1 1 5DEEA711
P 4800 3450
F 0 "R3" V 4593 3450 50  0000 C CNN
F 1 "1 k" V 4684 3450 50  0000 C CNN
F 2 "Resistor_THT:R_Axial_DIN0516_L15.5mm_D5.0mm_P30.48mm_Horizontal" V 4730 3450 50  0001 C CNN
F 3 "~" H 4800 3450 50  0001 C CNN
	1    4800 3450
	0    1    1    0   
$EndComp
$Comp
L Device:R R4
U 1 1 5DEEAB8F
P 4800 3950
F 0 "R4" V 4593 3950 50  0000 C CNN
F 1 "1 k" V 4684 3950 50  0000 C CNN
F 2 "Resistor_THT:R_Axial_DIN0516_L15.5mm_D5.0mm_P30.48mm_Horizontal" V 4730 3950 50  0001 C CNN
F 3 "~" H 4800 3950 50  0001 C CNN
	1    4800 3950
	0    1    1    0   
$EndComp
$Comp
L Device:R R5
U 1 1 5DEEB207
P 4800 4400
F 0 "R5" V 4593 4400 50  0000 C CNN
F 1 "1 k" V 4684 4400 50  0000 C CNN
F 2 "Resistor_THT:R_Axial_DIN0516_L15.5mm_D5.0mm_P30.48mm_Horizontal" V 4730 4400 50  0001 C CNN
F 3 "~" H 4800 4400 50  0001 C CNN
	1    4800 4400
	0    1    1    0   
$EndComp
$Comp
L Device:R R6
U 1 1 5DEEB595
P 4800 4800
F 0 "R6" V 4593 4800 50  0000 C CNN
F 1 "1 k" V 4684 4800 50  0000 C CNN
F 2 "Resistor_THT:R_Axial_DIN0516_L15.5mm_D5.0mm_P30.48mm_Horizontal" V 4730 4800 50  0001 C CNN
F 3 "~" H 4800 4800 50  0001 C CNN
	1    4800 4800
	0    1    1    0   
$EndComp
Wire Wire Line
	4650 4800 4150 4800
Wire Wire Line
	4150 4400 4650 4400
Wire Wire Line
	4650 3950 4150 3950
Wire Wire Line
	4150 3450 4650 3450
Wire Wire Line
	4150 3000 4650 3000
Wire Wire Line
	4150 2550 4650 2550
Entry Wire Line
	5600 2550 5700 2650
Wire Wire Line
	5600 2550 4950 2550
Entry Wire Line
	5600 3000 5700 3100
Wire Wire Line
	5600 3000 4950 3000
Entry Wire Line
	5600 3450 5700 3550
Wire Wire Line
	5600 3450 4950 3450
Entry Wire Line
	5600 3950 5700 4050
Wire Wire Line
	5600 3950 4950 3950
Entry Wire Line
	5600 4400 5700 4500
Wire Wire Line
	5600 4400 4950 4400
Entry Wire Line
	5600 4800 5700 4900
Wire Wire Line
	5600 4800 4950 4800
Text Label 5500 3000 0    50   ~ 0
d3
Text Label 5500 3450 0    50   ~ 0
d4
Text Label 5500 3950 0    50   ~ 0
d5
Text Label 5500 4800 0    50   ~ 0
d7
NoConn ~ 12250 7450
NoConn ~ 12250 7850
NoConn ~ 10650 7850
NoConn ~ 10650 7450
Text Label 7950 7650 0    50   ~ 0
Tx0
Wire Wire Line
	13100 8050 13700 8050
Wire Wire Line
	12900 7650 13700 7650
Wire Wire Line
	11700 6100 11700 6150
Connection ~ 11700 6100
Wire Wire Line
	13300 6100 11700 6100
Wire Wire Line
	11700 6150 11450 6150
Wire Wire Line
	11700 6050 11700 6100
$Comp
L power:+5V #PWR014
U 1 1 5DD85D51
P 11700 6050
F 0 "#PWR014" H 11700 5900 50  0001 C CNN
F 1 "+5V" H 11715 6223 50  0000 C CNN
F 2 "" H 11700 6050 50  0001 C CNN
F 3 "" H 11700 6050 50  0001 C CNN
	1    11700 6050
	1    0    0    -1  
$EndComp
Wire Wire Line
	3100 9700 3300 9700
Connection ~ 3100 9700
Wire Wire Line
	3100 9150 3300 9150
Connection ~ 3100 9150
Wire Wire Line
	3100 9150 3100 9700
Wire Wire Line
	2950 9150 3100 9150
Connection ~ 3300 9150
$Comp
L Device:CP C4
U 1 1 5DD5B013
P 5100 9450
F 0 "C4" H 5218 9496 50  0000 L CNN
F 1 "1 u" H 5218 9405 50  0000 L CNN
F 2 "Capacitor_SMD:CP_Elec_3x5.3" H 5138 9300 50  0001 C CNN
F 3 "~" H 5100 9450 50  0001 C CNN
	1    5100 9450
	1    0    0    -1  
$EndComp
$Comp
L Device:CP C2
U 1 1 5DD5A843
P 4600 9450
F 0 "C2" H 4718 9496 50  0000 L CNN
F 1 "10 u" H 4718 9405 50  0000 L CNN
F 2 "Capacitor_SMD:CP_Elec_3x5.4" H 4638 9300 50  0001 C CNN
F 3 "~" H 4600 9450 50  0001 C CNN
	1    4600 9450
	1    0    0    -1  
$EndComp
$Comp
L Device:CP C1
U 1 1 5DD598A2
P 3300 9400
F 0 "C1" H 3418 9446 50  0000 L CNN
F 1 "100 u" H 3418 9355 50  0000 L CNN
F 2 "Capacitor_SMD:CP_Elec_5x4.4" H 3338 9250 50  0001 C CNN
F 3 "~" H 3300 9400 50  0001 C CNN
	1    3300 9400
	1    0    0    -1  
$EndComp
Connection ~ 5100 9150
Wire Wire Line
	5100 8900 5100 9150
$Comp
L power:+5V #PWR05
U 1 1 5DD58EEC
P 5100 8900
F 0 "#PWR05" H 5100 8750 50  0001 C CNN
F 1 "+5V" H 5115 9073 50  0000 C CNN
F 2 "" H 5100 8900 50  0001 C CNN
F 3 "" H 5100 8900 50  0001 C CNN
	1    5100 8900
	1    0    0    -1  
$EndComp
Connection ~ 4600 9700
Wire Wire Line
	5100 9700 4600 9700
Wire Wire Line
	5100 9600 5100 9700
Connection ~ 4600 9150
Wire Wire Line
	5100 9150 4600 9150
Wire Wire Line
	5100 9300 5100 9150
Wire Wire Line
	4600 9700 4100 9700
Wire Wire Line
	4600 9600 4600 9700
Wire Wire Line
	4600 9150 4600 9300
Wire Wire Line
	4400 9150 4600 9150
Connection ~ 4100 9700
Wire Wire Line
	4100 9800 4100 9700
$Comp
L power:Earth #PWR03
U 1 1 5DD56A07
P 4100 9800
F 0 "#PWR03" H 4100 9550 50  0001 C CNN
F 1 "Earth" H 4100 9650 50  0001 C CNN
F 2 "" H 4100 9800 50  0001 C CNN
F 3 "~" H 4100 9800 50  0001 C CNN
	1    4100 9800
	1    0    0    -1  
$EndComp
Connection ~ 3300 9700
Wire Wire Line
	4100 9700 3300 9700
Wire Wire Line
	4100 9450 4100 9700
Wire Wire Line
	3800 9150 3300 9150
$Comp
L Regulator_Linear:LM7805_TO220 D1
U 1 1 5DD54E4A
P 4100 9150
F 0 "D1" H 4100 9392 50  0000 C CNN
F 1 "LM7805_TO220" H 4100 9301 50  0000 C CNN
F 2 "Package_TO_SOT_THT:TO-220-3_Vertical" H 4100 9375 50  0001 C CIN
F 3 "http://www.fairchildsemi.com/ds/LM/LM7805.pdf" H 4100 9100 50  0001 C CNN
	1    4100 9150
	1    0    0    -1  
$EndComp
Wire Wire Line
	3300 9700 3300 9550
Wire Wire Line
	2950 9700 3100 9700
Wire Wire Line
	2950 9500 2950 9700
Wire Wire Line
	3300 9150 3300 9250
Wire Wire Line
	2950 9350 2950 9150
$Comp
L Switch:SW_Push SW6
U 1 1 5DEA8B53
P 3950 4800
F 0 "SW6" H 3950 5085 50  0000 C CNN
F 1 "\"День недели\"" H 3950 4994 50  0000 C CNN
F 2 "Button_Switch_SMD:SW_SPST_B3U-1000P-B" H 3950 5000 50  0001 C CNN
F 3 "~" H 3950 5000 50  0001 C CNN
	1    3950 4800
	1    0    0    -1  
$EndComp
$Comp
L Switch:SW_Push SW5
U 1 1 5DEA878D
P 3950 4400
F 0 "SW5" H 3950 4685 50  0000 C CNN
F 1 "\"Год\"" H 3950 4594 50  0000 C CNN
F 2 "Button_Switch_SMD:SW_SPST_B3U-1000P-B" H 3950 4600 50  0001 C CNN
F 3 "~" H 3950 4600 50  0001 C CNN
	1    3950 4400
	1    0    0    -1  
$EndComp
$Comp
L Switch:SW_Push SW3
U 1 1 5DEA7B72
P 3950 3450
F 0 "SW3" H 3950 3735 50  0000 C CNN
F 1 "\"Число\"" H 3950 3644 50  0000 C CNN
F 2 "Button_Switch_SMD:SW_SPST_B3U-1000P-B" H 3950 3650 50  0001 C CNN
F 3 "~" H 3950 3650 50  0001 C CNN
	1    3950 3450
	1    0    0    -1  
$EndComp
$Comp
L Switch:SW_Push SW4
U 1 1 5DEA830E
P 3950 3950
F 0 "SW4" H 3950 4235 50  0000 C CNN
F 1 "\"Месяц\"" H 3950 4144 50  0000 C CNN
F 2 "Button_Switch_SMD:SW_SPST_B3U-1000P-B" H 3950 4150 50  0001 C CNN
F 3 "~" H 3950 4150 50  0001 C CNN
	1    3950 3950
	1    0    0    -1  
$EndComp
$Comp
L Switch:SW_Push SW2
U 1 1 5DEA7345
P 3950 3000
F 0 "SW2" H 3950 3285 50  0000 C CNN
F 1 "\"Часы\"" H 3950 3194 50  0000 C CNN
F 2 "Button_Switch_SMD:SW_SPST_B3U-1000P-B" H 3950 3200 50  0001 C CNN
F 3 "~" H 3950 3200 50  0001 C CNN
	1    3950 3000
	1    0    0    -1  
$EndComp
$Comp
L Switch:SW_Push SW1
U 1 1 5DEA6633
P 3950 2550
F 0 "SW1" H 3950 2835 50  0000 C CNN
F 1 "\"Минуты\"" H 3950 2744 50  0000 C CNN
F 2 "Button_Switch_SMD:SW_SPST_B3U-1000P-B" H 3950 2750 50  0001 C CNN
F 3 "~" H 3950 2750 50  0001 C CNN
	1    3950 2550
	1    0    0    -1  
$EndComp
$Comp
L Timer_RTC:DS3231M DD3
U 1 1 5DE983FF
P 4450 5850
F 0 "DD3" H 4450 5269 50  0000 C CNN
F 1 "DS3231M" H 4450 5360 50  0000 C CNN
F 2 "Package_SO:SOIC-16W_7.5x10.3mm_P1.27mm" H 4450 5250 50  0001 C CNN
F 3 "http://datasheets.maximintegrated.com/en/ds/DS3231.pdf" H 4720 5900 50  0001 C CNN
	1    4450 5850
	-1   0    0    1   
$EndComp
$Comp
L Device:R R7
U 1 1 5DECB55D
P 7350 1750
F 0 "R7" V 7143 1750 50  0000 C CNN
F 1 "10 kOm" V 7234 1750 50  0000 C CNN
F 2 "Resistor_THT:R_Axial_DIN0614_L14.3mm_D5.7mm_P7.62mm_Vertical" V 7280 1750 50  0001 C CNN
F 3 "~" H 7350 1750 50  0001 C CNN
	1    7350 1750
	1    0    0    -1  
$EndComp
$Comp
L Switch:SW_Push SW7
U 1 1 5DECB569
P 6750 1900
F 0 "SW7" H 6750 2185 50  0000 C CNN
F 1 "\"RESET\"" H 6750 2094 50  0000 C CNN
F 2 "Button_Switch_SMD:SW_SPST_B3U-1000P-B" H 6750 2100 50  0001 C CNN
F 3 "~" H 6750 2100 50  0001 C CNN
	1    6750 1900
	1    0    0    -1  
$EndComp
Wire Wire Line
	6950 1900 7350 1900
$Comp
L power:+5V #PWR0101
U 1 1 5DF145A1
P 7350 1500
F 0 "#PWR0101" H 7350 1350 50  0001 C CNN
F 1 "+5V" H 7365 1673 50  0000 C CNN
F 2 "" H 7350 1500 50  0001 C CNN
F 3 "" H 7350 1500 50  0001 C CNN
	1    7350 1500
	1    0    0    -1  
$EndComp
Wire Wire Line
	7350 1500 7350 1600
$Comp
L MCU_Microchip_ATmega:ATmega328P-PU DD1
U 1 1 5DF1E97A
P 6900 3850
F 0 "DD1" H 6256 3896 50  0000 R CNN
F 1 "ATmega328P-PU" H 6366 3805 50  0000 R CNN
F 2 "Package_DIP:DIP-28_W7.62mm" H 6900 3850 50  0001 C CIN
F 3 "http://ww1.microchip.com/downloads/en/DeviceDoc/ATmega328_P%20AVR%20MCU%20with%20picoPower%20Technology%20Data%20Sheet%2040001984A.pdf" H 6900 3850 50  0001 C CNN
	1    6900 3850
	1    0    0    -1  
$EndComp
Entry Wire Line
	5600 5950 5700 6050
Entry Wire Line
	5600 6050 5700 6150
Wire Wire Line
	4950 5950 5600 5950
Wire Wire Line
	4950 6050 5600 6050
$Comp
L power:+5V #PWR0102
U 1 1 5DFD9BCA
P 4450 6350
F 0 "#PWR0102" H 4450 6200 50  0001 C CNN
F 1 "+5V" H 4465 6523 50  0000 C CNN
F 2 "" H 4450 6350 50  0001 C CNN
F 3 "" H 4450 6350 50  0001 C CNN
	1    4450 6350
	1    0    0    1   
$EndComp
Wire Wire Line
	4450 6350 4450 6250
$Comp
L power:+5V #PWR0103
U 1 1 5DFEBB4F
P 4550 6350
F 0 "#PWR0103" H 4550 6200 50  0001 C CNN
F 1 "+5V" H 4565 6523 50  0000 C CNN
F 2 "" H 4550 6350 50  0001 C CNN
F 3 "" H 4550 6350 50  0001 C CNN
	1    4550 6350
	1    0    0    1   
$EndComp
Wire Wire Line
	4550 6350 4550 6250
$Comp
L power:Earth #PWR0104
U 1 1 5E00727B
P 3400 4950
F 0 "#PWR0104" H 3400 4700 50  0001 C CNN
F 1 "Earth" H 3400 4800 50  0001 C CNN
F 2 "" H 3400 4950 50  0001 C CNN
F 3 "~" H 3400 4950 50  0001 C CNN
	1    3400 4950
	1    0    0    -1  
$EndComp
Wire Wire Line
	3400 4800 3400 4950
Connection ~ 3400 4800
$Comp
L power:Earth #PWR0105
U 1 1 5E01FF11
P 4450 5300
F 0 "#PWR0105" H 4450 5050 50  0001 C CNN
F 1 "Earth" H 4450 5150 50  0001 C CNN
F 2 "" H 4450 5300 50  0001 C CNN
F 3 "~" H 4450 5300 50  0001 C CNN
	1    4450 5300
	-1   0    0    1   
$EndComp
Wire Wire Line
	4450 5450 4450 5300
NoConn ~ 3950 5750
NoConn ~ 3950 6050
Text Label 5450 6050 0    50   ~ 0
scl
Text Label 5400 5950 0    50   ~ 0
sda
$Comp
L Device:R R8
U 1 1 5E06B734
P 6050 6550
F 0 "R8" V 5843 6550 50  0000 C CNN
F 1 "1 k" V 5934 6550 50  0000 C CNN
F 2 "Resistor_THT:R_Axial_DIN0516_L15.5mm_D5.0mm_P30.48mm_Horizontal" V 5980 6550 50  0001 C CNN
F 3 "~" H 6050 6550 50  0001 C CNN
	1    6050 6550
	0    1    1    0   
$EndComp
$Comp
L Device:R R9
U 1 1 5E095144
P 6050 6900
F 0 "R9" V 5843 6900 50  0000 C CNN
F 1 "1 k" V 5934 6900 50  0000 C CNN
F 2 "Resistor_THT:R_Axial_DIN0516_L15.5mm_D5.0mm_P30.48mm_Horizontal" V 5980 6900 50  0001 C CNN
F 3 "~" H 6050 6900 50  0001 C CNN
	1    6050 6900
	0    1    1    0   
$EndComp
$Comp
L power:+5V #PWR0106
U 1 1 5E09D56C
P 6500 6300
F 0 "#PWR0106" H 6500 6150 50  0001 C CNN
F 1 "+5V" H 6515 6473 50  0000 C CNN
F 2 "" H 6500 6300 50  0001 C CNN
F 3 "" H 6500 6300 50  0001 C CNN
	1    6500 6300
	-1   0    0    -1  
$EndComp
Wire Wire Line
	6200 6550 6500 6550
Wire Wire Line
	6500 6300 6500 6550
Wire Wire Line
	6200 6900 6500 6900
Wire Wire Line
	6500 6900 6500 6550
Connection ~ 6500 6550
Entry Wire Line
	5700 6650 5800 6550
Entry Wire Line
	5700 7000 5800 6900
Wire Wire Line
	5900 6550 5800 6550
Wire Wire Line
	5900 6900 5800 6900
Text Label 5800 6550 0    50   ~ 0
scl
Text Label 5800 6900 0    50   ~ 0
sda
NoConn ~ 6300 2650
Wire Bus Line
	5700 1100 8900 1100
Entry Wire Line
	5700 2000 5800 1900
Text Label 5850 1900 0    50   ~ 0
reset
$Comp
L power:Earth #PWR0107
U 1 1 5E16D6FF
P 6900 5500
F 0 "#PWR0107" H 6900 5250 50  0001 C CNN
F 1 "Earth" H 6900 5350 50  0001 C CNN
F 2 "" H 6900 5500 50  0001 C CNN
F 3 "~" H 6900 5500 50  0001 C CNN
	1    6900 5500
	1    0    0    -1  
$EndComp
Wire Wire Line
	6900 5350 6900 5500
$Comp
L power:+5V #PWR0108
U 1 1 5E188E55
P 6900 2250
F 0 "#PWR0108" H 6900 2100 50  0001 C CNN
F 1 "+5V" H 6915 2423 50  0000 C CNN
F 2 "" H 6900 2250 50  0001 C CNN
F 3 "" H 6900 2250 50  0001 C CNN
	1    6900 2250
	-1   0    0    -1  
$EndComp
Wire Wire Line
	6900 2250 6900 2350
NoConn ~ 7000 2350
$Comp
L Display_Character:CA56-12CGKWA HG1
U 1 1 5E1EB5D3
P 10900 1800
F 0 "HG1" H 10900 2467 50  0000 C CNN
F 1 "CA56-12CGKWA" H 10900 2376 50  0000 C CNN
F 2 "Display_7Segment:CA56-12CGKWA" H 10900 1200 50  0001 C CNN
F 3 "http://www.kingbright.com/attachments/file/psearch/000/00/00/CA56-12CGKWA(Ver.9A).pdf" H 10470 1830 50  0001 C CNN
	1    10900 1800
	1    0    0    -1  
$EndComp
NoConn ~ 9800 2200
$Comp
L Device:R R10
U 1 1 5E1F4142
P 9250 1500
F 0 "R10" V 9200 1300 50  0000 C CNN
F 1 "1 k" V 9134 1500 50  0001 C CNN
F 2 "Resistor_THT:R_Axial_DIN0516_L15.5mm_D5.0mm_P30.48mm_Horizontal" V 9180 1500 50  0001 C CNN
F 3 "~" H 9250 1500 50  0001 C CNN
	1    9250 1500
	0    1    1    0   
$EndComp
$Comp
L Device:R R11
U 1 1 5E2B97D6
P 9250 1600
F 0 "R11" V 9200 1400 50  0000 C CNN
F 1 "1 k" V 9134 1600 50  0001 C CNN
F 2 "Resistor_THT:R_Axial_DIN0516_L15.5mm_D5.0mm_P30.48mm_Horizontal" V 9180 1600 50  0001 C CNN
F 3 "~" H 9250 1600 50  0001 C CNN
	1    9250 1600
	0    1    1    0   
$EndComp
$Comp
L Device:R R12
U 1 1 5E2BA7BE
P 9250 1700
F 0 "R12" V 9200 1500 50  0000 C CNN
F 1 "1 k" V 9134 1700 50  0001 C CNN
F 2 "Resistor_THT:R_Axial_DIN0516_L15.5mm_D5.0mm_P30.48mm_Horizontal" V 9180 1700 50  0001 C CNN
F 3 "~" H 9250 1700 50  0001 C CNN
	1    9250 1700
	0    1    1    0   
$EndComp
$Comp
L Device:R R13
U 1 1 5E2C1A53
P 9250 1800
F 0 "R13" V 9200 1600 50  0000 C CNN
F 1 "1 k" V 9134 1800 50  0001 C CNN
F 2 "Resistor_THT:R_Axial_DIN0516_L15.5mm_D5.0mm_P30.48mm_Horizontal" V 9180 1800 50  0001 C CNN
F 3 "~" H 9250 1800 50  0001 C CNN
	1    9250 1800
	0    1    1    0   
$EndComp
$Comp
L Device:R R14
U 1 1 5E2C8DE4
P 9250 1900
F 0 "R14" V 9200 1700 50  0000 C CNN
F 1 "1 k" V 9134 1900 50  0001 C CNN
F 2 "Resistor_THT:R_Axial_DIN0516_L15.5mm_D5.0mm_P30.48mm_Horizontal" V 9180 1900 50  0001 C CNN
F 3 "~" H 9250 1900 50  0001 C CNN
	1    9250 1900
	0    1    1    0   
$EndComp
$Comp
L Device:R R15
U 1 1 5E2D004F
P 9250 2000
F 0 "R15" V 9200 1800 50  0000 C CNN
F 1 "1 k" V 9134 2000 50  0001 C CNN
F 2 "Resistor_THT:R_Axial_DIN0516_L15.5mm_D5.0mm_P30.48mm_Horizontal" V 9180 2000 50  0001 C CNN
F 3 "~" H 9250 2000 50  0001 C CNN
	1    9250 2000
	0    1    1    0   
$EndComp
$Comp
L Device:R R16
U 1 1 5E2D7212
P 9250 2100
F 0 "R16" V 9200 1900 50  0000 C CNN
F 1 "1 k" V 9134 2100 50  0001 C CNN
F 2 "Resistor_THT:R_Axial_DIN0516_L15.5mm_D5.0mm_P30.48mm_Horizontal" V 9180 2100 50  0001 C CNN
F 3 "~" H 9250 2100 50  0001 C CNN
	1    9250 2100
	0    1    1    0   
$EndComp
Entry Wire Line
	9600 1600 9700 1500
Entry Wire Line
	9600 1700 9700 1600
Entry Wire Line
	9600 1800 9700 1700
Entry Wire Line
	9600 1900 9700 1800
Entry Wire Line
	9600 2000 9700 1900
Entry Wire Line
	9600 2100 9700 2000
Entry Wire Line
	9600 2200 9700 2100
Wire Wire Line
	9700 1500 9800 1500
Wire Wire Line
	9800 1600 9700 1600
Wire Wire Line
	9700 1700 9800 1700
Wire Wire Line
	9700 1800 9800 1800
Wire Wire Line
	9700 1900 9800 1900
Wire Wire Line
	9700 2000 9800 2000
Wire Wire Line
	9700 2100 9800 2100
Entry Wire Line
	9500 1500 9600 1600
Entry Wire Line
	9500 1600 9600 1700
Entry Wire Line
	9500 1700 9600 1800
Entry Wire Line
	9500 1800 9600 1900
Entry Wire Line
	9500 1900 9600 2000
Entry Wire Line
	9500 2000 9600 2100
Entry Wire Line
	9500 2100 9600 2200
Wire Wire Line
	9400 1500 9500 1500
Wire Wire Line
	9500 1600 9400 1600
Wire Wire Line
	9400 1700 9500 1700
Wire Wire Line
	9500 1800 9400 1800
Wire Wire Line
	9500 1900 9400 1900
Wire Wire Line
	9500 2000 9400 2000
Wire Wire Line
	9500 2100 9400 2100
NoConn ~ 9800 3600
Wire Wire Line
	9700 3400 9800 3400
Wire Wire Line
	9700 3300 9800 3300
Wire Wire Line
	9700 3200 9800 3200
Wire Wire Line
	9700 3100 9800 3100
Wire Wire Line
	9800 3000 9700 3000
Wire Wire Line
	9700 2900 9800 2900
Wire Wire Line
	9800 2800 9700 2800
Entry Wire Line
	9600 2900 9700 2800
Entry Wire Line
	9600 3000 9700 2900
Entry Wire Line
	9600 3100 9700 3000
Entry Wire Line
	9600 3200 9700 3100
Entry Wire Line
	9600 3300 9700 3200
Entry Wire Line
	9600 3400 9700 3300
NoConn ~ 9800 3500
$Comp
L Display_Character:CA56-12CGKWA HG2
U 1 1 5E3F5250
P 10900 3100
F 0 "HG2" H 10900 3767 50  0000 C CNN
F 1 "CA56-12CGKWA" H 10900 3676 50  0000 C CNN
F 2 "Display_7Segment:CA56-12CGKWA" H 10900 2500 50  0001 C CNN
F 3 "http://www.kingbright.com/attachments/file/psearch/000/00/00/CA56-12CGKWA(Ver.9A).pdf" H 10470 3130 50  0001 C CNN
	1    10900 3100
	1    0    0    -1  
$EndComp
Entry Wire Line
	9600 3500 9700 3400
$Comp
L Transistor_Array:ULN2803A DD5
U 1 1 5E508FED
P 11600 4600
F 0 "DD5" H 11600 5167 50  0000 C CNN
F 1 "ULN2803A" H 11600 5076 50  0000 C CNN
F 2 "RF_GPS:ublox_MAX" H 11650 3950 50  0001 L CNN
F 3 "http://www.ti.com/lit/ds/symlink/uln2803a.pdf" H 11700 4400 50  0001 C CNN
	1    11600 4600
	1    0    0    -1  
$EndComp
NoConn ~ 12000 4300
Wire Wire Line
	12000 4400 12200 4400
Entry Wire Line
	12200 4400 12300 4500
Wire Wire Line
	12000 4500 12200 4500
Entry Wire Line
	12200 4500 12300 4600
Wire Wire Line
	12000 4600 12200 4600
Entry Wire Line
	12200 4600 12300 4700
Wire Wire Line
	12000 4700 12200 4700
Entry Wire Line
	12200 4700 12300 4800
Wire Wire Line
	12000 4800 12200 4800
Entry Wire Line
	12200 4800 12300 4900
Wire Wire Line
	12000 4900 12200 4900
Entry Wire Line
	12200 4900 12300 5000
Wire Wire Line
	12000 5000 12200 5000
Entry Wire Line
	12200 5000 12300 5100
Wire Wire Line
	12000 3500 12200 3500
Entry Wire Line
	12200 3500 12300 3600
Wire Wire Line
	12000 3400 12200 3400
Entry Wire Line
	12200 3400 12300 3500
Wire Wire Line
	12000 3300 12200 3300
Entry Wire Line
	12200 3300 12300 3400
Wire Wire Line
	12000 3200 12200 3200
Entry Wire Line
	12200 3200 12300 3300
Wire Wire Line
	12000 2200 12200 2200
Entry Wire Line
	12200 2200 12300 2300
Wire Wire Line
	12000 2100 12200 2100
Entry Wire Line
	12200 2100 12300 2200
Wire Wire Line
	12000 2000 12200 2000
Entry Wire Line
	12200 2000 12300 2100
Wire Wire Line
	12000 1900 12200 1900
Entry Wire Line
	12200 1900 12300 2000
Text Label 12200 1900 0    50   ~ 0
1
Text Label 12150 2000 0    50   ~ 0
2
Text Label 12150 2100 0    50   ~ 0
3
Text Label 12150 2200 0    50   ~ 0
4
Text Label 12150 3200 0    50   ~ 0
5
Text Label 12150 3300 0    50   ~ 0
6
Text Label 12150 3400 0    50   ~ 0
7
Text Label 12150 3500 0    50   ~ 0
8
Text Label 12150 4400 0    50   ~ 0
1
Text Label 12200 4500 0    50   ~ 0
2
Text Label 12150 4600 0    50   ~ 0
3
Text Label 12150 4700 0    50   ~ 0
4
Text Label 12150 4800 0    50   ~ 0
5
Text Label 12150 4900 0    50   ~ 0
6
Text Label 12150 5000 0    50   ~ 0
7
Wire Wire Line
	10550 4900 11200 4900
Wire Wire Line
	10550 5000 11200 5000
Wire Wire Line
	10550 4400 11200 4400
Wire Wire Line
	10550 4500 11200 4500
Wire Wire Line
	10550 4600 11200 4600
Wire Wire Line
	10550 4700 11200 4700
Wire Wire Line
	10550 4800 11200 4800
NoConn ~ 10650 4300
Wire Wire Line
	7500 3550 8250 3550
Wire Wire Line
	7500 3650 8250 3650
Wire Wire Line
	7500 3750 8250 3750
Wire Wire Line
	7500 3850 8250 3850
$Comp
L power:Earth #PWR0109
U 1 1 5E821337
P 11600 5450
F 0 "#PWR0109" H 11600 5200 50  0001 C CNN
F 1 "Earth" H 11600 5300 50  0001 C CNN
F 2 "" H 11600 5450 50  0001 C CNN
F 3 "~" H 11600 5450 50  0001 C CNN
	1    11600 5450
	1    0    0    -1  
$EndComp
Wire Wire Line
	11600 5300 11600 5450
Wire Wire Line
	9100 2000 9000 2000
Wire Wire Line
	9000 2100 9100 2100
$Comp
L Interface_UART:MAX232 DD7
U 1 1 5DD68D27
P 11450 7350
F 0 "DD7" H 11450 8731 50  0000 C CNN
F 1 "MAX232" H 11450 8640 50  0000 C CNN
F 2 "Transformer_SMD:Transformer_Ethernet_Bel_S558-5999-T7-F" H 11500 6300 50  0001 L CNN
F 3 "http://www.ti.com/lit/ds/symlink/max232.pdf" H 11450 7450 50  0001 C CNN
	1    11450 7350
	1    0    0    -1  
$EndComp
$Comp
L Switch:SW_Push SW8
U 1 1 5E93AABD
P 9250 3950
F 0 "SW8" H 9250 4235 50  0000 C CNN
F 1 "\"Выбор\"" H 9250 4144 50  0000 C CNN
F 2 "Button_Switch_SMD:SW_SPST_B3U-1000P-B" H 9250 4150 50  0001 C CNN
F 3 "~" H 9250 4150 50  0001 C CNN
	1    9250 3950
	1    0    0    -1  
$EndComp
Wire Wire Line
	9000 1900 9100 1900
Wire Wire Line
	9100 1800 9000 1800
Wire Wire Line
	9000 1700 9100 1700
Wire Wire Line
	9100 1600 9000 1600
Wire Wire Line
	9000 1500 9100 1500
Entry Wire Line
	8900 2200 9000 2100
Entry Wire Line
	8900 2100 9000 2000
Entry Wire Line
	8900 2000 9000 1900
Entry Wire Line
	8900 1900 9000 1800
Entry Wire Line
	8900 1800 9000 1700
Entry Wire Line
	8900 1700 9000 1600
Entry Wire Line
	8900 1600 9000 1500
Entry Wire Line
	8900 4050 9000 3950
Entry Wire Line
	8900 4050 9000 3950
Wire Wire Line
	9050 3950 9000 3950
$Comp
L power:Earth #PWR0111
U 1 1 5E9CEECB
P 9450 4100
F 0 "#PWR0111" H 9450 3850 50  0001 C CNN
F 1 "Earth" H 9450 3950 50  0001 C CNN
F 2 "" H 9450 4100 50  0001 C CNN
F 3 "~" H 9450 4100 50  0001 C CNN
	1    9450 4100
	1    0    0    -1  
$EndComp
Wire Wire Line
	9450 3950 9450 4100
Text Label 9000 3950 0    50   ~ 0
b7
Text Label 8050 4550 0    50   ~ 0
d2
Text Label 8650 4150 0    50   ~ 0
reset
Entry Wire Line
	8800 4150 8900 4250
Wire Wire Line
	8800 4150 7500 4150
Entry Wire Line
	8800 1900 8900 2000
Wire Wire Line
	7350 1900 8800 1900
Connection ~ 7350 1900
Entry Wire Line
	7650 4350 7750 4450
Entry Wire Line
	7650 4450 7750 4550
Wire Wire Line
	7650 4350 7500 4350
Wire Wire Line
	7500 4450 7650 4450
Text Label 7600 4350 0    50   ~ 0
Rx0
Text Label 7600 4450 0    50   ~ 0
Tx0
Entry Wire Line
	7750 7750 7850 7650
Entry Wire Line
	7750 8150 7850 8050
Wire Wire Line
	7850 7650 10650 7650
Wire Wire Line
	11200 5100 10550 5100
Wire Wire Line
	10550 5200 10700 5200
Wire Wire Line
	7500 2950 8450 2950
Wire Wire Line
	7500 3050 8450 3050
Wire Wire Line
	7500 3150 8450 3150
Entry Wire Line
	8450 2950 8550 3050
Entry Wire Line
	8450 3050 8550 3150
Entry Wire Line
	8450 3150 8550 3250
Text Label 8250 2950 0    50   ~ 0
b3
Text Label 8250 3050 0    50   ~ 0
b4
Text Label 8250 3150 0    50   ~ 0
b5
Entry Wire Line
	8550 6450 8650 6350
Wire Wire Line
	8700 6350 8650 6350
Entry Wire Line
	8250 3550 8350 3650
Entry Wire Line
	8250 3650 8350 3750
Entry Wire Line
	8250 3750 8350 3850
Entry Wire Line
	8250 3850 8350 3950
Wire Wire Line
	9800 4900 8450 4900
Entry Wire Line
	8350 4800 8450 4700
Entry Wire Line
	8350 5000 8450 4900
Text Label 8200 3550 0    50   ~ 0
c0
Text Label 8200 3650 0    50   ~ 0
c1
Text Label 8200 3750 0    50   ~ 0
c2
Text Label 8200 3850 0    50   ~ 0
c3
Text Label 8450 4700 0    50   ~ 0
c2
Text Label 8450 4900 0    50   ~ 0
c3
$Comp
L power:+5V #PWR0112
U 1 1 5ED4B9AE
P 9550 6550
F 0 "#PWR0112" H 9550 6400 50  0001 C CNN
F 1 "+5V" H 9565 6723 50  0000 C CNN
F 2 "" H 9550 6550 50  0001 C CNN
F 3 "" H 9550 6550 50  0001 C CNN
	1    9550 6550
	1    0    0    -1  
$EndComp
Wire Wire Line
	9200 6050 9200 5500
Wire Wire Line
	8650 5500 9200 5500
Entry Wire Line
	8550 5600 8650 5500
Text Label 8650 5500 0    50   ~ 0
b4
Entry Wire Line
	8550 6700 8650 6600
Wire Wire Line
	10700 5200 10700 5700
Wire Wire Line
	10700 5700 8700 5700
Wire Wire Line
	8700 5700 8700 6150
Entry Wire Line
	8900 5200 9000 5100
Wire Wire Line
	14550 8250 14450 8250
Wire Wire Line
	14250 7900 13700 7900
Wire Wire Line
	13700 7900 13700 8050
NoConn ~ 2950 9950
NoConn ~ 4950 5650
Wire Wire Line
	2950 9350 2550 9350
Wire Wire Line
	5800 1900 6550 1900
NoConn ~ 7500 3950
NoConn ~ 7500 4050
NoConn ~ 14500 7350
NoConn ~ 14500 8100
NoConn ~ 14500 8550
Wire Wire Line
	14550 7350 14500 7350
Wire Wire Line
	14550 8100 14500 8100
Wire Wire Line
	14550 8550 14500 8550
NoConn ~ 14500 7800
Wire Wire Line
	14550 7800 14500 7800
Wire Wire Line
	9800 4700 8450 4700
Entry Wire Line
	8800 4550 8900 4650
Wire Wire Line
	7500 4650 8800 4650
Entry Wire Line
	8800 4650 8900 4750
Wire Wire Line
	7500 4750 8800 4750
Entry Wire Line
	8800 4750 8900 4850
Wire Wire Line
	7500 4850 8800 4850
Entry Wire Line
	8800 4850 8900 4950
Wire Wire Line
	7500 4950 8800 4950
Entry Wire Line
	8800 4950 8900 5050
Wire Wire Line
	7500 5050 8800 5050
Entry Wire Line
	8800 5050 8900 5150
Text Label 8050 4650 0    50   ~ 0
d3
Text Label 8050 4750 0    50   ~ 0
d4
Text Label 8050 4850 0    50   ~ 0
d5
Text Label 8050 4950 0    50   ~ 0
d6
Text Label 8050 5050 0    50   ~ 0
d7
Entry Wire Line
	8800 2650 8900 2750
Entry Wire Line
	8800 2750 8900 2850
Wire Wire Line
	8800 2750 7500 2750
Entry Wire Line
	8800 2850 8900 2950
Wire Wire Line
	8800 2850 7500 2850
Text Label 8600 2650 0    50   ~ 0
b0
Text Label 8600 2750 0    50   ~ 0
b1
Text Label 8600 2850 0    50   ~ 0
b2
$Comp
L _autosave-lab1-rescue:RS-232-my_Library1 XP3
U 1 1 5F313C46
P 14950 7000
F 0 "XP3" H 15278 6195 50  0000 L CNN
F 1 "RS-232" H 15278 6104 50  0000 L CNN
F 2 "Connector_Dsub:DSUB-9_Male_Vertical_P2.77x2.84mm" H 14900 7450 50  0001 C CNN
F 3 "" H 14900 7450 50  0001 C CNN
	1    14950 7000
	1    0    0    -1  
$EndComp
Wire Wire Line
	14450 8250 14450 8400
Wire Wire Line
	14450 8400 14550 8400
Wire Wire Line
	14200 7950 14200 8100
Wire Wire Line
	14550 7950 14200 7950
$Comp
L power:Earth #PWR018
U 1 1 5DDAD978
P 14200 8100
F 0 "#PWR018" H 14200 7850 50  0001 C CNN
F 1 "Earth" H 14200 7950 50  0001 C CNN
F 2 "" H 14200 8100 50  0001 C CNN
F 3 "~" H 14200 8100 50  0001 C CNN
	1    14200 8100
	1    0    0    -1  
$EndComp
Wire Wire Line
	13700 7700 13950 7700
Wire Wire Line
	13950 7700 13950 7500
Wire Wire Line
	13950 7500 14550 7500
Wire Wire Line
	14550 7650 14250 7650
Wire Wire Line
	14250 7650 14250 7900
$Comp
L _autosave-lab1-rescue:IDC-06MS-my_Library1 XP2
U 1 1 5F4191ED
P 10000 6350
F 0 "XP2" H 10328 5770 50  0000 L CNN
F 1 "IDC-06MS" H 10328 5679 50  0000 L CNN
F 2 "Connector_IDC:IDC-Header_2x03_P2.54mm_Horizontal" H 10000 6350 50  0001 C CNN
F 3 "" H 10000 6350 50  0001 C CNN
	1    10000 6350
	1    0    0    -1  
$EndComp
Wire Wire Line
	9200 6050 9600 6050
Wire Wire Line
	9600 6050 9600 6700
Wire Wire Line
	9550 6850 9550 6550
Wire Wire Line
	9600 6850 9550 6850
Wire Wire Line
	9600 7000 9500 7000
Wire Wire Line
	9500 7000 9500 6250
Wire Wire Line
	9600 7150 8750 7150
Wire Wire Line
	8750 7150 8750 6600
Wire Wire Line
	8750 6600 8650 6600
Wire Wire Line
	9600 7300 9350 7300
Wire Wire Line
	9350 5100 9000 5100
Text Label 9050 5100 0    50   ~ 0
reset
$Comp
L power:Earth #PWR0113
U 1 1 5F551397
P 9500 7500
F 0 "#PWR0113" H 9500 7250 50  0001 C CNN
F 1 "Earth" H 9500 7350 50  0001 C CNN
F 2 "" H 9500 7500 50  0001 C CNN
F 3 "~" H 9500 7500 50  0001 C CNN
	1    9500 7500
	1    0    0    -1  
$EndComp
Wire Wire Line
	9600 7450 9500 7450
Wire Wire Line
	9500 7450 9500 7500
$Comp
L _autosave-lab1-rescue:DS-201-my_Library1 XP1
U 1 1 5F583CCF
P 2250 9100
F 0 "XP1" H 2283 9215 50  0000 C CNN
F 1 "DS-201" H 2283 9124 50  0000 C CNN
F 2 "Connector:Banana_Jack_2Pin" H 2150 9150 50  0001 C CNN
F 3 "" H 2150 9150 50  0001 C CNN
	1    2250 9100
	1    0    0    -1  
$EndComp
Text Label 5500 4400 0    50   ~ 0
d6
Text Label 5500 2550 0    50   ~ 0
d2
Wire Wire Line
	12000 5100 12200 5100
Entry Wire Line
	12200 5100 12300 5200
Text Label 12150 5100 0    50   ~ 0
8
Wire Wire Line
	2550 9500 2950 9500
Text Label 8650 6600 0    50   ~ 0
b3
Wire Wire Line
	9800 4500 8450 4500
Text Label 8450 4500 0    50   ~ 0
c1
Text Label 8450 4300 0    50   ~ 0
c0
Entry Wire Line
	8350 4600 8450 4500
Entry Wire Line
	8350 4400 8450 4300
Wire Wire Line
	8450 4300 9800 4300
Text Label 9000 1500 0    50   ~ 0
b0
Text Label 9700 1500 0    50   ~ 0
a
Text Label 9700 1600 0    50   ~ 0
b
Text Label 9700 1700 0    50   ~ 0
c
Text Label 9700 1800 0    50   ~ 0
d
Text Label 9700 1900 0    50   ~ 0
e
Text Label 9700 2000 0    50   ~ 0
f
Text Label 9700 2100 0    50   ~ 0
g
Text Label 9700 2800 0    50   ~ 0
a
Text Label 9700 2900 0    50   ~ 0
b
Text Label 9700 3000 0    50   ~ 0
c
Text Label 9700 3100 0    50   ~ 0
d
Text Label 9700 3200 0    50   ~ 0
e
Text Label 9700 3300 0    50   ~ 0
f
Text Label 9700 3400 0    50   ~ 0
g
Text Label 9450 1500 0    50   ~ 0
a
Text Label 9450 1600 0    50   ~ 0
b
Text Label 9450 1700 0    50   ~ 0
c
Text Label 9450 1800 0    50   ~ 0
d
Text Label 9450 1900 0    50   ~ 0
e
Text Label 9450 2000 0    50   ~ 0
f
Text Label 9450 2100 0    50   ~ 0
g
Wire Wire Line
	9350 7300 9350 5100
Wire Wire Line
	9500 6250 9300 6250
Text Label 8650 6350 0    50   ~ 0
b5
$Comp
L 74xx:74LS08 DD6
U 1 1 5EB6D74D
P 9000 6250
F 0 "DD6" H 9000 6575 50  0000 C CNN
F 1 "74LS08" H 9000 6484 50  0000 C CNN
F 2 "RF_GPS:ublox_MAX" H 9000 6250 50  0001 C CNN
F 3 "http://www.ti.com/lit/gpn/sn74LS08" H 9000 6250 50  0001 C CNN
	1    9000 6250
	1    0    0    -1  
$EndComp
Text Label 7900 8050 0    50   ~ 0
Rx0
Wire Wire Line
	9800 5250 9800 5400
$Comp
L power:Earth #PWR0110
U 1 1 5E82B803
P 9800 5400
F 0 "#PWR0110" H 9800 5150 50  0001 C CNN
F 1 "Earth" H 9800 5250 50  0001 C CNN
F 2 "" H 9800 5400 50  0001 C CNN
F 3 "~" H 9800 5400 50  0001 C CNN
	1    9800 5400
	1    0    0    -1  
$EndComp
$Comp
L _autosave-lab1-rescue:CD4028-CD4028 DD4
U 1 1 5DE80C28
P 10100 4350
F 0 "DD4" H 10217 4665 50  0000 C CNN
F 1 "CD4028" H 10217 4574 50  0000 C CNN
F 2 "RF_GPS:ublox_MAX" H 10050 4700 50  0001 C CNN
F 3 "" H 10050 4700 50  0001 C CNN
	1    10100 4350
	1    0    0    -1  
$EndComp
NoConn ~ 10550 4300
Text Label 9000 1600 0    50   ~ 0
b1
Text Label 9000 1700 0    50   ~ 0
b2
Text Label 9000 1800 0    50   ~ 0
b3
Text Label 9000 1900 0    50   ~ 0
b4
Text Label 9000 2000 0    50   ~ 0
b5
Text Label 9000 2100 0    50   ~ 0
b6
Wire Wire Line
	8800 2650 7500 2650
Entry Wire Line
	8800 3250 8900 3350
Text Label 8600 3250 0    50   ~ 0
b6
Entry Wire Line
	8800 3350 8900 3450
Text Label 8600 3350 0    50   ~ 0
b7
Wire Wire Line
	7500 3350 8800 3350
$Comp
L power:+5V #PWR0114
U 1 1 5F912D72
P 9650 5350
F 0 "#PWR0114" H 9650 5200 50  0001 C CNN
F 1 "+5V" H 9665 5523 50  0000 C CNN
F 2 "" H 9650 5350 50  0001 C CNN
F 3 "" H 9650 5350 50  0001 C CNN
	1    9650 5350
	1    0    0    1   
$EndComp
Wire Wire Line
	9650 5350 9650 5100
Wire Wire Line
	9650 5100 9900 5100
Wire Wire Line
	9800 5250 9900 5250
Wire Wire Line
	7850 8050 10650 8050
Wire Wire Line
	7500 4550 8800 4550
Wire Wire Line
	7500 3250 8800 3250
Wire Bus Line
	7750 4350 7750 8250
Wire Bus Line
	8550 2800 8550 6700
Wire Bus Line
	8350 3500 8350 5450
Wire Bus Line
	5700 1100 5700 7000
Wire Bus Line
	9600 1400 9600 3800
Wire Bus Line
	8900 1100 8900 5300
Wire Bus Line
	12300 1250 12300 5250
$EndSCHEMATC
