G04 #@! TF.GenerationSoftware,KiCad,Pcbnew,(5.1.4-0-10_14)*
G04 #@! TF.CreationDate,2019-12-24T20:29:14+03:00*
G04 #@! TF.ProjectId,plata,706c6174-612e-46b6-9963-61645f706362,rev?*
G04 #@! TF.SameCoordinates,Original*
G04 #@! TF.FileFunction,Soldermask,Bot*
G04 #@! TF.FilePolarity,Negative*
%FSLAX46Y46*%
G04 Gerber Fmt 4.6, Leading zero omitted, Abs format (unit mm)*
G04 Created by KiCad (PCBNEW (5.1.4-0-10_14)) date 2019-12-24 20:29:14*
%MOMM*%
%LPD*%
G04 APERTURE LIST*
%ADD10R,1.600000X1.600000*%
%ADD11O,1.600000X1.600000*%
%ADD12O,2.400000X2.400000*%
%ADD13C,2.400000*%
%ADD14C,1.500000*%
%ADD15R,1.500000X1.500000*%
%ADD16C,0.800000*%
%ADD17C,10.160000*%
%ADD18C,1.600000*%
G04 APERTURE END LIST*
D10*
X124460000Y-54610000D03*
D11*
X132080000Y-87630000D03*
X124460000Y-57150000D03*
X132080000Y-85090000D03*
X124460000Y-59690000D03*
X132080000Y-82550000D03*
X124460000Y-62230000D03*
X132080000Y-80010000D03*
X124460000Y-64770000D03*
X132080000Y-77470000D03*
X124460000Y-67310000D03*
X132080000Y-74930000D03*
X124460000Y-69850000D03*
X132080000Y-72390000D03*
X124460000Y-72390000D03*
X132080000Y-69850000D03*
X124460000Y-74930000D03*
X132080000Y-67310000D03*
X124460000Y-77470000D03*
X132080000Y-64770000D03*
X124460000Y-80010000D03*
X132080000Y-62230000D03*
X124460000Y-82550000D03*
X132080000Y-59690000D03*
X124460000Y-85090000D03*
X132080000Y-57150000D03*
X124460000Y-87630000D03*
X132080000Y-54610000D03*
D12*
X155575000Y-39370000D03*
D13*
X186055000Y-39370000D03*
X186055000Y-45085000D03*
D12*
X155575000Y-45085000D03*
D14*
X192405000Y-71755000D03*
X192405000Y-74295000D03*
X192405000Y-76835000D03*
X192405000Y-79375000D03*
X192405000Y-81915000D03*
X192405000Y-84455000D03*
X177165000Y-84455000D03*
X177165000Y-81915000D03*
X177165000Y-79375000D03*
X177165000Y-76835000D03*
X177165000Y-74295000D03*
D15*
X177165000Y-71755000D03*
D13*
X120650000Y-60325000D03*
D12*
X90170000Y-60325000D03*
X90170000Y-66675000D03*
D13*
X120650000Y-66675000D03*
X120650000Y-73025000D03*
D12*
X90170000Y-73025000D03*
D13*
X170815000Y-104140000D03*
D12*
X140335000Y-104140000D03*
X140335000Y-91440000D03*
D13*
X170815000Y-91440000D03*
X170815000Y-85090000D03*
D12*
X140335000Y-85090000D03*
X140335000Y-78740000D03*
D13*
X170815000Y-78740000D03*
X170180000Y-71755000D03*
D12*
X139700000Y-71755000D03*
X139700000Y-64770000D03*
D13*
X170180000Y-64770000D03*
X170815000Y-97790000D03*
D12*
X140335000Y-97790000D03*
D16*
X84455000Y-60325000D03*
X84660000Y-68580000D03*
X84660000Y-75565000D03*
D17*
X120650000Y-43180000D03*
X90680000Y-43180000D03*
D10*
X206075000Y-56685000D03*
D18*
X206075000Y-53915000D03*
X206075000Y-51145000D03*
X206075000Y-48375000D03*
X206075000Y-45605000D03*
X208915000Y-55300000D03*
X208915000Y-52530000D03*
X208915000Y-49760000D03*
X208915000Y-46990000D03*
M02*
