EESchema Schematic File Version 4
LIBS:xmem-cache
EELAYER 30 0
EELAYER END
$Descr A4 11693 8268
encoding utf-8
Sheet 1 1
Title "МК с заданными параметрами"
Date ""
Rev ""
Comp "МГТУ им. Н.Э. Баумана ИУ6-74"
Comment1 ""
Comment2 "Буряков В.Н."
Comment3 ""
Comment4 ""
$EndDescr
Wire Wire Line
	1300 3950 1400 3950
Wire Wire Line
	1400 3950 1400 3750
$Comp
L Switch:SW_Push SW1
U 1 1 5E0A26D3
P 1050 3350
F 0 "SW1" H 1050 3635 50  0000 C CNN
F 1 "SW_Push" H 1050 3544 50  0000 C CNN
F 2 "Button_Switch_Keyboard:SW_Cherry_MX_1.00u_PCB" H 1050 3550 50  0001 C CNN
F 3 "~" H 1050 3550 50  0001 C CNN
	1    1050 3350
	1    0    0    -1  
$EndComp
$Comp
L Device:R R1
U 1 1 5E0BA916
P 1300 3100
F 0 "R1" H 1370 3146 50  0000 L CNN
F 1 "150" H 1370 3055 50  0000 L CNN
F 2 "Resistor_THT:R_Axial_DIN0204_L3.6mm_D1.6mm_P1.90mm_Vertical" V 1230 3100 50  0001 C CNN
F 3 "~" H 1300 3100 50  0001 C CNN
	1    1300 3100
	1    0    0    -1  
$EndComp
Wire Wire Line
	1250 3350 1300 3350
NoConn ~ 1550 6050
NoConn ~ 1550 6250
Wire Wire Line
	1000 3550 1550 3550
Wire Wire Line
	1400 3750 1550 3750
$Comp
L 74xx:74LS373 U4
U 1 1 5E0FD4F3
P 4300 3850
F 0 "U4" H 4050 4500 50  0000 C CNN
F 1 "74LS373" H 4300 4500 50  0000 C CNN
F 2 "Package_DIP:DIP-20_W7.62mm_SMDSocket_SmallPads" H 4300 3850 50  0001 C CNN
F 3 "http://www.ti.com/lit/gpn/sn74LS373" H 4300 3850 50  0001 C CNN
	1    4300 3850
	1    0    0    -1  
$EndComp
$Comp
L power:Earth #PWR013
U 1 1 5E107DB3
P 4300 4800
F 0 "#PWR013" H 4300 4550 50  0001 C CNN
F 1 "Earth" H 4300 4650 50  0001 C CNN
F 2 "" H 4300 4800 50  0001 C CNN
F 3 "~" H 4300 4800 50  0001 C CNN
	1    4300 4800
	1    0    0    -1  
$EndComp
Wire Wire Line
	4300 4650 4300 4800
Wire Wire Line
	3800 4250 3550 4250
Wire Wire Line
	3550 4250 3550 7550
Wire Wire Line
	1400 7550 1400 6150
Wire Wire Line
	1400 6150 1550 6150
Wire Wire Line
	1000 3950 1000 3550
Wire Wire Line
	1300 3250 1300 3350
Connection ~ 1300 3350
Wire Wire Line
	1300 3350 1450 3350
$Comp
L power:+5V #PWR03
U 1 1 5E1114D4
P 1300 2850
F 0 "#PWR03" H 1300 2700 50  0001 C CNN
F 1 "+5V" H 1315 3023 50  0000 C CNN
F 2 "" H 1300 2850 50  0001 C CNN
F 3 "" H 1300 2850 50  0001 C CNN
	1    1300 2850
	1    0    0    -1  
$EndComp
Wire Wire Line
	1300 2950 1300 2850
Wire Wire Line
	3800 4350 3800 4650
Wire Wire Line
	3800 4650 4300 4650
Connection ~ 4300 4650
$Comp
L power:+5V #PWR012
U 1 1 5E11A06E
P 4300 2950
F 0 "#PWR012" H 4300 2800 50  0001 C CNN
F 1 "+5V" H 4315 3123 50  0000 C CNN
F 2 "" H 4300 2950 50  0001 C CNN
F 3 "" H 4300 2950 50  0001 C CNN
	1    4300 2950
	1    0    0    -1  
$EndComp
Wire Wire Line
	4300 3050 4300 3000
$Comp
L MCU_Microchip_ATmega:ATmega8515-16AU U1
U 1 1 5E01F8FC
P 2150 5050
F 0 "U1" H 2150 7231 50  0000 C CNN
F 1 "ATmega8515-16AU" H 2150 7140 50  0000 C CNN
F 2 "Package_QFP:TQFP-44_10x10mm_P0.8mm" H 2150 5050 50  0001 C CIN
F 3 "http://ww1.microchip.com/downloads/en/DeviceDoc/doc2512.pdf" H 2150 5050 50  0001 C CNN
	1    2150 5050
	1    0    0    -1  
$EndComp
Wire Wire Line
	5050 5850 5050 5600
Wire Wire Line
	2750 5750 5000 5750
Wire Wire Line
	5000 5750 5000 5500
Wire Wire Line
	5000 5500 5050 5500
Wire Wire Line
	2750 5650 4950 5650
Wire Wire Line
	4950 5650 4950 5400
Wire Wire Line
	4950 5400 5050 5400
Wire Wire Line
	2750 5550 4900 5550
Wire Wire Line
	4900 5550 4900 5300
Wire Wire Line
	4900 5300 5050 5300
Wire Wire Line
	2750 5150 3700 5150
Wire Wire Line
	2750 5250 3700 5250
Wire Wire Line
	2750 5350 3700 5350
Wire Wire Line
	2750 5450 3700 5450
Wire Wire Line
	4300 5300 4850 5300
$Comp
L 74xx:74LS21 U6
U 2 1 5E3A5D78
P 5350 3900
F 0 "U6" H 5350 4275 50  0000 C CNN
F 1 "74LS21" H 5350 4184 50  0000 C CNN
F 2 "Package_DIP:DIP-14_W8.89mm_SMDSocket_LongPads" H 5350 3900 50  0001 C CNN
F 3 "http://www.ti.com/lit/gpn/sn74LS21" H 5350 3900 50  0001 C CNN
	2    5350 3900
	1    0    0    -1  
$EndComp
Wire Wire Line
	4800 3750 5050 3750
Wire Wire Line
	4800 3850 5050 3850
Wire Wire Line
	4800 3950 5050 3950
Wire Wire Line
	4800 4050 5050 4050
$Comp
L 74xx:74LS14 U5
U 1 1 5E3BE7B6
P 5950 3650
F 0 "U5" H 5950 3967 50  0000 C CNN
F 1 "74LS14" H 5950 3876 50  0000 C CNN
F 2 "Package_DIP:DIP-14_W8.89mm_SMDSocket_LongPads" H 5950 3650 50  0001 C CNN
F 3 "http://www.ti.com/lit/gpn/sn74LS14" H 5950 3650 50  0001 C CNN
	1    5950 3650
	1    0    0    -1  
$EndComp
Wire Wire Line
	4800 3650 5650 3650
Wire Wire Line
	6700 4600 5950 4600
Wire Wire Line
	5950 4600 5950 5450
Wire Wire Line
	5950 5450 5650 5450
Wire Wire Line
	4850 4500 6700 4500
Wire Wire Line
	4850 4500 4850 5300
Wire Wire Line
	5650 3900 6400 3900
Wire Wire Line
	6400 3900 6400 4400
Wire Wire Line
	6400 4400 6700 4400
Wire Wire Line
	6250 3650 6500 3650
Wire Wire Line
	6500 3650 6500 4300
Wire Wire Line
	6500 4300 6700 4300
$Comp
L power:Earth #PWR025
U 1 1 5E206203
P 7550 5150
F 0 "#PWR025" H 7550 4900 50  0001 C CNN
F 1 "Earth" H 7550 5000 50  0001 C CNN
F 2 "" H 7550 5150 50  0001 C CNN
F 3 "~" H 7550 5150 50  0001 C CNN
	1    7550 5150
	1    0    0    -1  
$EndComp
Wire Wire Line
	7700 4300 7550 4300
Wire Wire Line
	7550 4300 7550 5050
Wire Wire Line
	7700 4150 7550 4150
Wire Wire Line
	7550 4150 7550 4300
Connection ~ 7550 4300
Wire Wire Line
	7300 4450 7700 4450
Wire Wire Line
	7350 3550 7350 4900
Wire Wire Line
	7350 4900 7700 4900
Wire Wire Line
	4800 3550 7350 3550
Wire Wire Line
	4800 3450 7400 3450
Wire Wire Line
	7400 3450 7400 4800
Wire Wire Line
	7400 4800 7700 4800
Wire Wire Line
	4800 3350 7450 3350
Wire Wire Line
	7450 3350 7450 4700
Wire Wire Line
	7450 4700 7700 4700
Wire Wire Line
	1400 7550 3550 7550
$Comp
L 74xx_IEEE:74HC238 U10
U 1 1 5E1FFB00
P 8250 4350
F 0 "U10" H 8250 4866 50  0000 C CNN
F 1 "74HC238" H 8250 4775 50  0000 C CNN
F 2 "Package_DIP:DIP-16_W7.62mm_SMDSocket_SmallPads" H 8250 4350 50  0001 C CNN
F 3 "" H 8250 4350 50  0001 C CNN
	1    8250 4350
	1    0    0    -1  
$EndComp
$Comp
L Device:LED D2
U 1 1 5E4A5A4A
P 10250 4650
F 0 "D2" H 10243 4395 50  0000 C CNN
F 1 "LED" H 10243 4486 50  0000 C CNN
F 2 "LED_THT:LED_BL-FL7680RGB" H 10250 4650 50  0001 C CNN
F 3 "~" H 10250 4650 50  0001 C CNN
	1    10250 4650
	-1   0    0    1   
$EndComp
$Comp
L Device:LED D3
U 1 1 5E4AB273
P 10250 4750
F 0 "D3" H 10243 4495 50  0000 C CNN
F 1 "LED" H 10243 4586 50  0000 C CNN
F 2 "LED_THT:LED_BL-FL7680RGB" H 10250 4750 50  0001 C CNN
F 3 "~" H 10250 4750 50  0001 C CNN
	1    10250 4750
	-1   0    0    1   
$EndComp
$Comp
L Device:LED D4
U 1 1 5E4B0A3C
P 10250 4850
F 0 "D4" H 10243 4595 50  0000 C CNN
F 1 "LED" H 10243 4686 50  0000 C CNN
F 2 "LED_THT:LED_BL-FL7680RGB" H 10250 4850 50  0001 C CNN
F 3 "~" H 10250 4850 50  0001 C CNN
	1    10250 4850
	-1   0    0    1   
$EndComp
$Comp
L 74xx:74LS08 U7
U 1 1 5E4CAB7D
P 10250 2350
F 0 "U7" H 10250 2675 50  0000 C CNN
F 1 "74LS08" H 10250 2584 50  0000 C CNN
F 2 "Package_SO:SOIC-14_3.9x8.7mm_P1.27mm" H 10250 2350 50  0001 C CNN
F 3 "http://www.ti.com/lit/gpn/sn74LS08" H 10250 2350 50  0001 C CNN
	1    10250 2350
	1    0    0    -1  
$EndComp
$Comp
L 74xx:74LS08 U7
U 2 1 5E4CC55E
P 10250 2800
F 0 "U7" H 10250 3125 50  0000 C CNN
F 1 "74LS08" H 10250 3034 50  0000 C CNN
F 2 "Package_SO:SOIC-14_3.9x8.7mm_P1.27mm" H 10250 2800 50  0001 C CNN
F 3 "http://www.ti.com/lit/gpn/sn74LS08" H 10250 2800 50  0001 C CNN
	2    10250 2800
	1    0    0    -1  
$EndComp
$Comp
L Switch:SW_SPDT SW2
U 1 1 5E5EC4A7
P 9250 2550
F 0 "SW2" H 9250 2835 50  0000 C CNN
F 1 "SW_SPDT" H 9250 2744 50  0000 C CNN
F 2 "Button_Switch_SMD:SW_SPDT_CK-JS102011SAQN" H 9250 2550 50  0001 C CNN
F 3 "~" H 9250 2550 50  0001 C CNN
	1    9250 2550
	1    0    0    -1  
$EndComp
$Comp
L Switch:SW_SPDT SW3
U 1 1 5E607DEB
P 9250 2950
F 0 "SW3" H 9250 3235 50  0000 C CNN
F 1 "SW_SPDT" H 9250 3144 50  0000 C CNN
F 2 "Button_Switch_SMD:SW_SPDT_CK-JS102011SAQN" H 9250 2950 50  0001 C CNN
F 3 "~" H 9250 2950 50  0001 C CNN
	1    9250 2950
	1    0    0    -1  
$EndComp
$Comp
L Switch:SW_SPDT SW4
U 1 1 5E60E142
P 9250 3350
F 0 "SW4" H 9250 3635 50  0000 C CNN
F 1 "SW_SPDT" H 9250 3544 50  0000 C CNN
F 2 "Button_Switch_SMD:SW_SPDT_CK-JS102011SAQN" H 9250 3350 50  0001 C CNN
F 3 "~" H 9250 3350 50  0001 C CNN
	1    9250 3350
	1    0    0    -1  
$EndComp
$Comp
L Switch:SW_SPDT SW5
U 1 1 5E61406B
P 9250 3750
F 0 "SW5" H 9250 4035 50  0000 C CNN
F 1 "SW_SPDT" H 9250 3944 50  0000 C CNN
F 2 "Button_Switch_SMD:SW_SPDT_CK-JS102011SAQN" H 9250 3750 50  0001 C CNN
F 3 "~" H 9250 3750 50  0001 C CNN
	1    9250 3750
	1    0    0    -1  
$EndComp
$Comp
L power:Earth #PWR031
U 1 1 5E63018D
P 9600 3900
F 0 "#PWR031" H 9600 3650 50  0001 C CNN
F 1 "Earth" H 9600 3750 50  0001 C CNN
F 2 "" H 9600 3900 50  0001 C CNN
F 3 "~" H 9600 3900 50  0001 C CNN
	1    9600 3900
	1    0    0    -1  
$EndComp
Wire Wire Line
	9450 3850 9600 3850
Wire Wire Line
	9450 3450 9600 3450
Connection ~ 9600 3450
Wire Wire Line
	9600 3450 9600 3850
Wire Wire Line
	9450 3050 9600 3050
Connection ~ 9600 3050
Wire Wire Line
	9600 3050 9600 3450
Wire Wire Line
	9450 2650 9600 2650
Wire Wire Line
	9600 2650 9600 3050
Wire Wire Line
	9050 2550 8950 2550
Wire Wire Line
	8950 2550 8950 2350
Wire Wire Line
	8950 2350 9700 2350
Wire Wire Line
	9700 2350 9700 2450
Wire Wire Line
	9050 2950 8950 2950
Wire Wire Line
	8950 2950 8950 2800
Wire Wire Line
	8950 2800 9700 2800
Wire Wire Line
	9700 2800 9700 2900
Wire Wire Line
	9050 3350 8950 3350
Wire Wire Line
	8950 3350 8950 3200
Wire Wire Line
	8950 3200 9700 3200
Wire Wire Line
	9050 3750 9000 3750
Wire Wire Line
	9000 3750 9000 3600
Wire Wire Line
	9000 3600 9700 3600
Wire Wire Line
	9700 3600 9700 3700
Wire Wire Line
	9450 3650 9550 3650
Wire Wire Line
	9550 3650 9550 3250
Wire Wire Line
	9450 2450 9550 2450
Wire Wire Line
	9450 2850 9550 2850
Connection ~ 9550 2850
Wire Wire Line
	9550 2850 9550 2450
Wire Wire Line
	9450 3250 9550 3250
Connection ~ 9550 3250
Wire Wire Line
	9550 3250 9550 2850
Wire Wire Line
	9600 3900 9600 3850
Connection ~ 9600 3850
Wire Wire Line
	8800 4450 9900 4450
Wire Wire Line
	8800 4350 9850 4350
Wire Wire Line
	8800 4250 9800 4250
Wire Wire Line
	8800 4850 9500 4850
Wire Wire Line
	8800 4750 9500 4750
Wire Wire Line
	8800 4650 9500 4650
Wire Wire Line
	8800 4550 9500 4550
$Comp
L Device:R R4
U 1 1 5E870CA4
P 9650 4550
F 0 "R4" V 9600 4550 50  0000 C CNN
F 1 "150" V 9700 4550 50  0000 C CNN
F 2 "Resistor_THT:R_Axial_DIN0204_L3.6mm_D1.6mm_P5.08mm_Horizontal" V 9580 4550 50  0001 C CNN
F 3 "~" H 9650 4550 50  0001 C CNN
	1    9650 4550
	0    1    1    0   
$EndComp
$Comp
L Device:R R5
U 1 1 5E886931
P 9650 4650
F 0 "R5" V 9600 4650 50  0000 C CNN
F 1 "150" V 9700 4650 50  0000 C CNN
F 2 "Resistor_THT:R_Axial_DIN0204_L3.6mm_D1.6mm_P5.08mm_Horizontal" V 9580 4650 50  0001 C CNN
F 3 "~" H 9650 4650 50  0001 C CNN
	1    9650 4650
	0    1    1    0   
$EndComp
$Comp
L Device:R R6
U 1 1 5E8916CB
P 9650 4750
F 0 "R6" V 9600 4750 50  0000 C CNN
F 1 "150" V 9700 4750 50  0000 C CNN
F 2 "Resistor_THT:R_Axial_DIN0204_L3.6mm_D1.6mm_P5.08mm_Horizontal" V 9580 4750 50  0001 C CNN
F 3 "~" H 9650 4750 50  0001 C CNN
	1    9650 4750
	0    1    1    0   
$EndComp
$Comp
L Device:R R7
U 1 1 5E89C494
P 9650 4850
F 0 "R7" V 9600 4850 50  0000 C CNN
F 1 "150" V 9700 4850 50  0000 C CNN
F 2 "Resistor_THT:R_Axial_DIN0204_L3.6mm_D1.6mm_P5.08mm_Horizontal" V 9580 4850 50  0001 C CNN
F 3 "~" H 9650 4850 50  0001 C CNN
	1    9650 4850
	0    1    1    0   
$EndComp
Wire Wire Line
	9800 4550 10100 4550
Wire Wire Line
	9800 4650 10100 4650
Wire Wire Line
	9800 4750 10100 4750
Wire Wire Line
	9800 4850 10100 4850
$Comp
L power:Earth #PWR033
U 1 1 5E8D7E1C
P 10500 5000
F 0 "#PWR033" H 10500 4750 50  0001 C CNN
F 1 "Earth" H 10500 4850 50  0001 C CNN
F 2 "" H 10500 5000 50  0001 C CNN
F 3 "~" H 10500 5000 50  0001 C CNN
	1    10500 5000
	1    0    0    -1  
$EndComp
Wire Wire Line
	10500 5000 10500 4850
Wire Wire Line
	10500 4550 10400 4550
Wire Wire Line
	10400 4650 10500 4650
Connection ~ 10500 4650
Wire Wire Line
	10500 4650 10500 4550
Wire Wire Line
	10400 4750 10500 4750
Connection ~ 10500 4750
Wire Wire Line
	10500 4750 10500 4650
Wire Wire Line
	10400 4850 10500 4850
Connection ~ 10500 4850
Wire Wire Line
	10500 4850 10500 4750
Wire Wire Line
	2750 4250 3350 4250
Wire Wire Line
	3350 4250 3350 6050
Wire Wire Line
	2750 4350 3300 4350
Wire Wire Line
	3300 4350 3300 6150
Wire Wire Line
	2750 4450 3250 4450
Wire Wire Line
	3250 4450 3250 6250
Wire Wire Line
	2750 4550 3200 4550
Wire Wire Line
	3200 4550 3200 6350
$Comp
L Regulator_Linear:LM7805_TO220 U2
U 1 1 5E0D24EE
P 2700 1300
F 0 "U2" H 2700 1542 50  0000 C CNN
F 1 "LM7805_TO220" H 2700 1451 50  0000 C CNN
F 2 "Package_TO_SOT_THT:TO-220-3_Vertical" H 2700 1525 50  0001 C CIN
F 3 "http://www.fairchildsemi.com/ds/LM/LM7805.pdf" H 2700 1250 50  0001 C CNN
	1    2700 1300
	1    0    0    -1  
$EndComp
Wire Wire Line
	3200 1850 3200 1750
Wire Wire Line
	2300 1850 2300 1750
Connection ~ 2300 1850
Wire Wire Line
	2300 1850 3050 1850
Wire Wire Line
	3000 1300 3200 1300
Wire Wire Line
	3200 1300 3200 1450
Wire Wire Line
	3200 1300 3650 1300
Wire Wire Line
	3650 1300 3650 1450
Connection ~ 3200 1300
Wire Wire Line
	3200 1850 3650 1850
Wire Wire Line
	3650 1850 3650 1750
Connection ~ 3200 1850
Connection ~ 2300 1300
Wire Wire Line
	2300 1300 2400 1300
Connection ~ 3050 1850
Wire Wire Line
	3050 1850 3200 1850
$Comp
L power:+5V #PWR07
U 1 1 5E1FCEC0
P 3650 1150
F 0 "#PWR07" H 3650 1000 50  0001 C CNN
F 1 "+5V" H 3665 1323 50  0000 C CNN
F 2 "" H 3650 1150 50  0001 C CNN
F 3 "" H 3650 1150 50  0001 C CNN
	1    3650 1150
	1    0    0    -1  
$EndComp
Wire Wire Line
	3650 1150 3650 1300
Connection ~ 3650 1300
Wire Wire Line
	2300 1300 2300 1450
Wire Wire Line
	2700 1600 2700 1750
Wire Wire Line
	2700 1750 3050 1750
Wire Wire Line
	3050 1750 3050 1850
$Comp
L lab1-cache:lab1-rescue_IDC-06MS-New_Library1 XP2
U 1 1 5E29FEDA
P 4150 6550
F 0 "XP2" H 4121 6625 50  0000 C CNN
F 1 "lab1-rescue_IDC-06MS-New_Library1" H 4121 6534 50  0000 C CNN
F 2 "Connector_IDC:IDC-Header_2x03_P2.54mm_Vertical" H 4150 6550 50  0001 C CNN
F 3 "" H 4150 6550 50  0001 C CNN
	1    4150 6550
	-1   0    0    -1  
$EndComp
Wire Wire Line
	3300 6150 10750 6150
Wire Wire Line
	3200 6350 10850 6350
Wire Wire Line
	3350 6050 10700 6050
Wire Wire Line
	3250 6250 10800 6250
Wire Wire Line
	2750 4750 3100 4750
Wire Wire Line
	3100 4750 3100 6800
Wire Wire Line
	2750 4850 3050 4850
Wire Wire Line
	3050 4850 3050 7000
Wire Wire Line
	2750 4950 3000 4950
Wire Wire Line
	3100 6800 4150 6800
Wire Wire Line
	3000 6900 4150 6900
Wire Wire Line
	3050 7000 4150 7000
$Comp
L power:Earth #PWR09
U 1 1 5E3A5BD1
P 4050 7450
F 0 "#PWR09" H 4050 7200 50  0001 C CNN
F 1 "Earth" H 4050 7300 50  0001 C CNN
F 2 "" H 4050 7450 50  0001 C CNN
F 3 "~" H 4050 7450 50  0001 C CNN
	1    4050 7450
	1    0    0    -1  
$EndComp
Wire Wire Line
	4050 7450 4050 7200
Wire Wire Line
	4050 7200 4150 7200
$Comp
L power:+5V #PWR08
U 1 1 5E414F6E
P 4000 6500
F 0 "#PWR08" H 4000 6350 50  0001 C CNN
F 1 "+5V" H 4015 6673 50  0000 C CNN
F 2 "" H 4000 6500 50  0001 C CNN
F 3 "" H 4000 6500 50  0001 C CNN
	1    4000 6500
	1    0    0    -1  
$EndComp
Wire Wire Line
	4000 6700 4150 6700
Wire Wire Line
	4000 6500 4000 6700
Wire Wire Line
	4150 7100 1450 7100
Wire Wire Line
	1450 7100 1450 3350
Connection ~ 1450 3350
Wire Wire Line
	1450 3350 1550 3350
Wire Wire Line
	2750 5850 5050 5850
Wire Wire Line
	2900 6050 2900 5900
Wire Wire Line
	2900 5900 6300 5900
Wire Wire Line
	6300 5900 6300 2550
Wire Wire Line
	6300 2550 6400 2550
Wire Wire Line
	2950 6150 2950 5950
Wire Wire Line
	2950 5950 6350 5950
$Comp
L power:+5V #PWR023
U 1 1 5E5A900A
P 7200 600
F 0 "#PWR023" H 7200 450 50  0001 C CNN
F 1 "+5V" H 7215 773 50  0000 C CNN
F 2 "" H 7200 600 50  0001 C CNN
F 3 "" H 7200 600 50  0001 C CNN
	1    7200 600 
	1    0    0    -1  
$EndComp
Wire Wire Line
	7200 650  7200 600 
$Comp
L Interface_UART:MAX232 U9
U 1 1 5E4659A6
P 7200 1850
F 0 "U9" H 7200 3231 50  0000 C CNN
F 1 "MAX232" H 7200 3140 50  0000 C CNN
F 2 "Package_SO:SOIC-16W_5.3x10.2mm_P1.27mm" H 7250 800 50  0001 L CNN
F 3 "http://www.ti.com/lit/ds/symlink/max232.pdf" H 7200 1950 50  0001 C CNN
	1    7200 1850
	1    0    0    -1  
$EndComp
Wire Wire Line
	6350 5950 6350 2150
Wire Wire Line
	6350 2150 6400 2150
$Comp
L Device:CP C7
U 1 1 5E6A3860
P 8350 1100
F 0 "C7" H 8468 1146 50  0000 L CNN
F 1 "1 u" H 8468 1055 50  0000 L CNN
F 2 "Capacitor_SMD:CP_Elec_3x5.3" H 8388 950 50  0001 C CNN
F 3 "~" H 8350 1100 50  0001 C CNN
	1    8350 1100
	1    0    0    -1  
$EndComp
Wire Wire Line
	8000 950  8350 950 
Wire Wire Line
	7200 600  8900 600 
Wire Wire Line
	8900 600  8900 950 
Connection ~ 7200 600 
Wire Wire Line
	8000 1450 8900 1450
Wire Wire Line
	8900 1450 8900 1250
Wire Wire Line
	8000 1750 8650 1750
Wire Wire Line
	8650 1750 8650 1700
Wire Wire Line
	8650 1700 8900 1700
$Comp
L power:Earth #PWR028
U 1 1 5E75B125
P 8900 2150
F 0 "#PWR028" H 8900 1900 50  0001 C CNN
F 1 "Earth" H 8900 2000 50  0001 C CNN
F 2 "" H 8900 2150 50  0001 C CNN
F 3 "~" H 8900 2150 50  0001 C CNN
	1    8900 2150
	1    0    0    -1  
$EndComp
Wire Wire Line
	8900 2000 8900 2150
$Comp
L Device:CP C6
U 1 1 5E7741EB
P 6150 1100
F 0 "C6" H 6268 1146 50  0000 L CNN
F 1 "1 u" H 6268 1055 50  0000 L CNN
F 2 "Capacitor_SMD:CP_Elec_3x5.3" H 6188 950 50  0001 C CNN
F 3 "~" H 6150 1100 50  0001 C CNN
	1    6150 1100
	1    0    0    -1  
$EndComp
Wire Wire Line
	6150 950  6400 950 
Wire Wire Line
	6150 1250 6400 1250
$Comp
L lab1-cache:lab1-rescue_RS-232-New_Library1 XP3
U 1 1 5E7BDD42
P 10000 750
F 0 "XP3" H 9921 825 50  0000 C CNN
F 1 "lab1-rescue_RS-232-New_Library1" H 9921 734 50  0000 C CNN
F 2 "Connector_Dsub:DSUB-9_Female_Vertical_P2.77x2.84mm" H 10000 750 50  0001 C CNN
F 3 "" H 10000 750 50  0001 C CNN
	1    10000 750 
	-1   0    0    -1  
$EndComp
$Comp
L Device:R R2
U 1 1 5E819FC9
P 9250 1450
F 0 "R2" V 9043 1450 50  0000 C CNN
F 1 "470" V 9134 1450 50  0000 C CNN
F 2 "Resistor_THT:R_Axial_DIN0204_L3.6mm_D1.6mm_P5.08mm_Horizontal" V 9180 1450 50  0001 C CNN
F 3 "~" H 9250 1450 50  0001 C CNN
	1    9250 1450
	0    1    1    0   
$EndComp
$Comp
L Device:R R3
U 1 1 5E847540
P 9250 1650
F 0 "R3" V 9043 1650 50  0000 C CNN
F 1 "470" V 9134 1650 50  0000 C CNN
F 2 "Resistor_THT:R_Axial_DIN0204_L3.6mm_D1.6mm_P5.08mm_Horizontal" V 9180 1650 50  0001 C CNN
F 3 "~" H 9250 1650 50  0001 C CNN
	1    9250 1650
	0    1    1    0   
$EndComp
$Comp
L power:Earth #PWR032
U 1 1 5E8770E6
P 9750 2150
F 0 "#PWR032" H 9750 1900 50  0001 C CNN
F 1 "Earth" H 9750 2000 50  0001 C CNN
F 2 "" H 9750 2150 50  0001 C CNN
F 3 "~" H 9750 2150 50  0001 C CNN
	1    9750 2150
	1    0    0    -1  
$EndComp
Wire Wire Line
	9400 1650 9450 1650
Wire Wire Line
	9450 1650 9450 1700
Wire Wire Line
	8000 1250 8350 1250
Wire Wire Line
	8000 2150 8500 2150
Wire Wire Line
	8500 2150 8500 1500
Wire Wire Line
	8500 1500 9000 1500
Wire Wire Line
	9000 1500 9000 1450
Wire Wire Line
	9000 1450 9100 1450
Wire Wire Line
	8000 2550 8550 2550
Wire Wire Line
	8550 2550 8550 1650
Wire Wire Line
	8550 1650 9100 1650
$Comp
L power:+5V #PWR030
U 1 1 5E6D1F3F
P 9550 1850
F 0 "#PWR030" H 9550 1700 50  0001 C CNN
F 1 "+5V" H 9565 2023 50  0000 C CNN
F 2 "" H 9550 1850 50  0001 C CNN
F 3 "" H 9550 1850 50  0001 C CNN
	1    9550 1850
	1    0    0    -1  
$EndComp
Connection ~ 9550 2450
$Comp
L Device:C C10
U 1 1 5EA2C782
P 8900 1850
F 0 "C10" H 9015 1896 50  0000 L CNN
F 1 "1.2 n" H 9015 1805 50  0000 L CNN
F 2 "Capacitor_THT:C_Axial_L3.8mm_D2.6mm_P7.50mm_Horizontal" H 8938 1700 50  0001 C CNN
F 3 "~" H 8900 1850 50  0001 C CNN
	1    8900 1850
	1    0    0    -1  
$EndComp
Wire Wire Line
	9400 1450 9450 1450
Wire Wire Line
	9550 1450 9550 1000
Wire Wire Line
	9550 1000 10050 1000
Wire Wire Line
	9450 1650 9600 1650
Wire Wire Line
	9600 1650 9600 1100
Wire Wire Line
	9600 1100 10050 1100
Connection ~ 9450 1650
Wire Wire Line
	9750 1300 10050 1300
Wire Wire Line
	9750 1300 9750 2150
Wire Wire Line
	10050 1500 9800 1500
Wire Wire Line
	9800 1500 9800 1600
Wire Wire Line
	9800 1600 10050 1600
Wire Wire Line
	9000 2300 8900 2300
Wire Wire Line
	8900 2300 8900 2250
Wire Wire Line
	7200 3200 7200 3050
$Comp
L power:Earth #PWR024
U 1 1 5EC54060
P 7200 3200
F 0 "#PWR024" H 7200 2950 50  0001 C CNN
F 1 "Earth" H 7200 3050 50  0001 C CNN
F 2 "" H 7200 3200 50  0001 C CNN
F 3 "~" H 7200 3200 50  0001 C CNN
	1    7200 3200
	1    0    0    -1  
$EndComp
$Comp
L power:Earth #PWR06
U 1 1 5ED2E47C
P 2150 7300
F 0 "#PWR06" H 2150 7050 50  0001 C CNN
F 1 "Earth" H 2150 7150 50  0001 C CNN
F 2 "" H 2150 7300 50  0001 C CNN
F 3 "~" H 2150 7300 50  0001 C CNN
	1    2150 7300
	1    0    0    -1  
$EndComp
Wire Wire Line
	2150 7300 2150 7050
$Comp
L power:+5V #PWR05
U 1 1 5ED4B14F
P 2150 2550
F 0 "#PWR05" H 2150 2400 50  0001 C CNN
F 1 "+5V" H 2165 2723 50  0000 C CNN
F 2 "" H 2150 2550 50  0001 C CNN
F 3 "" H 2150 2550 50  0001 C CNN
	1    2150 2550
	1    0    0    -1  
$EndComp
NoConn ~ 2750 4650
NoConn ~ 2750 6650
NoConn ~ 2750 6750
Wire Wire Line
	9700 3200 9700 3300
Wire Wire Line
	9550 1850 9550 2450
Wire Wire Line
	9750 2250 9750 4150
Wire Wire Line
	8800 4150 9750 4150
Wire Wire Line
	9800 2700 9800 4250
Wire Wire Line
	9700 2450 9950 2450
Wire Wire Line
	9700 2900 9950 2900
Wire Wire Line
	9700 3300 9950 3300
Wire Wire Line
	9700 3700 9950 3700
Wire Wire Line
	9750 2250 9950 2250
Wire Wire Line
	9800 2700 9950 2700
Wire Wire Line
	9950 3100 9850 3100
Wire Wire Line
	9850 3100 9850 4350
Wire Wire Line
	9900 4450 9900 3500
Wire Wire Line
	9900 3500 9950 3500
$Comp
L Device:LED D1
U 1 1 5E498746
P 10250 4550
F 0 "D1" H 10243 4295 50  0000 C CNN
F 1 "LED" H 10243 4386 50  0000 C CNN
F 2 "LED_THT:LED_BL-FL7680RGB" H 10250 4550 50  0001 C CNN
F 3 "~" H 10250 4550 50  0001 C CNN
	1    10250 4550
	-1   0    0    1   
$EndComp
Wire Wire Line
	3000 4950 3000 6900
Wire Wire Line
	2900 6050 2750 6050
Wire Wire Line
	2750 6150 2950 6150
Wire Wire Line
	10550 2350 10700 2350
Wire Wire Line
	10700 2350 10700 6050
Wire Wire Line
	10550 2800 10750 2800
Wire Wire Line
	10750 2800 10750 6150
Wire Wire Line
	10800 3200 10800 6250
Wire Wire Line
	10550 3600 10850 3600
Wire Wire Line
	10850 3600 10850 6350
NoConn ~ 2750 6250
NoConn ~ 2750 6350
NoConn ~ 2750 6450
NoConn ~ 2750 6550
Wire Wire Line
	10550 3200 10800 3200
Wire Wire Line
	8250 4950 8250 5050
Wire Wire Line
	8250 5050 7550 5050
Connection ~ 7550 5050
Wire Wire Line
	7550 5050 7550 5150
NoConn ~ 6400 1950
NoConn ~ 6400 2350
NoConn ~ 9900 1200
NoConn ~ 9900 1400
NoConn ~ 9900 1700
Wire Wire Line
	9900 1200 10050 1200
Wire Wire Line
	9900 1400 10050 1400
Wire Wire Line
	9900 1700 10050 1700
NoConn ~ 8000 2350
NoConn ~ 8000 1950
NoConn ~ 9900 900 
Wire Wire Line
	9900 900  10050 900 
$Comp
L power:+5V #PWR026
U 1 1 5F6EAA47
P 8250 3550
F 0 "#PWR026" H 8250 3400 50  0001 C CNN
F 1 "+5V" H 8265 3723 50  0000 C CNN
F 2 "" H 8250 3550 50  0001 C CNN
F 3 "" H 8250 3550 50  0001 C CNN
	1    8250 3550
	1    0    0    -1  
$EndComp
$Comp
L 74xx:74LS08 U7
U 3 1 5F15158E
P 10250 3200
F 0 "U7" H 10250 3525 50  0000 C CNN
F 1 "74LS08" H 10250 3434 50  0000 C CNN
F 2 "Package_SO:SOIC-14_3.9x8.7mm_P1.27mm" H 10250 3200 50  0001 C CNN
F 3 "http://www.ti.com/lit/gpn/sn74LS08" H 10250 3200 50  0001 C CNN
	3    10250 3200
	1    0    0    -1  
$EndComp
$Comp
L 74xx:74LS08 U7
U 4 1 5E4DCE97
P 10250 3600
F 0 "U7" H 10250 3925 50  0000 C CNN
F 1 "74LS08" H 10250 3834 50  0000 C CNN
F 2 "Package_SO:SOIC-14_3.9x8.7mm_P1.27mm" H 10250 3600 50  0001 C CNN
F 3 "http://www.ti.com/lit/gpn/sn74LS08" H 10250 3600 50  0001 C CNN
	4    10250 3600
	1    0    0    -1  
$EndComp
$Comp
L Device:C C11
U 1 1 5EA2CDD2
P 9450 1850
F 0 "C11" H 9565 1896 50  0000 L CNN
F 1 "1.2 n" H 9565 1805 50  0000 L CNN
F 2 "Capacitor_THT:C_Axial_L3.8mm_D2.6mm_P7.50mm_Horizontal" H 9488 1700 50  0001 C CNN
F 3 "~" H 9450 1850 50  0001 C CNN
	1    9450 1850
	1    0    0    -1  
$EndComp
Wire Wire Line
	9450 2000 9450 2150
$Comp
L power:Earth #PWR029
U 1 1 5E8607E2
P 9450 2150
F 0 "#PWR029" H 9450 1900 50  0001 C CNN
F 1 "Earth" H 9450 2000 50  0001 C CNN
F 2 "" H 9450 2150 50  0001 C CNN
F 3 "~" H 9450 2150 50  0001 C CNN
	1    9450 2150
	1    0    0    -1  
$EndComp
Wire Wire Line
	8700 2350 8700 2500
$Comp
L power:Earth #PWR027
U 1 1 5F849416
P 8700 2500
F 0 "#PWR027" H 8700 2250 50  0001 C CNN
F 1 "Earth" H 8700 2350 50  0001 C CNN
F 2 "" H 8700 2500 50  0001 C CNN
F 3 "~" H 8700 2500 50  0001 C CNN
	1    8700 2500
	1    0    0    -1  
$EndComp
Wire Wire Line
	8700 1550 9450 1550
Wire Wire Line
	9450 1550 9450 1450
Connection ~ 9450 1450
Wire Wire Line
	9450 1450 9550 1450
$Comp
L Device:CP C9
U 1 1 5E6E42DD
P 8900 1100
F 0 "C9" H 9018 1146 50  0000 L CNN
F 1 "1 u" H 9018 1055 50  0000 L CNN
F 2 "Capacitor_SMD:CP_Elec_3x5.3" H 8938 950 50  0001 C CNN
F 3 "~" H 8900 1100 50  0001 C CNN
	1    8900 1100
	1    0    0    -1  
$EndComp
$Comp
L Device:CP C8
U 1 1 5F8BB130
P 8700 2200
F 0 "C8" H 8818 2246 50  0000 L CNN
F 1 "1 u" H 8818 2155 50  0000 L CNN
F 2 "Capacitor_SMD:CP_Elec_3x5.3" H 8738 2050 50  0001 C CNN
F 3 "~" H 8700 2200 50  0001 C CNN
	1    8700 2200
	1    0    0    -1  
$EndComp
Wire Wire Line
	8700 2050 8700 1550
$Comp
L Device:Crystal ZQ1
U 1 1 5F929EC0
P 1150 3950
F 0 "ZQ1" H 1150 4218 50  0000 C CNN
F 1 "8 MHz" H 1150 4127 50  0000 C CNN
F 2 "Oscillator:Oscillator_SMD_Abracon_ASDMB-4Pin_2.5x2.0mm" H 1150 3950 50  0001 C CNN
F 3 "~" H 1150 3950 50  0001 C CNN
	1    1150 3950
	1    0    0    -1  
$EndComp
$Comp
L Device:C C2
U 1 1 5FA1845E
P 1400 4200
F 0 "C2" H 1515 4246 50  0000 L CNN
F 1 "22 p" H 1515 4155 50  0000 L CNN
F 2 "Capacitor_THT:C_Axial_L3.8mm_D2.6mm_P7.50mm_Horizontal" H 1438 4050 50  0001 C CNN
F 3 "~" H 1400 4200 50  0001 C CNN
	1    1400 4200
	1    0    0    -1  
$EndComp
Wire Wire Line
	1000 4050 1000 3950
Connection ~ 1000 3950
Wire Wire Line
	1400 4050 1400 3950
Connection ~ 1400 3950
$Comp
L Device:C C1
U 1 1 5F9FDD70
P 1000 4200
F 0 "C1" H 1115 4246 50  0000 L CNN
F 1 "22 p" H 1115 4155 50  0000 L CNN
F 2 "Capacitor_THT:C_Axial_L3.8mm_D2.6mm_P7.50mm_Horizontal" H 1038 4050 50  0001 C CNN
F 3 "~" H 1000 4200 50  0001 C CNN
	1    1000 4200
	1    0    0    -1  
$EndComp
$Comp
L power:Earth #PWR04
U 1 1 5E09016D
P 1400 4600
F 0 "#PWR04" H 1400 4350 50  0001 C CNN
F 1 "Earth" H 1400 4450 50  0001 C CNN
F 2 "" H 1400 4600 50  0001 C CNN
F 3 "~" H 1400 4600 50  0001 C CNN
	1    1400 4600
	1    0    0    -1  
$EndComp
$Comp
L power:Earth #PWR02
U 1 1 5FB847C4
P 1000 4600
F 0 "#PWR02" H 1000 4350 50  0001 C CNN
F 1 "Earth" H 1000 4450 50  0001 C CNN
F 2 "" H 1000 4600 50  0001 C CNN
F 3 "~" H 1000 4600 50  0001 C CNN
	1    1000 4600
	1    0    0    -1  
$EndComp
Wire Wire Line
	1000 4600 1000 4350
Wire Wire Line
	1400 4600 1400 4350
$Comp
L power:Earth #PWR01
U 1 1 5FC62B83
P 850 3600
F 0 "#PWR01" H 850 3350 50  0001 C CNN
F 1 "Earth" H 850 3450 50  0001 C CNN
F 2 "" H 850 3600 50  0001 C CNN
F 3 "~" H 850 3600 50  0001 C CNN
	1    850  3600
	1    0    0    -1  
$EndComp
Wire Wire Line
	850  3600 850  3350
Wire Wire Line
	5950 6900 5950 6650
$Comp
L power:Earth #PWR020
U 1 1 5EDC589B
P 5950 6900
F 0 "#PWR020" H 5950 6650 50  0001 C CNN
F 1 "Earth" H 5950 6750 50  0001 C CNN
F 2 "" H 5950 6900 50  0001 C CNN
F 3 "~" H 5950 6900 50  0001 C CNN
	1    5950 6900
	1    0    0    -1  
$EndComp
$Comp
L power:PWR_FLAG #FLG01
U 1 1 5EDC3D77
P 5950 6650
F 0 "#FLG01" H 5950 6725 50  0001 C CNN
F 1 "PWR_FLAG" H 5950 6823 50  0000 C CNN
F 2 "" H 5950 6650 50  0001 C CNN
F 3 "~" H 5950 6650 50  0001 C CNN
	1    5950 6650
	1    0    0    -1  
$EndComp
Wire Wire Line
	2750 3850 3800 3850
Wire Wire Line
	2750 3950 3800 3950
Wire Wire Line
	2750 4050 3800 4050
Wire Wire Line
	2750 3350 3800 3350
Wire Wire Line
	2750 3450 3800 3450
Wire Wire Line
	2750 3550 3800 3550
Wire Wire Line
	2750 3650 3800 3650
Wire Wire Line
	2750 3750 3800 3750
$Comp
L 74xx:74LS20 U3
U 1 1 5F80FD02
P 4000 5300
F 0 "U3" H 4000 5675 50  0000 C CNN
F 1 "74LS20" H 4000 5584 50  0000 C CNN
F 2 "Package_DIP:DIP-14_W8.89mm_SMDSocket_LongPads" H 4000 5300 50  0001 C CNN
F 3 "http://www.ti.com/lit/gpn/sn74LS20" H 4000 5300 50  0001 C CNN
	1    4000 5300
	1    0    0    -1  
$EndComp
$Comp
L power:Earth #PWR022
U 1 1 5E18CCE6
P 6450 7550
F 0 "#PWR022" H 6450 7300 50  0001 C CNN
F 1 "Earth" H 6450 7400 50  0001 C CNN
F 2 "" H 6450 7550 50  0001 C CNN
F 3 "~" H 6450 7550 50  0001 C CNN
	1    6450 7550
	1    0    0    -1  
$EndComp
Wire Wire Line
	6450 7550 6450 7500
$Comp
L 74xx:74LS21 U8
U 3 1 5F7CE313
P 6450 7150
F 0 "U8" H 6450 7525 50  0000 C CNN
F 1 "74LS21" H 6450 7434 50  0000 C CNN
F 2 "Package_DIP:DIP-14_W8.89mm_SMDSocket_LongPads" H 6450 7150 50  0001 C CNN
F 3 "http://www.ti.com/lit/gpn/sn74LS21" H 6450 7150 50  0001 C CNN
	3    6450 7150
	1    0    0    1   
$EndComp
$Comp
L 74xx:74LS21 U8
U 1 1 5E2A008D
P 7000 4450
F 0 "U8" H 7000 4825 50  0000 C CNN
F 1 "74LS21" H 7000 4734 50  0000 C CNN
F 2 "Package_DIP:DIP-14_W8.89mm_SMDSocket_LongPads" H 7000 4450 50  0001 C CNN
F 3 "http://www.ti.com/lit/gpn/sn74LS21" H 7000 4450 50  0001 C CNN
	1    7000 4450
	1    0    0    -1  
$EndComp
$Comp
L 74xx:74LS08 U7
U 5 1 5E2C5541
P 5450 7100
F 0 "U7" H 5450 7425 50  0000 C CNN
F 1 "74LS08" H 5450 7334 50  0000 C CNN
F 2 "Package_SO:SOIC-14_3.9x8.7mm_P1.27mm" H 5450 7100 50  0001 C CNN
F 3 "http://www.ti.com/lit/gpn/sn74LS08" H 5450 7100 50  0001 C CNN
	5    5450 7100
	1    0    0    -1  
$EndComp
$Comp
L power:+5V #PWR021
U 1 1 5E127782
P 6450 6550
F 0 "#PWR021" H 6450 6400 50  0001 C CNN
F 1 "+5V" H 6465 6723 50  0000 C CNN
F 2 "" H 6450 6550 50  0001 C CNN
F 3 "" H 6450 6550 50  0001 C CNN
	1    6450 6550
	1    0    0    -1  
$EndComp
$Comp
L power:+5V #PWR016
U 1 1 5E3171DF
P 5450 6500
F 0 "#PWR016" H 5450 6350 50  0001 C CNN
F 1 "+5V" H 5465 6673 50  0000 C CNN
F 2 "" H 5450 6500 50  0001 C CNN
F 3 "" H 5450 6500 50  0001 C CNN
	1    5450 6500
	1    0    0    -1  
$EndComp
$Comp
L power:Earth #PWR017
U 1 1 5E32D7C8
P 5450 7650
F 0 "#PWR017" H 5450 7400 50  0001 C CNN
F 1 "Earth" H 5450 7500 50  0001 C CNN
F 2 "" H 5450 7650 50  0001 C CNN
F 3 "~" H 5450 7650 50  0001 C CNN
	1    5450 7650
	1    0    0    -1  
$EndComp
Wire Wire Line
	5450 7650 5450 7600
$Comp
L 74xx:74LS20 U3
U 3 1 5E390AE2
P 4300 1500
F 0 "U3" H 4300 1875 50  0000 C CNN
F 1 "74LS20" H 4300 1784 50  0000 C CNN
F 2 "Package_DIP:DIP-14_W8.89mm_SMDSocket_LongPads" H 4300 1500 50  0001 C CNN
F 3 "http://www.ti.com/lit/gpn/sn74LS20" H 4300 1500 50  0001 C CNN
	3    4300 1500
	1    0    0    -1  
$EndComp
$Comp
L power:+5V #PWR010
U 1 1 5E3AFABC
P 4300 900
F 0 "#PWR010" H 4300 750 50  0001 C CNN
F 1 "+5V" H 4315 1073 50  0000 C CNN
F 2 "" H 4300 900 50  0001 C CNN
F 3 "" H 4300 900 50  0001 C CNN
	1    4300 900 
	1    0    0    -1  
$EndComp
Wire Wire Line
	4300 1000 4300 950 
$Comp
L power:Earth #PWR011
U 1 1 5E3DD782
P 4300 2150
F 0 "#PWR011" H 4300 1900 50  0001 C CNN
F 1 "Earth" H 4300 2000 50  0001 C CNN
F 2 "" H 4300 2150 50  0001 C CNN
F 3 "~" H 4300 2150 50  0001 C CNN
	1    4300 2150
	1    0    0    -1  
$EndComp
Wire Wire Line
	4300 2000 4300 2150
$Comp
L 74xx:74LS14 U5
U 7 1 5E4127F3
P 4900 1500
F 0 "U5" H 4900 1817 50  0000 C CNN
F 1 "74LS14" H 4900 1726 50  0000 C CNN
F 2 "Package_DIP:DIP-14_W8.89mm_SMDSocket_LongPads" H 4900 1500 50  0001 C CNN
F 3 "http://www.ti.com/lit/gpn/sn74LS14" H 4900 1500 50  0001 C CNN
	7    4900 1500
	1    0    0    -1  
$EndComp
$Comp
L power:+5V #PWR014
U 1 1 5E4424C8
P 4900 900
F 0 "#PWR014" H 4900 750 50  0001 C CNN
F 1 "+5V" H 4915 1073 50  0000 C CNN
F 2 "" H 4900 900 50  0001 C CNN
F 3 "" H 4900 900 50  0001 C CNN
	1    4900 900 
	1    0    0    -1  
$EndComp
Wire Wire Line
	4900 1000 4900 950 
$Comp
L power:Earth #PWR015
U 1 1 5E45C0E8
P 4900 2000
F 0 "#PWR015" H 4900 1750 50  0001 C CNN
F 1 "Earth" H 4900 1850 50  0001 C CNN
F 2 "" H 4900 2000 50  0001 C CNN
F 3 "~" H 4900 2000 50  0001 C CNN
	1    4900 2000
	1    0    0    -1  
$EndComp
$Comp
L 74xx:74LS21 U6
U 1 1 5E214558
P 5350 5450
F 0 "U6" H 5350 5825 50  0000 C CNN
F 1 "74LS21" H 5350 5734 50  0000 C CNN
F 2 "Package_DIP:DIP-14_W8.89mm_SMDSocket_LongPads" H 5350 5450 50  0001 C CNN
F 3 "http://www.ti.com/lit/gpn/sn74LS21" H 5350 5450 50  0001 C CNN
	1    5350 5450
	1    0    0    -1  
$EndComp
$Comp
L Device:CP C3
U 1 1 5E9C3582
P 2300 1600
F 0 "C3" H 2418 1646 50  0000 L CNN
F 1 "100 u" H 2418 1555 50  0000 L CNN
F 2 "Capacitor_SMD:CP_Elec_3x5.3" H 2338 1450 50  0001 C CNN
F 3 "~" H 2300 1600 50  0001 C CNN
	1    2300 1600
	1    0    0    -1  
$EndComp
$Comp
L Device:CP C4
U 1 1 5E117053
P 3200 1600
F 0 "C4" H 3318 1646 50  0000 L CNN
F 1 "10 u" H 3318 1555 50  0000 L CNN
F 2 "Capacitor_SMD:CP_Elec_3x5.3" H 3238 1450 50  0001 C CNN
F 3 "~" H 3200 1600 50  0001 C CNN
	1    3200 1600
	1    0    0    -1  
$EndComp
$Comp
L Device:CP C5
U 1 1 5E17CEA0
P 3650 1600
F 0 "C5" H 3768 1646 50  0000 L CNN
F 1 "1 u" H 3768 1555 50  0000 L CNN
F 2 "Capacitor_SMD:CP_Elec_3x5.3" H 3688 1450 50  0001 C CNN
F 3 "~" H 3650 1600 50  0001 C CNN
	1    3650 1600
	1    0    0    -1  
$EndComp
$Comp
L 74xx:74LS21 U6
U 3 1 5E4CEC79
P 5500 1500
F 0 "U6" H 5500 1875 50  0000 C CNN
F 1 "74LS21" H 5500 1784 50  0000 C CNN
F 2 "Package_DIP:DIP-14_W8.89mm_SMDSocket_LongPads" H 5500 1500 50  0001 C CNN
F 3 "http://www.ti.com/lit/gpn/sn74LS21" H 5500 1500 50  0001 C CNN
	3    5500 1500
	1    0    0    -1  
$EndComp
$Comp
L power:+5V #PWR018
U 1 1 5E508EC3
P 5500 900
F 0 "#PWR018" H 5500 750 50  0001 C CNN
F 1 "+5V" H 5515 1073 50  0000 C CNN
F 2 "" H 5500 900 50  0001 C CNN
F 3 "" H 5500 900 50  0001 C CNN
	1    5500 900 
	1    0    0    -1  
$EndComp
$Comp
L power:Earth #PWR019
U 1 1 5E520510
P 5500 2000
F 0 "#PWR019" H 5500 1750 50  0001 C CNN
F 1 "Earth" H 5500 1850 50  0001 C CNN
F 2 "" H 5500 2000 50  0001 C CNN
F 3 "~" H 5500 2000 50  0001 C CNN
	1    5500 2000
	1    0    0    -1  
$EndComp
$Comp
L power:Earth #PWR035
U 1 1 5E27280E
P 3050 2000
F 0 "#PWR035" H 3050 1750 50  0001 C CNN
F 1 "Earth" H 3050 1850 50  0001 C CNN
F 2 "" H 3050 2000 50  0001 C CNN
F 3 "~" H 3050 2000 50  0001 C CNN
	1    3050 2000
	1    0    0    -1  
$EndComp
Wire Wire Line
	3050 1850 3050 2000
$Comp
L Device:C C13
U 1 1 5E11A78D
P 4600 1100
F 0 "C13" H 4715 1146 50  0000 L CNN
F 1 "0.1 u" H 4715 1055 50  0000 L CNN
F 2 "Capacitor_THT:C_Axial_L3.8mm_D2.6mm_P7.50mm_Horizontal" H 4638 950 50  0001 C CNN
F 3 "~" H 4600 1100 50  0001 C CNN
	1    4600 1100
	1    0    0    -1  
$EndComp
$Comp
L power:Earth #PWR036
U 1 1 5E11A793
P 4600 1500
F 0 "#PWR036" H 4600 1250 50  0001 C CNN
F 1 "Earth" H 4600 1350 50  0001 C CNN
F 2 "" H 4600 1500 50  0001 C CNN
F 3 "~" H 4600 1500 50  0001 C CNN
	1    4600 1500
	1    0    0    -1  
$EndComp
Wire Wire Line
	4600 1500 4600 1250
$Comp
L Device:C C15
U 1 1 5E12F3B3
P 5200 1100
F 0 "C15" H 5315 1146 50  0000 L CNN
F 1 "0.1 u" H 5315 1055 50  0000 L CNN
F 2 "Capacitor_THT:C_Axial_L3.8mm_D2.6mm_P7.50mm_Horizontal" H 5238 950 50  0001 C CNN
F 3 "~" H 5200 1100 50  0001 C CNN
	1    5200 1100
	1    0    0    -1  
$EndComp
$Comp
L power:Earth #PWR038
U 1 1 5E12F3B9
P 5200 1500
F 0 "#PWR038" H 5200 1250 50  0001 C CNN
F 1 "Earth" H 5200 1350 50  0001 C CNN
F 2 "" H 5200 1500 50  0001 C CNN
F 3 "~" H 5200 1500 50  0001 C CNN
	1    5200 1500
	1    0    0    -1  
$EndComp
Wire Wire Line
	5200 1500 5200 1250
$Comp
L Device:C C17
U 1 1 5E144093
P 5800 1100
F 0 "C17" H 5915 1146 50  0000 L CNN
F 1 "0.1 u" H 5915 1055 50  0000 L CNN
F 2 "Capacitor_THT:C_Axial_L3.8mm_D2.6mm_P7.50mm_Horizontal" H 5838 950 50  0001 C CNN
F 3 "~" H 5800 1100 50  0001 C CNN
	1    5800 1100
	1    0    0    -1  
$EndComp
$Comp
L power:Earth #PWR040
U 1 1 5E144099
P 5800 1500
F 0 "#PWR040" H 5800 1250 50  0001 C CNN
F 1 "Earth" H 5800 1350 50  0001 C CNN
F 2 "" H 5800 1500 50  0001 C CNN
F 3 "~" H 5800 1500 50  0001 C CNN
	1    5800 1500
	1    0    0    -1  
$EndComp
Wire Wire Line
	5800 1500 5800 1250
Wire Wire Line
	5500 1000 5500 950 
Wire Wire Line
	4600 950  4300 950 
Connection ~ 4300 950 
Wire Wire Line
	4300 950  4300 900 
Wire Wire Line
	5200 950  4900 950 
Connection ~ 4900 950 
Wire Wire Line
	4900 950  4900 900 
Wire Wire Line
	5800 950  5500 950 
Connection ~ 5500 950 
Wire Wire Line
	5500 950  5500 900 
Wire Wire Line
	5450 6500 5450 6550
Wire Wire Line
	6450 6550 6450 6600
$Comp
L Device:C C16
U 1 1 5E296844
P 5750 6700
F 0 "C16" H 5865 6746 50  0000 L CNN
F 1 "0.1 u" H 5865 6655 50  0000 L CNN
F 2 "Capacitor_THT:C_Axial_L3.8mm_D2.6mm_P7.50mm_Horizontal" H 5788 6550 50  0001 C CNN
F 3 "~" H 5750 6700 50  0001 C CNN
	1    5750 6700
	1    0    0    -1  
$EndComp
$Comp
L power:Earth #PWR039
U 1 1 5E29684A
P 5750 7100
F 0 "#PWR039" H 5750 6850 50  0001 C CNN
F 1 "Earth" H 5750 6950 50  0001 C CNN
F 2 "" H 5750 7100 50  0001 C CNN
F 3 "~" H 5750 7100 50  0001 C CNN
	1    5750 7100
	1    0    0    -1  
$EndComp
Wire Wire Line
	5750 7100 5750 6850
Wire Wire Line
	5450 6550 5750 6550
Connection ~ 5450 6550
Wire Wire Line
	5450 6550 5450 6600
$Comp
L Device:C C18
U 1 1 5E2C4418
P 6750 6750
F 0 "C18" H 6865 6796 50  0000 L CNN
F 1 "0.1 u" H 6865 6705 50  0000 L CNN
F 2 "Capacitor_THT:C_Axial_L3.8mm_D2.6mm_P7.50mm_Horizontal" H 6788 6600 50  0001 C CNN
F 3 "~" H 6750 6750 50  0001 C CNN
	1    6750 6750
	1    0    0    -1  
$EndComp
$Comp
L power:Earth #PWR041
U 1 1 5E2C441E
P 6750 7150
F 0 "#PWR041" H 6750 6900 50  0001 C CNN
F 1 "Earth" H 6750 7000 50  0001 C CNN
F 2 "" H 6750 7150 50  0001 C CNN
F 3 "~" H 6750 7150 50  0001 C CNN
	1    6750 7150
	1    0    0    -1  
$EndComp
Wire Wire Line
	6750 7150 6750 6900
Wire Wire Line
	6450 6600 6750 6600
Connection ~ 6450 6600
Wire Wire Line
	6450 6600 6450 6650
$Comp
L Device:C C14
U 1 1 5E3158AA
P 5000 2800
F 0 "C14" H 5115 2846 50  0000 L CNN
F 1 "0.1 u" H 5115 2755 50  0000 L CNN
F 2 "Capacitor_THT:C_Axial_L3.8mm_D2.6mm_P7.50mm_Horizontal" H 5038 2650 50  0001 C CNN
F 3 "~" H 5000 2800 50  0001 C CNN
	1    5000 2800
	1    0    0    -1  
$EndComp
$Comp
L power:Earth #PWR037
U 1 1 5E3158B0
P 5000 3200
F 0 "#PWR037" H 5000 2950 50  0001 C CNN
F 1 "Earth" H 5000 3050 50  0001 C CNN
F 2 "" H 5000 3200 50  0001 C CNN
F 3 "~" H 5000 3200 50  0001 C CNN
	1    5000 3200
	1    0    0    -1  
$EndComp
Wire Wire Line
	5000 3200 5000 2950
Wire Wire Line
	4700 2650 5000 2650
Wire Wire Line
	4300 3000 4700 3000
Wire Wire Line
	4700 3000 4700 2650
Connection ~ 4300 3000
Wire Wire Line
	4300 3000 4300 2950
$Comp
L Device:C C12
U 1 1 5E37582D
P 2850 2800
F 0 "C12" H 2965 2846 50  0000 L CNN
F 1 "0.1 u" H 2965 2755 50  0000 L CNN
F 2 "Capacitor_THT:C_Axial_L3.8mm_D2.6mm_P7.50mm_Horizontal" H 2888 2650 50  0001 C CNN
F 3 "~" H 2850 2800 50  0001 C CNN
	1    2850 2800
	1    0    0    -1  
$EndComp
$Comp
L power:Earth #PWR034
U 1 1 5E375833
P 2850 3200
F 0 "#PWR034" H 2850 2950 50  0001 C CNN
F 1 "Earth" H 2850 3050 50  0001 C CNN
F 2 "" H 2850 3200 50  0001 C CNN
F 3 "~" H 2850 3200 50  0001 C CNN
	1    2850 3200
	1    0    0    -1  
$EndComp
Wire Wire Line
	2850 3200 2850 2950
Wire Wire Line
	2150 2650 2850 2650
Connection ~ 2150 2650
Wire Wire Line
	2150 2650 2150 2550
Wire Wire Line
	2150 2650 2150 3050
$Comp
L Device:C C19
U 1 1 5E46CB28
P 8600 3750
F 0 "C19" H 8715 3796 50  0000 L CNN
F 1 "0.1 u" H 8715 3705 50  0000 L CNN
F 2 "Capacitor_THT:C_Axial_L3.8mm_D2.6mm_P7.50mm_Horizontal" H 8638 3600 50  0001 C CNN
F 3 "~" H 8600 3750 50  0001 C CNN
	1    8600 3750
	1    0    0    -1  
$EndComp
$Comp
L power:Earth #PWR042
U 1 1 5E46CB2E
P 8600 4000
F 0 "#PWR042" H 8600 3750 50  0001 C CNN
F 1 "Earth" H 8600 3850 50  0001 C CNN
F 2 "" H 8600 4000 50  0001 C CNN
F 3 "~" H 8600 4000 50  0001 C CNN
	1    8600 4000
	1    0    0    -1  
$EndComp
Wire Wire Line
	8600 4000 8600 3900
Wire Wire Line
	8250 3550 8250 3600
Wire Wire Line
	8600 3600 8250 3600
Connection ~ 8250 3600
Wire Wire Line
	8250 3600 8250 4050
Wire Wire Line
	1850 1500 1850 1300
$Comp
L lab1-cache:lab1-rescue_DS-201-New_Library1 XP1
U 1 1 5E3764B9
P 1200 1500
F 0 "XP1" H 1233 1815 50  0000 C CNN
F 1 "lab1-rescue_DS-201-New_Library1" H 1233 1724 50  0000 C CNN
F 2 "Connector:Banana_Jack_2Pin" H 1450 1700 50  0001 C CNN
F 3 "" H 1450 1700 50  0001 C CNN
	1    1200 1500
	1    0    0    -1  
$EndComp
Wire Wire Line
	1850 1300 2300 1300
Wire Wire Line
	1850 1850 2300 1850
Wire Wire Line
	1850 1500 1550 1500
Wire Wire Line
	1550 1600 1850 1600
Wire Wire Line
	1850 1600 1850 1850
$EndSCHEMATC
