EESchema Schematic File Version 4
LIBS:lab1-cache
EELAYER 30 0
EELAYER END
$Descr A3 16535 11693
encoding utf-8
Sheet 1 1
Title "Схема электрическая принципиальная"
Date ""
Rev ""
Comp "МГТУ им. Н.Э.Баумана Группа ИУ6-71Б"
Comment1 "Контроллер с заданными функциями"
Comment2 "Муслимов П.С."
Comment3 ""
Comment4 ""
$EndDescr
$Comp
L my_Library1:DS-201 XP1
U 1 1 5DD4FB5D
P 2150 1850
F 0 "XP1" H 2183 1965 50  0000 C CNN
F 1 "DS-201" H 2183 1874 50  0000 C CNN
F 2 "Connector:Banana_Jack_2Pin" H 2150 1850 50  0001 C CNN
F 3 "" H 2150 1850 50  0001 C CNN
	1    2150 1850
	1    0    0    -1  
$EndComp
Wire Wire Line
	2450 2100 2550 2100
Wire Wire Line
	2550 2100 2550 1900
Wire Wire Line
	2900 1900 2900 2000
Wire Wire Line
	2450 2250 2550 2250
Wire Wire Line
	2550 2250 2550 2450
Wire Wire Line
	2550 2450 2700 2450
Wire Wire Line
	2900 2450 2900 2300
$Comp
L Regulator_Linear:LM7805_TO220 DD1
U 1 1 5DD54E4A
P 3700 1900
F 0 "DD1" H 3700 2142 50  0000 C CNN
F 1 "LM7805_TO220" H 3700 2051 50  0000 C CNN
F 2 "Package_TO_SOT_THT:TO-220-3_Vertical" H 3700 2125 50  0001 C CIN
F 3 "http://www.fairchildsemi.com/ds/LM/LM7805.pdf" H 3700 1850 50  0001 C CNN
	1    3700 1900
	1    0    0    -1  
$EndComp
Wire Wire Line
	3400 1900 2900 1900
Wire Wire Line
	3700 2200 3700 2450
Wire Wire Line
	3700 2450 2900 2450
Connection ~ 2900 2450
$Comp
L power:Earth #PWR03
U 1 1 5DD56A07
P 3700 2550
F 0 "#PWR03" H 3700 2300 50  0001 C CNN
F 1 "Earth" H 3700 2400 50  0001 C CNN
F 2 "" H 3700 2550 50  0001 C CNN
F 3 "~" H 3700 2550 50  0001 C CNN
	1    3700 2550
	1    0    0    -1  
$EndComp
Wire Wire Line
	3700 2550 3700 2450
Connection ~ 3700 2450
Wire Wire Line
	4000 1900 4200 1900
Wire Wire Line
	4200 1900 4200 2050
Wire Wire Line
	4200 2350 4200 2450
Wire Wire Line
	4200 2450 3700 2450
Wire Wire Line
	4700 2050 4700 1900
Wire Wire Line
	4700 1900 4200 1900
Connection ~ 4200 1900
Wire Wire Line
	4700 2350 4700 2450
Wire Wire Line
	4700 2450 4200 2450
Connection ~ 4200 2450
$Comp
L power:+5V #PWR05
U 1 1 5DD58EEC
P 4700 1650
F 0 "#PWR05" H 4700 1500 50  0001 C CNN
F 1 "+5V" H 4715 1823 50  0000 C CNN
F 2 "" H 4700 1650 50  0001 C CNN
F 3 "" H 4700 1650 50  0001 C CNN
	1    4700 1650
	1    0    0    -1  
$EndComp
Wire Wire Line
	4700 1650 4700 1900
Connection ~ 4700 1900
$Comp
L Device:CP C1
U 1 1 5DD598A2
P 2900 2150
F 0 "C1" H 3018 2196 50  0000 L CNN
F 1 "100 u" H 3018 2105 50  0000 L CNN
F 2 "Capacitor_SMD:CP_Elec_5x5.3" H 2938 2000 50  0001 C CNN
F 3 "~" H 2900 2150 50  0001 C CNN
	1    2900 2150
	1    0    0    -1  
$EndComp
$Comp
L Device:CP C2
U 1 1 5DD5A843
P 4200 2200
F 0 "C2" H 4318 2246 50  0000 L CNN
F 1 "10 u" H 4318 2155 50  0000 L CNN
F 2 "Capacitor_SMD:CP_Elec_5x5.3" H 4238 2050 50  0001 C CNN
F 3 "~" H 4200 2200 50  0001 C CNN
	1    4200 2200
	1    0    0    -1  
$EndComp
$Comp
L Device:CP C4
U 1 1 5DD5B013
P 4700 2200
F 0 "C4" H 4818 2246 50  0000 L CNN
F 1 "1 u" H 4818 2155 50  0000 L CNN
F 2 "Capacitor_SMD:CP_Elec_5x3" H 4738 2050 50  0001 C CNN
F 3 "~" H 4700 2200 50  0001 C CNN
	1    4700 2200
	1    0    0    -1  
$EndComp
$Comp
L MCU_Microchip_ATmega:ATmega8515L-8PU DD2
U 1 1 5DD5BEA5
P 5600 5200
F 0 "DD2" H 5600 7381 50  0000 C CNN
F 1 "ATmega8515L-8PU" H 5600 7290 50  0000 C CNN
F 2 "Package_DIP:DIP-40_W15.24mm" H 5600 5200 50  0001 C CIN
F 3 "http://ww1.microchip.com/downloads/en/DeviceDoc/doc2512.pdf" H 5600 5200 50  0001 C CNN
	1    5600 5200
	1    0    0    -1  
$EndComp
$Comp
L power:+5V #PWR08
U 1 1 5DD5FD3F
P 6150 3000
F 0 "#PWR08" H 6150 2850 50  0001 C CNN
F 1 "+5V" H 6165 3173 50  0000 C CNN
F 2 "" H 6150 3000 50  0001 C CNN
F 3 "" H 6150 3000 50  0001 C CNN
	1    6150 3000
	1    0    0    -1  
$EndComp
Wire Wire Line
	6100 3050 6100 3200
Wire Wire Line
	6100 3200 5600 3200
$Comp
L power:Earth #PWR07
U 1 1 5DD608B3
P 5600 7350
F 0 "#PWR07" H 5600 7100 50  0001 C CNN
F 1 "Earth" H 5600 7200 50  0001 C CNN
F 2 "" H 5600 7350 50  0001 C CNN
F 3 "~" H 5600 7350 50  0001 C CNN
	1    5600 7350
	1    0    0    -1  
$EndComp
Wire Wire Line
	5600 7200 5600 7350
$Comp
L Device:Crystal ZQ1
U 1 1 5DD61E2D
P 4500 4300
F 0 "ZQ1" H 4500 4568 50  0000 C CNN
F 1 "8 MHz" H 4500 4477 50  0000 C CNN
F 2 "Crystal:Crystal_HC49-U_Horizontal_1EP_style1" H 4500 4300 50  0001 C CNN
F 3 "~" H 4500 4300 50  0001 C CNN
	1    4500 4300
	1    0    0    -1  
$EndComp
$Comp
L Device:C C3
U 1 1 5DD62AD6
P 4200 4650
F 0 "C3" H 4315 4696 50  0000 L CNN
F 1 "22 p" H 4315 4605 50  0000 L CNN
F 2 "Capacitor_SMD:CP_Elec_4x3" H 4238 4500 50  0001 C CNN
F 3 "~" H 4200 4650 50  0001 C CNN
	1    4200 4650
	1    0    0    -1  
$EndComp
$Comp
L Device:C C5
U 1 1 5DD6322B
P 4750 4650
F 0 "C5" H 4865 4696 50  0000 L CNN
F 1 "22 p" H 4865 4605 50  0000 L CNN
F 2 "Capacitor_SMD:CP_Elec_4x3" H 4788 4500 50  0001 C CNN
F 3 "~" H 4750 4650 50  0001 C CNN
	1    4750 4650
	1    0    0    -1  
$EndComp
$Comp
L power:Earth #PWR04
U 1 1 5DD63B76
P 4200 4950
F 0 "#PWR04" H 4200 4700 50  0001 C CNN
F 1 "Earth" H 4200 4800 50  0001 C CNN
F 2 "" H 4200 4950 50  0001 C CNN
F 3 "~" H 4200 4950 50  0001 C CNN
	1    4200 4950
	1    0    0    -1  
$EndComp
$Comp
L power:Earth #PWR06
U 1 1 5DD645AA
P 4750 4950
F 0 "#PWR06" H 4750 4700 50  0001 C CNN
F 1 "Earth" H 4750 4800 50  0001 C CNN
F 2 "" H 4750 4950 50  0001 C CNN
F 3 "~" H 4750 4950 50  0001 C CNN
	1    4750 4950
	1    0    0    -1  
$EndComp
Wire Wire Line
	4750 4950 4750 4800
Wire Wire Line
	4200 4950 4200 4800
Wire Wire Line
	4200 4500 4200 4300
Wire Wire Line
	4200 4300 4350 4300
Wire Wire Line
	4650 4300 4750 4300
Wire Wire Line
	4750 4300 4750 4500
Wire Wire Line
	5000 3700 4750 3700
Wire Wire Line
	4750 3700 4750 4300
Connection ~ 4750 4300
Wire Wire Line
	5000 3900 4200 3900
Wire Wire Line
	4200 3900 4200 4300
Connection ~ 4200 4300
$Comp
L Display_Character:NHD-0420H1Z HG1
U 1 1 5DD67ED8
P 8550 3450
F 0 "HG1" H 8500 4500 50  0000 C CNN
F 1 "LM016L" H 8500 4400 50  0000 C CNN
F 2 "Display:NHD-0420H1Z" H 8550 2550 50  0001 C CNN
F 3 "http://www.newhavendisplay.com/specs/NHD-0420H1Z-FSW-GBW-33V3.pdf" H 8650 3350 50  0001 C CNN
	1    8550 3450
	1    0    0    -1  
$EndComp
$Comp
L Interface_UART:MAX232 DD3
U 1 1 5DD68D27
P 9650 6150
F 0 "DD3" H 9650 7531 50  0000 C CNN
F 1 "MAX232" H 9650 7440 50  0000 C CNN
F 2 "Transformer_SMD:Transformer_Ethernet_Bel_S558-5999-T7-F" H 9700 5100 50  0001 L CNN
F 3 "http://www.ti.com/lit/ds/symlink/max232.pdf" H 9650 6250 50  0001 C CNN
	1    9650 6150
	1    0    0    -1  
$EndComp
Wire Wire Line
	8150 2850 7850 2850
Entry Wire Line
	7750 2950 7850 2850
Wire Wire Line
	7850 2950 8150 2950
Wire Wire Line
	7850 3050 8150 3050
Wire Wire Line
	7850 3750 8150 3750
Wire Wire Line
	7850 3850 8150 3850
Wire Wire Line
	7850 3950 8150 3950
Wire Wire Line
	7850 4050 8150 4050
$Comp
L power:+5V #PWR012
U 1 1 5DD7217E
P 9100 2500
F 0 "#PWR012" H 9100 2350 50  0001 C CNN
F 1 "+5V" H 9115 2673 50  0000 C CNN
F 2 "" H 9100 2500 50  0001 C CNN
F 3 "" H 9100 2500 50  0001 C CNN
	1    9100 2500
	1    0    0    -1  
$EndComp
$Comp
L power:Earth #PWR011
U 1 1 5DD72E64
P 8100 4400
F 0 "#PWR011" H 8100 4150 50  0001 C CNN
F 1 "Earth" H 8100 4250 50  0001 C CNN
F 2 "" H 8100 4400 50  0001 C CNN
F 3 "~" H 8100 4400 50  0001 C CNN
	1    8100 4400
	1    0    0    -1  
$EndComp
Entry Wire Line
	7650 4400 7750 4500
Entry Wire Line
	7650 4500 7750 4600
Entry Wire Line
	7650 4600 7750 4700
Wire Wire Line
	6200 4400 7650 4400
Wire Wire Line
	7650 4500 6200 4500
Wire Wire Line
	6200 4600 7650 4600
Entry Wire Line
	7650 5300 7750 5400
Entry Wire Line
	7650 5400 7750 5500
Entry Wire Line
	7650 5500 7750 5600
Wire Wire Line
	6200 5300 7650 5300
Wire Wire Line
	7650 5400 6200 5400
Wire Wire Line
	6200 5500 7650 5500
Wire Wire Line
	6200 5600 7650 5600
Entry Wire Line
	7650 5600 7750 5700
Entry Wire Line
	7950 6200 8050 6300
Entry Wire Line
	7950 6300 8050 6400
Wire Wire Line
	6200 6200 7950 6200
Wire Wire Line
	6200 6300 7950 6300
$Comp
L power:Earth #PWR013
U 1 1 5DD84A03
P 9650 7500
F 0 "#PWR013" H 9650 7250 50  0001 C CNN
F 1 "Earth" H 9650 7350 50  0001 C CNN
F 2 "" H 9650 7500 50  0001 C CNN
F 3 "~" H 9650 7500 50  0001 C CNN
	1    9650 7500
	1    0    0    -1  
$EndComp
Wire Wire Line
	9650 7350 9650 7500
$Comp
L power:+5V #PWR014
U 1 1 5DD85D51
P 9900 4850
F 0 "#PWR014" H 9900 4700 50  0001 C CNN
F 1 "+5V" H 9915 5023 50  0000 C CNN
F 2 "" H 9900 4850 50  0001 C CNN
F 3 "" H 9900 4850 50  0001 C CNN
	1    9900 4850
	1    0    0    -1  
$EndComp
Wire Wire Line
	9900 4850 9900 4900
Wire Wire Line
	9900 4950 9650 4950
$Comp
L Device:CP C6
U 1 1 5DD875D5
P 8550 5400
F 0 "C6" H 8668 5446 50  0000 L CNN
F 1 "1 u" H 8668 5355 50  0000 L CNN
F 2 "Capacitor_SMD:CP_Elec_5x3" H 8588 5250 50  0001 C CNN
F 3 "~" H 8550 5400 50  0001 C CNN
	1    8550 5400
	1    0    0    -1  
$EndComp
$Comp
L Device:CP C7
U 1 1 5DD88A12
P 10850 5400
F 0 "C7" H 10968 5446 50  0000 L CNN
F 1 "1 u" H 10968 5355 50  0000 L CNN
F 2 "Capacitor_SMD:CP_Elec_5x3" H 10888 5250 50  0001 C CNN
F 3 "~" H 10850 5400 50  0001 C CNN
	1    10850 5400
	1    0    0    -1  
$EndComp
$Comp
L Device:CP C11
U 1 1 5DD89408
P 11500 5150
F 0 "C11" H 11618 5196 50  0000 L CNN
F 1 "1 u" H 11618 5105 50  0000 L CNN
F 2 "Capacitor_SMD:CP_Elec_5x3" H 11538 5000 50  0001 C CNN
F 3 "~" H 11500 5150 50  0001 C CNN
	1    11500 5150
	1    0    0    -1  
$EndComp
$Comp
L Device:CP C10
U 1 1 5DD8A4ED
P 11450 5900
F 0 "C10" H 11568 5946 50  0000 L CNN
F 1 "1 u" H 11568 5855 50  0000 L CNN
F 2 "Capacitor_SMD:CP_Elec_5x3" H 11488 5750 50  0001 C CNN
F 3 "~" H 11450 5900 50  0001 C CNN
	1    11450 5900
	1    0    0    -1  
$EndComp
Wire Wire Line
	10450 5250 10850 5250
Wire Wire Line
	10850 5550 10450 5550
Wire Wire Line
	8850 5250 8550 5250
Wire Wire Line
	8850 5550 8550 5550
Wire Wire Line
	10450 5750 11000 5750
Wire Wire Line
	11000 5750 11000 5600
Wire Wire Line
	11000 5600 11500 5600
Wire Wire Line
	11500 5600 11500 5300
Wire Wire Line
	11500 5000 11500 4900
Wire Wire Line
	11500 4900 9900 4900
Connection ~ 9900 4900
Wire Wire Line
	9900 4900 9900 4950
Wire Wire Line
	10450 6050 11150 6050
Wire Wire Line
	11150 6050 11150 5650
Wire Wire Line
	11150 5650 11450 5650
Wire Wire Line
	11450 5650 11450 5750
$Comp
L power:Earth #PWR017
U 1 1 5DD95367
P 11450 6150
F 0 "#PWR017" H 11450 5900 50  0001 C CNN
F 1 "Earth" H 11450 6000 50  0001 C CNN
F 2 "" H 11450 6150 50  0001 C CNN
F 3 "~" H 11450 6150 50  0001 C CNN
	1    11450 6150
	1    0    0    -1  
$EndComp
Wire Wire Line
	11450 6050 11450 6150
$Comp
L my_Library1:RS-232 XP3
U 1 1 5DD9B81A
P 12600 6000
F 0 "XP3" H 12550 6050 50  0000 L CNN
F 1 "RS-232" H 12500 5950 50  0000 L CNN
F 2 "Connector_Dsub:DSUB-9_Male_Vertical_P2.77x2.84mm" H 12600 6000 50  0001 C CNN
F 3 "" H 12600 6000 50  0001 C CNN
	1    12600 6000
	1    0    0    -1  
$EndComp
Wire Wire Line
	12200 7250 12100 7250
Wire Wire Line
	12100 7250 12100 7400
Wire Wire Line
	12100 7400 12200 7400
Wire Wire Line
	12200 7550 12100 7550
Wire Wire Line
	12200 6350 12100 6350
Wire Wire Line
	12200 7100 12100 7100
Wire Wire Line
	12200 6800 12100 6800
$Comp
L power:Earth #PWR018
U 1 1 5DDAD978
P 11850 7100
F 0 "#PWR018" H 11850 6850 50  0001 C CNN
F 1 "Earth" H 11850 6950 50  0001 C CNN
F 2 "" H 11850 7100 50  0001 C CNN
F 3 "~" H 11850 7100 50  0001 C CNN
	1    11850 7100
	1    0    0    -1  
$EndComp
Wire Wire Line
	12200 6950 11850 6950
Wire Wire Line
	11850 6950 11850 7100
$Comp
L Device:C C9
U 1 1 5DDB07DC
P 11300 7200
F 0 "C9" H 11415 7246 50  0000 L CNN
F 1 "1.2 n" H 11415 7155 50  0000 L CNN
F 2 "Capacitor_THT:CP_Axial_L20.0mm_D13.0mm_P26.00mm_Horizontal" H 11338 7050 50  0001 C CNN
F 3 "~" H 11300 7200 50  0001 C CNN
	1    11300 7200
	1    0    0    -1  
$EndComp
$Comp
L Device:C C8
U 1 1 5DDB1099
P 10850 7200
F 0 "C8" H 10965 7246 50  0000 L CNN
F 1 "1.2 n" H 10965 7155 50  0000 L CNN
F 2 "Capacitor_THT:CP_Axial_L20.0mm_D13.0mm_P26.00mm_Horizontal" H 10888 7050 50  0001 C CNN
F 3 "~" H 10850 7200 50  0001 C CNN
	1    10850 7200
	1    0    0    -1  
$EndComp
$Comp
L Device:R R11
U 1 1 5DDB24C3
P 10800 6450
F 0 "R11" V 10593 6450 50  0000 C CNN
F 1 "470" V 10684 6450 50  0000 C CNN
F 2 "Resistor_THT:R_Axial_DIN0207_L6.3mm_D2.5mm_P7.62mm_Horizontal" V 10730 6450 50  0001 C CNN
F 3 "~" H 10800 6450 50  0001 C CNN
	1    10800 6450
	0    1    1    0   
$EndComp
$Comp
L Device:R R12
U 1 1 5DDB2E05
P 10800 6850
F 0 "R12" V 10593 6850 50  0000 C CNN
F 1 "470" V 10684 6850 50  0000 C CNN
F 2 "Resistor_THT:R_Axial_DIN0207_L6.3mm_D2.5mm_P7.62mm_Horizontal" V 10730 6850 50  0001 C CNN
F 3 "~" H 10800 6850 50  0001 C CNN
	1    10800 6850
	0    1    1    0   
$EndComp
Wire Wire Line
	10650 6450 10450 6450
Wire Wire Line
	11900 6450 11900 6500
Wire Wire Line
	11900 6500 12200 6500
Wire Wire Line
	10950 6450 11100 6450
Wire Wire Line
	10650 6850 10450 6850
Wire Wire Line
	10950 6850 11300 6850
Wire Wire Line
	11900 6850 11900 6650
Wire Wire Line
	11900 6650 12200 6650
Wire Wire Line
	10850 7050 10850 7000
Wire Wire Line
	10850 7000 11100 7000
Wire Wire Line
	11100 7000 11100 6450
Connection ~ 11100 6450
Wire Wire Line
	11100 6450 11900 6450
Wire Wire Line
	11300 7050 11300 6850
Connection ~ 11300 6850
Wire Wire Line
	11300 6850 11900 6850
$Comp
L power:Earth #PWR015
U 1 1 5DDC44F2
P 10850 7500
F 0 "#PWR015" H 10850 7250 50  0001 C CNN
F 1 "Earth" H 10850 7350 50  0001 C CNN
F 2 "" H 10850 7500 50  0001 C CNN
F 3 "~" H 10850 7500 50  0001 C CNN
	1    10850 7500
	1    0    0    -1  
$EndComp
$Comp
L power:Earth #PWR016
U 1 1 5DDC4DC9
P 11300 7500
F 0 "#PWR016" H 11300 7250 50  0001 C CNN
F 1 "Earth" H 11300 7350 50  0001 C CNN
F 2 "" H 11300 7500 50  0001 C CNN
F 3 "~" H 11300 7500 50  0001 C CNN
	1    11300 7500
	1    0    0    -1  
$EndComp
Wire Wire Line
	10850 7500 10850 7350
Wire Wire Line
	11300 7350 11300 7500
$Comp
L my_Library1:IDC-06MS XP2
U 1 1 5DDDDB61
P 7550 7550
F 0 "XP2" H 7500 7600 50  0000 L CNN
F 1 "IDC-06MS" H 7400 7500 50  0000 L CNN
F 2 "Connector_IDC:IDC-Header_2x03_P2.54mm_Horizontal" H 7550 7550 50  0001 C CNN
F 3 "" H 7550 7550 50  0001 C CNN
	1    7550 7550
	1    0    0    -1  
$EndComp
Entry Wire Line
	6700 8450 6800 8350
Entry Wire Line
	6700 8300 6800 8200
Entry Wire Line
	6700 8000 6800 7900
Wire Wire Line
	7150 7900 6800 7900
Wire Wire Line
	7150 8200 6800 8200
Wire Wire Line
	7150 8350 6800 8350
$Comp
L power:+5V #PWR010
U 1 1 5DDF80B6
P 7050 7500
F 0 "#PWR010" H 7050 7350 50  0001 C CNN
F 1 "+5V" H 7065 7673 50  0000 C CNN
F 2 "" H 7050 7500 50  0001 C CNN
F 3 "" H 7050 7500 50  0001 C CNN
	1    7050 7500
	1    0    0    -1  
$EndComp
$Comp
L power:Earth #PWR09
U 1 1 5DDFB91F
P 6950 8800
F 0 "#PWR09" H 6950 8550 50  0001 C CNN
F 1 "Earth" H 6950 8650 50  0001 C CNN
F 2 "" H 6950 8800 50  0001 C CNN
F 3 "~" H 6950 8800 50  0001 C CNN
	1    6950 8800
	1    0    0    -1  
$EndComp
Wire Wire Line
	7150 8650 6950 8650
Wire Wire Line
	6950 8650 6950 8800
Entry Wire Line
	7050 3800 6950 3700
Entry Wire Line
	7050 3900 6950 3800
Entry Wire Line
	7050 4000 6950 3900
Entry Wire Line
	7050 4100 6950 4000
Entry Wire Line
	7050 4200 6950 4100
Entry Wire Line
	7050 4300 6950 4200
Entry Wire Line
	7050 3700 6950 3600
Entry Wire Line
	7050 3600 6950 3500
Wire Bus Line
	3850 2800 7050 2800
Wire Wire Line
	6200 4200 6950 4200
Wire Wire Line
	6200 4100 6950 4100
Wire Wire Line
	6200 4000 6950 4000
Wire Wire Line
	6200 3900 6950 3900
Wire Wire Line
	6200 3800 6950 3800
Wire Wire Line
	6200 3700 6950 3700
Wire Wire Line
	6200 3600 6950 3600
Wire Wire Line
	6200 3500 6950 3500
Wire Wire Line
	8100 4400 8100 4300
Wire Wire Line
	8100 4300 8550 4300
Wire Wire Line
	8550 4300 8550 4250
Text Label 7850 2850 0    50   ~ 0
RS
Wire Wire Line
	9100 2500 9100 2600
Wire Wire Line
	9100 2600 8550 2600
Wire Wire Line
	8550 2600 8550 2650
Entry Wire Line
	6950 6400 7050 6500
Wire Wire Line
	6950 6400 6200 6400
$Comp
L Switch:SW_Push SW1
U 1 1 5DEA6633
P 2100 3700
F 0 "SW1" H 2100 3985 50  0000 C CNN
F 1 "\"100 м\"" H 2100 3894 50  0000 C CNN
F 2 "Button_Switch_Keyboard:SW_Cherry_MX_1.00u_PCB" H 2100 3900 50  0001 C CNN
F 3 "~" H 2100 3900 50  0001 C CNN
	1    2100 3700
	1    0    0    -1  
$EndComp
$Comp
L Switch:SW_Push SW2
U 1 1 5DEA7345
P 2100 4150
F 0 "SW2" H 2100 4435 50  0000 C CNN
F 1 "\"400 м\"" H 2100 4344 50  0000 C CNN
F 2 "Button_Switch_Keyboard:SW_Cherry_MX_1.00u_PCB" H 2100 4350 50  0001 C CNN
F 3 "~" H 2100 4350 50  0001 C CNN
	1    2100 4150
	1    0    0    -1  
$EndComp
$Comp
L Switch:SW_Push SW3
U 1 1 5DEA7B72
P 2100 4600
F 0 "SW3" H 2100 4885 50  0000 C CNN
F 1 "\"1500 м\"" H 2100 4794 50  0000 C CNN
F 2 "Button_Switch_Keyboard:SW_Cherry_MX_1.00u_PCB" H 2100 4800 50  0001 C CNN
F 3 "~" H 2100 4800 50  0001 C CNN
	1    2100 4600
	1    0    0    -1  
$EndComp
$Comp
L Switch:SW_Push SW4
U 1 1 5DEA830E
P 2100 5100
F 0 "SW4" H 2100 5385 50  0000 C CNN
F 1 "\"Финиш 1\"" H 2100 5294 50  0000 C CNN
F 2 "Button_Switch_Keyboard:SW_Cherry_MX_1.00u_PCB" H 2100 5300 50  0001 C CNN
F 3 "~" H 2100 5300 50  0001 C CNN
	1    2100 5100
	1    0    0    -1  
$EndComp
$Comp
L Switch:SW_Push SW5
U 1 1 5DEA878D
P 2100 5550
F 0 "SW5" H 2100 5835 50  0000 C CNN
F 1 "\"Финиш 2\"" H 2100 5744 50  0000 C CNN
F 2 "Button_Switch_Keyboard:SW_Cherry_MX_1.00u_PCB" H 2100 5750 50  0001 C CNN
F 3 "~" H 2100 5750 50  0001 C CNN
	1    2100 5550
	1    0    0    -1  
$EndComp
$Comp
L Switch:SW_Push SW6
U 1 1 5DEA8B53
P 2100 5950
F 0 "SW6" H 2100 6235 50  0000 C CNN
F 1 "\"Финиш 3\"" H 2100 6144 50  0000 C CNN
F 2 "Button_Switch_Keyboard:SW_Cherry_MX_1.00u_PCB" H 2100 6150 50  0001 C CNN
F 3 "~" H 2100 6150 50  0001 C CNN
	1    2100 5950
	1    0    0    -1  
$EndComp
$Comp
L Switch:SW_Push SW7
U 1 1 5DEA8EC3
P 2100 6400
F 0 "SW7" H 2100 6685 50  0000 C CNN
F 1 "\"Финиш 4\"" H 2100 6594 50  0000 C CNN
F 2 "Button_Switch_Keyboard:SW_Cherry_MX_1.00u_PCB" H 2100 6600 50  0001 C CNN
F 3 "~" H 2100 6600 50  0001 C CNN
	1    2100 6400
	1    0    0    -1  
$EndComp
$Comp
L Switch:SW_Push SW8
U 1 1 5DEA93F4
P 2100 6850
F 0 "SW8" H 2100 7135 50  0000 C CNN
F 1 "\"Старт\"" H 2100 7044 50  0000 C CNN
F 2 "Button_Switch_Keyboard:SW_Cherry_MX_1.00u_PCB" H 2100 7050 50  0001 C CNN
F 3 "~" H 2100 7050 50  0001 C CNN
	1    2100 6850
	1    0    0    -1  
$EndComp
$Comp
L Switch:SW_Push SW9
U 1 1 5DEA97A4
P 2100 7300
F 0 "SW9" H 2100 7585 50  0000 C CNN
F 1 "\"Переслать\"" H 2100 7494 50  0000 C CNN
F 2 "Button_Switch_Keyboard:SW_Cherry_MX_1.00u_PCB" H 2100 7500 50  0001 C CNN
F 3 "~" H 2100 7500 50  0001 C CNN
	1    2100 7300
	1    0    0    -1  
$EndComp
$Comp
L Switch:SW_Push SW10
U 1 1 5DEAA6A2
P 2100 7800
F 0 "SW10" H 2100 8085 50  0000 C CNN
F 1 "\"RESET\"" H 2100 7994 50  0000 C CNN
F 2 "Button_Switch_Keyboard:SW_Cherry_MX_1.00u_PCB" H 2100 8000 50  0001 C CNN
F 3 "~" H 2100 8000 50  0001 C CNN
	1    2100 7800
	1    0    0    -1  
$EndComp
$Comp
L power:Earth #PWR01
U 1 1 5DEAB5A8
P 1550 8100
F 0 "#PWR01" H 1550 7850 50  0001 C CNN
F 1 "Earth" H 1550 7950 50  0001 C CNN
F 2 "" H 1550 8100 50  0001 C CNN
F 3 "~" H 1550 8100 50  0001 C CNN
	1    1550 8100
	1    0    0    -1  
$EndComp
Wire Wire Line
	1900 3700 1550 3700
Wire Wire Line
	1550 3700 1550 4150
Wire Wire Line
	1900 4150 1550 4150
Connection ~ 1550 4150
Wire Wire Line
	1550 4150 1550 4600
Wire Wire Line
	1900 4600 1550 4600
Connection ~ 1550 4600
Wire Wire Line
	1550 4600 1550 5100
Wire Wire Line
	1900 5100 1550 5100
Connection ~ 1550 5100
Wire Wire Line
	1550 5100 1550 5550
Wire Wire Line
	1900 5550 1550 5550
Connection ~ 1550 5550
Wire Wire Line
	1550 5550 1550 5950
Wire Wire Line
	1900 5950 1550 5950
Connection ~ 1550 5950
Wire Wire Line
	1550 5950 1550 6400
Wire Wire Line
	1900 6400 1550 6400
Connection ~ 1550 6400
Wire Wire Line
	1550 6400 1550 6850
Wire Wire Line
	1900 6850 1550 6850
Connection ~ 1550 6850
Wire Wire Line
	1550 6850 1550 7300
Wire Wire Line
	1900 7300 1550 7300
Connection ~ 1550 7300
Wire Wire Line
	1550 7300 1550 7800
Wire Wire Line
	1900 7800 1550 7800
Connection ~ 1550 7800
Wire Wire Line
	1550 7800 1550 8100
$Comp
L Device:R R2
U 1 1 5DEE3953
P 2950 3700
F 0 "R2" V 2743 3700 50  0000 C CNN
F 1 "1 k" V 2834 3700 50  0000 C CNN
F 2 "Resistor_THT:R_Axial_DIN0207_L6.3mm_D2.5mm_P7.62mm_Horizontal" V 2880 3700 50  0001 C CNN
F 3 "~" H 2950 3700 50  0001 C CNN
	1    2950 3700
	0    1    1    0   
$EndComp
$Comp
L Device:R R3
U 1 1 5DEEA2DB
P 2950 4150
F 0 "R3" V 2743 4150 50  0000 C CNN
F 1 "1 k" V 2834 4150 50  0000 C CNN
F 2 "Resistor_THT:R_Axial_DIN0207_L6.3mm_D2.5mm_P7.62mm_Horizontal" V 2880 4150 50  0001 C CNN
F 3 "~" H 2950 4150 50  0001 C CNN
	1    2950 4150
	0    1    1    0   
$EndComp
$Comp
L Device:R R4
U 1 1 5DEEA711
P 2950 4600
F 0 "R4" V 2743 4600 50  0000 C CNN
F 1 "1 k" V 2834 4600 50  0000 C CNN
F 2 "Resistor_THT:R_Axial_DIN0207_L6.3mm_D2.5mm_P7.62mm_Horizontal" V 2880 4600 50  0001 C CNN
F 3 "~" H 2950 4600 50  0001 C CNN
	1    2950 4600
	0    1    1    0   
$EndComp
$Comp
L Device:R R5
U 1 1 5DEEAB8F
P 2950 5100
F 0 "R5" V 2743 5100 50  0000 C CNN
F 1 "1 k" V 2834 5100 50  0000 C CNN
F 2 "Resistor_THT:R_Axial_DIN0207_L6.3mm_D2.5mm_P7.62mm_Horizontal" V 2880 5100 50  0001 C CNN
F 3 "~" H 2950 5100 50  0001 C CNN
	1    2950 5100
	0    1    1    0   
$EndComp
$Comp
L Device:R R6
U 1 1 5DEEB207
P 2950 5550
F 0 "R6" V 2743 5550 50  0000 C CNN
F 1 "1 k" V 2834 5550 50  0000 C CNN
F 2 "Resistor_THT:R_Axial_DIN0207_L6.3mm_D2.5mm_P7.62mm_Horizontal" V 2880 5550 50  0001 C CNN
F 3 "~" H 2950 5550 50  0001 C CNN
	1    2950 5550
	0    1    1    0   
$EndComp
$Comp
L Device:R R7
U 1 1 5DEEB595
P 2950 5950
F 0 "R7" V 2743 5950 50  0000 C CNN
F 1 "1 k" V 2834 5950 50  0000 C CNN
F 2 "Resistor_THT:R_Axial_DIN0207_L6.3mm_D2.5mm_P7.62mm_Horizontal" V 2880 5950 50  0001 C CNN
F 3 "~" H 2950 5950 50  0001 C CNN
	1    2950 5950
	0    1    1    0   
$EndComp
$Comp
L Device:R R8
U 1 1 5DEEB84F
P 2950 6400
F 0 "R8" V 2743 6400 50  0000 C CNN
F 1 "1 k" V 2834 6400 50  0000 C CNN
F 2 "Resistor_THT:R_Axial_DIN0207_L6.3mm_D2.5mm_P7.62mm_Horizontal" V 2880 6400 50  0001 C CNN
F 3 "~" H 2950 6400 50  0001 C CNN
	1    2950 6400
	0    1    1    0   
$EndComp
$Comp
L Device:R R9
U 1 1 5DEEBC7A
P 2950 6850
F 0 "R9" V 2743 6850 50  0000 C CNN
F 1 "1 k" V 2834 6850 50  0000 C CNN
F 2 "Resistor_THT:R_Axial_DIN0207_L6.3mm_D2.5mm_P7.62mm_Horizontal" V 2880 6850 50  0001 C CNN
F 3 "~" H 2950 6850 50  0001 C CNN
	1    2950 6850
	0    1    1    0   
$EndComp
$Comp
L Device:R R10
U 1 1 5DEEBEC6
P 2950 7300
F 0 "R10" V 2743 7300 50  0000 C CNN
F 1 "1 k" V 2834 7300 50  0000 C CNN
F 2 "Resistor_THT:R_Axial_DIN0207_L6.3mm_D2.5mm_P7.62mm_Horizontal" V 2880 7300 50  0001 C CNN
F 3 "~" H 2950 7300 50  0001 C CNN
	1    2950 7300
	0    1    1    0   
$EndComp
$Comp
L Device:R R1
U 1 1 5DEF21C2
P 2900 7750
F 0 "R1" H 2830 7704 50  0000 R CNN
F 1 "10 k" H 2830 7795 50  0000 R CNN
F 2 "Resistor_THT:R_Axial_DIN0207_L6.3mm_D2.5mm_P7.62mm_Horizontal" V 2830 7750 50  0001 C CNN
F 3 "~" H 2900 7750 50  0001 C CNN
	1    2900 7750
	-1   0    0    1   
$EndComp
$Comp
L power:+5V #PWR02
U 1 1 5DEF2C08
P 2900 7550
F 0 "#PWR02" H 2900 7400 50  0001 C CNN
F 1 "+5V" H 3000 7650 50  0000 C CNN
F 2 "" H 2900 7550 50  0001 C CNN
F 3 "" H 2900 7550 50  0001 C CNN
	1    2900 7550
	1    0    0    -1  
$EndComp
Wire Wire Line
	2900 7600 2900 7550
Wire Wire Line
	2300 7300 2800 7300
Wire Wire Line
	2800 6850 2300 6850
Wire Wire Line
	2900 7900 2900 7950
Wire Wire Line
	2900 7950 2450 7950
Wire Wire Line
	2450 7950 2450 7800
Wire Wire Line
	2450 7800 2300 7800
Wire Wire Line
	2800 6400 2300 6400
Wire Wire Line
	2800 5950 2300 5950
Wire Wire Line
	2300 5550 2800 5550
Wire Wire Line
	2800 5100 2300 5100
Wire Wire Line
	2300 4600 2800 4600
Wire Wire Line
	2300 4150 2800 4150
Wire Wire Line
	2300 3700 2800 3700
Entry Wire Line
	3750 3700 3850 3800
Wire Wire Line
	3750 3700 3100 3700
Entry Wire Line
	3750 4150 3850 4250
Wire Wire Line
	3750 4150 3100 4150
Entry Wire Line
	3750 4600 3850 4700
Wire Wire Line
	3750 4600 3100 4600
Entry Wire Line
	3750 5100 3850 5200
Wire Wire Line
	3750 5100 3100 5100
Entry Wire Line
	3750 5550 3850 5650
Wire Wire Line
	3750 5550 3100 5550
Entry Wire Line
	3750 5950 3850 6050
Wire Wire Line
	3750 5950 3100 5950
Entry Wire Line
	3750 6400 3850 6500
Wire Wire Line
	3750 6400 3100 6400
Entry Wire Line
	3750 6850 3850 6950
Wire Wire Line
	3750 6850 3100 6850
Entry Wire Line
	3750 7300 3850 7400
Wire Wire Line
	3750 7300 3100 7300
Entry Wire Line
	3750 7950 3850 8050
Wire Wire Line
	2900 7950 3750 7950
Connection ~ 2900 7950
Entry Wire Line
	3850 3600 3950 3500
Wire Wire Line
	5000 3500 3950 3500
Wire Wire Line
	7150 8500 3950 8500
Entry Wire Line
	3850 8600 3950 8500
Text Label 3650 4150 0    50   ~ 0
a1
Text Label 3650 4600 0    50   ~ 0
a2
Text Label 3650 5100 0    50   ~ 0
a3
Text Label 3650 5550 0    50   ~ 0
a4
Text Label 3650 5950 0    50   ~ 0
a5
Text Label 3650 6400 0    50   ~ 0
a6
Text Label 3650 6850 0    50   ~ 0
a7
Text Label 3650 7300 0    50   ~ 0
d2
Text Label 3600 7950 0    50   ~ 0
reset
Text Label 3650 3700 0    50   ~ 0
a0
Text Label 3950 8500 0    50   ~ 0
reset
Text Label 6850 3500 0    50   ~ 0
a0
Text Label 6850 3600 0    50   ~ 0
a1
Text Label 6850 3700 0    50   ~ 0
a2
Text Label 6850 3800 0    50   ~ 0
a3
Text Label 6850 3900 0    50   ~ 0
a4
Text Label 6850 4000 0    50   ~ 0
a5
Text Label 6850 4100 0    50   ~ 0
a6
Text Label 6850 4200 0    50   ~ 0
a7
Text Label 7550 4400 0    50   ~ 0
RS
Text Label 7550 4500 0    50   ~ 0
RW
Text Label 7550 4600 0    50   ~ 0
E
Text Label 7550 5300 0    50   ~ 0
S0
Text Label 7550 5400 0    50   ~ 0
S1
Text Label 7550 5500 0    50   ~ 0
S2
Text Label 7550 5600 0    50   ~ 0
S3
Text Label 7850 2950 0    50   ~ 0
RW
Text Label 7850 3050 0    50   ~ 0
E
Text Label 7850 3750 0    50   ~ 0
S0
Text Label 7850 3850 0    50   ~ 0
S1
Text Label 7850 3950 0    50   ~ 0
S2
Text Label 7850 4050 0    50   ~ 0
S3
Text Label 6850 6400 0    50   ~ 0
d2
Wire Wire Line
	6200 4900 6600 4900
Wire Wire Line
	6200 5000 6600 5000
Wire Wire Line
	6200 5100 6600 5100
Entry Wire Line
	6600 4900 6700 5000
Entry Wire Line
	6600 5000 6700 5100
Entry Wire Line
	6600 5100 6700 5200
Text Label 6400 4900 0    50   ~ 0
MOSI
Text Label 6400 5000 0    50   ~ 0
MISO
Text Label 6400 5100 0    50   ~ 0
SCK
Text Label 6800 7900 0    50   ~ 0
MISO
Text Label 6800 8200 0    50   ~ 0
SCK
Text Label 6800 8350 0    50   ~ 0
MOSI
Wire Wire Line
	7050 7500 7050 8050
Wire Wire Line
	7050 8050 7150 8050
Text Label 3950 3500 0    50   ~ 0
reset
Entry Wire Line
	7750 3150 7850 3050
Entry Wire Line
	7750 3050 7850 2950
Entry Wire Line
	7750 3850 7850 3750
Entry Wire Line
	7750 3950 7850 3850
Entry Wire Line
	7750 4050 7850 3950
Entry Wire Line
	7750 4150 7850 4050
NoConn ~ 10450 6250
NoConn ~ 10450 6650
NoConn ~ 12100 6350
NoConn ~ 12100 6800
NoConn ~ 12100 7100
NoConn ~ 12100 7550
NoConn ~ 5000 6200
NoConn ~ 5000 6300
NoConn ~ 5000 6400
NoConn ~ 6200 6500
NoConn ~ 6200 6600
NoConn ~ 6200 6700
NoConn ~ 6200 6800
NoConn ~ 6200 6900
NoConn ~ 6200 6000
NoConn ~ 6200 5900
NoConn ~ 6200 5800
NoConn ~ 6200 5700
NoConn ~ 6200 4700
NoConn ~ 6200 4800
NoConn ~ 8150 3350
NoConn ~ 8150 3450
NoConn ~ 8150 3550
NoConn ~ 8150 3650
NoConn ~ 8950 3650
NoConn ~ 8950 3750
NoConn ~ 8650 2650
Connection ~ 2900 1900
Wire Wire Line
	2550 1900 2700 1900
Wire Wire Line
	2700 1900 2700 2450
Connection ~ 2700 1900
Wire Wire Line
	2700 1900 2900 1900
Connection ~ 2700 2450
Wire Wire Line
	2700 2450 2900 2450
NoConn ~ 8850 6650
NoConn ~ 8850 6250
Entry Wire Line
	8050 6950 8150 6850
Wire Wire Line
	8850 6850 8150 6850
Wire Wire Line
	8150 6450 8850 6450
Entry Wire Line
	8050 6550 8150 6450
Text Label 7800 6300 0    50   ~ 0
TxD
Text Label 7800 6200 0    50   ~ 0
RxD
Text Label 8150 6850 0    50   ~ 0
RxD
Text Label 8150 6450 0    50   ~ 0
TxD
$Comp
L Device:C C12
U 1 1 5DF232A5
P 6300 3150
F 0 "C12" H 6415 3196 50  0000 L CNN
F 1 "0,1 u" H 6415 3105 50  0000 L CNN
F 2 "Capacitor_THT:C_Disc_D5.0mm_W2.5mm_P5.00mm" H 6338 3000 50  0001 C CNN
F 3 "~" H 6300 3150 50  0001 C CNN
	1    6300 3150
	1    0    0    -1  
$EndComp
Wire Wire Line
	6100 3050 6150 3050
Wire Wire Line
	6150 3050 6150 3250
Wire Wire Line
	6150 3250 6200 3250
Wire Wire Line
	6200 3250 6200 3350
Wire Wire Line
	6200 3350 6300 3350
Wire Wire Line
	6300 3350 6300 3300
Wire Wire Line
	6150 3000 6150 3050
Connection ~ 6150 3050
$Comp
L power:Earth #PWR?
U 1 1 5DF59E1C
P 6600 2950
F 0 "#PWR?" H 6600 2700 50  0001 C CNN
F 1 "Earth" H 6600 2800 50  0001 C CNN
F 2 "" H 6600 2950 50  0001 C CNN
F 3 "~" H 6600 2950 50  0001 C CNN
	1    6600 2950
	1    0    0    -1  
$EndComp
Wire Wire Line
	6300 3000 6300 2900
Wire Wire Line
	6300 2900 6600 2900
Wire Wire Line
	6600 2900 6600 2950
Wire Bus Line
	8050 5900 8050 7600
Wire Bus Line
	7050 2800 7050 6550
Wire Bus Line
	6700 4750 6700 8850
Wire Bus Line
	7750 2650 7750 5750
Wire Bus Line
	3850 2800 3850 8950
$EndSCHEMATC
