M48
; DRILL file {KiCad (5.1.4)-1} date 03.12.2019 14:35:17
; FORMAT={-:-/ absolute / inch / decimal}
; #@! TF.CreationDate,2019-12-03T14:35:17+03:00
; #@! TF.GenerationSoftware,Kicad,Pcbnew,(5.1.4)-1
; #@! TF.FileFunction,NonPlated,1,2,NPTH
FMAT,2
INCH
T1C0.0669
T2C0.0787
T3C0.1575
%
G90
G05
T1
X3.15Y-4.85
X3.55Y-4.85
X3.15Y-3.85
X3.55Y-3.85
X3.15Y-2.9
X3.55Y-2.9
T2
X6.75Y-3.2299
X9.7028Y-1.9701
T3
X3.35Y-3.85
X3.35Y-2.9
X3.35Y-4.85
T0
M30
