EESchema Schematic File Version 4
EELAYER 30 0
EELAYER END
$Descr A3 16535 11693
encoding utf-8
Sheet 1 1
Title "Схема электрическая принципиальная"
Date "20.05.2020"
Rev ""
Comp "МГТУ им. Н.Э. Баумана"
Comment1 "Проектирование МК системы с заданными параметрами"
Comment2 "Лукьянов Н.А."
Comment3 ""
Comment4 ""
$EndDescr
$Comp
L Device:C C1
U 1 1 5EC2A05B
P 2800 1550
F 0 "C1" H 2915 1596 50  0000 L CNN
F 1 "100u" H 2915 1505 50  0000 L CNN
F 2 "Capacitor_SMD:C_0603_1608Metric" H 2838 1400 50  0001 C CNN
F 3 "~" H 2800 1550 50  0001 C CNN
	1    2800 1550
	1    0    0    -1  
$EndComp
$Comp
L Device:C C2
U 1 1 5EC2A834
P 3350 1550
F 0 "C2" H 3465 1596 50  0000 L CNN
F 1 "100n" H 3465 1505 50  0000 L CNN
F 2 "Capacitor_SMD:C_0603_1608Metric" H 3388 1400 50  0001 C CNN
F 3 "~" H 3350 1550 50  0001 C CNN
	1    3350 1550
	1    0    0    -1  
$EndComp
$Comp
L my_lib:CONN_9 XP1
U 1 1 5EC2CAB7
P 1800 5350
F 0 "XP1" H 1700 6450 79  0000 C CNN
F 1 "CONN_9" H 1800 4250 79  0001 C CNN
F 2 "Connector_PinHeader_1.00mm:PinHeader_1x09_P1.00mm_Vertical_SMD_Pin1Left" H 2400 6450 79  0001 C CNN
F 3 "" H 2400 4250 79  0001 C CNN
F 4 "CD" H 1600 6050 79  0000 C CNN "PIN1"
F 5 "RXD" H 1600 5850 79  0000 C CNN "PIN2"
F 6 "TXD" H 1600 5650 79  0000 C CNN "PIN3"
F 7 "DTR" H 1600 5450 79  0000 C CNN "PIN4"
F 8 "GND" H 1600 5250 79  0000 C CNN "PIN5"
F 9 "DSR" H 1600 5050 79  0000 C CNN "PIN6"
F 10 "RST" H 1600 4850 79  0000 C CNN "PIN7"
F 11 "CST" H 1600 4650 79  0000 C CNN "PIN8"
F 12 "R1" H 1600 4450 79  0000 C CNN "PIN9"
	1    1800 5350
	1    0    0    -1  
$EndComp
$Comp
L my_lib:CONN_2 XP2
U 1 1 5EC34908
P 1300 1550
F 0 "XP2" H 1300 1950 79  0000 C CNN
F 1 "CONN_2" H 1300 1150 79  0001 C CNN
F 2 "Inductor_THT:L_Axial_L5.0mm_D3.6mm_P10.00mm_Horizontal_Murata_BL01RN1A2A2" H 1900 1950 79  0001 C CNN
F 3 "" H 1900 1150 79  0001 C CNN
F 4 "Vin" H 1050 1550 79  0000 C CNN "PIN1"
F 5 "GND" H 1050 1350 79  0000 C CNN "PIN2"
	1    1300 1550
	1    0    0    -1  
$EndComp
$Comp
L Device:C C3
U 1 1 5EC2AE53
P 4750 1550
F 0 "C3" H 4865 1596 50  0000 L CNN
F 1 "1u" H 4865 1505 50  0000 L CNN
F 2 "Capacitor_SMD:C_0603_1608Metric" H 4788 1400 50  0001 C CNN
F 3 "~" H 4750 1550 50  0001 C CNN
	1    4750 1550
	1    0    0    -1  
$EndComp
$Comp
L power:GND #PWR0102
U 1 1 5EC47CD2
P 4050 1850
F 0 "#PWR0102" H 4050 1600 50  0001 C CNN
F 1 "GND" H 4055 1677 50  0000 C CNN
F 2 "" H 4050 1850 50  0001 C CNN
F 3 "" H 4050 1850 50  0001 C CNN
	1    4050 1850
	1    0    0    -1  
$EndComp
$Comp
L power:GND #PWR0103
U 1 1 5EC672F0
P 7050 2750
F 0 "#PWR0103" H 7050 2500 50  0001 C CNN
F 1 "GND" H 7055 2577 50  0000 C CNN
F 2 "" H 7050 2750 50  0001 C CNN
F 3 "" H 7050 2750 50  0001 C CNN
	1    7050 2750
	1    0    0    -1  
$EndComp
$Comp
L power:+5V #PWR0104
U 1 1 5EC67E9A
P 7150 1300
F 0 "#PWR0104" H 7150 1150 50  0001 C CNN
F 1 "+5V" H 7165 1473 50  0000 C CNN
F 2 "" H 7150 1300 50  0001 C CNN
F 3 "" H 7150 1300 50  0001 C CNN
	1    7150 1300
	1    0    0    -1  
$EndComp
$Comp
L conn_6:CONN_6 XP3
U 1 1 5EC5DA67
P 6000 2250
F 0 "XP3" H 5950 3350 79  0000 C CNN
F 1 "CONN_6" H 6000 1750 79  0001 C CNN
F 2 "Inductor_THT:L_Mount_Lodestone_VTM950-6" H 6600 3350 79  0001 C CNN
F 3 "" H 6600 1150 79  0001 C CNN
F 4 "MISO" H 5800 2950 79  0000 C CNN "PIN1"
F 5 "VCC" H 5800 2750 79  0000 C CNN "PIN2"
F 6 "SCK" H 5800 2550 79  0000 C CNN "PIN3"
F 7 "MOSI" H 5800 2350 79  0000 C CNN "PIN4"
F 8 "Reset" H 5800 2150 79  0000 C CNN "PIN5"
F 9 "GND" H 5800 1950 79  0000 C CNN "PIN6"
	1    6000 2250
	1    0    0    -1  
$EndComp
$Comp
L Device:C C10
U 1 1 5EC808F6
P 6300 4650
F 0 "C10" H 6415 4696 50  0000 L CNN
F 1 "100n" H 6415 4605 50  0000 L CNN
F 2 "Capacitor_SMD:C_0603_1608Metric" H 6338 4500 50  0001 C CNN
F 3 "~" H 6300 4650 50  0001 C CNN
	1    6300 4650
	1    0    0    -1  
$EndComp
$Comp
L power:GND #PWR0105
U 1 1 5EC8A333
P 5200 7350
F 0 "#PWR0105" H 5200 7100 50  0001 C CNN
F 1 "GND" H 5205 7177 50  0000 C CNN
F 2 "" H 5200 7350 50  0001 C CNN
F 3 "" H 5200 7350 50  0001 C CNN
	1    5200 7350
	1    0    0    -1  
$EndComp
$Comp
L Device:C C8
U 1 1 5EC80456
P 3750 4650
F 0 "C8" H 3865 4696 50  0000 L CNN
F 1 "100n" H 3865 4605 50  0000 L CNN
F 2 "Capacitor_SMD:C_0603_1608Metric" H 3788 4500 50  0001 C CNN
F 3 "~" H 3750 4650 50  0001 C CNN
	1    3750 4650
	1    0    0    -1  
$EndComp
$Comp
L main-rescue:LM7805_TO220-Regulator_Linear DD1
U 1 1 5ECD504B
P 4050 1200
F 0 "DD1" H 4050 1442 50  0000 C CNN
F 1 "L78M05ACDT" H 4050 1351 50  0000 C CNN
F 2 "Package_TO_SOT_THT:TO-220-3_Vertical" H 4050 1425 50  0001 C CIN
F 3 "" H 4050 1150 50  0001 C CNN
	1    4050 1200
	1    0    0    -1  
$EndComp
$Comp
L ATMEGA8535:ATmega8535L-8AU_1 DD3
U 1 1 5ED25474
P 13450 1600
F 0 "DD3" H 10400 250 50  0000 C CNN
F 1 "ATmega8535" H 10400 150 50  0000 C CNN
F 2 "Package_QFP:TQFP-44_10x10mm_P0.8mm" H 10400 -1850 50  0001 C CIN
F 3 "http://ww1.microchip.com/downloads/en/DeviceDoc/doc2502.pdf" H 10400 -1850 50  0001 C CNN
	1    13450 1600
	1    0    0    -1  
$EndComp
$Comp
L Device:C C11
U 1 1 5ED333E7
P 9200 4800
F 0 "C11" H 9315 4846 50  0000 L CNN
F 1 "100n" H 9315 4755 50  0000 L CNN
F 2 "Capacitor_SMD:C_0603_1608Metric" H 9238 4650 50  0001 C CNN
F 3 "~" H 9200 4800 50  0001 C CNN
	1    9200 4800
	1    0    0    -1  
$EndComp
$Comp
L Device:C C9
U 1 1 5ED348A9
P 9200 4250
F 0 "C9" H 9315 4296 50  0000 L CNN
F 1 "100n" H 9315 4205 50  0000 L CNN
F 2 "Capacitor_SMD:C_0603_1608Metric" H 9238 4100 50  0001 C CNN
F 3 "~" H 9200 4250 50  0001 C CNN
	1    9200 4250
	1    0    0    -1  
$EndComp
$Comp
L power:+5V #PWR0107
U 1 1 5ED396F4
P 8900 4100
F 0 "#PWR0107" H 8900 3950 50  0001 C CNN
F 1 "+5V" V 8915 4228 50  0000 L CNN
F 2 "" H 8900 4100 50  0001 C CNN
F 3 "" H 8900 4100 50  0001 C CNN
	1    8900 4100
	0    -1   -1   0   
$EndComp
$Comp
L power:GND #PWR0108
U 1 1 5ED4125D
P 8700 5250
F 0 "#PWR0108" H 8700 5000 50  0001 C CNN
F 1 "GND" H 8705 5077 50  0000 C CNN
F 2 "" H 8700 5250 50  0001 C CNN
F 3 "" H 8700 5250 50  0001 C CNN
	1    8700 5250
	1    0    0    -1  
$EndComp
$Comp
L main-cache:Switch_SW_Push SW1
U 1 1 5ED4E9DC
P 9100 3150
F 0 "SW1" H 9100 3343 50  0000 C CNN
F 1 "1" H 9100 3344 50  0001 C CNN
F 2 "Resistor_SMD:R_0201_0603Metric" H 9100 3350 50  0001 C CNN
F 3 "" H 9100 3350 50  0001 C CNN
	1    9100 3150
	1    0    0    -1  
$EndComp
$Comp
L power:GND #PWR0109
U 1 1 5ED53DBA
P 8400 3150
F 0 "#PWR0109" H 8400 2900 50  0001 C CNN
F 1 "GND" V 8300 3200 50  0000 R CNN
F 2 "" H 8400 3150 50  0001 C CNN
F 3 "" H 8400 3150 50  0001 C CNN
	1    8400 3150
	0    1    1    0   
$EndComp
$Comp
L Device:C C4
U 1 1 5ED577A3
P 9100 2600
F 0 "C4" V 8848 2600 50  0000 C CNN
F 1 "100n" V 8939 2600 50  0000 C CNN
F 2 "Capacitor_SMD:C_0603_1608Metric" H 9138 2450 50  0001 C CNN
F 3 "~" H 9100 2600 50  0001 C CNN
	1    9100 2600
	0    1    1    0   
$EndComp
$Comp
L Device:Crystal Y1
U 1 1 5ED6D965
P 9050 3600
F 0 "Y1" V 9096 3469 50  0000 R CNN
F 1 "16M" V 9005 3469 50  0000 R CNN
F 2 "Crystal:Crystal_SMD_TXC_7A-2Pin_5x3.2mm" H 9050 3600 50  0001 C CNN
F 3 "~" H 9050 3600 50  0001 C CNN
	1    9050 3600
	0    -1   -1   0   
$EndComp
$Comp
L Device:C C5
U 1 1 5ED6EF5C
P 8650 3450
F 0 "C5" V 8398 3450 50  0000 C CNN
F 1 "22p" V 8489 3450 50  0000 C CNN
F 2 "Capacitor_SMD:C_0603_1608Metric" H 8688 3300 50  0001 C CNN
F 3 "~" H 8650 3450 50  0001 C CNN
	1    8650 3450
	0    1    1    0   
$EndComp
$Comp
L Device:C C7
U 1 1 5ED6F940
P 8650 3900
F 0 "C7" V 8398 3900 50  0000 C CNN
F 1 "22p" V 8489 3900 50  0000 C CNN
F 2 "Capacitor_SMD:C_0603_1608Metric" H 8688 3750 50  0001 C CNN
F 3 "~" H 8650 3900 50  0001 C CNN
	1    8650 3900
	0    1    1    0   
$EndComp
$Comp
L power:+5V #PWR0111
U 1 1 5ED983C0
P 9100 4650
F 0 "#PWR0111" H 9100 4500 50  0001 C CNN
F 1 "+5V" V 9115 4778 50  0000 L CNN
F 2 "" H 9100 4650 50  0001 C CNN
F 3 "" H 9100 4650 50  0001 C CNN
	1    9100 4650
	0    -1   -1   0   
$EndComp
$Comp
L main-cache:Switch_SW_Push SW2
U 1 1 5EDA65AA
P 9200 6300
F 0 "SW2" H 9200 6493 50  0000 C CNN
F 1 "1" H 9200 6494 50  0001 C CNN
F 2 "Resistor_SMD:R_0201_0603Metric" H 9200 6500 50  0001 C CNN
F 3 "" H 9200 6500 50  0001 C CNN
	1    9200 6300
	1    0    0    -1  
$EndComp
$Comp
L Device:R R11
U 1 1 5EDA79D2
P 8850 6700
F 0 "R11" H 8920 6746 50  0000 L CNN
F 1 "10k" H 8920 6655 50  0000 L CNN
F 2 "Resistor_SMD:R_0603_1608Metric_Pad1.05x0.95mm_HandSolder" V 8780 6700 50  0001 C CNN
F 3 "~" H 8850 6700 50  0001 C CNN
	1    8850 6700
	1    0    0    -1  
$EndComp
$Comp
L power:+5V #PWR0112
U 1 1 5EDA87CD
P 8450 6450
F 0 "#PWR0112" H 8450 6300 50  0001 C CNN
F 1 "+5V" H 8465 6623 50  0000 C CNN
F 2 "" H 8450 6450 50  0001 C CNN
F 3 "" H 8450 6450 50  0001 C CNN
	1    8450 6450
	-1   0    0    1   
$EndComp
$Comp
L power:GND #PWR0113
U 1 1 5EDA98E0
P 8850 7000
F 0 "#PWR0113" H 8850 6750 50  0001 C CNN
F 1 "GND" H 8855 6827 50  0000 C CNN
F 2 "" H 8850 7000 50  0001 C CNN
F 3 "" H 8850 7000 50  0001 C CNN
	1    8850 7000
	1    0    0    -1  
$EndComp
Entry Wire Line
	11350 3750 11250 3650
Entry Wire Line
	11350 3850 11250 3750
Entry Wire Line
	11350 3950 11250 3850
Entry Wire Line
	11350 4050 11250 3950
Entry Wire Line
	11350 4150 11250 4050
Entry Wire Line
	11350 4450 11250 4350
Entry Wire Line
	11350 4650 11250 4550
Entry Wire Line
	11350 4750 11250 4650
Entry Wire Line
	11350 4850 11250 4750
Entry Wire Line
	11350 4950 11250 4850
Entry Wire Line
	11350 5050 11250 4950
Entry Wire Line
	11350 5950 11250 5850
Entry Wire Line
	11350 5850 11250 5750
Entry Wire Line
	11350 5750 11250 5650
Entry Wire Line
	11350 5650 11250 5550
Entry Wire Line
	11350 5550 11250 5450
Entry Wire Line
	11350 5450 11250 5350
Entry Wire Line
	11350 5350 11250 5250
Entry Wire Line
	11350 5250 11250 5150
$Comp
L Device:R R3
U 1 1 5EE8A9CC
P 11850 3650
F 0 "R3" V 11643 3650 50  0000 C CNN
F 1 "10k" V 11734 3650 50  0000 C CNN
F 2 "Resistor_SMD:R_0603_1608Metric_Pad1.05x0.95mm_HandSolder" V 11780 3650 50  0001 C CNN
F 3 "~" H 11850 3650 50  0001 C CNN
	1    11850 3650
	0    1    1    0   
$EndComp
$Comp
L Device:R R4
U 1 1 5EE9F1F7
P 11850 4050
F 0 "R4" V 11643 4050 50  0000 C CNN
F 1 "10k" V 11734 4050 50  0000 C CNN
F 2 "Resistor_SMD:R_0603_1608Metric_Pad1.05x0.95mm_HandSolder" V 11780 4050 50  0001 C CNN
F 3 "~" H 11850 4050 50  0001 C CNN
	1    11850 4050
	0    1    1    0   
$EndComp
$Comp
L Device:R R5
U 1 1 5EE9FCA5
P 11850 4450
F 0 "R5" V 11643 4450 50  0000 C CNN
F 1 "10k" V 11734 4450 50  0000 C CNN
F 2 "Resistor_SMD:R_0603_1608Metric_Pad1.05x0.95mm_HandSolder" V 11780 4450 50  0001 C CNN
F 3 "~" H 11850 4450 50  0001 C CNN
	1    11850 4450
	0    1    1    0   
$EndComp
$Comp
L Device:R R6
U 1 1 5EEA0984
P 11850 4850
F 0 "R6" V 11643 4850 50  0000 C CNN
F 1 "10k" V 11734 4850 50  0000 C CNN
F 2 "Resistor_SMD:R_0603_1608Metric_Pad1.05x0.95mm_HandSolder" V 11780 4850 50  0001 C CNN
F 3 "~" H 11850 4850 50  0001 C CNN
	1    11850 4850
	0    1    1    0   
$EndComp
$Comp
L Device:R R7
U 1 1 5EEA115D
P 11850 5250
F 0 "R7" V 11643 5250 50  0000 C CNN
F 1 "10k" V 11734 5250 50  0000 C CNN
F 2 "Resistor_SMD:R_0603_1608Metric_Pad1.05x0.95mm_HandSolder" V 11780 5250 50  0001 C CNN
F 3 "~" H 11850 5250 50  0001 C CNN
	1    11850 5250
	0    1    1    0   
$EndComp
$Comp
L Device:R R8
U 1 1 5EEA1C99
P 11850 5600
F 0 "R8" V 11643 5600 50  0000 C CNN
F 1 "10k" V 11734 5600 50  0000 C CNN
F 2 "Resistor_SMD:R_0603_1608Metric_Pad1.05x0.95mm_HandSolder" V 11780 5600 50  0001 C CNN
F 3 "~" H 11850 5600 50  0001 C CNN
	1    11850 5600
	0    1    1    0   
$EndComp
Entry Wire Line
	11350 4150 11450 4050
Entry Wire Line
	11350 4550 11450 4450
Entry Wire Line
	11450 4850 11350 4950
Entry Wire Line
	11350 5350 11450 5250
Entry Wire Line
	11350 5700 11450 5600
$Comp
L Device:LED D1
U 1 1 5EEF80FD
P 12450 3650
F 0 "D1" H 12443 3395 50  0000 C CNN
F 1 "LED" H 12443 3486 50  0000 C CNN
F 2 "LED_SMD:LED_0603_1608Metric" H 12450 3650 50  0001 C CNN
F 3 "~" H 12450 3650 50  0001 C CNN
	1    12450 3650
	-1   0    0    1   
$EndComp
$Comp
L Device:LED D2
U 1 1 5EEF8FF5
P 12450 4050
F 0 "D2" H 12443 3795 50  0000 C CNN
F 1 "LED" H 12443 3886 50  0000 C CNN
F 2 "LED_SMD:LED_0603_1608Metric" H 12450 4050 50  0001 C CNN
F 3 "~" H 12450 4050 50  0001 C CNN
	1    12450 4050
	-1   0    0    1   
$EndComp
$Comp
L Device:LED D3
U 1 1 5EEF968F
P 12450 4450
F 0 "D3" H 12443 4195 50  0000 C CNN
F 1 "LED" H 12443 4286 50  0000 C CNN
F 2 "LED_SMD:LED_0603_1608Metric" H 12450 4450 50  0001 C CNN
F 3 "~" H 12450 4450 50  0001 C CNN
	1    12450 4450
	-1   0    0    1   
$EndComp
$Comp
L Device:LED D4
U 1 1 5EEF9CA8
P 12450 4850
F 0 "D4" H 12443 4595 50  0000 C CNN
F 1 "LED" H 12443 4686 50  0000 C CNN
F 2 "LED_SMD:LED_0603_1608Metric" H 12450 4850 50  0001 C CNN
F 3 "~" H 12450 4850 50  0001 C CNN
	1    12450 4850
	-1   0    0    1   
$EndComp
$Comp
L Device:LED D5
U 1 1 5EEFA1FB
P 12450 5250
F 0 "D5" H 12443 4995 50  0000 C CNN
F 1 "LED" H 12443 5086 50  0000 C CNN
F 2 "LED_SMD:LED_0603_1608Metric" H 12450 5250 50  0001 C CNN
F 3 "~" H 12450 5250 50  0001 C CNN
	1    12450 5250
	-1   0    0    1   
$EndComp
$Comp
L Device:LED D6
U 1 1 5EEFA77A
P 12450 5600
F 0 "D6" H 12443 5345 50  0000 C CNN
F 1 "LED" H 12443 5436 50  0000 C CNN
F 2 "LED_SMD:LED_0603_1608Metric" H 12450 5600 50  0001 C CNN
F 3 "~" H 12450 5600 50  0001 C CNN
	1    12450 5600
	-1   0    0    1   
$EndComp
$Comp
L power:GND #PWR0114
U 1 1 5EF243B9
P 13000 3400
F 0 "#PWR0114" H 13000 3150 50  0001 C CNN
F 1 "GND" H 13005 3227 50  0000 C CNN
F 2 "" H 13000 3400 50  0001 C CNN
F 3 "" H 13000 3400 50  0001 C CNN
	1    13000 3400
	-1   0    0    1   
$EndComp
$Comp
L Switch:SW_DIP_x08 SP1
U 1 1 5EC54442
P 6150 9900
F 0 "SP1" V 6104 10430 50  0000 L CNN
F 1 "SW_DIP_x08" V 6195 10430 50  0000 L CNN
F 2 "Button_Switch_THT:SW_DIP_SPSTx08_Slide_6.7x21.88mm_W7.62mm_P2.54mm_LowProfile" H 6150 9900 50  0001 C CNN
F 3 "~" H 6150 9900 50  0001 C CNN
	1    6150 9900
	0    1    1    0   
$EndComp
Entry Wire Line
	5250 8800 5350 8900
Entry Wire Line
	5500 8800 5600 8900
Entry Wire Line
	5750 8800 5850 8900
Entry Wire Line
	6000 8800 6100 8900
Entry Wire Line
	6250 8800 6350 8900
Entry Wire Line
	6500 8800 6600 8900
Entry Wire Line
	6750 8800 6850 8900
Entry Wire Line
	7000 8800 7100 8900
$Comp
L power:+5V #PWR0115
U 1 1 5ECD3AF9
P 4750 10200
F 0 "#PWR0115" H 4750 10050 50  0001 C CNN
F 1 "+5V" H 4765 10373 50  0000 C CNN
F 2 "" H 4750 10200 50  0001 C CNN
F 3 "" H 4750 10200 50  0001 C CNN
	1    4750 10200
	1    0    0    -1  
$EndComp
Entry Wire Line
	8150 1200 8250 1300
Entry Wire Line
	8150 1050 8250 1150
Entry Wire Line
	8150 2150 8250 2250
Entry Wire Line
	8150 1950 8250 2050
Entry Wire Line
	8150 1550 8250 1650
Wire Wire Line
	2100 1550 2100 1200
Wire Wire Line
	2100 1200 2800 1200
Wire Wire Line
	2800 1400 2800 1200
Connection ~ 2800 1200
Wire Wire Line
	2800 1200 3350 1200
Wire Wire Line
	3350 1400 3350 1200
Wire Wire Line
	2100 1750 2250 1750
Wire Wire Line
	2250 1750 2250 1950
Wire Wire Line
	2250 1950 2800 1950
Wire Wire Line
	2800 1700 2800 1950
Connection ~ 2800 1950
Wire Wire Line
	2800 1950 3350 1950
Wire Wire Line
	3350 1700 3350 1950
Wire Wire Line
	4050 1700 4050 1850
Connection ~ 4050 1700
Wire Wire Line
	4050 1500 4050 1700
Wire Wire Line
	3350 1200 3750 1200
Connection ~ 3350 1200
Wire Wire Line
	3350 1950 3800 1950
Wire Wire Line
	3800 1950 3800 1700
Wire Wire Line
	3800 1700 4050 1700
Connection ~ 3350 1950
Wire Wire Line
	4050 1700 4750 1700
Wire Wire Line
	4350 1200 4750 1200
Wire Wire Line
	4750 1200 4750 1400
Wire Wire Line
	4750 1200 4750 1000
Connection ~ 4750 1200
Wire Wire Line
	6800 2550 7050 2550
Wire Wire Line
	7050 2550 7050 2750
Wire Wire Line
	7150 1750 6800 1750
Wire Wire Line
	7150 1300 7150 1750
Wire Wire Line
	6800 2150 8150 2150
Wire Wire Line
	6800 1950 8150 1950
Wire Wire Line
	4750 1200 5250 1200
Wire Wire Line
	5250 1200 5250 900 
Wire Wire Line
	5250 900  7400 900 
Wire Wire Line
	7400 900  7400 1200
Wire Wire Line
	7400 1200 8150 1200
Wire Wire Line
	2800 1200 2800 750 
Wire Wire Line
	2800 750  7500 750 
Wire Wire Line
	7500 750  7500 1050
Wire Wire Line
	7500 1050 8150 1050
Wire Wire Line
	2600 5250 2850 5250
Wire Wire Line
	2850 5250 2850 5650
Wire Wire Line
	2850 5650 2600 5650
Wire Wire Line
	2600 5850 2850 5850
Wire Wire Line
	2850 5850 2850 6050
Wire Wire Line
	2850 6050 2600 6050
Wire Wire Line
	5200 7350 5200 7200
Wire Wire Line
	2600 5050 3150 5050
Connection ~ 5200 7200
Wire Wire Line
	9800 4100 9200 4100
Wire Wire Line
	9800 4350 9300 4350
Wire Wire Line
	9300 4350 9300 4400
Wire Wire Line
	9300 4400 9200 4400
Wire Wire Line
	9800 4750 9550 4750
Wire Wire Line
	9550 4750 9550 4650
Wire Wire Line
	9550 4650 9200 4650
Wire Wire Line
	9800 4900 9600 4900
Wire Wire Line
	9600 4900 9600 4950
Wire Wire Line
	9600 4950 9200 4950
Wire Wire Line
	8700 5250 8700 4950
Wire Wire Line
	8700 4950 9200 4950
Connection ~ 9200 4950
Wire Wire Line
	9200 4400 8700 4400
Wire Wire Line
	8700 4400 8700 4950
Connection ~ 9200 4400
Connection ~ 8700 4950
Wire Wire Line
	9800 3350 9500 3350
Wire Wire Line
	9500 3350 9500 3150
Wire Wire Line
	8900 3150 8750 3150
Wire Wire Line
	9500 1650 9500 1850
Wire Wire Line
	9500 3150 9300 3150
Wire Wire Line
	9500 2150 9500 2600
Connection ~ 9500 3150
Wire Wire Line
	9250 2600 9500 2600
Connection ~ 9500 2600
Wire Wire Line
	9500 2600 9500 3150
Wire Wire Line
	8950 2600 8750 2600
Wire Wire Line
	8750 2600 8750 3150
Connection ~ 8750 3150
Wire Wire Line
	8400 3150 8500 3150
Wire Wire Line
	8500 3900 8500 3450
Connection ~ 8500 3150
Wire Wire Line
	8500 3150 8750 3150
Connection ~ 8500 3450
Wire Wire Line
	8500 3450 8500 3150
Wire Wire Line
	9800 3550 9350 3550
Wire Wire Line
	9350 3550 9350 3450
Wire Wire Line
	9350 3450 9050 3450
Connection ~ 9050 3450
Wire Wire Line
	9050 3450 8800 3450
Wire Wire Line
	8800 3900 9050 3900
Wire Wire Line
	9350 3900 9350 3700
Wire Wire Line
	9350 3700 9800 3700
Wire Wire Line
	9050 3750 9050 3900
Connection ~ 9050 3900
Wire Wire Line
	9050 3900 9350 3900
Wire Wire Line
	9200 4100 8900 4100
Connection ~ 9200 4100
Wire Wire Line
	9200 4650 9100 4650
Connection ~ 9200 4650
Wire Wire Line
	9650 6300 9650 6200
Wire Wire Line
	9650 6200 9800 6200
Wire Wire Line
	9400 6300 9650 6300
Wire Wire Line
	9000 6300 8850 6300
Wire Wire Line
	8450 6300 8450 6450
Wire Wire Line
	8850 6550 8850 6300
Connection ~ 8850 6300
Wire Wire Line
	8850 6300 8450 6300
Wire Wire Line
	8850 6850 8850 7000
Wire Wire Line
	11000 3650 11250 3650
Wire Wire Line
	11000 3750 11250 3750
Wire Wire Line
	11000 3850 11250 3850
Wire Wire Line
	11000 3950 11250 3950
Wire Wire Line
	11000 4050 11250 4050
Wire Wire Line
	11000 4350 11250 4350
Wire Wire Line
	11000 4550 11250 4550
Wire Wire Line
	11000 4650 11250 4650
Wire Wire Line
	11000 4750 11250 4750
Wire Wire Line
	11000 4850 11250 4850
Wire Wire Line
	11000 4950 11250 4950
Wire Wire Line
	11000 5150 11250 5150
Wire Wire Line
	11000 5250 11250 5250
Wire Wire Line
	11000 5350 11250 5350
Wire Wire Line
	11000 5450 11250 5450
Wire Wire Line
	11000 5550 11250 5550
Wire Wire Line
	11000 5650 11250 5650
Wire Wire Line
	11000 5750 11250 5750
Wire Wire Line
	11000 5850 11250 5850
Wire Wire Line
	11450 4050 11700 4050
Wire Wire Line
	11450 4450 11700 4450
Wire Wire Line
	11450 4850 11700 4850
Wire Wire Line
	11450 5250 11700 5250
Wire Wire Line
	11450 5600 11700 5600
Wire Wire Line
	12000 3650 12300 3650
Wire Wire Line
	12000 4050 12300 4050
Wire Wire Line
	12000 4450 12300 4450
Wire Wire Line
	12000 4850 12300 4850
Wire Wire Line
	12000 5250 12300 5250
Wire Wire Line
	12000 5600 12300 5600
Wire Wire Line
	12600 5600 13000 5600
Wire Wire Line
	13000 5600 13000 5250
Wire Wire Line
	12600 5250 13000 5250
Connection ~ 13000 5250
Wire Wire Line
	13000 5250 13000 4850
Wire Wire Line
	12600 4850 13000 4850
Connection ~ 13000 4850
Wire Wire Line
	13000 4850 13000 4450
Wire Wire Line
	12600 4450 13000 4450
Connection ~ 13000 4450
Wire Wire Line
	13000 4450 13000 4050
Wire Wire Line
	12600 4050 13000 4050
Connection ~ 13000 4050
Wire Wire Line
	13000 4050 13000 3650
Wire Wire Line
	12600 3650 13000 3650
Connection ~ 13000 3650
Wire Wire Line
	13000 3650 13000 3400
Wire Wire Line
	6550 10200 6450 10200
Connection ~ 5850 10200
Wire Wire Line
	5850 10200 4750 10200
Connection ~ 5950 10200
Wire Wire Line
	5950 10200 5850 10200
Connection ~ 6050 10200
Wire Wire Line
	6050 10200 5950 10200
Connection ~ 6150 10200
Wire Wire Line
	6150 10200 6050 10200
Connection ~ 6250 10200
Wire Wire Line
	6250 10200 6150 10200
Connection ~ 6350 10200
Wire Wire Line
	6350 10200 6250 10200
Connection ~ 6450 10200
Wire Wire Line
	6450 10200 6350 10200
Wire Wire Line
	8150 1550 6800 1550
$Comp
L power:+5V #PWR0101
U 1 1 5EC5669E
P 4750 1000
F 0 "#PWR0101" H 4750 850 50  0001 C CNN
F 1 "+5V" H 4765 1173 50  0000 C CNN
F 2 "" H 4750 1000 50  0001 C CNN
F 3 "" H 4750 1000 50  0001 C CNN
	1    4750 1000
	1    0    0    -1  
$EndComp
$Comp
L Device:R R15
U 1 1 5EEC323A
P 5350 9250
F 0 "R15" H 5420 9296 50  0000 L CNN
F 1 "10k" H 5420 9205 50  0000 L CNN
F 2 "Resistor_SMD:R_0603_1608Metric_Pad1.05x0.95mm_HandSolder" V 5280 9250 50  0001 C CNN
F 3 "~" H 5350 9250 50  0001 C CNN
	1    5350 9250
	1    0    0    -1  
$EndComp
$Comp
L Device:R R16
U 1 1 5EEC3DB8
P 5600 9250
F 0 "R16" H 5670 9296 50  0000 L CNN
F 1 "10k" H 5670 9205 50  0000 L CNN
F 2 "Resistor_SMD:R_0603_1608Metric_Pad1.05x0.95mm_HandSolder" V 5530 9250 50  0001 C CNN
F 3 "~" H 5600 9250 50  0001 C CNN
	1    5600 9250
	1    0    0    -1  
$EndComp
$Comp
L Device:R R17
U 1 1 5EEC41B5
P 5850 9250
F 0 "R17" H 5920 9296 50  0000 L CNN
F 1 "10k" H 5920 9205 50  0000 L CNN
F 2 "Resistor_SMD:R_0603_1608Metric_Pad1.05x0.95mm_HandSolder" V 5780 9250 50  0001 C CNN
F 3 "~" H 5850 9250 50  0001 C CNN
	1    5850 9250
	1    0    0    -1  
$EndComp
$Comp
L Device:R R18
U 1 1 5EEC4904
P 6100 9250
F 0 "R18" H 6170 9296 50  0000 L CNN
F 1 "10k" H 6170 9205 50  0000 L CNN
F 2 "Resistor_SMD:R_0603_1608Metric_Pad1.05x0.95mm_HandSolder" V 6030 9250 50  0001 C CNN
F 3 "~" H 6100 9250 50  0001 C CNN
	1    6100 9250
	1    0    0    -1  
$EndComp
$Comp
L Device:R R19
U 1 1 5EEC4BB1
P 6350 9250
F 0 "R19" H 6420 9296 50  0000 L CNN
F 1 "10k" H 6420 9205 50  0000 L CNN
F 2 "Resistor_SMD:R_0603_1608Metric_Pad1.05x0.95mm_HandSolder" V 6280 9250 50  0001 C CNN
F 3 "~" H 6350 9250 50  0001 C CNN
	1    6350 9250
	1    0    0    -1  
$EndComp
$Comp
L Device:R R20
U 1 1 5EEC4EEB
P 6600 9250
F 0 "R20" H 6670 9296 50  0000 L CNN
F 1 "10k" H 6670 9205 50  0000 L CNN
F 2 "Resistor_SMD:R_0603_1608Metric_Pad1.05x0.95mm_HandSolder" V 6530 9250 50  0001 C CNN
F 3 "~" H 6600 9250 50  0001 C CNN
	1    6600 9250
	1    0    0    -1  
$EndComp
$Comp
L Device:R R21
U 1 1 5EEC5325
P 6850 9250
F 0 "R21" H 6920 9296 50  0000 L CNN
F 1 "10k" H 6920 9205 50  0000 L CNN
F 2 "Resistor_SMD:R_0603_1608Metric_Pad1.05x0.95mm_HandSolder" V 6780 9250 50  0001 C CNN
F 3 "~" H 6850 9250 50  0001 C CNN
	1    6850 9250
	1    0    0    -1  
$EndComp
$Comp
L Device:R R22
U 1 1 5EEC5665
P 7100 9250
F 0 "R22" H 7170 9296 50  0000 L CNN
F 1 "10k" H 7170 9205 50  0000 L CNN
F 2 "Resistor_SMD:R_0603_1608Metric_Pad1.05x0.95mm_HandSolder" V 7030 9250 50  0001 C CNN
F 3 "~" H 7100 9250 50  0001 C CNN
	1    7100 9250
	1    0    0    -1  
$EndComp
Wire Wire Line
	5350 9100 5350 8900
Wire Wire Line
	5600 8900 5600 9100
Wire Wire Line
	5850 8900 5850 9100
Wire Wire Line
	6100 8900 6100 9100
Wire Wire Line
	6350 8900 6350 9100
Wire Wire Line
	6600 8900 6600 9100
Wire Wire Line
	6850 8900 6850 9100
Wire Wire Line
	7100 8900 7100 9100
Wire Wire Line
	5350 9400 5350 9600
Wire Wire Line
	5350 9600 5850 9600
Wire Wire Line
	5600 9400 5600 9550
Wire Wire Line
	5600 9550 5950 9550
Wire Wire Line
	5950 9550 5950 9600
Wire Wire Line
	5850 9400 5850 9500
Wire Wire Line
	5850 9500 6050 9500
Wire Wire Line
	6050 9500 6050 9600
Wire Wire Line
	6100 9400 6100 9500
Wire Wire Line
	6100 9500 6150 9500
Wire Wire Line
	6150 9500 6150 9600
Wire Wire Line
	6250 9600 6250 9450
Wire Wire Line
	6250 9450 6350 9450
Wire Wire Line
	6350 9450 6350 9400
Wire Wire Line
	6600 9400 6600 9500
Wire Wire Line
	6600 9500 6350 9500
Wire Wire Line
	6350 9500 6350 9600
Wire Wire Line
	6450 9600 6450 9550
Wire Wire Line
	6450 9550 6850 9550
Wire Wire Line
	6850 9550 6850 9400
Wire Wire Line
	6550 9600 7100 9600
Wire Wire Line
	7100 9600 7100 9400
$Comp
L Device:R R1
U 1 1 5ED5BCCB
P 9500 2000
F 0 "R1" H 9570 2046 50  0000 L CNN
F 1 "10k" H 9570 1955 50  0000 L CNN
F 2 "Resistor_SMD:R_0603_1608Metric_Pad1.05x0.95mm_HandSolder" V 9430 2000 50  0001 C CNN
F 3 "~" H 9500 2000 50  0001 C CNN
	1    9500 2000
	1    0    0    -1  
$EndComp
$Comp
L power:+5V #PWR0110
U 1 1 5ED5C960
P 9500 1650
F 0 "#PWR0110" H 9500 1500 50  0001 C CNN
F 1 "+5V" H 9515 1823 50  0000 C CNN
F 2 "" H 9500 1650 50  0001 C CNN
F 3 "" H 9500 1650 50  0001 C CNN
	1    9500 1650
	1    0    0    -1  
$EndComp
Text Label 8000 1550 0    50   ~ 0
9
Text Label 7950 1950 0    50   ~ 0
10
Text Label 8000 2150 0    50   ~ 0
8
Text Label 11200 4750 0    50   ~ 0
8
Text Label 11200 4850 0    50   ~ 0
9
Text Label 5350 9000 0    50   ~ 0
11
Text Label 5600 8950 0    50   ~ 0
12
Text Label 5850 9000 0    50   ~ 0
13
Text Label 6100 9000 0    50   ~ 0
14
Text Label 6350 9000 0    50   ~ 0
15
Text Label 6600 9000 0    50   ~ 0
16
Text Label 6850 9000 0    50   ~ 0
17
Text Label 7100 9000 0    50   ~ 0
18
Text Label 11150 5150 0    50   ~ 0
11
Text Label 11150 5250 0    50   ~ 0
12
Text Label 11150 5350 0    50   ~ 0
13
Text Label 11150 5450 0    50   ~ 0
14
Text Label 11150 5550 0    50   ~ 0
15
Text Label 11150 5650 0    50   ~ 0
16
Text Label 11150 5750 0    50   ~ 0
17
Text Label 11150 5850 0    50   ~ 0
18
Text Label 11550 4050 0    50   ~ 0
2
Text Label 11550 4450 0    50   ~ 0
3
Text Label 11550 4850 0    50   ~ 0
4
Text Label 11550 5250 0    50   ~ 0
5
Text Label 11550 5600 0    50   ~ 0
6
Wire Bus Line
	11350 8800 8250 8800
Connection ~ 8250 8800
Text Label 11200 3650 0    50   ~ 0
2
Text Label 11200 3750 0    50   ~ 0
3
Text Label 11200 3850 0    50   ~ 0
4
Text Label 11200 3950 0    50   ~ 0
5
Text Label 11200 4050 0    50   ~ 0
6
Text Label 11150 4350 0    50   ~ 0
22
Text Label 11150 4550 0    50   ~ 0
24
Text Label 11150 4650 0    50   ~ 0
22
Text Label 11150 4950 0    50   ~ 0
10
Text Label 7950 1050 0    50   ~ 0
24
Text Label 7950 1200 0    50   ~ 0
23
NoConn ~ 11000 4250
NoConn ~ 11000 4450
NoConn ~ 6800 2350
NoConn ~ 11000 3350
$Comp
L power:+5V #PWR0106
U 1 1 5EC8F470
P 6850 3550
F 0 "#PWR0106" H 6850 3400 50  0001 C CNN
F 1 "+5V" H 6865 3723 50  0000 C CNN
F 2 "" H 6850 3550 50  0001 C CNN
F 3 "" H 6850 3550 50  0001 C CNN
	1    6850 3550
	1    0    0    -1  
$EndComp
Wire Wire Line
	11700 3550 11700 3650
Wire Wire Line
	11000 3550 11700 3550
Wire Wire Line
	3750 4500 4400 4500
Wire Wire Line
	3750 4800 4400 4800
Wire Wire Line
	6300 4800 6000 4800
Wire Wire Line
	6000 4500 6300 4500
$Comp
L Interface_UART:MAX232 DD2
U 1 1 5EC7BB0F
P 5200 5400
F 0 "DD2" H 5200 6781 50  0000 C CNN
F 1 "MAX232" H 5200 6690 50  0000 C CNN
F 2 "Package_DIP:DIP-16_W7.62mm" H 5250 4350 50  0001 L CNN
F 3 "http://www.ti.com/lit/ds/symlink/max232.pdf" H 5200 5500 50  0001 C CNN
	1    5200 5400
	1    0    0    -1  
$EndComp
Wire Wire Line
	3150 5050 3150 6950
Wire Wire Line
	3150 6950 6300 6950
Wire Wire Line
	6300 6950 6300 5700
Wire Wire Line
	6300 5700 6000 5700
Wire Wire Line
	6000 6100 6000 6800
Wire Wire Line
	6000 6800 3250 6800
Wire Wire Line
	3250 6800 3250 4850
Wire Wire Line
	3250 4850 2600 4850
NoConn ~ 5200 4200
NoConn ~ 6000 5500
NoConn ~ 6000 5900
NoConn ~ 4400 5900
NoConn ~ 4400 5500
Wire Wire Line
	4400 5700 4050 5700
Wire Wire Line
	6700 6000 6700 6650
Wire Wire Line
	6700 6650 4200 6650
Wire Wire Line
	4200 6650 4200 6100
Wire Wire Line
	4200 6100 4400 6100
Wire Wire Line
	5200 6600 5200 7200
Wire Wire Line
	4050 7000 6650 7000
Wire Wire Line
	4050 5700 4050 7000
Wire Wire Line
	6650 5900 6650 7000
Wire Wire Line
	6650 5900 9600 5900
Wire Wire Line
	9600 5900 9600 6000
Wire Wire Line
	9600 6000 9800 6000
Wire Wire Line
	6700 6000 9500 6000
Wire Wire Line
	9500 6000 9500 5850
Wire Wire Line
	9500 5850 9800 5850
Wire Wire Line
	9800 5850 9800 5900
$Comp
L Device:R R2
U 1 1 5EDB6E06
P 7200 3900
F 0 "R2" H 7270 3946 50  0000 L CNN
F 1 "10k" H 7270 3855 50  0000 L CNN
F 2 "Resistor_SMD:R_0603_1608Metric_Pad1.05x0.95mm_HandSolder" V 7130 3900 50  0001 C CNN
F 3 "~" H 7200 3900 50  0001 C CNN
	1    7200 3900
	1    0    0    -1  
$EndComp
$Comp
L Device:C C6
U 1 1 5EDB721F
P 7200 4350
F 0 "C6" H 7315 4396 50  0000 L CNN
F 1 "100n" H 7315 4305 50  0000 L CNN
F 2 "Capacitor_SMD:C_0603_1608Metric" H 7238 4200 50  0001 C CNN
F 3 "~" H 7200 4350 50  0001 C CNN
	1    7200 4350
	1    0    0    -1  
$EndComp
Wire Wire Line
	7200 5000 7200 4500
Wire Wire Line
	6000 5000 7200 5000
Wire Wire Line
	7200 4200 7200 4050
Wire Wire Line
	7200 3750 6850 3750
Wire Wire Line
	6850 3750 6850 3550
Wire Wire Line
	3000 7200 5200 7200
Wire Wire Line
	3000 5450 3000 7200
Wire Wire Line
	2600 5450 3000 5450
NoConn ~ 6000 5300
Wire Bus Line
	8250 950  8250 8800
Wire Bus Line
	5150 8800 8250 8800
Wire Bus Line
	11350 2850 11350 8800
$EndSCHEMATC
