EESchema Schematic File Version 4
EELAYER 30 0
EELAYER END
$Descr A3 16535 11693
encoding utf-8
Sheet 1 1
Title "Схема электрическая принципиальная"
Date "20.05.2020"
Rev ""
Comp "МГТУ им. Н.Э. Баумана"
Comment1 "Проектирование МК системы с заданными параметрами"
Comment2 "Лукьянов Н.А."
Comment3 ""
Comment4 ""
$EndDescr
$Comp
L Device:C C1
U 1 1 5EC2A05B
P 3000 1800
F 0 "C1" H 3115 1846 50  0000 L CNN
F 1 "100u" H 3115 1755 50  0000 L CNN
F 2 "Capacitor_SMD:C_0603_1608Metric" H 3038 1650 50  0001 C CNN
F 3 "~" H 3000 1800 50  0001 C CNN
	1    3000 1800
	1    0    0    -1  
$EndComp
$Comp
L Device:C C2
U 1 1 5EC2A834
P 3550 1800
F 0 "C2" H 3665 1846 50  0000 L CNN
F 1 "100n" H 3665 1755 50  0000 L CNN
F 2 "Capacitor_SMD:C_0603_1608Metric" H 3588 1650 50  0001 C CNN
F 3 "~" H 3550 1800 50  0001 C CNN
	1    3550 1800
	1    0    0    -1  
$EndComp
$Comp
L DZ-rescue:CONN_9-my_lib XP1
U 1 1 5EC2CAB7
P 2000 5600
F 0 "XP1" H 1900 6700 79  0000 C CNN
F 1 "CONN_9" H 2000 4500 79  0001 C CNN
F 2 "Connector_PinHeader_1.00mm:PinHeader_1x09_P1.00mm_Vertical_SMD_Pin1Left" H 2600 6700 79  0001 C CNN
F 3 "" H 2600 4500 79  0001 C CNN
F 4 "CD" H 1800 6300 79  0000 C CNN "PIN1"
F 5 "RXD" H 1800 6100 79  0000 C CNN "PIN2"
F 6 "TXD" H 1800 5900 79  0000 C CNN "PIN3"
F 7 "DTR" H 1800 5700 79  0000 C CNN "PIN4"
F 8 "GND" H 1800 5500 79  0000 C CNN "PIN5"
F 9 "DSR" H 1800 5300 79  0000 C CNN "PIN6"
F 10 "RST" H 1800 5100 79  0000 C CNN "PIN7"
F 11 "CST" H 1800 4900 79  0000 C CNN "PIN8"
F 12 "R1" H 1800 4700 79  0000 C CNN "PIN9"
	1    2000 5600
	1    0    0    -1  
$EndComp
$Comp
L DZ-rescue:CONN_2-my_lib XP2
U 1 1 5EC34908
P 1500 1800
F 0 "XP2" H 1500 2200 79  0000 C CNN
F 1 "CONN_2" H 1500 1400 79  0001 C CNN
F 2 "Connector_PinHeader_1.00mm:PinHeader_1x02_P1.00mm_Vertical_SMD_Pin1Left" H 2100 2200 79  0001 C CNN
F 3 "" H 2100 1400 79  0001 C CNN
F 4 "Vin" H 1250 1800 79  0000 C CNN "PIN1"
F 5 "GND" H 1250 1600 79  0000 C CNN "PIN2"
	1    1500 1800
	1    0    0    -1  
$EndComp
$Comp
L Device:C C3
U 1 1 5EC2AE53
P 4950 1800
F 0 "C3" H 5065 1846 50  0000 L CNN
F 1 "1u" H 5065 1755 50  0000 L CNN
F 2 "Capacitor_SMD:C_0603_1608Metric" H 4988 1650 50  0001 C CNN
F 3 "~" H 4950 1800 50  0001 C CNN
	1    4950 1800
	1    0    0    -1  
$EndComp
$Comp
L power:GND #PWR0102
U 1 1 5EC47CD2
P 4250 2100
F 0 "#PWR0102" H 4250 1850 50  0001 C CNN
F 1 "GND" H 4255 1927 50  0000 C CNN
F 2 "" H 4250 2100 50  0001 C CNN
F 3 "" H 4250 2100 50  0001 C CNN
	1    4250 2100
	1    0    0    -1  
$EndComp
$Comp
L power:GND #PWR0103
U 1 1 5EC672F0
P 7250 3000
F 0 "#PWR0103" H 7250 2750 50  0001 C CNN
F 1 "GND" H 7255 2827 50  0000 C CNN
F 2 "" H 7250 3000 50  0001 C CNN
F 3 "" H 7250 3000 50  0001 C CNN
	1    7250 3000
	1    0    0    -1  
$EndComp
$Comp
L power:+5V #PWR0104
U 1 1 5EC67E9A
P 7350 1550
F 0 "#PWR0104" H 7350 1400 50  0001 C CNN
F 1 "+5V" H 7365 1723 50  0000 C CNN
F 2 "" H 7350 1550 50  0001 C CNN
F 3 "" H 7350 1550 50  0001 C CNN
	1    7350 1550
	1    0    0    -1  
$EndComp
$Comp
L conn_6:CONN_6 XP3
U 1 1 5EC5DA67
P 6200 2500
F 0 "XP3" H 6150 3600 79  0000 C CNN
F 1 "CONN_6" H 6200 2000 79  0001 C CNN
F 2 "Connector_PinHeader_1.00mm:PinHeader_1x06_P1.00mm_Vertical_SMD_Pin1Left" H 6800 3600 79  0001 C CNN
F 3 "" H 6800 1400 79  0001 C CNN
F 4 "MISO" H 6000 3200 79  0000 C CNN "PIN1"
F 5 "VCC" H 6000 3000 79  0000 C CNN "PIN2"
F 6 "SCK" H 6000 2800 79  0000 C CNN "PIN3"
F 7 "MOSI" H 6000 2600 79  0000 C CNN "PIN4"
F 8 "Reset" H 6000 2400 79  0000 C CNN "PIN5"
F 9 "GND" H 6000 2200 79  0000 C CNN "PIN6"
	1    6200 2500
	1    0    0    -1  
$EndComp
$Comp
L Device:C C10
U 1 1 5EC808F6
P 6500 4900
F 0 "C10" H 6615 4946 50  0000 L CNN
F 1 "100n" H 6615 4855 50  0000 L CNN
F 2 "Capacitor_SMD:C_0603_1608Metric" H 6538 4750 50  0001 C CNN
F 3 "~" H 6500 4900 50  0001 C CNN
	1    6500 4900
	1    0    0    -1  
$EndComp
$Comp
L power:GND #PWR0105
U 1 1 5EC8A333
P 5400 7600
F 0 "#PWR0105" H 5400 7350 50  0001 C CNN
F 1 "GND" H 5405 7427 50  0000 C CNN
F 2 "" H 5400 7600 50  0001 C CNN
F 3 "" H 5400 7600 50  0001 C CNN
	1    5400 7600
	1    0    0    -1  
$EndComp
$Comp
L Device:C C8
U 1 1 5EC80456
P 3950 4900
F 0 "C8" H 4065 4946 50  0000 L CNN
F 1 "100n" H 4065 4855 50  0000 L CNN
F 2 "Capacitor_SMD:C_0603_1608Metric" H 3988 4750 50  0001 C CNN
F 3 "~" H 3950 4900 50  0001 C CNN
	1    3950 4900
	1    0    0    -1  
$EndComp
$Comp
L DZ-rescue:LM7805_TO220-Regulator_Linear-main-rescue DD1
U 1 1 5ECD504B
P 4250 1450
F 0 "DD1" H 4250 1692 50  0000 C CNN
F 1 "L78M05ACDT" H 4250 1601 50  0000 C CNN
F 2 "Package_TO_SOT_THT:TO-220-3_Vertical" H 4250 1675 50  0001 C CIN
F 3 "" H 4250 1400 50  0001 C CNN
	1    4250 1450
	1    0    0    -1  
$EndComp
$Comp
L ATMEGA8535:ATmega8535L-8AU_1 DD3
U 1 1 5ED25474
P 13650 1850
F 0 "DD3" H 10600 500 50  0000 C CNN
F 1 "ATmega8535" H 10600 400 50  0000 C CNN
F 2 "Package_QFP:TQFP-44_10x10mm_P0.8mm" H 10600 -1600 50  0001 C CIN
F 3 "http://ww1.microchip.com/downloads/en/DeviceDoc/doc2502.pdf" H 10600 -1600 50  0001 C CNN
	1    13650 1850
	1    0    0    -1  
$EndComp
$Comp
L Device:C C11
U 1 1 5ED333E7
P 9400 5050
F 0 "C11" H 9515 5096 50  0000 L CNN
F 1 "100n" H 9515 5005 50  0000 L CNN
F 2 "Capacitor_SMD:C_0603_1608Metric" H 9438 4900 50  0001 C CNN
F 3 "~" H 9400 5050 50  0001 C CNN
	1    9400 5050
	1    0    0    -1  
$EndComp
$Comp
L Device:C C9
U 1 1 5ED348A9
P 9400 4500
F 0 "C9" H 9515 4546 50  0000 L CNN
F 1 "100n" H 9515 4455 50  0000 L CNN
F 2 "Capacitor_SMD:C_0603_1608Metric" H 9438 4350 50  0001 C CNN
F 3 "~" H 9400 4500 50  0001 C CNN
	1    9400 4500
	1    0    0    -1  
$EndComp
$Comp
L power:+5V #PWR0107
U 1 1 5ED396F4
P 9100 4350
F 0 "#PWR0107" H 9100 4200 50  0001 C CNN
F 1 "+5V" V 9115 4478 50  0000 L CNN
F 2 "" H 9100 4350 50  0001 C CNN
F 3 "" H 9100 4350 50  0001 C CNN
	1    9100 4350
	0    -1   -1   0   
$EndComp
$Comp
L power:GND #PWR0108
U 1 1 5ED4125D
P 8900 5500
F 0 "#PWR0108" H 8900 5250 50  0001 C CNN
F 1 "GND" H 8905 5327 50  0000 C CNN
F 2 "" H 8900 5500 50  0001 C CNN
F 3 "" H 8900 5500 50  0001 C CNN
	1    8900 5500
	1    0    0    -1  
$EndComp
$Comp
L DZ-rescue:Switch_SW_Push-main-cache SW1
U 1 1 5ED4E9DC
P 9300 3400
F 0 "SW1" H 9300 3593 50  0000 C CNN
F 1 "1" H 9300 3594 50  0001 C CNN
F 2 "Resistor_SMD:R_0201_0603Metric" H 9300 3600 50  0001 C CNN
F 3 "" H 9300 3600 50  0001 C CNN
	1    9300 3400
	1    0    0    -1  
$EndComp
$Comp
L power:GND #PWR0109
U 1 1 5ED53DBA
P 8600 3400
F 0 "#PWR0109" H 8600 3150 50  0001 C CNN
F 1 "GND" V 8500 3450 50  0000 R CNN
F 2 "" H 8600 3400 50  0001 C CNN
F 3 "" H 8600 3400 50  0001 C CNN
	1    8600 3400
	0    1    1    0   
$EndComp
$Comp
L Device:C C4
U 1 1 5ED577A3
P 9300 2850
F 0 "C4" V 9048 2850 50  0000 C CNN
F 1 "100n" V 9139 2850 50  0000 C CNN
F 2 "Capacitor_SMD:C_0603_1608Metric" H 9338 2700 50  0001 C CNN
F 3 "~" H 9300 2850 50  0001 C CNN
	1    9300 2850
	0    1    1    0   
$EndComp
$Comp
L Device:Crystal Y1
U 1 1 5ED6D965
P 9250 3850
F 0 "Y1" V 9296 3719 50  0000 R CNN
F 1 "16M" V 9205 3719 50  0000 R CNN
F 2 "Crystal:Crystal_SMD_TXC_7A-2Pin_5x3.2mm" H 9250 3850 50  0001 C CNN
F 3 "~" H 9250 3850 50  0001 C CNN
	1    9250 3850
	0    -1   -1   0   
$EndComp
$Comp
L Device:C C5
U 1 1 5ED6EF5C
P 8850 3700
F 0 "C5" V 8598 3700 50  0000 C CNN
F 1 "22p" V 8689 3700 50  0000 C CNN
F 2 "Capacitor_SMD:C_0603_1608Metric" H 8888 3550 50  0001 C CNN
F 3 "~" H 8850 3700 50  0001 C CNN
	1    8850 3700
	0    1    1    0   
$EndComp
$Comp
L Device:C C7
U 1 1 5ED6F940
P 8850 4150
F 0 "C7" V 8598 4150 50  0000 C CNN
F 1 "22p" V 8689 4150 50  0000 C CNN
F 2 "Capacitor_SMD:C_0603_1608Metric" H 8888 4000 50  0001 C CNN
F 3 "~" H 8850 4150 50  0001 C CNN
	1    8850 4150
	0    1    1    0   
$EndComp
$Comp
L power:+5V #PWR0111
U 1 1 5ED983C0
P 9300 4900
F 0 "#PWR0111" H 9300 4750 50  0001 C CNN
F 1 "+5V" V 9315 5028 50  0000 L CNN
F 2 "" H 9300 4900 50  0001 C CNN
F 3 "" H 9300 4900 50  0001 C CNN
	1    9300 4900
	0    -1   -1   0   
$EndComp
$Comp
L DZ-rescue:Switch_SW_Push-main-cache SW2
U 1 1 5EDA65AA
P 9400 6550
F 0 "SW2" H 9400 6743 50  0000 C CNN
F 1 "1" H 9400 6744 50  0001 C CNN
F 2 "Resistor_SMD:R_0201_0603Metric" H 9400 6750 50  0001 C CNN
F 3 "" H 9400 6750 50  0001 C CNN
	1    9400 6550
	1    0    0    -1  
$EndComp
$Comp
L Device:R R11
U 1 1 5EDA79D2
P 9050 6950
F 0 "R11" H 9120 6996 50  0000 L CNN
F 1 "10k" H 9120 6905 50  0000 L CNN
F 2 "Resistor_SMD:R_0603_1608Metric_Pad1.05x0.95mm_HandSolder" V 8980 6950 50  0001 C CNN
F 3 "~" H 9050 6950 50  0001 C CNN
	1    9050 6950
	1    0    0    -1  
$EndComp
$Comp
L power:+5V #PWR0112
U 1 1 5EDA87CD
P 8650 6700
F 0 "#PWR0112" H 8650 6550 50  0001 C CNN
F 1 "+5V" H 8665 6873 50  0000 C CNN
F 2 "" H 8650 6700 50  0001 C CNN
F 3 "" H 8650 6700 50  0001 C CNN
	1    8650 6700
	-1   0    0    1   
$EndComp
$Comp
L power:GND #PWR0113
U 1 1 5EDA98E0
P 9050 7250
F 0 "#PWR0113" H 9050 7000 50  0001 C CNN
F 1 "GND" H 9055 7077 50  0000 C CNN
F 2 "" H 9050 7250 50  0001 C CNN
F 3 "" H 9050 7250 50  0001 C CNN
	1    9050 7250
	1    0    0    -1  
$EndComp
Entry Wire Line
	11550 4000 11450 3900
Entry Wire Line
	11550 4100 11450 4000
Entry Wire Line
	11550 4200 11450 4100
Entry Wire Line
	11550 4300 11450 4200
Entry Wire Line
	11550 4400 11450 4300
Entry Wire Line
	11550 4700 11450 4600
Entry Wire Line
	11550 4900 11450 4800
Entry Wire Line
	11550 5000 11450 4900
Entry Wire Line
	11550 5100 11450 5000
Entry Wire Line
	11550 5200 11450 5100
Entry Wire Line
	11550 5300 11450 5200
Entry Wire Line
	11550 6200 11450 6100
Entry Wire Line
	11550 6100 11450 6000
Entry Wire Line
	11550 6000 11450 5900
Entry Wire Line
	11550 5900 11450 5800
Entry Wire Line
	11550 5800 11450 5700
Entry Wire Line
	11550 5700 11450 5600
Entry Wire Line
	11550 5600 11450 5500
Entry Wire Line
	11550 5500 11450 5400
$Comp
L Device:R R3
U 1 1 5EE8A9CC
P 12050 3900
F 0 "R3" V 11843 3900 50  0000 C CNN
F 1 "10k" V 11934 3900 50  0000 C CNN
F 2 "Resistor_SMD:R_0603_1608Metric_Pad1.05x0.95mm_HandSolder" V 11980 3900 50  0001 C CNN
F 3 "~" H 12050 3900 50  0001 C CNN
	1    12050 3900
	0    1    1    0   
$EndComp
$Comp
L Device:R R4
U 1 1 5EE9F1F7
P 12050 4300
F 0 "R4" V 11843 4300 50  0000 C CNN
F 1 "10k" V 11934 4300 50  0000 C CNN
F 2 "Resistor_SMD:R_0603_1608Metric_Pad1.05x0.95mm_HandSolder" V 11980 4300 50  0001 C CNN
F 3 "~" H 12050 4300 50  0001 C CNN
	1    12050 4300
	0    1    1    0   
$EndComp
$Comp
L Device:R R5
U 1 1 5EE9FCA5
P 12050 4700
F 0 "R5" V 11843 4700 50  0000 C CNN
F 1 "10k" V 11934 4700 50  0000 C CNN
F 2 "Resistor_SMD:R_0603_1608Metric_Pad1.05x0.95mm_HandSolder" V 11980 4700 50  0001 C CNN
F 3 "~" H 12050 4700 50  0001 C CNN
	1    12050 4700
	0    1    1    0   
$EndComp
$Comp
L Device:R R6
U 1 1 5EEA0984
P 12050 5100
F 0 "R6" V 11843 5100 50  0000 C CNN
F 1 "10k" V 11934 5100 50  0000 C CNN
F 2 "Resistor_SMD:R_0603_1608Metric_Pad1.05x0.95mm_HandSolder" V 11980 5100 50  0001 C CNN
F 3 "~" H 12050 5100 50  0001 C CNN
	1    12050 5100
	0    1    1    0   
$EndComp
$Comp
L Device:R R7
U 1 1 5EEA115D
P 12050 5500
F 0 "R7" V 11843 5500 50  0000 C CNN
F 1 "10k" V 11934 5500 50  0000 C CNN
F 2 "Resistor_SMD:R_0603_1608Metric_Pad1.05x0.95mm_HandSolder" V 11980 5500 50  0001 C CNN
F 3 "~" H 12050 5500 50  0001 C CNN
	1    12050 5500
	0    1    1    0   
$EndComp
$Comp
L Device:R R8
U 1 1 5EEA1C99
P 12050 5850
F 0 "R8" V 11843 5850 50  0000 C CNN
F 1 "10k" V 11934 5850 50  0000 C CNN
F 2 "Resistor_SMD:R_0603_1608Metric_Pad1.05x0.95mm_HandSolder" V 11980 5850 50  0001 C CNN
F 3 "~" H 12050 5850 50  0001 C CNN
	1    12050 5850
	0    1    1    0   
$EndComp
Entry Wire Line
	11550 4400 11650 4300
Entry Wire Line
	11550 4800 11650 4700
Entry Wire Line
	11650 5100 11550 5200
Entry Wire Line
	11550 5600 11650 5500
Entry Wire Line
	11550 5950 11650 5850
$Comp
L Device:LED D1
U 1 1 5EEF80FD
P 12650 3900
F 0 "D1" H 12643 3645 50  0000 C CNN
F 1 "LED" H 12643 3736 50  0000 C CNN
F 2 "LED_SMD:LED_0603_1608Metric" H 12650 3900 50  0001 C CNN
F 3 "~" H 12650 3900 50  0001 C CNN
	1    12650 3900
	-1   0    0    1   
$EndComp
$Comp
L Device:LED D2
U 1 1 5EEF8FF5
P 12650 4300
F 0 "D2" H 12643 4045 50  0000 C CNN
F 1 "LED" H 12643 4136 50  0000 C CNN
F 2 "LED_SMD:LED_0603_1608Metric" H 12650 4300 50  0001 C CNN
F 3 "~" H 12650 4300 50  0001 C CNN
	1    12650 4300
	-1   0    0    1   
$EndComp
$Comp
L Device:LED D3
U 1 1 5EEF968F
P 12650 4700
F 0 "D3" H 12643 4445 50  0000 C CNN
F 1 "LED" H 12643 4536 50  0000 C CNN
F 2 "LED_SMD:LED_0603_1608Metric" H 12650 4700 50  0001 C CNN
F 3 "~" H 12650 4700 50  0001 C CNN
	1    12650 4700
	-1   0    0    1   
$EndComp
$Comp
L Device:LED D4
U 1 1 5EEF9CA8
P 12650 5100
F 0 "D4" H 12643 4845 50  0000 C CNN
F 1 "LED" H 12643 4936 50  0000 C CNN
F 2 "LED_SMD:LED_0603_1608Metric" H 12650 5100 50  0001 C CNN
F 3 "~" H 12650 5100 50  0001 C CNN
	1    12650 5100
	-1   0    0    1   
$EndComp
$Comp
L Device:LED D5
U 1 1 5EEFA1FB
P 12650 5500
F 0 "D5" H 12643 5245 50  0000 C CNN
F 1 "LED" H 12643 5336 50  0000 C CNN
F 2 "LED_SMD:LED_0603_1608Metric" H 12650 5500 50  0001 C CNN
F 3 "~" H 12650 5500 50  0001 C CNN
	1    12650 5500
	-1   0    0    1   
$EndComp
$Comp
L Device:LED D6
U 1 1 5EEFA77A
P 12650 5850
F 0 "D6" H 12643 5595 50  0000 C CNN
F 1 "LED" H 12643 5686 50  0000 C CNN
F 2 "LED_SMD:LED_0603_1608Metric" H 12650 5850 50  0001 C CNN
F 3 "~" H 12650 5850 50  0001 C CNN
	1    12650 5850
	-1   0    0    1   
$EndComp
$Comp
L power:GND #PWR0114
U 1 1 5EF243B9
P 13200 3650
F 0 "#PWR0114" H 13200 3400 50  0001 C CNN
F 1 "GND" H 13205 3477 50  0000 C CNN
F 2 "" H 13200 3650 50  0001 C CNN
F 3 "" H 13200 3650 50  0001 C CNN
	1    13200 3650
	-1   0    0    1   
$EndComp
$Comp
L Switch:SW_DIP_x08 SP1
U 1 1 5EC54442
P 6350 10150
F 0 "SP1" V 6304 10680 50  0000 L CNN
F 1 "SW_DIP_x08" V 6395 10680 50  0000 L CNN
F 2 "Button_Switch_THT:SW_DIP_SPSTx08_Slide_6.7x21.88mm_W7.62mm_P2.54mm_LowProfile" H 6350 10150 50  0001 C CNN
F 3 "~" H 6350 10150 50  0001 C CNN
	1    6350 10150
	0    1    1    0   
$EndComp
Entry Wire Line
	5450 9050 5550 9150
Entry Wire Line
	5700 9050 5800 9150
Entry Wire Line
	5950 9050 6050 9150
Entry Wire Line
	6200 9050 6300 9150
Entry Wire Line
	6450 9050 6550 9150
Entry Wire Line
	6700 9050 6800 9150
Entry Wire Line
	6950 9050 7050 9150
Entry Wire Line
	7200 9050 7300 9150
$Comp
L power:+5V #PWR0115
U 1 1 5ECD3AF9
P 4950 10450
F 0 "#PWR0115" H 4950 10300 50  0001 C CNN
F 1 "+5V" H 4965 10623 50  0000 C CNN
F 2 "" H 4950 10450 50  0001 C CNN
F 3 "" H 4950 10450 50  0001 C CNN
	1    4950 10450
	1    0    0    -1  
$EndComp
Entry Wire Line
	8350 1450 8450 1550
Entry Wire Line
	8350 1300 8450 1400
Entry Wire Line
	8350 2400 8450 2500
Entry Wire Line
	8350 2200 8450 2300
Entry Wire Line
	8350 1800 8450 1900
Wire Wire Line
	2300 1800 2300 1450
Wire Wire Line
	2300 1450 3000 1450
Wire Wire Line
	3000 1650 3000 1450
Connection ~ 3000 1450
Wire Wire Line
	3000 1450 3550 1450
Wire Wire Line
	3550 1650 3550 1450
Wire Wire Line
	2300 2000 2450 2000
Wire Wire Line
	2450 2000 2450 2200
Wire Wire Line
	2450 2200 3000 2200
Wire Wire Line
	3000 1950 3000 2200
Connection ~ 3000 2200
Wire Wire Line
	3000 2200 3550 2200
Wire Wire Line
	3550 1950 3550 2200
Wire Wire Line
	4250 1950 4250 2100
Connection ~ 4250 1950
Wire Wire Line
	4250 1750 4250 1950
Wire Wire Line
	3550 1450 3950 1450
Connection ~ 3550 1450
Wire Wire Line
	3550 2200 4000 2200
Wire Wire Line
	4000 2200 4000 1950
Wire Wire Line
	4000 1950 4250 1950
Connection ~ 3550 2200
Wire Wire Line
	4250 1950 4950 1950
Wire Wire Line
	4550 1450 4950 1450
Wire Wire Line
	4950 1450 4950 1650
Wire Wire Line
	4950 1450 4950 1250
Connection ~ 4950 1450
Wire Wire Line
	7000 2800 7250 2800
Wire Wire Line
	7250 2800 7250 3000
Wire Wire Line
	7350 2000 7000 2000
Wire Wire Line
	7350 1550 7350 2000
Wire Wire Line
	7000 2400 8350 2400
Wire Wire Line
	7000 2200 8350 2200
Wire Wire Line
	4950 1450 5450 1450
Wire Wire Line
	5450 1450 5450 1150
Wire Wire Line
	5450 1150 7600 1150
Wire Wire Line
	7600 1150 7600 1450
Wire Wire Line
	7600 1450 8350 1450
Wire Wire Line
	3000 1450 3000 1000
Wire Wire Line
	3000 1000 7700 1000
Wire Wire Line
	7700 1000 7700 1300
Wire Wire Line
	7700 1300 8350 1300
Wire Wire Line
	2800 5500 3050 5500
Wire Wire Line
	3050 5500 3050 5900
Wire Wire Line
	3050 5900 2800 5900
Wire Wire Line
	2800 6100 3050 6100
Wire Wire Line
	3050 6100 3050 6300
Wire Wire Line
	3050 6300 2800 6300
Wire Wire Line
	5400 7600 5400 7450
Wire Wire Line
	2800 5300 3350 5300
Connection ~ 5400 7450
Wire Wire Line
	10000 4350 9400 4350
Wire Wire Line
	10000 4600 9500 4600
Wire Wire Line
	9500 4600 9500 4650
Wire Wire Line
	9500 4650 9400 4650
Wire Wire Line
	10000 5000 9750 5000
Wire Wire Line
	9750 5000 9750 4900
Wire Wire Line
	9750 4900 9400 4900
Wire Wire Line
	10000 5150 9800 5150
Wire Wire Line
	9800 5150 9800 5200
Wire Wire Line
	9800 5200 9400 5200
Wire Wire Line
	8900 5500 8900 5200
Wire Wire Line
	8900 5200 9400 5200
Connection ~ 9400 5200
Wire Wire Line
	9400 4650 8900 4650
Wire Wire Line
	8900 4650 8900 5200
Connection ~ 9400 4650
Connection ~ 8900 5200
Wire Wire Line
	10000 3600 9700 3600
Wire Wire Line
	9700 3600 9700 3400
Wire Wire Line
	9100 3400 8950 3400
Wire Wire Line
	9700 1900 9700 2100
Wire Wire Line
	9700 3400 9500 3400
Wire Wire Line
	9700 2400 9700 2850
Connection ~ 9700 3400
Wire Wire Line
	9450 2850 9700 2850
Connection ~ 9700 2850
Wire Wire Line
	9700 2850 9700 3400
Wire Wire Line
	9150 2850 8950 2850
Wire Wire Line
	8950 2850 8950 3400
Connection ~ 8950 3400
Wire Wire Line
	8600 3400 8700 3400
Wire Wire Line
	8700 4150 8700 3700
Connection ~ 8700 3400
Wire Wire Line
	8700 3400 8950 3400
Connection ~ 8700 3700
Wire Wire Line
	8700 3700 8700 3400
Wire Wire Line
	10000 3800 9550 3800
Wire Wire Line
	9550 3800 9550 3700
Wire Wire Line
	9550 3700 9250 3700
Connection ~ 9250 3700
Wire Wire Line
	9250 3700 9000 3700
Wire Wire Line
	9000 4150 9250 4150
Wire Wire Line
	9550 4150 9550 3950
Wire Wire Line
	9550 3950 10000 3950
Wire Wire Line
	9250 4000 9250 4150
Connection ~ 9250 4150
Wire Wire Line
	9250 4150 9550 4150
Wire Wire Line
	9400 4350 9100 4350
Connection ~ 9400 4350
Wire Wire Line
	9400 4900 9300 4900
Connection ~ 9400 4900
Wire Wire Line
	9850 6550 9850 6450
Wire Wire Line
	9850 6450 10000 6450
Wire Wire Line
	9600 6550 9850 6550
Wire Wire Line
	9200 6550 9050 6550
Wire Wire Line
	8650 6550 8650 6700
Wire Wire Line
	9050 6800 9050 6550
Connection ~ 9050 6550
Wire Wire Line
	9050 6550 8650 6550
Wire Wire Line
	9050 7100 9050 7250
Wire Wire Line
	11200 3900 11450 3900
Wire Wire Line
	11200 4000 11450 4000
Wire Wire Line
	11200 4100 11450 4100
Wire Wire Line
	11200 4200 11450 4200
Wire Wire Line
	11200 4300 11450 4300
Wire Wire Line
	11200 4600 11450 4600
Wire Wire Line
	11200 4800 11450 4800
Wire Wire Line
	11200 4900 11450 4900
Wire Wire Line
	11200 5000 11450 5000
Wire Wire Line
	11200 5100 11450 5100
Wire Wire Line
	11200 5200 11450 5200
Wire Wire Line
	11200 5400 11450 5400
Wire Wire Line
	11200 5500 11450 5500
Wire Wire Line
	11200 5600 11450 5600
Wire Wire Line
	11200 5700 11450 5700
Wire Wire Line
	11200 5800 11450 5800
Wire Wire Line
	11200 5900 11450 5900
Wire Wire Line
	11200 6000 11450 6000
Wire Wire Line
	11200 6100 11450 6100
Wire Wire Line
	11650 4300 11900 4300
Wire Wire Line
	11650 4700 11900 4700
Wire Wire Line
	11650 5100 11900 5100
Wire Wire Line
	11650 5500 11900 5500
Wire Wire Line
	11650 5850 11900 5850
Wire Wire Line
	12200 3900 12500 3900
Wire Wire Line
	12200 4300 12500 4300
Wire Wire Line
	12200 4700 12500 4700
Wire Wire Line
	12200 5100 12500 5100
Wire Wire Line
	12200 5500 12500 5500
Wire Wire Line
	12200 5850 12500 5850
Wire Wire Line
	12800 5850 13200 5850
Wire Wire Line
	13200 5850 13200 5500
Wire Wire Line
	12800 5500 13200 5500
Connection ~ 13200 5500
Wire Wire Line
	13200 5500 13200 5100
Wire Wire Line
	12800 5100 13200 5100
Connection ~ 13200 5100
Wire Wire Line
	13200 5100 13200 4700
Wire Wire Line
	12800 4700 13200 4700
Connection ~ 13200 4700
Wire Wire Line
	13200 4700 13200 4300
Wire Wire Line
	12800 4300 13200 4300
Connection ~ 13200 4300
Wire Wire Line
	13200 4300 13200 3900
Wire Wire Line
	12800 3900 13200 3900
Connection ~ 13200 3900
Wire Wire Line
	13200 3900 13200 3650
Wire Wire Line
	6750 10450 6650 10450
Connection ~ 6050 10450
Wire Wire Line
	6050 10450 4950 10450
Connection ~ 6150 10450
Wire Wire Line
	6150 10450 6050 10450
Connection ~ 6250 10450
Wire Wire Line
	6250 10450 6150 10450
Connection ~ 6350 10450
Wire Wire Line
	6350 10450 6250 10450
Connection ~ 6450 10450
Wire Wire Line
	6450 10450 6350 10450
Connection ~ 6550 10450
Wire Wire Line
	6550 10450 6450 10450
Connection ~ 6650 10450
Wire Wire Line
	6650 10450 6550 10450
Wire Wire Line
	8350 1800 7000 1800
$Comp
L power:+5V #PWR0101
U 1 1 5EC5669E
P 4950 1250
F 0 "#PWR0101" H 4950 1100 50  0001 C CNN
F 1 "+5V" H 4965 1423 50  0000 C CNN
F 2 "" H 4950 1250 50  0001 C CNN
F 3 "" H 4950 1250 50  0001 C CNN
	1    4950 1250
	1    0    0    -1  
$EndComp
$Comp
L Device:R R15
U 1 1 5EEC323A
P 5550 9500
F 0 "R15" H 5620 9546 50  0000 L CNN
F 1 "10k" H 5620 9455 50  0000 L CNN
F 2 "Resistor_SMD:R_0603_1608Metric_Pad1.05x0.95mm_HandSolder" V 5480 9500 50  0001 C CNN
F 3 "~" H 5550 9500 50  0001 C CNN
	1    5550 9500
	1    0    0    -1  
$EndComp
$Comp
L Device:R R16
U 1 1 5EEC3DB8
P 5800 9500
F 0 "R16" H 5870 9546 50  0000 L CNN
F 1 "10k" H 5870 9455 50  0000 L CNN
F 2 "Resistor_SMD:R_0603_1608Metric_Pad1.05x0.95mm_HandSolder" V 5730 9500 50  0001 C CNN
F 3 "~" H 5800 9500 50  0001 C CNN
	1    5800 9500
	1    0    0    -1  
$EndComp
$Comp
L Device:R R17
U 1 1 5EEC41B5
P 6050 9500
F 0 "R17" H 6120 9546 50  0000 L CNN
F 1 "10k" H 6120 9455 50  0000 L CNN
F 2 "Resistor_SMD:R_0603_1608Metric_Pad1.05x0.95mm_HandSolder" V 5980 9500 50  0001 C CNN
F 3 "~" H 6050 9500 50  0001 C CNN
	1    6050 9500
	1    0    0    -1  
$EndComp
$Comp
L Device:R R18
U 1 1 5EEC4904
P 6300 9500
F 0 "R18" H 6370 9546 50  0000 L CNN
F 1 "10k" H 6370 9455 50  0000 L CNN
F 2 "Resistor_SMD:R_0603_1608Metric_Pad1.05x0.95mm_HandSolder" V 6230 9500 50  0001 C CNN
F 3 "~" H 6300 9500 50  0001 C CNN
	1    6300 9500
	1    0    0    -1  
$EndComp
$Comp
L Device:R R19
U 1 1 5EEC4BB1
P 6550 9500
F 0 "R19" H 6620 9546 50  0000 L CNN
F 1 "10k" H 6620 9455 50  0000 L CNN
F 2 "Resistor_SMD:R_0603_1608Metric_Pad1.05x0.95mm_HandSolder" V 6480 9500 50  0001 C CNN
F 3 "~" H 6550 9500 50  0001 C CNN
	1    6550 9500
	1    0    0    -1  
$EndComp
$Comp
L Device:R R20
U 1 1 5EEC4EEB
P 6800 9500
F 0 "R20" H 6870 9546 50  0000 L CNN
F 1 "10k" H 6870 9455 50  0000 L CNN
F 2 "Resistor_SMD:R_0603_1608Metric_Pad1.05x0.95mm_HandSolder" V 6730 9500 50  0001 C CNN
F 3 "~" H 6800 9500 50  0001 C CNN
	1    6800 9500
	1    0    0    -1  
$EndComp
$Comp
L Device:R R21
U 1 1 5EEC5325
P 7050 9500
F 0 "R21" H 7120 9546 50  0000 L CNN
F 1 "10k" H 7120 9455 50  0000 L CNN
F 2 "Resistor_SMD:R_0603_1608Metric_Pad1.05x0.95mm_HandSolder" V 6980 9500 50  0001 C CNN
F 3 "~" H 7050 9500 50  0001 C CNN
	1    7050 9500
	1    0    0    -1  
$EndComp
$Comp
L Device:R R22
U 1 1 5EEC5665
P 7300 9500
F 0 "R22" H 7370 9546 50  0000 L CNN
F 1 "10k" H 7370 9455 50  0000 L CNN
F 2 "Resistor_SMD:R_0603_1608Metric_Pad1.05x0.95mm_HandSolder" V 7230 9500 50  0001 C CNN
F 3 "~" H 7300 9500 50  0001 C CNN
	1    7300 9500
	1    0    0    -1  
$EndComp
Wire Wire Line
	5550 9350 5550 9150
Wire Wire Line
	5800 9150 5800 9350
Wire Wire Line
	6050 9150 6050 9350
Wire Wire Line
	6300 9150 6300 9350
Wire Wire Line
	6550 9150 6550 9350
Wire Wire Line
	6800 9150 6800 9350
Wire Wire Line
	7050 9150 7050 9350
Wire Wire Line
	7300 9150 7300 9350
Wire Wire Line
	5550 9650 5550 9850
Wire Wire Line
	5550 9850 6050 9850
Wire Wire Line
	5800 9650 5800 9800
Wire Wire Line
	5800 9800 6150 9800
Wire Wire Line
	6150 9800 6150 9850
Wire Wire Line
	6050 9650 6050 9750
Wire Wire Line
	6050 9750 6250 9750
Wire Wire Line
	6250 9750 6250 9850
Wire Wire Line
	6300 9650 6300 9750
Wire Wire Line
	6300 9750 6350 9750
Wire Wire Line
	6350 9750 6350 9850
Wire Wire Line
	6450 9850 6450 9700
Wire Wire Line
	6450 9700 6550 9700
Wire Wire Line
	6550 9700 6550 9650
Wire Wire Line
	6800 9650 6800 9750
Wire Wire Line
	6800 9750 6550 9750
Wire Wire Line
	6550 9750 6550 9850
Wire Wire Line
	6650 9850 6650 9800
Wire Wire Line
	6650 9800 7050 9800
Wire Wire Line
	7050 9800 7050 9650
Wire Wire Line
	6750 9850 7300 9850
Wire Wire Line
	7300 9850 7300 9650
$Comp
L Device:R R1
U 1 1 5ED5BCCB
P 9700 2250
F 0 "R1" H 9770 2296 50  0000 L CNN
F 1 "10k" H 9770 2205 50  0000 L CNN
F 2 "Resistor_SMD:R_0603_1608Metric_Pad1.05x0.95mm_HandSolder" V 9630 2250 50  0001 C CNN
F 3 "~" H 9700 2250 50  0001 C CNN
	1    9700 2250
	1    0    0    -1  
$EndComp
$Comp
L power:+5V #PWR0110
U 1 1 5ED5C960
P 9700 1900
F 0 "#PWR0110" H 9700 1750 50  0001 C CNN
F 1 "+5V" H 9715 2073 50  0000 C CNN
F 2 "" H 9700 1900 50  0001 C CNN
F 3 "" H 9700 1900 50  0001 C CNN
	1    9700 1900
	1    0    0    -1  
$EndComp
Text Label 8200 1800 0    50   ~ 0
9
Text Label 8150 2200 0    50   ~ 0
10
Text Label 8200 2400 0    50   ~ 0
8
Text Label 11400 5000 0    50   ~ 0
8
Text Label 11400 5100 0    50   ~ 0
9
Text Label 5550 9250 0    50   ~ 0
11
Text Label 5800 9200 0    50   ~ 0
12
Text Label 6050 9250 0    50   ~ 0
13
Text Label 6300 9250 0    50   ~ 0
14
Text Label 6550 9250 0    50   ~ 0
15
Text Label 6800 9250 0    50   ~ 0
16
Text Label 7050 9250 0    50   ~ 0
17
Text Label 7300 9250 0    50   ~ 0
18
Text Label 11350 5400 0    50   ~ 0
11
Text Label 11350 5500 0    50   ~ 0
12
Text Label 11350 5600 0    50   ~ 0
13
Text Label 11350 5700 0    50   ~ 0
14
Text Label 11350 5800 0    50   ~ 0
15
Text Label 11350 5900 0    50   ~ 0
16
Text Label 11350 6000 0    50   ~ 0
17
Text Label 11350 6100 0    50   ~ 0
18
Text Label 11750 4300 0    50   ~ 0
2
Text Label 11750 4700 0    50   ~ 0
3
Text Label 11750 5100 0    50   ~ 0
4
Text Label 11750 5500 0    50   ~ 0
5
Text Label 11750 5850 0    50   ~ 0
6
Wire Bus Line
	11550 9050 8450 9050
Connection ~ 8450 9050
Text Label 11400 3900 0    50   ~ 0
2
Text Label 11400 4000 0    50   ~ 0
3
Text Label 11400 4100 0    50   ~ 0
4
Text Label 11400 4200 0    50   ~ 0
5
Text Label 11400 4300 0    50   ~ 0
6
Text Label 11350 4600 0    50   ~ 0
22
Text Label 11350 4800 0    50   ~ 0
24
Text Label 11350 4900 0    50   ~ 0
22
Text Label 11350 5200 0    50   ~ 0
10
Text Label 8150 1300 0    50   ~ 0
24
Text Label 8150 1450 0    50   ~ 0
23
NoConn ~ 11200 4500
NoConn ~ 11200 4700
NoConn ~ 7000 2600
NoConn ~ 11200 3600
$Comp
L power:+5V #PWR0106
U 1 1 5EC8F470
P 7050 3800
F 0 "#PWR0106" H 7050 3650 50  0001 C CNN
F 1 "+5V" H 7065 3973 50  0000 C CNN
F 2 "" H 7050 3800 50  0001 C CNN
F 3 "" H 7050 3800 50  0001 C CNN
	1    7050 3800
	1    0    0    -1  
$EndComp
Wire Wire Line
	11900 3800 11900 3900
Wire Wire Line
	11200 3800 11900 3800
Wire Wire Line
	3950 4750 4600 4750
Wire Wire Line
	3950 5050 4600 5050
Wire Wire Line
	6500 5050 6200 5050
Wire Wire Line
	6200 4750 6500 4750
$Comp
L Interface_UART:MAX232 DD2
U 1 1 5EC7BB0F
P 5400 5650
F 0 "DD2" H 5400 7031 50  0000 C CNN
F 1 "MAX232" H 5400 6940 50  0000 C CNN
F 2 "Package_DIP:DIP-16_W7.62mm" H 5450 4600 50  0001 L CNN
F 3 "http://www.ti.com/lit/ds/symlink/max232.pdf" H 5400 5750 50  0001 C CNN
	1    5400 5650
	1    0    0    -1  
$EndComp
Wire Wire Line
	3350 5300 3350 7200
Wire Wire Line
	3350 7200 6500 7200
Wire Wire Line
	6500 7200 6500 5950
Wire Wire Line
	6500 5950 6200 5950
Wire Wire Line
	6200 6350 6200 7050
Wire Wire Line
	6200 7050 3450 7050
Wire Wire Line
	3450 7050 3450 5100
Wire Wire Line
	3450 5100 2800 5100
NoConn ~ 5400 4450
NoConn ~ 6200 5750
NoConn ~ 6200 6150
NoConn ~ 4600 6150
NoConn ~ 4600 5750
Wire Wire Line
	4600 5950 4250 5950
Wire Wire Line
	6900 6250 6900 6900
Wire Wire Line
	6900 6900 4400 6900
Wire Wire Line
	4400 6900 4400 6350
Wire Wire Line
	4400 6350 4600 6350
Wire Wire Line
	5400 6850 5400 7450
Wire Wire Line
	4250 7250 6850 7250
Wire Wire Line
	4250 5950 4250 7250
Wire Wire Line
	6850 6150 6850 7250
Wire Wire Line
	6850 6150 9800 6150
Wire Wire Line
	9800 6150 9800 6250
Wire Wire Line
	9800 6250 10000 6250
Wire Wire Line
	6900 6250 9700 6250
Wire Wire Line
	9700 6250 9700 6100
Wire Wire Line
	9700 6100 10000 6100
Wire Wire Line
	10000 6100 10000 6150
$Comp
L Device:R R2
U 1 1 5EDB6E06
P 7400 4150
F 0 "R2" H 7470 4196 50  0000 L CNN
F 1 "10k" H 7470 4105 50  0000 L CNN
F 2 "Resistor_SMD:R_0603_1608Metric_Pad1.05x0.95mm_HandSolder" V 7330 4150 50  0001 C CNN
F 3 "~" H 7400 4150 50  0001 C CNN
	1    7400 4150
	1    0    0    -1  
$EndComp
$Comp
L Device:C C6
U 1 1 5EDB721F
P 7400 4600
F 0 "C6" H 7515 4646 50  0000 L CNN
F 1 "100n" H 7515 4555 50  0000 L CNN
F 2 "Capacitor_SMD:C_0603_1608Metric" H 7438 4450 50  0001 C CNN
F 3 "~" H 7400 4600 50  0001 C CNN
	1    7400 4600
	1    0    0    -1  
$EndComp
Wire Wire Line
	7400 5250 7400 4750
Wire Wire Line
	6200 5250 7400 5250
Wire Wire Line
	7400 4450 7400 4300
Wire Wire Line
	7400 4000 7050 4000
Wire Wire Line
	7050 4000 7050 3800
Wire Wire Line
	3200 7450 5400 7450
Wire Wire Line
	3200 5700 3200 7450
Wire Wire Line
	2800 5700 3200 5700
NoConn ~ 6200 5550
Wire Bus Line
	8450 1200 8450 9050
Wire Bus Line
	5350 9050 8450 9050
Wire Bus Line
	11550 3100 11550 9050
$EndSCHEMATC
