EESchema Schematic File Version 4
EELAYER 30 0
EELAYER END
$Descr A3 16535 11693
encoding utf-8
Sheet 1 1
Title "Схема электрическая принципиальная"
Date "2020-02-21"
Rev ""
Comp "МГТУ им. Н.Э. Баумана"
Comment1 "Регистратор времени"
Comment2 "Дорошин А.Е"
Comment3 ""
Comment4 ""
$EndDescr
$Comp
L my_lib:CONN_2 X1
U 1 1 5E275787
P 10100 4500
F 0 "X1" H 10100 4875 79  0000 C CNN
F 1 "CONN_2" H 10100 4100 79  0001 C CNN
F 2 "Connector_PinHeader_1.00mm:PinHeader_1x02_P1.00mm_Vertical_SMD_Pin1Left" H 10700 4900 79  0001 C CNN
F 3 "" H 10700 4100 79  0001 C CNN
F 4 "12V" H 9900 4500 79  0000 C CNN "PIN1"
F 5 "GND" H 9893 4304 79  0000 C CNN "PIN2"
	1    10100 4500
	1    0    0    -1  
$EndComp
$Comp
L my_lib:CONN_6 X2
U 1 1 5E279B62
P 5350 2700
F 0 "X2" H 5350 3800 79  0000 C CNN
F 1 "CONN_6" H 5350 2200 79  0001 C CNN
F 2 "Connector_PinHeader_1.00mm:PinHeader_1x06_P1.00mm_Vertical_SMD_Pin1Left" H 5950 3800 79  0001 C CNN
F 3 "" H 5950 1600 79  0001 C CNN
F 4 "5V" H 5150 3400 79  0000 C CNN "PIN1"
F 5 "MISO" H 5150 3200 79  0000 C CNN "PIN2"
F 6 "SCK" H 5150 3000 79  0000 C CNN "PIN3"
F 7 "MOSI" H 5150 2800 79  0000 C CNN "PIN4"
F 8 "TRST" H 5150 2600 79  0000 C CNN "PIN5"
F 9 "GND" H 5150 2400 79  0000 C CNN "PIN6"
	1    5350 2700
	1    0    0    -1  
$EndComp
$Comp
L my_lib:CONN_9 X3
U 1 1 5E27F247
P 3500 7550
F 0 "X3" H 3500 8625 79  0000 C CNN
F 1 "CONN_9" H 3500 6450 79  0001 C CNN
F 2 "Connector_PinHeader_1.00mm:PinHeader_1x09_P1.00mm_Vertical_SMD_Pin1Left" H 4100 8650 79  0001 C CNN
F 3 "" H 4100 6450 79  0001 C CNN
F 4 "DCD" H 3300 8250 79  0000 C CNN "PIN1"
F 5 "RxD" H 3300 8050 79  0000 C CNN "PIN2"
F 6 "TxD" H 3300 7850 79  0000 C CNN "PIN3"
F 7 "DTR" H 3300 7650 79  0000 C CNN "PIN4"
F 8 "GND" H 3300 7450 79  0000 C CNN "PIN5"
F 9 "DSR" H 3300 7250 79  0000 C CNN "PIN6"
F 10 "RTS" H 3300 7050 79  0000 C CNN "PIN7"
F 11 "CTS" H 3300 6850 79  0000 C CNN "PIN8"
F 12 "RI" H 3300 6650 79  0000 C CNN "PIN9"
	1    3500 7550
	1    0    0    -1  
$EndComp
Wire Wire Line
	7000 6000 7350 6000
Text Label 7000 5900 0    50   ~ 0
RS
Text Label 7000 6000 0    50   ~ 0
RW
Text Label 8900 5350 2    50   ~ 0
D7
Text Label 8900 5450 2    50   ~ 0
D6
Text Label 8900 5550 2    50   ~ 0
D5
Text Label 8900 5650 2    50   ~ 0
D4
Text Label 8900 5750 2    50   ~ 0
D3
Text Label 8900 5850 2    50   ~ 0
D2
Text Label 8900 5950 2    50   ~ 0
D1
Text Label 8900 6050 2    50   ~ 0
D0
$Comp
L power:GND #PWR0105
U 1 1 5E3620D4
P 6250 3100
F 0 "#PWR0105" H 6250 2850 50  0001 C CNN
F 1 "GND" H 6255 2927 50  0000 C CNN
F 2 "" H 6250 3100 50  0001 C CNN
F 3 "" H 6250 3100 50  0001 C CNN
	1    6250 3100
	1    0    0    -1  
$EndComp
$Comp
L power:VCC #PWR0107
U 1 1 5E36DB38
P 5975 3400
F 0 "#PWR0107" H 5975 3250 50  0001 C CNN
F 1 "VCC" H 5992 3573 50  0000 C CNN
F 2 "" H 5975 3400 50  0001 C CNN
F 3 "" H 5975 3400 50  0001 C CNN
	1    5975 3400
	1    0    0    -1  
$EndComp
Wire Wire Line
	6450 3625 5975 3625
Wire Wire Line
	5975 3625 5975 3400
$Comp
L Device:C C4
U 1 1 5E375DE2
P 5975 3775
F 0 "C4" H 6090 3821 50  0000 L CNN
F 1 "0.1µ" H 6090 3730 50  0000 L CNN
F 2 "Capacitor_SMD:C_0603_1608Metric" H 6013 3625 50  0001 C CNN
F 3 "" H 5975 3775 50  0000 C CNN
	1    5975 3775
	1    0    0    -1  
$EndComp
Connection ~ 5975 3625
Wire Wire Line
	5975 3925 5975 3975
$Comp
L Device:Crystal Y1
U 1 1 5E381AB0
P 6400 5300
F 0 "Y1" H 6400 5568 50  0000 C CNN
F 1 "8M" H 6400 5477 50  0000 C CNN
F 2 "Crystal:Crystal_SMD_TXC_7A-2Pin_5x3.2mm" H 6400 5300 50  0001 C CNN
F 3 "~" H 6400 5300 50  0001 C CNN
	1    6400 5300
	1    0    0    -1  
$EndComp
$Comp
L power:GND #PWR0109
U 1 1 5E38E76F
P 6150 5900
F 0 "#PWR0109" H 6150 5650 50  0001 C CNN
F 1 "GND" H 6155 5727 50  0000 C CNN
F 2 "" H 6150 5900 50  0001 C CNN
F 3 "" H 6150 5900 50  0001 C CNN
	1    6150 5900
	1    0    0    -1  
$EndComp
$Comp
L power:GND #PWR0110
U 1 1 5E38F3E0
P 6650 5900
F 0 "#PWR0110" H 6650 5650 50  0001 C CNN
F 1 "GND" H 6655 5727 50  0000 C CNN
F 2 "" H 6650 5900 50  0001 C CNN
F 3 "" H 6650 5900 50  0001 C CNN
	1    6650 5900
	1    0    0    -1  
$EndComp
$Comp
L Device:C C2
U 1 1 5E392F60
P 6150 5600
F 0 "C2" H 6265 5646 50  0000 L CNN
F 1 "22p" H 6265 5555 50  0000 L CNN
F 2 "Capacitor_SMD:C_0603_1608Metric" H 6188 5450 50  0001 C CNN
F 3 "" H 6150 5600 50  0001 C CNN
	1    6150 5600
	1    0    0    -1  
$EndComp
$Comp
L Device:C C3
U 1 1 5E393F3A
P 6650 5600
F 0 "C3" H 6765 5646 50  0000 L CNN
F 1 "22p" H 6765 5555 50  0000 L CNN
F 2 "Capacitor_SMD:C_0603_1608Metric" H 6688 5450 50  0001 C CNN
F 3 "" H 6650 5600 50  0000 C CNN
	1    6650 5600
	1    0    0    -1  
$EndComp
$Comp
L power:GND #PWR0111
U 1 1 5E3A0350
P 7200 5200
F 0 "#PWR0111" H 7200 4950 50  0001 C CNN
F 1 "GND" H 7205 5027 50  0000 C CNN
F 2 "" H 7200 5200 50  0001 C CNN
F 3 "" H 7200 5200 50  0001 C CNN
	1    7200 5200
	1    0    0    -1  
$EndComp
Wire Wire Line
	7200 4900 7200 5200
$Comp
L power:GND #PWR0114
U 1 1 5E3CAAE8
P 12100 6900
F 0 "#PWR0114" H 12100 6650 50  0001 C CNN
F 1 "GND" H 12105 6727 50  0000 C CNN
F 2 "" H 12100 6900 50  0001 C CNN
F 3 "" H 12100 6900 50  0001 C CNN
	1    12100 6900
	1    0    0    -1  
$EndComp
$Comp
L power:VCC #PWR0115
U 1 1 5E3D9674
P 12100 5600
F 0 "#PWR0115" H 12100 5450 50  0001 C CNN
F 1 "VCC" H 12117 5773 50  0000 C CNN
F 2 "" H 12100 5600 50  0001 C CNN
F 3 "" H 12100 5600 50  0001 C CNN
	1    12100 5600
	1    0    0    -1  
$EndComp
$Comp
L power:GND #PWR0116
U 1 1 5E3D967C
P 12100 6350
F 0 "#PWR0116" H 12100 6100 50  0001 C CNN
F 1 "GND" H 12105 6177 50  0000 C CNN
F 2 "" H 12100 6350 50  0001 C CNN
F 3 "" H 12100 6350 50  0001 C CNN
	1    12100 6350
	1    0    0    -1  
$EndComp
$Comp
L Device:C C9
U 1 1 5E3D9682
P 12100 6100
F 0 "C9" H 12215 6146 50  0000 L CNN
F 1 "0.1µ" H 12215 6055 50  0000 L CNN
F 2 "Capacitor_SMD:C_0603_1608Metric" H 12138 5950 50  0001 C CNN
F 3 "" H 12100 6100 50  0000 C CNN
	1    12100 6100
	1    0    0    -1  
$EndComp
$Comp
L power:GND #PWR0118
U 1 1 5E3F04FE
P 12500 6350
F 0 "#PWR0118" H 12500 6100 50  0001 C CNN
F 1 "GND" H 12505 6177 50  0000 C CNN
F 2 "" H 12500 6350 50  0001 C CNN
F 3 "" H 12500 6350 50  0001 C CNN
	1    12500 6350
	1    0    0    -1  
$EndComp
$Comp
L LM016L:LM016L DD2
U 1 1 5E2F6945
P 11600 6200
F 0 "DD2" H 11500 6967 50  0000 C CNN
F 1 "LM016L" H 11500 6876 50  0000 C CNN
F 2 "main:LCD_LM016L" H 11600 6200 50  0001 L BNN
F 3 "Hitachi" H 11600 6200 50  0001 L BNN
	1    11600 6200
	1    0    0    -1  
$EndComp
$Comp
L ATMEGA32-16AU:ATMEGA32-16AU DD1
U 1 1 5E266AC5
P 8050 4800
F 0 "DD1" H 8050 6570 50  0000 C CNN
F 1 "ATmega32-16AU" H 8050 6479 50  0000 C CNN
F 2 "Package_DIP:DIP-48_W15.24mm" H 8050 4800 50  0001 C CIN
F 3 "http://ww1.microchip.com/downloads/en/DeviceDoc/doc2512.pdf" H 8050 4800 50  0001 C CNN
	1    8050 4800
	1    0    0    -1  
$EndComp
Wire Wire Line
	7000 5900 7350 5900
Entry Wire Line
	6900 6100 7000 6000
Entry Wire Line
	6900 6000 7000 5900
Wire Bus Line
	6900 7000 9000 7000
Entry Bus Bus
	9000 7000 9100 6900
Entry Wire Line
	9000 5350 9100 5250
Entry Wire Line
	9000 5450 9100 5350
Entry Wire Line
	9000 5550 9100 5450
Entry Wire Line
	9000 5650 9100 5550
Entry Wire Line
	9000 5750 9100 5650
Entry Wire Line
	9000 5850 9100 5750
Entry Wire Line
	9000 5950 9100 5850
Entry Wire Line
	9000 6050 9100 5950
Entry Wire Line
	9000 6150 9100 6050
Wire Wire Line
	8750 5350 9000 5350
Wire Wire Line
	8750 5450 9000 5450
Wire Wire Line
	8750 5550 9000 5550
Wire Wire Line
	8750 5650 9000 5650
Wire Wire Line
	8750 5750 9000 5750
Wire Wire Line
	8750 5850 9000 5850
Wire Wire Line
	8750 5950 9000 5950
Wire Wire Line
	8750 6050 9000 6050
Wire Wire Line
	8750 6150 9000 6150
Text Label 8850 6150 2    50   ~ 0
E
Entry Bus Bus
	9100 6900 9200 7000
Wire Bus Line
	9200 7000 10500 7000
Entry Wire Line
	10500 6900 10600 6800
Entry Wire Line
	10500 6800 10600 6700
Entry Wire Line
	10500 6700 10600 6600
Entry Wire Line
	10500 6600 10600 6500
Entry Wire Line
	10500 6500 10600 6400
Entry Wire Line
	10500 6400 10600 6300
Entry Wire Line
	10500 6300 10600 6200
Entry Wire Line
	10500 6200 10600 6100
Entry Wire Line
	10500 6000 10600 5900
Entry Wire Line
	10500 5900 10600 5800
Entry Wire Line
	10500 5800 10600 5700
Wire Wire Line
	10600 5700 11000 5700
Wire Wire Line
	10600 5800 11000 5800
Wire Wire Line
	10600 5900 11000 5900
Wire Wire Line
	10600 6100 11000 6100
Wire Wire Line
	10600 6200 11000 6200
Wire Wire Line
	10600 6300 11000 6300
Wire Wire Line
	10600 6400 11000 6400
Wire Wire Line
	10600 6500 11000 6500
Wire Wire Line
	10600 6600 11000 6600
Wire Wire Line
	10600 6700 11000 6700
Wire Wire Line
	10600 6800 11000 6800
Wire Wire Line
	12000 6800 12100 6800
Wire Wire Line
	12100 6800 12100 6900
Wire Wire Line
	12100 5600 12100 5700
Wire Wire Line
	12100 5700 12000 5700
Wire Wire Line
	12100 5700 12100 5950
Connection ~ 12100 5700
Wire Wire Line
	12100 6250 12100 6350
$Comp
L Device:R_POT RV1
U 1 1 5E3E3F1F
P 12500 5800
F 0 "RV1" H 12430 5754 50  0000 R CNN
F 1 "10k" H 12430 5845 50  0000 R CNN
F 2 "Resistor_SMD:R_0402_1005Metric" H 12500 5800 50  0001 C CNN
F 3 "~" H 12500 5800 50  0001 C CNN
	1    12500 5800
	-1   0    0    1   
$EndComp
Wire Wire Line
	12000 5800 12350 5800
Wire Wire Line
	12500 6350 12500 5950
Text Label 10600 5800 0    50   ~ 0
RS
Text Label 10600 5900 0    50   ~ 0
RW
Text Label 10650 5700 2    50   ~ 0
E
Text Label 10700 6100 2    50   ~ 0
D0
Text Label 10700 6200 2    50   ~ 0
D1
Text Label 10700 6300 2    50   ~ 0
D2
Text Label 10700 6400 2    50   ~ 0
D3
Text Label 10700 6500 2    50   ~ 0
D4
Text Label 10700 6600 2    50   ~ 0
D5
Text Label 10700 6700 2    50   ~ 0
D6
Text Label 10700 6800 2    50   ~ 0
D7
$Comp
L Switch:SW_Push SW1
U 1 1 5E2C0C16
P 9700 1500
F 0 "SW1" H 9700 1785 50  0000 C CNN
F 1 "7" H 9700 1694 50  0000 C CNN
F 2 "Button_Switch_SMD:Nidec_Copal_SH-7010A" H 9700 1700 50  0001 C CNN
F 3 "~" H 9700 1700 50  0001 C CNN
	1    9700 1500
	1    0    0    -1  
$EndComp
Text Label 8900 3600 2    50   ~ 0
R0
Text Label 8900 3700 2    50   ~ 0
R1
Text Label 8900 3800 2    50   ~ 0
R2
Text Label 8900 3900 2    50   ~ 0
R3
Text Label 8900 4000 2    50   ~ 0
C0
Text Label 8900 4100 2    50   ~ 0
C1
Text Label 8900 4200 2    50   ~ 0
C2
Wire Wire Line
	8750 3600 9000 3600
Wire Wire Line
	8750 3700 9000 3700
Wire Wire Line
	8750 3800 9000 3800
Wire Wire Line
	8750 3900 9000 3900
Wire Wire Line
	8750 4000 9000 4000
Wire Wire Line
	8750 4100 9000 4100
Wire Wire Line
	8750 4200 9000 4200
Wire Wire Line
	8750 4300 9000 4300
Text Label 8900 4300 2    50   ~ 0
C3
Entry Bus Bus
	9100 3000 9200 2900
Entry Wire Line
	9200 2650 9300 2550
Entry Wire Line
	9200 2300 9300 2200
Entry Wire Line
	9200 1950 9300 1850
Entry Wire Line
	9200 1600 9300 1500
$Comp
L Switch:SW_Push SW2
U 1 1 5E8865E5
P 9700 1850
F 0 "SW2" H 9700 2135 50  0000 C CNN
F 1 "4" H 9700 2044 50  0000 C CNN
F 2 "Button_Switch_SMD:Nidec_Copal_SH-7010A" H 9700 2050 50  0001 C CNN
F 3 "~" H 9700 2050 50  0001 C CNN
	1    9700 1850
	1    0    0    -1  
$EndComp
$Comp
L Switch:SW_Push SW3
U 1 1 5E88A870
P 9700 2200
F 0 "SW3" H 9700 2485 50  0000 C CNN
F 1 "1" H 9700 2394 50  0000 C CNN
F 2 "Button_Switch_SMD:Nidec_Copal_SH-7010A" H 9700 2400 50  0001 C CNN
F 3 "~" H 9700 2400 50  0001 C CNN
	1    9700 2200
	1    0    0    -1  
$EndComp
$Comp
L Switch:SW_Push SW4
U 1 1 5E88FDB8
P 9700 2550
F 0 "SW4" H 9700 2835 50  0000 C CNN
F 1 "L" H 9700 2744 50  0000 C CNN
F 2 "Button_Switch_SMD:Nidec_Copal_SH-7010A" H 9700 2750 50  0001 C CNN
F 3 "~" H 9700 2750 50  0001 C CNN
	1    9700 2550
	1    0    0    -1  
$EndComp
$Comp
L Switch:SW_Push SW5
U 1 1 5E895205
P 10400 1500
F 0 "SW5" H 10400 1785 50  0000 C CNN
F 1 "8" H 10400 1694 50  0000 C CNN
F 2 "Button_Switch_SMD:Nidec_Copal_SH-7010A" H 10400 1700 50  0001 C CNN
F 3 "~" H 10400 1700 50  0001 C CNN
	1    10400 1500
	1    0    0    -1  
$EndComp
$Comp
L Switch:SW_Push SW6
U 1 1 5E89520B
P 10400 1850
F 0 "SW6" H 10400 2135 50  0000 C CNN
F 1 "5" H 10400 2044 50  0000 C CNN
F 2 "Button_Switch_SMD:Nidec_Copal_SH-7010A" H 10400 2050 50  0001 C CNN
F 3 "~" H 10400 2050 50  0001 C CNN
	1    10400 1850
	1    0    0    -1  
$EndComp
$Comp
L Switch:SW_Push SW7
U 1 1 5E895211
P 10400 2200
F 0 "SW7" H 10400 2485 50  0000 C CNN
F 1 "2" H 10400 2394 50  0000 C CNN
F 2 "Button_Switch_SMD:Nidec_Copal_SH-7010A" H 10400 2400 50  0001 C CNN
F 3 "~" H 10400 2400 50  0001 C CNN
	1    10400 2200
	1    0    0    -1  
$EndComp
$Comp
L Switch:SW_Push SW8
U 1 1 5E895217
P 10400 2550
F 0 "SW8" H 10400 2835 50  0000 C CNN
F 1 "0" H 10400 2744 50  0000 C CNN
F 2 "Button_Switch_SMD:Nidec_Copal_SH-7010A" H 10400 2750 50  0001 C CNN
F 3 "~" H 10400 2750 50  0001 C CNN
	1    10400 2550
	1    0    0    -1  
$EndComp
$Comp
L Switch:SW_Push SW9
U 1 1 5E89A344
P 11100 1500
F 0 "SW9" H 11100 1785 50  0000 C CNN
F 1 "9" H 11100 1694 50  0000 C CNN
F 2 "Button_Switch_SMD:Nidec_Copal_SH-7010A" H 11100 1700 50  0001 C CNN
F 3 "~" H 11100 1700 50  0001 C CNN
	1    11100 1500
	1    0    0    -1  
$EndComp
$Comp
L Switch:SW_Push SW10
U 1 1 5E89A34A
P 11100 1850
F 0 "SW10" H 11100 2135 50  0000 C CNN
F 1 "6" H 11100 2044 50  0000 C CNN
F 2 "Button_Switch_SMD:Nidec_Copal_SH-7010A" H 11100 2050 50  0001 C CNN
F 3 "~" H 11100 2050 50  0001 C CNN
	1    11100 1850
	1    0    0    -1  
$EndComp
$Comp
L Switch:SW_Push SW11
U 1 1 5E89A350
P 11100 2200
F 0 "SW11" H 11100 2485 50  0000 C CNN
F 1 "3" H 11100 2394 50  0000 C CNN
F 2 "Button_Switch_SMD:Nidec_Copal_SH-7010A" H 11100 2400 50  0001 C CNN
F 3 "~" H 11100 2400 50  0001 C CNN
	1    11100 2200
	1    0    0    -1  
$EndComp
$Comp
L Switch:SW_Push SW12
U 1 1 5E89A356
P 11100 2550
F 0 "SW12" H 11100 2835 50  0000 C CNN
F 1 "R" H 11100 2744 50  0000 C CNN
F 2 "Button_Switch_SMD:Nidec_Copal_SH-7010A" H 11100 2750 50  0001 C CNN
F 3 "~" H 11100 2750 50  0001 C CNN
	1    11100 2550
	1    0    0    -1  
$EndComp
$Comp
L Switch:SW_Push SW13
U 1 1 5E89F581
P 11800 1500
F 0 "SW13" H 11800 1785 50  0000 C CNN
F 1 "SET" H 11800 1694 50  0000 C CNN
F 2 "Button_Switch_SMD:Nidec_Copal_SH-7010A" H 11800 1700 50  0001 C CNN
F 3 "~" H 11800 1700 50  0001 C CNN
	1    11800 1500
	1    0    0    -1  
$EndComp
$Comp
L Switch:SW_Push SW14
U 1 1 5E89F587
P 11800 1850
F 0 "SW14" H 11800 2135 50  0000 C CNN
F 1 "H/M/S" H 11800 2044 50  0000 C CNN
F 2 "Button_Switch_SMD:Nidec_Copal_SH-7010A" H 11800 2050 50  0001 C CNN
F 3 "~" H 11800 2050 50  0001 C CNN
	1    11800 1850
	1    0    0    -1  
$EndComp
$Comp
L Switch:SW_Push SW15
U 1 1 5E89F58D
P 11800 2200
F 0 "SW15" H 11800 2485 50  0000 C CNN
F 1 " " H 11800 2400 50  0000 C CNN
F 2 "Button_Switch_SMD:Nidec_Copal_SH-7010A" H 11800 2400 50  0001 C CNN
F 3 "~" H 11800 2400 50  0001 C CNN
	1    11800 2200
	1    0    0    -1  
$EndComp
$Comp
L Switch:SW_Push SW16
U 1 1 5E89F593
P 11800 2550
F 0 "SW16" H 11800 2835 50  0000 C CNN
F 1 "SEND" H 11800 2744 50  0000 C CNN
F 2 "Button_Switch_SMD:Nidec_Copal_SH-7010A" H 11800 2750 50  0001 C CNN
F 3 "~" H 11800 2750 50  0001 C CNN
	1    11800 2550
	1    0    0    -1  
$EndComp
Wire Wire Line
	9300 1500 9500 1500
Wire Wire Line
	9300 1850 9500 1850
Wire Wire Line
	9300 2200 9500 2200
Wire Wire Line
	9300 2550 9500 2550
Wire Wire Line
	10050 1500 9900 1500
Wire Wire Line
	9900 2550 10050 2550
Wire Wire Line
	10050 2550 10050 2200
Wire Wire Line
	9900 2200 10050 2200
Connection ~ 10050 2200
Wire Wire Line
	10050 2200 10050 1850
Wire Wire Line
	9900 1850 10050 1850
Connection ~ 10050 1850
Wire Wire Line
	10050 1850 10050 1500
Entry Wire Line
	9950 2900 10050 2800
Entry Wire Line
	10650 2900 10750 2800
Entry Wire Line
	11350 2900 11450 2800
Entry Wire Line
	12050 2900 12150 2800
Wire Wire Line
	10050 2550 10050 2800
Connection ~ 10050 2550
Wire Wire Line
	10600 1500 10750 1500
Wire Wire Line
	10750 1500 10750 1850
Wire Wire Line
	10600 1850 10750 1850
Connection ~ 10750 1850
Wire Wire Line
	10750 1850 10750 2200
Wire Wire Line
	10600 2200 10750 2200
Connection ~ 10750 2200
Wire Wire Line
	10750 2200 10750 2550
Wire Wire Line
	10600 2550 10750 2550
Connection ~ 10750 2550
Wire Wire Line
	10750 2550 10750 2800
Wire Wire Line
	11300 1500 11450 1500
Wire Wire Line
	11450 1500 11450 1850
Wire Wire Line
	11300 1850 11450 1850
Connection ~ 11450 1850
Wire Wire Line
	11450 1850 11450 2200
Wire Wire Line
	11300 2200 11450 2200
Connection ~ 11450 2200
Wire Wire Line
	11450 2200 11450 2550
Wire Wire Line
	11300 2550 11450 2550
Connection ~ 11450 2550
Wire Wire Line
	11450 2550 11450 2800
Wire Wire Line
	12000 1500 12150 1500
Wire Wire Line
	12150 1500 12150 1850
Wire Wire Line
	12000 1850 12150 1850
Connection ~ 12150 1850
Wire Wire Line
	12150 1850 12150 2200
Wire Wire Line
	12000 2200 12150 2200
Connection ~ 12150 2200
Wire Wire Line
	12150 2200 12150 2550
Wire Wire Line
	12000 2550 12150 2550
Connection ~ 12150 2550
Wire Wire Line
	12150 2550 12150 2800
Wire Wire Line
	11600 1700 11600 1500
Wire Wire Line
	9500 1500 9500 1700
Connection ~ 9500 1500
Wire Wire Line
	9500 1700 10200 1700
Wire Wire Line
	10200 1700 10200 1500
Connection ~ 10200 1700
Wire Wire Line
	10200 1700 10900 1700
Wire Wire Line
	10900 1700 10900 1500
Connection ~ 10900 1700
Wire Wire Line
	10900 1700 11600 1700
Wire Wire Line
	9500 1850 9500 2050
Wire Wire Line
	9500 2050 10200 2050
Wire Wire Line
	11600 2050 11600 1850
Connection ~ 9500 1850
Wire Wire Line
	10200 2050 10200 1850
Connection ~ 10200 2050
Wire Wire Line
	10200 2050 10900 2050
Wire Wire Line
	10900 2050 10900 1850
Connection ~ 10900 2050
Wire Wire Line
	10900 2050 11600 2050
Wire Wire Line
	9500 2200 9500 2400
Wire Wire Line
	9500 2400 10200 2400
Wire Wire Line
	11600 2400 11600 2200
Connection ~ 9500 2200
Wire Wire Line
	10200 2400 10200 2200
Connection ~ 10200 2400
Wire Wire Line
	10200 2400 10900 2400
Wire Wire Line
	10900 2400 10900 2200
Connection ~ 10900 2400
Wire Wire Line
	10900 2400 11600 2400
Wire Wire Line
	9500 2550 9500 2750
Wire Wire Line
	9500 2750 10200 2750
Connection ~ 9500 2550
Wire Wire Line
	11600 2550 11600 2750
Wire Wire Line
	10200 2750 10200 2550
Connection ~ 10200 2750
Wire Wire Line
	10200 2750 10900 2750
Wire Wire Line
	10900 2750 10900 2550
Connection ~ 10900 2750
Wire Wire Line
	10900 2750 11600 2750
$Comp
L power:GND #PWR0102
U 1 1 5E33B08D
P 13175 4800
F 0 "#PWR0102" H 13175 4550 50  0001 C CNN
F 1 "GND" H 13180 4627 50  0000 C CNN
F 2 "" H 13175 4800 50  0001 C CNN
F 3 "" H 13175 4800 50  0001 C CNN
	1    13175 4800
	1    0    0    -1  
$EndComp
$Comp
L Regulator_Linear:LM7805_TO220 DD4
U 1 1 5E315576
P 13175 4375
F 0 "DD4" H 13175 4617 50  0000 C CNN
F 1 "LM7805_TO220" H 13175 4526 50  0000 C CNN
F 2 "Package_TO_SOT_THT:TO-220-3_Vertical" H 13175 4600 50  0001 C CIN
F 3 "http://www.fairchildsemi.com/ds/LM/LM7805.pdf" H 13175 4325 50  0001 C CNN
	1    13175 4375
	1    0    0    -1  
$EndComp
Wire Wire Line
	11075 4700 11075 4750
Wire Wire Line
	10900 4700 11075 4700
$Comp
L Device:CP C1
U 1 1 5E31701C
P 12375 4600
F 0 "C1" H 12493 4646 50  0000 L CNN
F 1 "100u" H 12493 4555 50  0000 L CNN
F 2 "Capacitor_SMD:CP_Elec_5x5.3" H 12413 4450 50  0001 C CNN
F 3 "~" H 12375 4600 50  0001 C CNN
	1    12375 4600
	1    0    0    -1  
$EndComp
$Comp
L my_lib:CONN_1 X4
U 1 1 5EB3A1DA
P 8150 2350
F 0 "X4" H 8150 3450 79  0000 C CNN
F 1 "CONN_6" H 8150 1850 79  0000 C CNN
F 2 "Connector_PinHeader_1.00mm:PinHeader_1x06_P1.00mm_Vertical_SMD_Pin1Right" H 8750 3450 79  0001 C CNN
F 3 "" H 8750 1250 79  0001 C CNN
F 4 "1" H 7950 3050 79  0000 C CNN "PIN1"
F 5 "2" H 7950 2850 79  0000 C CNN "PIN2"
F 6 "3" H 7950 2650 79  0000 C CNN "PIN3"
F 7 "4" H 7950 2450 79  0000 C CNN "PIN4"
F 8 "5" H 7950 2250 79  0000 C CNN "PIN5"
F 9 "6" H 7950 2050 79  0000 C CNN "PIN6"
	1    8150 2350
	1    0    0    -1  
$EndComp
$Comp
L power:GND #PWR0103
U 1 1 5EBA50BE
P 7200 2800
F 0 "#PWR0103" H 7200 2550 50  0001 C CNN
F 1 "GND" H 7205 2627 50  0000 C CNN
F 2 "" H 7200 2800 50  0001 C CNN
F 3 "" H 7200 2800 50  0001 C CNN
	1    7200 2800
	1    0    0    -1  
$EndComp
Wire Wire Line
	7200 2800 7200 2650
Wire Wire Line
	7200 2650 7350 2650
Entry Wire Line
	6850 2550 6950 2450
Entry Wire Line
	6850 2350 6950 2250
Entry Wire Line
	6850 2150 6950 2050
Entry Wire Line
	6850 1950 6950 1850
Entry Wire Line
	6850 1750 6950 1650
Wire Wire Line
	6950 2450 7350 2450
Wire Wire Line
	6950 2250 7350 2250
Wire Wire Line
	6950 2050 7350 2050
Wire Wire Line
	6950 1850 7350 1850
Wire Wire Line
	6950 1650 7350 1650
Text Label 6950 1650 0    50   ~ 0
EXISTS
Text Label 6950 1850 0    50   ~ 0
SS
Text Label 6950 2050 0    50   ~ 0
MOSI
Text Label 6950 2250 0    50   ~ 0
MISO
Text Label 6950 2450 0    50   ~ 0
SCK
Entry Wire Line
	6850 4400 6950 4300
Entry Wire Line
	6850 4300 6950 4200
Entry Wire Line
	6850 4200 6950 4100
Entry Wire Line
	6850 4100 6950 4000
Entry Wire Line
	6850 4000 6950 3900
Wire Wire Line
	6950 4300 7350 4300
Wire Wire Line
	6950 4200 7350 4200
Wire Wire Line
	6950 4100 7350 4100
Wire Wire Line
	6950 4000 7350 4000
Wire Wire Line
	6950 3900 7350 3900
Text Label 6950 3900 0    50   ~ 0
EXISTS
Text Label 6950 4000 0    50   ~ 0
SS
Text Label 6950 4100 0    50   ~ 0
MOSI
Text Label 6950 4200 0    50   ~ 0
MISO
Text Label 6950 4300 0    50   ~ 0
SCK
$Comp
L power:VCC #PWR0106
U 1 1 5E365884
P 6250 1900
F 0 "#PWR0106" H 6250 1750 50  0001 C CNN
F 1 "VCC" H 6267 2073 50  0000 C CNN
F 2 "" H 6250 1900 50  0001 C CNN
F 3 "" H 6250 1900 50  0001 C CNN
	1    6250 1900
	1    0    0    -1  
$EndComp
Wire Wire Line
	6150 2000 6250 2000
Wire Wire Line
	6250 2000 6250 1900
Wire Wire Line
	6250 3000 6250 3100
Entry Wire Line
	6750 2200 6850 2100
Entry Wire Line
	6750 2400 6850 2300
Entry Wire Line
	6750 2600 6850 2500
Wire Wire Line
	6150 2200 6750 2200
Wire Wire Line
	6150 2400 6750 2400
Wire Wire Line
	6150 2600 6750 2600
Text Label 6550 2200 0    50   ~ 0
MOSI
Text Label 6550 2600 0    50   ~ 0
MISO
Text Label 6550 2400 0    50   ~ 0
SCK
$Comp
L power:GND #PWR0104
U 1 1 5ED21B48
P 4900 4800
F 0 "#PWR0104" H 4900 4550 50  0001 C CNN
F 1 "GND" H 4905 4627 50  0000 C CNN
F 2 "" H 4900 4800 50  0001 C CNN
F 3 "" H 4900 4800 50  0001 C CNN
	1    4900 4800
	1    0    0    -1  
$EndComp
$Comp
L Switch:SW_Push SW17
U 1 1 5ED242F2
P 5200 4700
F 0 "SW17" H 5200 4985 50  0000 C CNN
F 1 "RESET" H 5200 4894 50  0000 C CNN
F 2 "Button_Switch_SMD:Nidec_Copal_SH-7010A" H 5200 4900 50  0001 C CNN
F 3 "~" H 5200 4900 50  0001 C CNN
	1    5200 4700
	1    0    0    -1  
$EndComp
$Comp
L Device:C C5
U 1 1 5ED26CF1
P 5750 5100
F 0 "C5" H 5865 5146 50  0000 L CNN
F 1 "22p" H 5865 5055 50  0000 L CNN
F 2 "Capacitor_SMD:C_0603_1608Metric" H 5788 4950 50  0001 C CNN
F 3 "" H 5750 5100 50  0001 C CNN
	1    5750 5100
	1    0    0    -1  
$EndComp
Wire Wire Line
	6150 2800 6350 2800
Wire Wire Line
	6350 2800 6350 4700
Wire Wire Line
	6350 4700 7350 4700
Wire Wire Line
	6150 3000 6250 3000
Wire Wire Line
	5750 4700 6350 4700
Connection ~ 6350 4700
Wire Wire Line
	5750 4700 5750 4950
Connection ~ 5750 4700
$Comp
L power:GND #PWR0113
U 1 1 5EDE1222
P 5750 5450
F 0 "#PWR0113" H 5750 5200 50  0001 C CNN
F 1 "GND" H 5755 5277 50  0000 C CNN
F 2 "" H 5750 5450 50  0001 C CNN
F 3 "" H 5750 5450 50  0001 C CNN
	1    5750 5450
	1    0    0    -1  
$EndComp
Wire Wire Line
	5750 5250 5750 5450
Wire Wire Line
	5750 4700 5400 4700
Wire Wire Line
	4900 4800 4900 4700
Wire Wire Line
	4900 4700 5000 4700
Wire Wire Line
	6450 4800 7350 4800
Wire Wire Line
	6450 3625 6450 4800
Wire Wire Line
	7200 4900 7350 4900
Wire Wire Line
	6150 5900 6150 5750
Wire Wire Line
	6650 5900 6650 5750
Wire Wire Line
	6150 5450 6150 5300
Wire Wire Line
	6150 5300 6250 5300
Wire Wire Line
	6650 5450 6650 5300
Wire Wire Line
	6650 5300 6550 5300
Wire Wire Line
	6150 5300 6150 5000
Wire Wire Line
	6150 5000 7350 5000
Connection ~ 6150 5300
Wire Wire Line
	6650 5300 6650 5100
Wire Wire Line
	6650 5100 7350 5100
Connection ~ 6650 5300
Wire Wire Line
	7350 5400 7150 5400
Wire Wire Line
	7350 5500 7250 5500
$Comp
L power:VCC #PWR0119
U 1 1 5E6A5987
P 5650 6100
F 0 "#PWR0119" H 5650 5950 50  0001 C CNN
F 1 "VCC" H 5667 6273 50  0000 C CNN
F 2 "" H 5650 6100 50  0001 C CNN
F 3 "" H 5650 6100 50  0001 C CNN
	1    5650 6100
	1    0    0    -1  
$EndComp
$Comp
L Device:C C8
U 1 1 5E6A6A3F
P 5200 8850
F 0 "C8" V 4948 8850 50  0000 C CNN
F 1 "0.1µ" V 5039 8850 50  0000 C CNN
F 2 "Capacitor_SMD:C_0603_1608Metric" H 5238 8700 50  0001 C CNN
F 3 "" H 5200 8850 50  0000 C CNN
	1    5200 8850
	0    1    1    0   
$EndComp
$Comp
L power:GND #PWR0120
U 1 1 5E6B28FE
P 5650 8850
F 0 "#PWR0120" H 5650 8600 50  0001 C CNN
F 1 "GND" V 5655 8722 50  0000 R CNN
F 2 "" H 5650 8850 50  0001 C CNN
F 3 "" H 5650 8850 50  0001 C CNN
	1    5650 8850
	1    0    0    -1  
$EndComp
$Comp
L Interface_UART:MAX232 DD3
U 1 1 5EE7F25E
P 5650 7550
F 0 "DD3" H 5900 8700 50  0000 C CNN
F 1 "MAX232" H 5900 8600 50  0000 C CNN
F 2 "main:max232" H 5700 6500 50  0001 L CNN
F 3 "http://www.ti.com/lit/ds/symlink/max232.pdf" H 5650 7650 50  0001 C CNN
	1    5650 7550
	1    0    0    -1  
$EndComp
$Comp
L Device:C C6
U 1 1 5EE9F55D
P 4700 6800
F 0 "C6" H 4815 6846 50  0000 L CNN
F 1 "1µ" H 4815 6755 50  0000 L CNN
F 2 "Capacitor_SMD:C_0603_1608Metric" H 4738 6650 50  0001 C CNN
F 3 "" H 4700 6800 50  0000 C CNN
	1    4700 6800
	1    0    0    -1  
$EndComp
$Comp
L Device:C C7
U 1 1 5EECE3F1
P 6600 6800
F 0 "C7" H 6715 6846 50  0000 L CNN
F 1 "1µ" H 6715 6755 50  0000 L CNN
F 2 "Capacitor_SMD:C_0603_1608Metric" H 6638 6650 50  0001 C CNN
F 3 "" H 6600 6800 50  0000 C CNN
	1    6600 6800
	1    0    0    -1  
$EndComp
Wire Wire Line
	4700 6950 4850 6950
Wire Wire Line
	4700 6650 4850 6650
Wire Wire Line
	6450 6650 6600 6650
Wire Wire Line
	6450 6950 6600 6950
Wire Wire Line
	5650 6350 5650 6250
Wire Wire Line
	4800 7050 4800 9050
Wire Wire Line
	4800 9050 6650 9050
Wire Wire Line
	6650 9050 6650 7650
Wire Wire Line
	6650 7650 6450 7650
Wire Wire Line
	4700 7250 4700 9150
Wire Wire Line
	6750 9150 6750 8050
Wire Wire Line
	6750 8050 6450 8050
Wire Wire Line
	4700 9150 6750 9150
Wire Wire Line
	4850 7650 4600 7650
Wire Wire Line
	4600 7650 4600 9250
Wire Wire Line
	4600 9250 7250 9250
Wire Wire Line
	7250 5500 7250 9250
Wire Wire Line
	4300 7050 4800 7050
Wire Wire Line
	4300 7250 4700 7250
Wire Wire Line
	4850 8050 4500 8050
Wire Wire Line
	4500 8050 4500 9350
Wire Wire Line
	4500 9350 7150 9350
Wire Wire Line
	7150 5400 7150 9350
Connection ~ 5650 6250
Wire Wire Line
	5650 6250 5650 6100
Wire Wire Line
	4400 6250 4400 8850
Wire Wire Line
	4400 8850 5050 8850
Wire Wire Line
	4400 6250 5650 6250
Wire Wire Line
	5350 8850 5650 8850
Wire Wire Line
	5650 8750 5650 8850
Connection ~ 5650 8850
Wire Wire Line
	12500 5500 12500 5650
$Comp
L power:VCC #PWR0117
U 1 1 5E3EB8CA
P 12500 5500
F 0 "#PWR0117" H 12500 5350 50  0001 C CNN
F 1 "VCC" H 12517 5673 50  0000 C CNN
F 2 "" H 12500 5500 50  0001 C CNN
F 3 "" H 12500 5500 50  0001 C CNN
	1    12500 5500
	1    0    0    -1  
$EndComp
$Comp
L power:VCC #PWR0101
U 1 1 5E5946AF
P 13650 4250
F 0 "#PWR0101" H 13650 4100 50  0001 C CNN
F 1 "VCC" H 13667 4423 50  0000 C CNN
F 2 "" H 13650 4250 50  0001 C CNN
F 3 "" H 13650 4250 50  0001 C CNN
	1    13650 4250
	1    0    0    -1  
$EndComp
Wire Wire Line
	13475 4375 13650 4375
Wire Wire Line
	13650 4375 13650 4250
Wire Wire Line
	12875 4450 12875 4375
Wire Wire Line
	13175 4675 13175 4750
Connection ~ 13175 4750
Wire Wire Line
	13175 4750 13175 4800
Wire Wire Line
	12375 4450 12875 4450
Connection ~ 12375 4750
Wire Wire Line
	12375 4750 13175 4750
Wire Wire Line
	11075 4750 12375 4750
Wire Wire Line
	5750 4200 5750 4100
Wire Wire Line
	5750 4700 5750 4500
$Comp
L power:VCC #PWR0112
U 1 1 5EDAE6A9
P 5750 4100
F 0 "#PWR0112" H 5750 3950 50  0001 C CNN
F 1 "VCC" H 5767 4273 50  0000 C CNN
F 2 "" H 5750 4100 50  0001 C CNN
F 3 "" H 5750 4100 50  0001 C CNN
	1    5750 4100
	1    0    0    -1  
$EndComp
$Comp
L Device:R R4
U 1 1 5ED25823
P 5750 4350
F 0 "R4" H 5820 4396 50  0000 L CNN
F 1 "10k" H 5820 4305 50  0000 L CNN
F 2 "Resistor_SMD:R_0603_1608Metric_Pad1.05x0.95mm_HandSolder" V 5680 4350 50  0001 C CNN
F 3 "~" H 5750 4350 50  0001 C CNN
	1    5750 4350
	1    0    0    -1  
$EndComp
$Comp
L power:GND #PWR0108
U 1 1 5E37263B
P 5975 3975
F 0 "#PWR0108" H 5975 3725 50  0001 C CNN
F 1 "GND" H 5980 3802 50  0000 C CNN
F 2 "" H 5975 3975 50  0001 C CNN
F 3 "" H 5975 3975 50  0001 C CNN
	1    5975 3975
	1    0    0    -1  
$EndComp
Wire Wire Line
	11450 4500 11450 4475
Wire Wire Line
	10900 4500 11450 4500
$Comp
L Device:R R1
U 1 1 5E65EA7E
P 11600 4475
F 0 "R1" V 11807 4475 50  0000 C CNN
F 1 "10" V 11716 4475 50  0000 C CNN
F 2 "Resistor_SMD:R_0603_1608Metric_Pad1.05x0.95mm_HandSolder" V 11530 4475 50  0001 C CNN
F 3 "~" H 11600 4475 50  0001 C CNN
	1    11600 4475
	0    -1   -1   0   
$EndComp
Wire Wire Line
	12375 4475 12375 4450
Wire Wire Line
	11750 4475 12375 4475
Connection ~ 12375 4450
Entry Wire Line
	9000 3600 9100 3700
Entry Wire Line
	9000 3700 9100 3800
Entry Wire Line
	9000 3800 9100 3900
Entry Wire Line
	9000 3900 9100 4000
Entry Wire Line
	9000 4000 9100 4100
Entry Wire Line
	9000 4100 9100 4200
Entry Wire Line
	9000 4200 9100 4300
Entry Wire Line
	9000 4300 9100 4400
Text Label 9400 1500 2    50   ~ 0
R0
Text Label 9400 1850 2    50   ~ 0
R1
Text Label 9400 2200 2    50   ~ 0
R2
Text Label 9400 2550 2    50   ~ 0
R3
Text Label 10050 2725 2    50   ~ 0
C0
Text Label 10750 2725 2    50   ~ 0
C1
Text Label 11450 2725 2    50   ~ 0
C2
Text Label 12150 2725 2    50   ~ 0
C3
Wire Bus Line
	6900 5800 6900 7000
Wire Bus Line
	9200 2900 12350 2900
Wire Bus Line
	9200 1600 9200 2900
Wire Bus Line
	9100 3000 9100 4450
Wire Bus Line
	9100 5250 9100 6900
Wire Bus Line
	10500 5750 10500 7000
Wire Bus Line
	6850 1400 6850 4450
$EndSCHEMATC
