EESchema Schematic File Version 4
EELAYER 30 0
EELAYER END
$Descr A3 16535 11693
encoding utf-8
Sheet 1 1
Title ""
Date ""
Rev ""
Comp ""
Comment1 ""
Comment2 ""
Comment3 ""
Comment4 ""
$EndDescr
$Comp
L Device:Crystal Y1
U 1 1 5E038494
P 3550 1950
F 0 "Y1" V 3596 1819 50  0000 R CNN
F 1 "Crystal" V 3505 1819 50  0000 R CNN
F 2 "Crystal:Crystal_HC49-4H_Vertical" H 3550 1950 50  0001 C CNN
F 3 "~" H 3550 1950 50  0001 C CNN
	1    3550 1950
	0    -1   -1   0   
$EndComp
$Comp
L Device:C C1
U 1 1 5E038FAA
P 3150 1700
F 0 "C1" V 3402 1700 50  0000 C CNN
F 1 "C" V 3311 1700 50  0000 C CNN
F 2 "Capacitor_Tantalum_SMD:CP_EIA-3528-12_Kemet-T_Pad1.50x2.35mm_HandSolder" H 3188 1550 50  0001 C CNN
F 3 "~" H 3150 1700 50  0001 C CNN
	1    3150 1700
	0    -1   -1   0   
$EndComp
$Comp
L Device:C C2
U 1 1 5E03981E
P 3200 2300
F 0 "C2" V 3452 2300 50  0000 C CNN
F 1 "C" V 3361 2300 50  0000 C CNN
F 2 "Capacitor_Tantalum_SMD:CP_EIA-3528-12_Kemet-T_Pad1.50x2.35mm_HandSolder" H 3238 2150 50  0001 C CNN
F 3 "~" H 3200 2300 50  0001 C CNN
	1    3200 2300
	0    -1   -1   0   
$EndComp
Wire Wire Line
	3550 1800 3300 1800
Wire Wire Line
	3300 1800 3300 1700
Wire Wire Line
	3550 2100 3350 2100
Wire Wire Line
	3350 2100 3350 2300
Wire Wire Line
	3550 1800 3950 1800
Wire Wire Line
	3950 1800 3950 2050
Connection ~ 3550 1800
Wire Wire Line
	3550 2250 3550 2100
Connection ~ 3550 2100
Wire Wire Line
	3000 1700 3000 2300
Wire Wire Line
	3000 2300 3050 2300
$Comp
L Sensor_Temperature:DS1621 U3
U 1 1 5E03CCE8
P 7850 1650
F 0 "U3" H 8394 1696 50  0000 L CNN
F 1 "DS1621" H 8394 1605 50  0000 L CNN
F 2 "Package_DIP:DIP-8_W7.62mm" H 7150 1300 50  0001 C CNN
F 3 "https://datasheets.maximintegrated.com/en/ds/DS1621.pdf" H 7700 1900 50  0001 C CNN
	1    7850 1650
	1    0    0    -1  
$EndComp
$Comp
L Sensor_Temperature:DS1621 U4
U 1 1 5E03E40B
P 7850 2800
F 0 "U4" H 8394 2846 50  0000 L CNN
F 1 "DS1621" H 8394 2755 50  0000 L CNN
F 2 "Package_DIP:DIP-8_W7.62mm" H 7150 2450 50  0001 C CNN
F 3 "https://datasheets.maximintegrated.com/en/ds/DS1621.pdf" H 7700 3050 50  0001 C CNN
	1    7850 2800
	1    0    0    -1  
$EndComp
Wire Wire Line
	7350 1750 6950 1750
Wire Wire Line
	6950 1750 6950 1850
Wire Wire Line
	7350 2900 6950 2900
Connection ~ 6950 2900
Wire Wire Line
	6950 2900 6950 3000
Wire Wire Line
	7350 1650 6950 1650
Wire Wire Line
	6950 1650 6950 1750
Connection ~ 6950 1750
Wire Wire Line
	7400 1850 7350 1850
Wire Wire Line
	7350 1850 6950 1850
Connection ~ 7350 1850
Connection ~ 6950 1850
Wire Wire Line
	6950 1850 6950 2900
Wire Wire Line
	7350 3000 6950 3000
Wire Wire Line
	7350 2800 7100 2800
Wire Wire Line
	7850 1050 7850 1250
Wire Wire Line
	7850 2400 7100 2400
Connection ~ 7100 2400
Wire Wire Line
	7100 2400 7100 1050
Wire Wire Line
	7350 1450 6500 1450
Wire Wire Line
	6500 1450 6500 2600
Wire Wire Line
	6500 3650 5450 3650
Wire Wire Line
	5450 3750 6700 3750
Wire Wire Line
	6700 3750 6700 1550
Wire Wire Line
	6700 1550 7350 1550
Wire Wire Line
	7350 2600 6500 2600
Connection ~ 6500 2600
Wire Wire Line
	6500 2600 6500 2700
Wire Wire Line
	7350 2700 6500 2700
Connection ~ 6500 2700
Wire Wire Line
	6500 2700 6500 3650
Wire Wire Line
	7850 2050 9000 2050
Wire Wire Line
	9000 2050 9000 2400
Wire Wire Line
	9000 3200 7850 3200
Wire Wire Line
	4850 5550 9000 5550
Wire Wire Line
	9000 5550 9000 3200
Connection ~ 9000 3200
$Comp
L Connector:DB9_Male J3
U 1 1 5E044CF1
P 9850 4100
F 0 "J3" H 10030 4146 50  0000 L CNN
F 1 "DB9_Male" H 10030 4055 50  0000 L CNN
F 2 "Connector_Dsub:DSUB-9_Female_Vertical_P2.77x2.84mm_MountingHoles" H 9850 4100 50  0001 C CNN
F 3 " ~" H 9850 4100 50  0001 C CNN
	1    9850 4100
	1    0    0    -1  
$EndComp
Wire Wire Line
	9350 3200 9250 3200
Wire Wire Line
	7850 1050 9350 1050
Connection ~ 7850 1050
$Comp
L Connector:DB9_Male J1
U 1 1 5E048BDB
P 10550 7250
F 0 "J1" H 10730 7296 50  0000 L CNN
F 1 "DB9_Male" H 10730 7205 50  0000 L CNN
F 2 "Connector_Dsub:DSUB-9_Female_Vertical_P2.77x2.84mm_MountingHoles" H 10550 7250 50  0001 C CNN
F 3 " ~" H 10550 7250 50  0001 C CNN
	1    10550 7250
	1    0    0    -1  
$EndComp
Wire Wire Line
	6650 7300 6000 7300
Wire Wire Line
	6000 7300 6000 4650
Wire Wire Line
	6000 4650 5450 4650
Wire Wire Line
	5450 4550 6400 4550
Wire Wire Line
	6400 4550 6400 7700
Wire Wire Line
	6400 7700 6650 7700
Wire Wire Line
	9200 7300 9200 7350
Wire Wire Line
	8850 7700 8850 7150
Wire Wire Line
	9550 4500 6150 4500
Wire Wire Line
	6150 4500 6150 3250
Wire Wire Line
	6150 3250 5450 3250
Wire Wire Line
	5450 3450 6200 3450
Wire Wire Line
	6200 3450 6200 4300
Wire Wire Line
	6200 4300 9550 4300
Wire Wire Line
	5450 3350 6250 3350
Wire Wire Line
	6250 3350 6250 4400
Wire Wire Line
	6250 4400 9550 4400
Wire Wire Line
	9550 3900 6000 3900
Wire Wire Line
	6000 3900 6000 1200
Wire Wire Line
	4250 1200 4250 1850
Wire Wire Line
	9550 3700 9250 3700
Wire Wire Line
	9250 3700 9250 3200
Connection ~ 9250 3200
Wire Wire Line
	9250 3200 9000 3200
$Comp
L Device:C C3
U 1 1 5E05DA65
P 5350 1050
F 0 "C3" H 5235 1004 50  0000 R CNN
F 1 "C" H 5235 1095 50  0000 R CNN
F 2 "Capacitor_Tantalum_SMD:CP_EIA-3528-12_Kemet-T_Pad1.50x2.35mm_HandSolder" H 5388 900 50  0001 C CNN
F 3 "~" H 5350 1050 50  0001 C CNN
	1    5350 1050
	-1   0    0    1   
$EndComp
Wire Wire Line
	9000 900  9000 2050
Connection ~ 9000 2050
Wire Wire Line
	4850 1550 6350 1550
Wire Wire Line
	6350 1550 6350 1050
Wire Wire Line
	6350 1050 7100 1050
Connection ~ 7100 1050
Wire Wire Line
	7100 1050 7850 1050
Connection ~ 9000 5550
Wire Wire Line
	7450 3200 7100 3200
Wire Wire Line
	7100 2400 7100 2800
Connection ~ 7100 2800
Wire Wire Line
	7100 2800 7100 3200
$Comp
L Device:CP C5
U 1 1 5E06B1F7
P 9200 2800
F 0 "C5" V 8945 2800 50  0000 C CNN
F 1 "CP" V 9036 2800 50  0000 C CNN
F 2 "Capacitor_THT:CP_Radial_D8.0mm_P2.50mm" H 9238 2650 50  0001 C CNN
F 3 "~" H 9200 2800 50  0001 C CNN
	1    9200 2800
	0    1    1    0   
$EndComp
Connection ~ 9350 2800
Wire Wire Line
	9350 2800 9350 3100
$Comp
L Device:CP C4
U 1 1 5E06D252
P 9200 2400
F 0 "C4" V 8945 2400 50  0000 C CNN
F 1 "CP" V 9036 2400 50  0000 C CNN
F 2 "Capacitor_THT:CP_Radial_D8.0mm_P2.50mm" H 9238 2250 50  0001 C CNN
F 3 "~" H 9200 2400 50  0001 C CNN
	1    9200 2400
	0    1    1    0   
$EndComp
Wire Wire Line
	9000 2400 9050 2400
Connection ~ 9000 2400
Wire Wire Line
	9000 2400 9000 2800
Wire Wire Line
	9050 2800 9000 2800
Connection ~ 9000 2800
Wire Wire Line
	9000 2800 9000 3200
Connection ~ 9350 2400
Wire Wire Line
	9350 2400 9350 2800
Wire Wire Line
	9350 1050 9350 2400
NoConn ~ 5350 1800
NoConn ~ 5450 1950
NoConn ~ 5450 1850
NoConn ~ 5450 2050
NoConn ~ 5450 2150
NoConn ~ 5450 2250
NoConn ~ 5450 2350
NoConn ~ 5450 2450
NoConn ~ 5450 2550
NoConn ~ 5450 2750
NoConn ~ 5450 2850
NoConn ~ 5450 2950
NoConn ~ 5450 3050
NoConn ~ 5450 3150
NoConn ~ 5450 3850
NoConn ~ 5450 3950
NoConn ~ 5450 4050
NoConn ~ 5450 4150
NoConn ~ 5450 4250
NoConn ~ 5450 4350
NoConn ~ 4250 4550
NoConn ~ 4250 4650
NoConn ~ 4250 4750
NoConn ~ 5450 4750
NoConn ~ 5450 4850
NoConn ~ 5450 4950
NoConn ~ 5450 5050
NoConn ~ 5450 5150
NoConn ~ 5450 5250
NoConn ~ 8350 2800
NoConn ~ 8350 1650
$Comp
L 1-rescue:ATmega8515-16AU-MCU_Microchip_ATmega U1
U 1 1 5E0325EE
P 4850 3550
F 0 "U1" H 4850 5731 50  0000 C CNN
F 1 "ATmega8515-16AU" H 4850 5640 50  0000 C CNN
F 2 "Package_DIP:DIP-48_W15.24mm" H 4850 3550 50  0001 C CIN
F 3 "http://ww1.microchip.com/downloads/en/DeviceDoc/doc2512.pdf" H 4850 3550 50  0001 C CNN
	1    4850 3550
	1    0    0    -1  
$EndComp
Wire Wire Line
	3950 2050 4250 2050
Wire Wire Line
	3550 2250 4250 2250
NoConn ~ 13250 -11300
$Comp
L Connector:Conn_01x02_Female J2
U 1 1 5E043120
P 9550 3100
F 0 "J2" H 9578 3076 50  0000 L CNN
F 1 "Conn_01x02_Female" H 9578 2985 50  0000 L CNN
F 2 "Connector_PinSocket_2.54mm:PinSocket_1x02_P2.54mm_Vertical" H 9550 3100 50  0001 C CNN
F 3 "~" H 9550 3100 50  0001 C CNN
	1    9550 3100
	1    0    0    -1  
$EndComp
Wire Wire Line
	4250 1200 5350 1200
Connection ~ 5350 1200
Wire Wire Line
	5350 1200 6000 1200
Wire Wire Line
	5350 900  9000 900 
$Comp
L Device:CP C8
U 1 1 5E04CAC3
P 8650 6450
F 0 "C8" H 8768 6496 50  0000 L CNN
F 1 "CP" H 8768 6405 50  0000 L CNN
F 2 "Capacitor_THT:CP_Radial_D5.0mm_P2.50mm" H 8688 6300 50  0001 C CNN
F 3 "~" H 8650 6450 50  0001 C CNN
	1    8650 6450
	1    0    0    -1  
$EndComp
$Comp
L Interface_UART:MAX232 U2
U 1 1 5E04974F
P 7450 7200
F 0 "U2" H 7450 8581 50  0000 C CNN
F 1 "MAX232" H 7450 8490 50  0000 C CNN
F 2 "Package_DIP:DIP-16_W10.16mm" H 7500 6150 50  0001 L CNN
F 3 "http://www.ti.com/lit/ds/symlink/max232.pdf" H 7450 7300 50  0001 C CNN
	1    7450 7200
	1    0    0    -1  
$EndComp
Wire Wire Line
	7450 8400 8700 8400
Wire Wire Line
	8250 7300 9200 7300
Wire Wire Line
	8250 7700 8850 7700
Wire Wire Line
	6450 6300 6650 6300
Wire Wire Line
	6450 6600 6650 6600
$Comp
L Device:CP C6
U 1 1 5E089360
P 6450 6450
F 0 "C6" H 6568 6496 50  0000 L CNN
F 1 "CP" H 6568 6405 50  0000 L CNN
F 2 "Capacitor_THT:CP_Radial_D5.0mm_P2.50mm" H 6488 6300 50  0001 C CNN
F 3 "~" H 6450 6450 50  0001 C CNN
	1    6450 6450
	1    0    0    -1  
$EndComp
Wire Wire Line
	8250 6300 8650 6300
Wire Wire Line
	8650 6600 8250 6600
$Comp
L Device:CP C7
U 1 1 5E091C32
P 8650 6000
F 0 "C7" H 8768 6046 50  0000 L CNN
F 1 "CP" H 8768 5955 50  0000 L CNN
F 2 "Capacitor_THT:CP_Radial_D5.0mm_P2.50mm" H 8688 5850 50  0001 C CNN
F 3 "~" H 8650 6000 50  0001 C CNN
	1    8650 6000
	1    0    0    -1  
$EndComp
$Comp
L Device:CP C9
U 1 1 5E095AA1
P 8700 7100
F 0 "C9" H 8818 7146 50  0000 L CNN
F 1 "CP" H 8818 7055 50  0000 L CNN
F 2 "Capacitor_THT:CP_Radial_D5.0mm_P2.50mm" H 8738 6950 50  0001 C CNN
F 3 "~" H 8700 7100 50  0001 C CNN
	1    8700 7100
	1    0    0    -1  
$EndComp
Wire Wire Line
	8650 6100 8650 6150
Wire Wire Line
	8650 6250 8900 6250
Wire Wire Line
	8900 6250 8900 6800
Wire Wire Line
	8900 6800 8250 6800
Connection ~ 8650 6150
Wire Wire Line
	8650 6150 8650 6250
Wire Wire Line
	8650 5850 7450 5850
Wire Wire Line
	7450 3200 7450 5850
Connection ~ 7450 5850
Wire Wire Line
	7450 5850 7450 6000
Wire Wire Line
	8250 7100 8450 7100
Wire Wire Line
	8450 7100 8450 6950
Wire Wire Line
	8450 6950 8700 6950
Wire Wire Line
	8700 7250 8700 8400
Connection ~ 8700 8400
Wire Wire Line
	8700 8400 9000 8400
$Comp
L Device:C C10
U 1 1 5E0B5C1F
P 9300 7700
F 0 "C10" H 9415 7746 50  0000 L CNN
F 1 "C" H 9415 7655 50  0000 L CNN
F 2 "Capacitor_THT:C_Disc_D7.5mm_W5.0mm_P10.00mm" H 9338 7550 50  0001 C CNN
F 3 "~" H 9300 7700 50  0001 C CNN
	1    9300 7700
	1    0    0    -1  
$EndComp
$Comp
L Device:C C11
U 1 1 5E0C2640
P 9750 7700
F 0 "C11" H 9865 7746 50  0000 L CNN
F 1 "C" H 9865 7655 50  0000 L CNN
F 2 "Capacitor_THT:C_Disc_D7.5mm_W5.0mm_P10.00mm" H 9788 7550 50  0001 C CNN
F 3 "~" H 9750 7700 50  0001 C CNN
	1    9750 7700
	1    0    0    -1  
$EndComp
$Comp
L Device:R R1
U 1 1 5E0C5655
P 9700 7150
F 0 "R1" V 9493 7150 50  0000 C CNN
F 1 "R" V 9584 7150 50  0000 C CNN
F 2 "Resistor_THT:R_Axial_DIN0309_L9.0mm_D3.2mm_P5.08mm_Vertical" V 9630 7150 50  0001 C CNN
F 3 "~" H 9700 7150 50  0001 C CNN
	1    9700 7150
	0    1    1    0   
$EndComp
$Comp
L Device:R R2
U 1 1 5E0C98A1
P 9700 7400
F 0 "R2" V 9493 7400 50  0000 C CNN
F 1 "R" V 9584 7400 50  0000 C CNN
F 2 "Resistor_THT:R_Axial_DIN0309_L9.0mm_D3.2mm_P5.08mm_Vertical" V 9630 7400 50  0001 C CNN
F 3 "~" H 9700 7400 50  0001 C CNN
	1    9700 7400
	0    1    1    0   
$EndComp
Wire Wire Line
	8850 7150 9300 7150
Wire Wire Line
	9850 7150 10250 7150
Wire Wire Line
	9200 7350 9550 7350
Wire Wire Line
	9550 7350 9550 7400
Wire Wire Line
	9850 7400 9950 7400
Wire Wire Line
	10250 7400 10250 7350
Wire Wire Line
	9300 7550 9300 7150
Connection ~ 9300 7150
Wire Wire Line
	9300 7150 9550 7150
Wire Wire Line
	9300 7850 9000 7850
Wire Wire Line
	9000 5550 9000 7850
Connection ~ 9000 7850
Wire Wire Line
	9000 7850 9000 8400
Wire Wire Line
	9750 7550 9950 7550
Wire Wire Line
	9950 7550 9950 7400
Connection ~ 9950 7400
Wire Wire Line
	9950 7400 10250 7400
Wire Wire Line
	9750 7850 9300 7850
Connection ~ 9300 7850
$EndSCHEMATC
