(export (version D)
  (design
    (source /home/islam/Kicad/Cource_work/Cource_work.sch)
    (date "Вт 10 дек 2019 21:57:26")
    (tool "Eeschema 5.1.5-52549c5~84~ubuntu18.04.1")
    (sheet (number 1) (name /) (tstamps /)
      (title_block
        (title "Схема электрическая \\n принципиальная")
        (company "МГТУ им. Н.Э.Баумана \\n ИУ6-73")
        (rev)
        (date 2019-12-04)
        (source Cource_work.sch)
        (comment (number 1) (value "Устройство для обработки \\n аналоговых сигналов"))
        (comment (number 2) (value "Трамов И.Б."))
        (comment (number 3) (value "Хохлов С.А."))
        (comment (number 4) (value "")))))
  (components
    (comp (ref U3)
      (value ATmega16-16AU)
      (footprint Package_QFP:TQFP-44_10x10mm_P0.8mm)
      (datasheet http://ww1.microchip.com/downloads/en/DeviceDoc/doc2466.pdf)
      (libsource (lib MCU_Microchip_ATmega) (part ATmega16-16AU) (description "16MHz, 16kB Flash, 1kB SRAM, 512B EEPROM, JTAG, TQFP-44"))
      (sheetpath (names /) (tstamps /))
      (tstamp 5DED207E))
    (comp (ref C3)
      (value 15пкФ)
      (footprint Capacitor_SMD:CP_Elec_3x5.3)
      (datasheet ~)
      (libsource (lib Device) (part C) (description "Unpolarized capacitor"))
      (sheetpath (names /) (tstamps /))
      (tstamp 5DEDD167))
    (comp (ref Q2)
      (value 32кГц)
      (footprint Crystal:Crystal_AT310_D3.0mm_L10.0mm_Horizontal)
      (datasheet ~)
      (libsource (lib Device) (part Crystal) (description "Two pin crystal"))
      (sheetpath (names /) (tstamps /))
      (tstamp 5DEEBE9E))
    (comp (ref U5)
      (value LM35-D)
      (footprint Package_SO:SOIC-8_3.9x4.9mm_P1.27mm)
      (datasheet http://www.ti.com/lit/ds/symlink/lm35.pdf)
      (libsource (lib Sensor_Temperature) (part LM35-D) (description "Precision centigrade temperature sensor, SOIC-8"))
      (sheetpath (names /) (tstamps /))
      (tstamp 5DF4CD16))
    (comp (ref U6)
      (value DS1307+)
      (footprint Package_DIP:DIP-8_W7.62mm)
      (datasheet https://datasheets.maximintegrated.com/en/ds/DS1307.pdf)
      (libsource (lib Timer_RTC) (part DS1307+) (description "64 x 8, Serial, I2C Real-time clock, 4.5V to 5.5V VCC, 0°C to +70°C, DIP-8"))
      (sheetpath (names /) (tstamps /))
      (tstamp 5DE7CE4D))
    (comp (ref C4)
      (value 15пкФ)
      (footprint Capacitor_SMD:CP_Elec_3x5.3)
      (datasheet ~)
      (libsource (lib Device) (part C) (description "Unpolarized capacitor"))
      (sheetpath (names /) (tstamps /))
      (tstamp 5E05B49D))
    (comp (ref C6)
      (value 15пкФ)
      (footprint Capacitor_SMD:CP_Elec_3x5.3)
      (datasheet ~)
      (libsource (lib Device) (part C) (description "Unpolarized capacitor"))
      (sheetpath (names /) (tstamps /))
      (tstamp 5E05FEB4))
    (comp (ref C7)
      (value 15пкФ)
      (footprint Capacitor_SMD:CP_Elec_3x5.3)
      (datasheet ~)
      (libsource (lib Device) (part C) (description "Unpolarized capacitor"))
      (sheetpath (names /) (tstamps /))
      (tstamp 5E061664))
    (comp (ref U4)
      (value LM35-D)
      (footprint Package_SO:SOIC-8_3.9x4.9mm_P1.27mm)
      (datasheet http://www.ti.com/lit/ds/symlink/lm35.pdf)
      (libsource (lib Sensor_Temperature) (part LM35-D) (description "Precision centigrade temperature sensor, SOIC-8"))
      (sheetpath (names /) (tstamps /))
      (tstamp 5E044449))
    (comp (ref Q1)
      (value 8МГц)
      (footprint Crystal:Crystal_AT310_D3.0mm_L10.0mm_Horizontal)
      (datasheet ~)
      (libsource (lib Device) (part Crystal) (description "Two pin crystal"))
      (sheetpath (names /) (tstamps /))
      (tstamp 5DEDA884))
    (comp (ref U1)
      (value KF350)
      (footprint Cource_work:Power_Socket)
      (libsource (lib XP) (part KF350) (description ""))
      (sheetpath (names /) (tstamps /))
      (tstamp 5E08D734))
    (comp (ref U2)
      (value uA7805)
      (footprint Cource_work:Stabilizer)
      (datasheet http://www.ti.com/lit/ds/symlink/ua78.pdf)
      (libsource (lib Regulator_Linear) (part uA7805) (description "Positive 1A 35V Linear Regulator, Fixed Output 5V, TO-220/TO-263"))
      (sheetpath (names /) (tstamps /))
      (tstamp 5DF05B52))
    (comp (ref C1)
      (value 100мкФ)
      (footprint Capacitor_SMD:CP_Elec_3x5.3)
      (datasheet ~)
      (libsource (lib Device) (part CP) (description "Polarized capacitor"))
      (sheetpath (names /) (tstamps /))
      (tstamp 5DF41CAA))
    (comp (ref C5)
      (value 1мкФ)
      (footprint Capacitor_SMD:CP_Elec_3x5.3)
      (datasheet ~)
      (libsource (lib Device) (part CP) (description "Polarized capacitor"))
      (sheetpath (names /) (tstamps /))
      (tstamp 5DF44CB9))
    (comp (ref C2)
      (value 10мкФ)
      (footprint Capacitor_SMD:CP_Elec_3x5.3)
      (datasheet ~)
      (libsource (lib Device) (part CP) (description "Polarized capacitor"))
      (sheetpath (names /) (tstamps /))
      (tstamp 5DF459C6))
    (comp (ref R1)
      (value 10кОм)
      (footprint Resistor_SMD:R_0201_0603Metric)
      (datasheet ~)
      (libsource (lib Device) (part R) (description Resistor))
      (sheetpath (names /) (tstamps /))
      (tstamp 5DFA1B38))
    (comp (ref R2)
      (value 10кОм)
      (footprint Resistor_SMD:R_0201_0603Metric)
      (datasheet ~)
      (libsource (lib Device) (part R) (description Resistor))
      (sheetpath (names /) (tstamps /))
      (tstamp 5DFA2073)))
  (libparts
    (libpart (lib Device) (part C)
      (description "Unpolarized capacitor")
      (docs ~)
      (footprints
        (fp C_*))
      (fields
        (field (name Reference) C)
        (field (name Value) C))
      (pins
        (pin (num 1) (name ~) (type passive))
        (pin (num 2) (name ~) (type passive))))
    (libpart (lib Device) (part CP)
      (description "Polarized capacitor")
      (docs ~)
      (footprints
        (fp CP_*))
      (fields
        (field (name Reference) C)
        (field (name Value) CP))
      (pins
        (pin (num 1) (name ~) (type passive))
        (pin (num 2) (name ~) (type passive))))
    (libpart (lib Device) (part Crystal)
      (description "Two pin crystal")
      (docs ~)
      (footprints
        (fp Crystal*))
      (fields
        (field (name Reference) Y)
        (field (name Value) Crystal))
      (pins
        (pin (num 1) (name 1) (type passive))
        (pin (num 2) (name 2) (type passive))))
    (libpart (lib Device) (part R)
      (description Resistor)
      (docs ~)
      (footprints
        (fp R_*))
      (fields
        (field (name Reference) R)
        (field (name Value) R))
      (pins
        (pin (num 1) (name ~) (type passive))
        (pin (num 2) (name ~) (type passive))))
    (libpart (lib MCU_Microchip_ATmega) (part ATmega16L-8AU)
      (aliases
        (alias ATmega16-16AU)
        (alias ATmega16A-AU)
        (alias ATmega32L-8AU)
        (alias ATmega32-16AU)
        (alias ATmega32A-AU))
      (description "8MHz, 16kB Flash, 1kB SRAM, 512B EEPROM, JTAG, TQFP-44")
      (docs http://ww1.microchip.com/downloads/en/DeviceDoc/doc2466.pdf)
      (footprints
        (fp TQFP*10x10mm*P0.8mm*))
      (fields
        (field (name Reference) U)
        (field (name Value) ATmega16L-8AU)
        (field (name Footprint) Package_QFP:TQFP-44_10x10mm_P0.8mm))
      (pins
        (pin (num 1) (name PB5) (type BiDi))
        (pin (num 2) (name PB6) (type BiDi))
        (pin (num 3) (name PB7) (type BiDi))
        (pin (num 4) (name ~RESET) (type input))
        (pin (num 5) (name VCC) (type power_in))
        (pin (num 6) (name GND) (type power_in))
        (pin (num 7) (name XTAL2) (type output))
        (pin (num 8) (name XTAL1) (type input))
        (pin (num 9) (name PD0) (type BiDi))
        (pin (num 10) (name PD1) (type BiDi))
        (pin (num 11) (name PD2) (type BiDi))
        (pin (num 12) (name PD3) (type BiDi))
        (pin (num 13) (name PD4) (type BiDi))
        (pin (num 14) (name PD5) (type BiDi))
        (pin (num 15) (name PD6) (type BiDi))
        (pin (num 16) (name PD7) (type BiDi))
        (pin (num 17) (name VCC) (type passive))
        (pin (num 18) (name GND) (type passive))
        (pin (num 19) (name PC0) (type BiDi))
        (pin (num 20) (name PC1) (type BiDi))
        (pin (num 21) (name PC2) (type BiDi))
        (pin (num 22) (name PC3) (type BiDi))
        (pin (num 23) (name PC4) (type BiDi))
        (pin (num 24) (name PC5) (type BiDi))
        (pin (num 25) (name PC6) (type BiDi))
        (pin (num 26) (name PC7) (type BiDi))
        (pin (num 27) (name AVCC) (type power_in))
        (pin (num 28) (name GND) (type passive))
        (pin (num 29) (name AREF) (type passive))
        (pin (num 30) (name PA7) (type BiDi))
        (pin (num 31) (name PA6) (type BiDi))
        (pin (num 32) (name PA5) (type BiDi))
        (pin (num 33) (name PA4) (type BiDi))
        (pin (num 34) (name PA3) (type BiDi))
        (pin (num 35) (name PA2) (type BiDi))
        (pin (num 36) (name PA1) (type BiDi))
        (pin (num 37) (name PA0) (type BiDi))
        (pin (num 38) (name VCC) (type passive))
        (pin (num 39) (name GND) (type passive))
        (pin (num 40) (name PB0) (type BiDi))
        (pin (num 41) (name PB1) (type BiDi))
        (pin (num 42) (name PB2) (type BiDi))
        (pin (num 43) (name PB3) (type BiDi))
        (pin (num 44) (name PB4) (type BiDi))))
    (libpart (lib Regulator_Linear) (part uA7805)
      (aliases
        (alias uA7808)
        (alias uA7810)
        (alias uA7812)
        (alias uA7815)
        (alias uA7824))
      (description "Positive 1A 35V Linear Regulator, Fixed Output 5V, TO-220/TO-263")
      (docs http://www.ti.com/lit/ds/symlink/ua78.pdf)
      (footprints
        (fp TO?263*)
        (fp TO?220*))
      (fields
        (field (name Reference) U)
        (field (name Value) uA7805))
      (pins
        (pin (num 1) (name IN) (type power_in))
        (pin (num 2) (name GND) (type power_in))
        (pin (num 3) (name OUT) (type power_out))))
    (libpart (lib Sensor_Temperature) (part LM35-D)
      (description "Precision centigrade temperature sensor, SOIC-8")
      (docs http://www.ti.com/lit/ds/symlink/lm35.pdf)
      (footprints
        (fp SOIC*))
      (fields
        (field (name Reference) U)
        (field (name Value) LM35-D)
        (field (name Footprint) Package_SO:SOIC-8_3.9x4.9mm_P1.27mm))
      (pins
        (pin (num 1) (name Vout) (type output))
        (pin (num 2) (name NC) (type NotConnected))
        (pin (num 3) (name NC) (type NotConnected))
        (pin (num 4) (name GND) (type power_in))
        (pin (num 5) (name NC) (type NotConnected))
        (pin (num 6) (name NC) (type NotConnected))
        (pin (num 7) (name NC) (type NotConnected))
        (pin (num 8) (name +VS) (type power_in))))
    (libpart (lib Timer_RTC) (part DS1307+)
      (aliases
        (alias DS1307N+))
      (description "64 x 8, Serial, I2C Real-time clock, 4.5V to 5.5V VCC, 0°C to +70°C, DIP-8")
      (docs https://datasheets.maximintegrated.com/en/ds/DS1307.pdf)
      (footprints
        (fp DIP*W7.62mm*))
      (fields
        (field (name Reference) U)
        (field (name Value) DS1307+)
        (field (name Footprint) Package_DIP:DIP-8_W7.62mm))
      (pins
        (pin (num 1) (name X1) (type input))
        (pin (num 2) (name X2) (type input))
        (pin (num 3) (name VBAT) (type power_in))
        (pin (num 4) (name GND) (type power_in))
        (pin (num 5) (name SDA) (type BiDi))
        (pin (num 6) (name SCL) (type input))
        (pin (num 7) (name SQW/OUT) (type openCol))
        (pin (num 8) (name VCC) (type power_in))))
    (libpart (lib XP) (part KF350)
      (fields
        (field (name Reference) U)
        (field (name Value) KF350))
      (pins
        (pin (num 1) (name VCC) (type output))
        (pin (num 2) (name GND) (type output)))))
  (libraries
    (library (logical Device)
      (uri /usr/share/kicad/library/Device.lib))
    (library (logical MCU_Microchip_ATmega)
      (uri /usr/share/kicad/library/MCU_Microchip_ATmega.lib))
    (library (logical Regulator_Linear)
      (uri /usr/share/kicad/library/Regulator_Linear.lib))
    (library (logical Sensor_Temperature)
      (uri /usr/share/kicad/library/Sensor_Temperature.lib))
    (library (logical Timer_RTC)
      (uri /usr/share/kicad/library/Timer_RTC.lib))
    (library (logical XP)
      (uri /home/islam/Kicad/Cource_work/XP.lib)))
  (nets
    (net (code 1) (name "Net-(U4-Pad7)")
      (node (ref U4) (pin 7)))
    (net (code 2) (name /V)
      (node (ref C2) (pin 1))
      (node (ref C5) (pin 1))
      (node (ref U2) (pin 3)))
    (net (code 3) (name "Net-(C1-Pad1)")
      (node (ref C1) (pin 1))
      (node (ref U1) (pin 1))
      (node (ref U2) (pin 1)))
    (net (code 4) (name "Net-(U4-Pad6)")
      (node (ref U4) (pin 6)))
    (net (code 5) (name /G)
      (node (ref C1) (pin 2))
      (node (ref U1) (pin 2))
      (node (ref U2) (pin 2))
      (node (ref C5) (pin 2))
      (node (ref C2) (pin 2)))
    (net (code 6) (name "Net-(R2-Pad2)")
      (node (ref R2) (pin 2))
      (node (ref U3) (pin 20))
      (node (ref U6) (pin 5)))
    (net (code 7) (name "Net-(U3-Pad40)")
      (node (ref U3) (pin 40)))
    (net (code 8) (name "Net-(U3-Pad30)")
      (node (ref U3) (pin 30)))
    (net (code 9) (name "Net-(U3-Pad31)")
      (node (ref U3) (pin 31)))
    (net (code 10) (name "Net-(U3-Pad32)")
      (node (ref U3) (pin 32)))
    (net (code 11) (name "Net-(U3-Pad33)")
      (node (ref U3) (pin 33)))
    (net (code 12) (name "Net-(U3-Pad34)")
      (node (ref U3) (pin 34)))
    (net (code 13) (name "Net-(U3-Pad35)")
      (node (ref U3) (pin 35)))
    (net (code 14) (name "Net-(U3-Pad29)")
      (node (ref U3) (pin 29)))
    (net (code 15) (name "Net-(U3-Pad4)")
      (node (ref U3) (pin 4)))
    (net (code 16) (name "Net-(U3-Pad27)")
      (node (ref U3) (pin 27)))
    (net (code 17) (name "Net-(C6-Pad1)")
      (node (ref Q2) (pin 1))
      (node (ref U6) (pin 1))
      (node (ref C6) (pin 1)))
    (net (code 18) (name "Net-(C7-Pad1)")
      (node (ref Q2) (pin 2))
      (node (ref U6) (pin 2))
      (node (ref C7) (pin 1)))
    (net (code 19) (name "Net-(U6-Pad3)")
      (node (ref U6) (pin 3)))
    (net (code 20) (name "Net-(R1-Pad2)")
      (node (ref U6) (pin 6))
      (node (ref R1) (pin 2))
      (node (ref U3) (pin 19)))
    (net (code 21) (name "Net-(U6-Pad7)")
      (node (ref U6) (pin 7)))
    (net (code 22) (name "Net-(C4-Pad1)")
      (node (ref U3) (pin 7))
      (node (ref Q1) (pin 2))
      (node (ref C4) (pin 1)))
    (net (code 23) (name "Net-(U4-Pad2)")
      (node (ref U4) (pin 2)))
    (net (code 24) (name "Net-(U4-Pad3)")
      (node (ref U4) (pin 3)))
    (net (code 25) (name "Net-(U4-Pad5)")
      (node (ref U4) (pin 5)))
    (net (code 26) (name VCC)
      (node (ref U5) (pin 8))
      (node (ref U3) (pin 5))
      (node (ref U3) (pin 17))
      (node (ref U3) (pin 38))
      (node (ref U6) (pin 8))
      (node (ref R1) (pin 1))
      (node (ref R2) (pin 1))
      (node (ref U4) (pin 8)))
    (net (code 27) (name GND)
      (node (ref U3) (pin 18))
      (node (ref U3) (pin 28))
      (node (ref U4) (pin 4))
      (node (ref C7) (pin 2))
      (node (ref C6) (pin 2))
      (node (ref C4) (pin 2))
      (node (ref U6) (pin 4))
      (node (ref U5) (pin 4))
      (node (ref U3) (pin 6))
      (node (ref C3) (pin 2))
      (node (ref U3) (pin 39)))
    (net (code 28) (name "Net-(U5-Pad6)")
      (node (ref U5) (pin 6)))
    (net (code 29) (name "Net-(U3-Pad41)")
      (node (ref U3) (pin 41)))
    (net (code 30) (name "Net-(U5-Pad5)")
      (node (ref U5) (pin 5)))
    (net (code 31) (name "Net-(U5-Pad2)")
      (node (ref U5) (pin 2)))
    (net (code 32) (name "Net-(U5-Pad3)")
      (node (ref U5) (pin 3)))
    (net (code 33) (name "Net-(U5-Pad7)")
      (node (ref U5) (pin 7)))
    (net (code 34) (name "Net-(U3-Pad15)")
      (node (ref U3) (pin 15)))
    (net (code 35) (name "Net-(U3-Pad37)")
      (node (ref U4) (pin 1))
      (node (ref U3) (pin 37)))
    (net (code 36) (name "Net-(U3-Pad42)")
      (node (ref U3) (pin 42)))
    (net (code 37) (name "Net-(U3-Pad43)")
      (node (ref U3) (pin 43)))
    (net (code 38) (name "Net-(U3-Pad44)")
      (node (ref U3) (pin 44)))
    (net (code 39) (name "Net-(U3-Pad9)")
      (node (ref U3) (pin 9)))
    (net (code 40) (name "Net-(C3-Pad1)")
      (node (ref Q1) (pin 1))
      (node (ref U3) (pin 8))
      (node (ref C3) (pin 1)))
    (net (code 41) (name "Net-(U3-Pad1)")
      (node (ref U3) (pin 1)))
    (net (code 42) (name "Net-(U3-Pad10)")
      (node (ref U3) (pin 10)))
    (net (code 43) (name "Net-(U3-Pad11)")
      (node (ref U3) (pin 11)))
    (net (code 44) (name "Net-(U3-Pad12)")
      (node (ref U3) (pin 12)))
    (net (code 45) (name "Net-(U3-Pad13)")
      (node (ref U3) (pin 13)))
    (net (code 46) (name "Net-(U3-Pad14)")
      (node (ref U3) (pin 14)))
    (net (code 47) (name "Net-(U3-Pad16)")
      (node (ref U3) (pin 16)))
    (net (code 48) (name "Net-(U3-Pad2)")
      (node (ref U3) (pin 2)))
    (net (code 49) (name "Net-(U3-Pad21)")
      (node (ref U3) (pin 21)))
    (net (code 50) (name "Net-(U3-Pad22)")
      (node (ref U3) (pin 22)))
    (net (code 51) (name "Net-(U3-Pad23)")
      (node (ref U3) (pin 23)))
    (net (code 52) (name "Net-(U3-Pad24)")
      (node (ref U3) (pin 24)))
    (net (code 53) (name "Net-(U3-Pad25)")
      (node (ref U3) (pin 25)))
    (net (code 54) (name "Net-(U3-Pad26)")
      (node (ref U3) (pin 26)))
    (net (code 55) (name "Net-(U3-Pad3)")
      (node (ref U3) (pin 3)))
    (net (code 56) (name "Net-(U3-Pad36)")
      (node (ref U5) (pin 1))
      (node (ref U3) (pin 36)))))