EESchema Schematic File Version 4
LIBS:KonveerKontrol-cache
EELAYER 30 0
EELAYER END
$Descr A3 16535 11693
encoding utf-8
Sheet 1 1
Title "Схема электрическая принципиальная"
Date ""
Rev ""
Comp "МГТУ им. Н.Э.Баумана ИУ6-72Б"
Comment1 "Контроллер конвейерного устройства"
Comment2 "Мотичев М.А."
Comment3 "Халайджи А.К."
Comment4 ""
$EndDescr
$Comp
L my_Library1:DS-201 XP1
U 1 1 5DD4FB5D
P 2200 9050
F 0 "XP1" H 2233 9165 50  0000 C CNN
F 1 "DS-201" H 2233 9074 50  0000 C CNN
F 2 "Connector:Banana_Jack_2Pin" H 2200 9050 50  0001 C CNN
F 3 "" H 2200 9050 50  0001 C CNN
	1    2200 9050
	1    0    0    -1  
$EndComp
Wire Wire Line
	2500 9300 2600 9300
Wire Wire Line
	2600 9300 2600 9100
Wire Wire Line
	2950 9100 2950 9200
Wire Wire Line
	2500 9450 2600 9450
Wire Wire Line
	2600 9450 2600 9650
$Comp
L Device:CP C1
U 1 1 5DD598A2
P 2950 9350
F 0 "C1" H 3068 9396 50  0000 L CNN
F 1 "100 u" H 3068 9305 50  0000 L CNN
F 2 "Capacitor_SMD:CP_Elec_5x5.3" H 2988 9200 50  0001 C CNN
F 3 "~" H 2950 9350 50  0001 C CNN
	1    2950 9350
	1    0    0    -1  
$EndComp
$Comp
L Device:Crystal ZQ1
U 1 1 5DD61E2D
P 4400 4550
F 0 "ZQ1" H 4400 4818 50  0000 C CNN
F 1 "4 MHz" H 4400 4727 50  0000 C CNN
F 2 "Crystal:Crystal_SMD_HC49-SD" H 4400 4550 50  0001 C CNN
F 3 "~" H 4400 4550 50  0001 C CNN
	1    4400 4550
	1    0    0    -1  
$EndComp
$Comp
L Device:C C3
U 1 1 5DD62AD6
P 4100 4900
F 0 "C3" H 4215 4946 50  0000 L CNN
F 1 "22 p" H 4215 4855 50  0000 L CNN
F 2 "Capacitor_THT:C_Disc_D5.0mm_W2.5mm_P5.00mm" H 4138 4750 50  0001 C CNN
F 3 "~" H 4100 4900 50  0001 C CNN
	1    4100 4900
	1    0    0    -1  
$EndComp
$Comp
L Device:C C5
U 1 1 5DD6322B
P 4650 4900
F 0 "C5" H 4765 4946 50  0000 L CNN
F 1 "22 p" H 4765 4855 50  0000 L CNN
F 2 "Capacitor_THT:C_Disc_D5.0mm_W2.5mm_P5.00mm" H 4688 4750 50  0001 C CNN
F 3 "~" H 4650 4900 50  0001 C CNN
	1    4650 4900
	1    0    0    -1  
$EndComp
Wire Wire Line
	4100 4750 4100 4550
Wire Wire Line
	4100 4550 4250 4550
Wire Wire Line
	4550 4550 4650 4550
Wire Wire Line
	4650 4550 4650 4750
Wire Wire Line
	4650 3950 4650 4550
Connection ~ 4650 4550
Wire Wire Line
	4100 4150 4100 4550
Connection ~ 4100 4550
$Comp
L power:+5V #PWR014
U 1 1 5DD85D51
P 7350 5850
F 0 "#PWR014" H 7350 5700 50  0001 C CNN
F 1 "+5V" H 7365 6023 50  0000 C CNN
F 2 "" H 7350 5850 50  0001 C CNN
F 3 "" H 7350 5850 50  0001 C CNN
	1    7350 5850
	1    0    0    -1  
$EndComp
$Comp
L Device:CP C6
U 1 1 5DD875D5
P 7350 6450
F 0 "C6" H 7468 6496 50  0000 L CNN
F 1 "1 u" H 7468 6405 50  0000 L CNN
F 2 "Capacitor_SMD:CP_Elec_5x3" H 7388 6300 50  0001 C CNN
F 3 "~" H 7350 6450 50  0001 C CNN
	1    7350 6450
	1    0    0    -1  
$EndComp
$Comp
L Device:CP C7
U 1 1 5DD88A12
P 9650 6450
F 0 "C7" H 9768 6496 50  0000 L CNN
F 1 "1 u" H 9768 6405 50  0000 L CNN
F 2 "Capacitor_SMD:CP_Elec_5x3" H 9688 6300 50  0001 C CNN
F 3 "~" H 9650 6450 50  0001 C CNN
	1    9650 6450
	1    0    0    -1  
$EndComp
$Comp
L Device:CP C11
U 1 1 5DD89408
P 10100 6450
F 0 "C11" H 10218 6496 50  0000 L CNN
F 1 "1 u" H 10218 6405 50  0000 L CNN
F 2 "Capacitor_SMD:CP_Elec_5x3" H 10138 6300 50  0001 C CNN
F 3 "~" H 10100 6450 50  0001 C CNN
	1    10100 6450
	1    0    0    -1  
$EndComp
$Comp
L Device:CP C10
U 1 1 5DD8A4ED
P 10550 6450
F 0 "C10" H 10668 6496 50  0000 L CNN
F 1 "1 u" H 10668 6405 50  0000 L CNN
F 2 "Capacitor_SMD:CP_Elec_5x3" H 10588 6300 50  0001 C CNN
F 3 "~" H 10550 6450 50  0001 C CNN
	1    10550 6450
	1    0    0    -1  
$EndComp
Wire Wire Line
	9250 6300 9650 6300
Wire Wire Line
	9650 6600 9250 6600
Wire Wire Line
	7650 6300 7350 6300
Wire Wire Line
	7650 6600 7350 6600
$Comp
L my_Library1:RS-232 XP2
U 1 1 5DD9B81A
P 11250 7000
F 0 "XP2" H 11200 7050 50  0000 L CNN
F 1 "RS-232" H 11150 6950 50  0000 L CNN
F 2 "Connector_Dsub:DSUB-9_Male_Vertical_P2.77x2.84mm" H 11250 7000 50  0001 C CNN
F 3 "" H 11250 7000 50  0001 C CNN
	1    11250 7000
	1    0    0    -1  
$EndComp
Wire Wire Line
	10850 8250 10750 8250
Wire Wire Line
	10750 8250 10750 8400
Wire Wire Line
	10750 8400 10850 8400
Wire Wire Line
	10900 12250 10800 12250
Wire Wire Line
	10850 7350 10750 7350
Wire Wire Line
	10850 8100 10750 8100
Wire Wire Line
	10850 7800 10750 7800
$Comp
L Device:C C9
U 1 1 5DDB07DC
P 10100 8250
F 0 "C9" H 10215 8296 50  0000 L CNN
F 1 "1.2 n" H 10215 8205 50  0000 L CNN
F 2 "Capacitor_THT:CP_Axial_L20.0mm_D13.0mm_P26.00mm_Horizontal" H 10138 8100 50  0001 C CNN
F 3 "~" H 10100 8250 50  0001 C CNN
	1    10100 8250
	1    0    0    -1  
$EndComp
$Comp
L Device:C C8
U 1 1 5DDB1099
P 9650 8250
F 0 "C8" H 9765 8296 50  0000 L CNN
F 1 "1.2 n" H 9765 8205 50  0000 L CNN
F 2 "Capacitor_THT:CP_Axial_L20.0mm_D13.0mm_P26.00mm_Horizontal" H 9688 8100 50  0001 C CNN
F 3 "~" H 9650 8250 50  0001 C CNN
	1    9650 8250
	1    0    0    -1  
$EndComp
$Comp
L Device:R R28
U 1 1 5DDB24C3
P 9600 7500
F 0 "R28" V 9393 7500 50  0000 C CNN
F 1 "470" V 9484 7500 50  0000 C CNN
F 2 "Resistor_THT:R_Axial_DIN0207_L6.3mm_D2.5mm_P7.62mm_Horizontal" V 9530 7500 50  0001 C CNN
F 3 "~" H 9600 7500 50  0001 C CNN
	1    9600 7500
	0    1    1    0   
$EndComp
$Comp
L Device:R R29
U 1 1 5DDB2E05
P 9600 7900
F 0 "R29" V 9393 7900 50  0000 C CNN
F 1 "470" V 9484 7900 50  0000 C CNN
F 2 "Resistor_THT:R_Axial_DIN0207_L6.3mm_D2.5mm_P7.62mm_Horizontal" V 9530 7900 50  0001 C CNN
F 3 "~" H 9600 7900 50  0001 C CNN
	1    9600 7900
	0    1    1    0   
$EndComp
Wire Wire Line
	9450 7500 9250 7500
Wire Wire Line
	9750 7500 9900 7500
Wire Wire Line
	9450 7900 9250 7900
Wire Wire Line
	9750 7900 10100 7900
Wire Wire Line
	9650 8100 9650 8050
Wire Wire Line
	9650 8050 9900 8050
Wire Wire Line
	9900 8050 9900 7500
Wire Wire Line
	10100 8100 10100 7900
Connection ~ 10100 7900
NoConn ~ 10800 12250
$Comp
L power:+5V #PWR08
U 1 1 5DD5FD3F
P 5950 3350
F 0 "#PWR08" H 5950 3200 50  0001 C CNN
F 1 "+5V" H 5965 3523 50  0000 C CNN
F 2 "" H 5950 3350 50  0001 C CNN
F 3 "" H 5950 3350 50  0001 C CNN
	1    5950 3350
	1    0    0    -1  
$EndComp
Wire Wire Line
	4650 5350 4650 5050
Wire Wire Line
	4100 5350 4100 5050
Wire Wire Line
	10100 8700 10100 8400
Wire Wire Line
	10550 6600 10550 6700
$Comp
L power:GND #PWR0101
U 1 1 5E039DB1
P 9650 8700
F 0 "#PWR0101" H 9650 8450 50  0001 C CNN
F 1 "GND" H 9655 8527 50  0000 C CNN
F 2 "" H 9650 8700 50  0001 C CNN
F 3 "" H 9650 8700 50  0001 C CNN
	1    9650 8700
	1    0    0    -1  
$EndComp
$Comp
L power:GND #PWR0102
U 1 1 5E06297B
P 10100 8700
F 0 "#PWR0102" H 10100 8450 50  0001 C CNN
F 1 "GND" H 10105 8527 50  0000 C CNN
F 2 "" H 10100 8700 50  0001 C CNN
F 3 "" H 10100 8700 50  0001 C CNN
	1    10100 8700
	1    0    0    -1  
$EndComp
$Comp
L power:GND #PWR0103
U 1 1 5E071AF0
P 10550 8700
F 0 "#PWR0103" H 10550 8450 50  0001 C CNN
F 1 "GND" H 10555 8527 50  0000 C CNN
F 2 "" H 10550 8700 50  0001 C CNN
F 3 "" H 10550 8700 50  0001 C CNN
	1    10550 8700
	1    0    0    -1  
$EndComp
$Comp
L power:GND #PWR0106
U 1 1 5E0A6A2B
P 2200 3750
F 0 "#PWR0106" H 2200 3500 50  0001 C CNN
F 1 "GND" H 2205 3577 50  0000 C CNN
F 2 "" H 2200 3750 50  0001 C CNN
F 3 "" H 2200 3750 50  0001 C CNN
	1    2200 3750
	1    0    0    -1  
$EndComp
$Comp
L power:GND #PWR0107
U 1 1 5E0B5CC5
P 4100 5350
F 0 "#PWR0107" H 4100 5100 50  0001 C CNN
F 1 "GND" H 4105 5177 50  0000 C CNN
F 2 "" H 4100 5350 50  0001 C CNN
F 3 "" H 4100 5350 50  0001 C CNN
	1    4100 5350
	1    0    0    -1  
$EndComp
$Comp
L power:GND #PWR0108
U 1 1 5E0BD62A
P 4650 5350
F 0 "#PWR0108" H 4650 5100 50  0001 C CNN
F 1 "GND" H 4655 5177 50  0000 C CNN
F 2 "" H 4650 5350 50  0001 C CNN
F 3 "" H 4650 5350 50  0001 C CNN
	1    4650 5350
	1    0    0    -1  
$EndComp
$Comp
L power:GND #PWR0109
U 1 1 5E0CC708
P 10550 6700
F 0 "#PWR0109" H 10550 6450 50  0001 C CNN
F 1 "GND" H 10555 6527 50  0000 C CNN
F 2 "" H 10550 6700 50  0001 C CNN
F 3 "" H 10550 6700 50  0001 C CNN
	1    10550 6700
	1    0    0    -1  
$EndComp
Wire Wire Line
	2600 9650 2950 9650
$Comp
L power:PWR_FLAG #FLG0101
U 1 1 5E011221
P 1500 10600
F 0 "#FLG0101" H 1500 10675 50  0001 C CNN
F 1 "PWR_FLAG" H 1500 10773 50  0000 C CNN
F 2 "" H 1500 10600 50  0001 C CNN
F 3 "~" H 1500 10600 50  0001 C CNN
	1    1500 10600
	1    0    0    -1  
$EndComp
$Comp
L power:GND #PWR0111
U 1 1 5E0121AE
P 1500 10850
F 0 "#PWR0111" H 1500 10600 50  0001 C CNN
F 1 "GND" H 1505 10677 50  0000 C CNN
F 2 "" H 1500 10850 50  0001 C CNN
F 3 "" H 1500 10850 50  0001 C CNN
	1    1500 10850
	1    0    0    -1  
$EndComp
Wire Wire Line
	1500 10600 1500 10850
$Comp
L MCU_Microchip_ATmega:ATmega8515-16AU DD2
U 1 1 5E022FAB
P 5450 5450
F 0 "DD2" H 5450 7631 50  0000 C CNN
F 1 "ATmega8515-16AU" H 5450 7540 50  0000 C CNN
F 2 "Package_QFP:TQFP-44_10x10mm_P0.8mm" H 5450 5450 50  0001 C CIN
F 3 "http://ww1.microchip.com/downloads/en/DeviceDoc/doc2512.pdf" H 5450 5450 50  0001 C CNN
	1    5450 5450
	1    0    0    -1  
$EndComp
Wire Wire Line
	4850 4150 4100 4150
Wire Wire Line
	4650 3950 4850 3950
Wire Wire Line
	5450 3450 5950 3450
Wire Wire Line
	5950 3450 5950 3350
$Comp
L Switch:SW_Push SW6
U 1 1 5E0CAB16
P 2750 3750
F 0 "SW6" H 2750 4035 50  0000 C CNN
F 1 "\"Reset\"" H 2750 3944 50  0000 C CNN
F 2 "Button_Switch_Keyboard:SW_Cherry_MX_1.00u_PCB" H 2750 3950 50  0001 C CNN
F 3 "~" H 2750 3950 50  0001 C CNN
	1    2750 3750
	1    0    0    -1  
$EndComp
Wire Wire Line
	2550 3750 2200 3750
$Comp
L Device:R R27
U 1 1 5E0CAB1D
P 3600 3750
F 0 "R27" V 3393 3750 50  0000 C CNN
F 1 "200" V 3484 3750 50  0000 C CNN
F 2 "Resistor_THT:R_Axial_DIN0207_L6.3mm_D2.5mm_P7.62mm_Horizontal" V 3530 3750 50  0001 C CNN
F 3 "~" H 3600 3750 50  0001 C CNN
	1    3600 3750
	0    1    1    0   
$EndComp
Wire Wire Line
	2950 3750 3200 3750
$Comp
L Device:R R26
U 1 1 5E10634E
P 3200 3300
F 0 "R26" H 3270 3346 50  0000 L CNN
F 1 "1K" H 3270 3255 50  0000 L CNN
F 2 "Resistor_THT:R_Axial_DIN0207_L6.3mm_D2.5mm_P7.62mm_Horizontal" V 3130 3300 50  0001 C CNN
F 3 "~" H 3200 3300 50  0001 C CNN
	1    3200 3300
	1    0    0    -1  
$EndComp
Wire Wire Line
	3200 3450 3200 3750
Connection ~ 3200 3750
Wire Wire Line
	3200 3750 3450 3750
$Comp
L power:+5V #PWR0112
U 1 1 5E10D494
P 3550 3000
F 0 "#PWR0112" H 3550 2850 50  0001 C CNN
F 1 "+5V" V 3565 3128 50  0000 L CNN
F 2 "" H 3550 3000 50  0001 C CNN
F 3 "" H 3550 3000 50  0001 C CNN
	1    3550 3000
	0    1    1    0   
$EndComp
Wire Wire Line
	3200 3150 3200 3000
Wire Wire Line
	3200 3000 3550 3000
Text Label 6700 6550 0    50   ~ 0
TXD
$Comp
L power:GND #PWR0115
U 1 1 5E2D87AA
P 5950 7700
F 0 "#PWR0115" H 5950 7450 50  0001 C CNN
F 1 "GND" H 5955 7527 50  0000 C CNN
F 2 "" H 5950 7700 50  0001 C CNN
F 3 "" H 5950 7700 50  0001 C CNN
	1    5950 7700
	1    0    0    -1  
$EndComp
Wire Wire Line
	5450 7450 5450 7500
Text Label 7000 7900 0    50   ~ 0
RXD
Text Label 6700 6450 0    50   ~ 0
RXD
$Comp
L power:GND #PWR0110
U 1 1 5E0E4376
P 4650 9400
F 0 "#PWR0110" H 4650 9150 50  0001 C CNN
F 1 "GND" H 4655 9227 50  0000 C CNN
F 2 "" H 4650 9400 50  0001 C CNN
F 3 "" H 4650 9400 50  0001 C CNN
	1    4650 9400
	1    0    0    -1  
$EndComp
$Comp
L power:GND #PWR0105
U 1 1 5E0978F2
P 4650 10050
F 0 "#PWR0105" H 4650 9800 50  0001 C CNN
F 1 "GND" H 4655 9877 50  0000 C CNN
F 2 "" H 4650 10050 50  0001 C CNN
F 3 "" H 4650 10050 50  0001 C CNN
	1    4650 10050
	1    0    0    -1  
$EndComp
Wire Wire Line
	4650 9650 4650 10050
$Comp
L Device:CP C4
U 1 1 5DD5B013
P 5650 9400
F 0 "C4" H 5768 9446 50  0000 L CNN
F 1 "1 u" H 5768 9355 50  0000 L CNN
F 2 "Capacitor_SMD:CP_Elec_5x3" H 5688 9250 50  0001 C CNN
F 3 "~" H 5650 9400 50  0001 C CNN
	1    5650 9400
	1    0    0    -1  
$EndComp
$Comp
L Device:CP C2
U 1 1 5DD5A843
P 5150 9400
F 0 "C2" H 5268 9446 50  0000 L CNN
F 1 "10 u" H 5268 9355 50  0000 L CNN
F 2 "Capacitor_SMD:CP_Elec_5x5.3" H 5188 9250 50  0001 C CNN
F 3 "~" H 5150 9400 50  0001 C CNN
	1    5150 9400
	1    0    0    -1  
$EndComp
Connection ~ 5650 9100
Wire Wire Line
	5650 8850 5650 9100
$Comp
L power:+5V #PWR05
U 1 1 5DD58EEC
P 5650 8850
F 0 "#PWR05" H 5650 8700 50  0001 C CNN
F 1 "+5V" H 5665 9023 50  0000 C CNN
F 2 "" H 5650 8850 50  0001 C CNN
F 3 "" H 5650 8850 50  0001 C CNN
	1    5650 8850
	1    0    0    -1  
$EndComp
Connection ~ 5150 9650
Wire Wire Line
	5650 9650 5150 9650
Wire Wire Line
	5650 9550 5650 9650
Connection ~ 5150 9100
Wire Wire Line
	5650 9100 5150 9100
Wire Wire Line
	5650 9250 5650 9100
Wire Wire Line
	5150 9650 4650 9650
Wire Wire Line
	5150 9550 5150 9650
Wire Wire Line
	5150 9100 5150 9250
Wire Wire Line
	4950 9100 5150 9100
$Comp
L Regulator_Linear:LM7805_TO220 DD1
U 1 1 5DD54E4A
P 4650 9100
F 0 "DD1" H 4650 9342 50  0000 C CNN
F 1 "LM7805_TO220" H 4650 9251 50  0000 C CNN
F 2 "Package_TO_SOT_THT:TO-220-3_Vertical" H 4650 9325 50  0001 C CIN
F 3 "http://www.fairchildsemi.com/ds/LM/LM7805.pdf" H 4650 9050 50  0001 C CNN
	1    4650 9100
	1    0    0    -1  
$EndComp
$Comp
L Filter:BNX025 FL1
U 1 1 5E05BCBE
P 3750 9350
F 0 "FL1" H 3750 9675 50  0000 C CNN
F 1 "BNX025" H 3750 9584 50  0000 C CNN
F 2 "Filter:Filter_Murata_BNX025" H 3750 9150 50  0001 C CNN
F 3 "https://www.murata.com/en-us/products/productdetail.aspx?cate=luNoiseSupprFilteBlockType&partno=BNX025H01%23" V 3725 9325 50  0001 C CNN
	1    3750 9350
	1    0    0    -1  
$EndComp
Wire Wire Line
	3350 9250 3350 9100
Wire Wire Line
	2600 9100 2950 9100
Connection ~ 2950 9100
Wire Wire Line
	2950 9100 3350 9100
Wire Wire Line
	4200 9450 4200 9650
Wire Wire Line
	4200 9650 4650 9650
Connection ~ 4650 9650
Wire Wire Line
	4150 9250 4150 9100
Wire Wire Line
	4150 9100 4350 9100
Wire Wire Line
	4200 9450 4150 9450
Wire Wire Line
	2950 9650 2950 9500
Wire Wire Line
	3350 9450 3350 9650
Wire Wire Line
	3350 9650 2950 9650
Connection ~ 2950 9650
Text Label 4650 3750 0    50   ~ 0
reset
Wire Wire Line
	3750 3750 4850 3750
Entry Wire Line
	6800 6550 6900 6650
Entry Wire Line
	6800 6450 6900 6550
Entry Wire Line
	6900 7800 7000 7900
Entry Wire Line
	6900 7400 7000 7500
Text Label 7000 7500 0    50   ~ 0
TXD
Wire Wire Line
	6050 3750 6500 3750
Wire Wire Line
	6050 3850 6500 3850
Wire Wire Line
	6050 3950 6500 3950
Wire Wire Line
	6050 4050 6500 4050
Wire Wire Line
	6050 4150 6500 4150
Wire Wire Line
	6050 4250 6500 4250
Wire Wire Line
	6050 4350 6500 4350
Wire Wire Line
	6050 4450 6500 4450
Wire Wire Line
	6050 4650 6500 4650
Wire Wire Line
	6050 4750 6500 4750
Wire Wire Line
	6050 4850 6500 4850
Wire Wire Line
	6050 4950 6500 4950
Wire Wire Line
	6050 5050 6500 5050
Wire Wire Line
	6050 5150 6500 5150
Wire Wire Line
	6050 5250 6500 5250
Wire Wire Line
	6050 5350 6500 5350
Wire Wire Line
	6050 5550 6500 5550
Wire Wire Line
	6050 5650 6500 5650
Wire Wire Line
	6050 5750 6500 5750
Wire Wire Line
	6050 5850 6500 5850
Wire Wire Line
	6050 5950 6500 5950
Wire Wire Line
	6050 6050 6500 6050
Wire Wire Line
	6050 6150 6500 6150
Wire Wire Line
	6050 6250 6500 6250
Wire Wire Line
	6050 6650 6500 6650
Wire Wire Line
	6050 6750 6500 6750
Wire Wire Line
	6050 6850 6500 6850
Wire Wire Line
	6050 6950 6500 6950
Wire Wire Line
	6050 7050 6500 7050
Wire Wire Line
	6050 7150 6500 7150
Entry Wire Line
	6500 3750 6600 3850
Entry Wire Line
	6500 3850 6600 3950
Entry Wire Line
	6500 3950 6600 4050
Entry Wire Line
	6500 4050 6600 4150
Entry Wire Line
	6500 4150 6600 4250
Entry Wire Line
	6500 4250 6600 4350
Entry Wire Line
	6500 4350 6600 4450
Entry Wire Line
	6500 4450 6600 4550
Entry Wire Line
	6500 4650 6600 4750
Entry Wire Line
	6500 4750 6600 4850
Entry Wire Line
	6500 4850 6600 4950
Entry Wire Line
	6500 4950 6600 5050
Entry Wire Line
	6500 5050 6600 5150
Entry Wire Line
	6500 5150 6600 5250
Entry Wire Line
	6500 5250 6600 5350
Entry Wire Line
	6500 5350 6600 5450
Entry Wire Line
	6500 5550 6600 5650
Entry Wire Line
	6500 5650 6600 5750
Entry Wire Line
	6500 5750 6600 5850
Entry Wire Line
	6500 5850 6600 5950
Entry Wire Line
	6500 5950 6600 6050
Entry Wire Line
	6500 6050 6600 6150
Entry Wire Line
	6500 6150 6600 6250
Entry Wire Line
	6500 6250 6600 6350
Entry Wire Line
	6500 6650 6600 6750
Entry Wire Line
	6500 6750 6600 6850
Entry Wire Line
	6500 6850 6600 6950
Entry Wire Line
	6500 6950 6600 7050
Entry Wire Line
	6500 7050 6600 7150
Entry Wire Line
	6500 7150 6600 7250
Text Label 6500 4350 2    50   ~ 0
K12
Text Label 6500 4450 2    50   ~ 0
K13
Text Label 6500 4250 2    50   ~ 0
K11
Text Label 6500 4150 2    50   ~ 0
K10
Text Label 6500 4050 2    50   ~ 0
K03
Text Label 6500 3950 2    50   ~ 0
K02
Text Label 6500 3850 2    50   ~ 0
K01
Text Label 6500 3750 2    50   ~ 0
K00
Text Label 6500 4650 2    50   ~ 0
K20
Text Label 6500 4750 2    50   ~ 0
K21
Text Label 6500 4850 2    50   ~ 0
K22
Text Label 6500 4950 2    50   ~ 0
K23
Text Label 6500 5050 2    50   ~ 0
K30
Text Label 6500 5150 2    50   ~ 0
K31
Text Label 6500 5250 2    50   ~ 0
K32
Text Label 6500 5350 2    50   ~ 0
K33
Text Label 6500 5550 2    50   ~ 0
K40
Text Label 6500 5650 2    50   ~ 0
K41
Text Label 6500 5750 2    50   ~ 0
K42
Text Label 6500 5850 2    50   ~ 0
K43
Text Label 6500 5950 2    50   ~ 0
IL1
Text Label 6500 6050 2    50   ~ 0
IL2
Text Label 6500 6150 2    50   ~ 0
IL3
Text Label 6500 6250 2    50   ~ 0
IL4
Text Label 6500 7150 2    50   ~ 0
IL0
Text Label 6500 6650 2    50   ~ 0
SL0
Text Label 6500 6750 2    50   ~ 0
SL1
Text Label 6500 6850 2    50   ~ 0
SL2
Text Label 6500 6950 2    50   ~ 0
SL3
Text Label 6500 7050 2    50   ~ 0
SL4
Entry Wire Line
	14000 4850 14100 4950
Entry Wire Line
	14000 4750 14100 4850
Entry Wire Line
	14000 4650 14100 4750
Entry Wire Line
	14000 4950 14100 5050
Entry Wire Line
	14000 5050 14100 5150
Entry Wire Line
	14000 2250 14100 2350
Entry Wire Line
	14000 2350 14100 2450
Entry Wire Line
	14000 2450 14100 2550
Entry Wire Line
	14000 2550 14100 2650
Entry Wire Line
	14000 2650 14100 2750
Entry Wire Line
	14000 2850 14100 2950
Entry Wire Line
	14000 2950 14100 3050
Entry Wire Line
	14000 3050 14100 3150
Entry Wire Line
	14000 3150 14100 3250
Entry Wire Line
	14000 3250 14100 3350
Entry Wire Line
	14000 3450 14100 3550
Entry Wire Line
	14000 3550 14100 3650
Entry Wire Line
	14000 3650 14100 3750
Entry Wire Line
	14000 3750 14100 3850
Entry Wire Line
	14000 4050 14100 4150
Entry Wire Line
	14000 4150 14100 4250
Entry Wire Line
	14000 4250 14100 4350
Entry Wire Line
	14000 4350 14100 4450
Entry Wire Line
	14000 4450 14100 4550
Entry Wire Line
	14000 3850 14100 3950
Text Label 14100 2350 0    50   ~ 0
K00
Text Label 14100 2450 0    50   ~ 0
K01
Text Label 14100 2550 0    50   ~ 0
K02
Text Label 14100 2650 0    50   ~ 0
K03
Text Label 14100 2750 0    50   ~ 0
GND
Text Label 14100 3350 0    50   ~ 0
GND
Text Label 14100 3950 0    50   ~ 0
GND
Text Label 14100 4550 0    50   ~ 0
GND
Text Label 14100 5150 0    50   ~ 0
GND
Text Label 14100 2950 0    50   ~ 0
K10
Text Label 14100 3050 0    50   ~ 0
K11
Text Label 14100 3150 0    50   ~ 0
K12
Text Label 14100 3250 0    50   ~ 0
K13
Text Label 14100 3550 0    50   ~ 0
K20
Text Label 14100 3650 0    50   ~ 0
K21
Text Label 14100 3750 0    50   ~ 0
K22
Text Label 14100 3850 0    50   ~ 0
K23
Text Label 14100 4150 0    50   ~ 0
K30
Text Label 14100 4250 0    50   ~ 0
K31
Text Label 14100 4350 0    50   ~ 0
K32
Text Label 14100 4450 0    50   ~ 0
K33
Text Label 14100 4750 0    50   ~ 0
K40
Text Label 14100 4850 0    50   ~ 0
K41
Text Label 14100 4950 0    50   ~ 0
K42
Text Label 14100 5050 0    50   ~ 0
K43
Wire Wire Line
	14100 2350 14400 2350
Wire Wire Line
	14100 2450 14400 2450
Wire Wire Line
	14100 2550 14400 2550
Wire Wire Line
	14100 2650 14400 2650
Wire Wire Line
	14100 2750 14400 2750
Wire Wire Line
	14100 2950 14400 2950
Wire Wire Line
	14100 3050 14400 3050
Wire Wire Line
	14100 3150 14400 3150
Wire Wire Line
	14100 3250 14400 3250
Wire Wire Line
	14100 3350 14400 3350
Wire Wire Line
	14100 3550 14400 3550
Wire Wire Line
	14100 3650 14400 3650
Wire Wire Line
	14100 3750 14400 3750
Wire Wire Line
	14100 3850 14400 3850
Wire Wire Line
	14100 3950 14400 3950
Wire Wire Line
	14100 4150 14400 4150
Wire Wire Line
	14100 4250 14400 4250
Wire Wire Line
	14100 4350 14400 4350
Wire Wire Line
	14100 4450 14400 4450
Wire Wire Line
	14100 4550 14400 4550
Wire Wire Line
	14100 4750 14400 4750
Wire Wire Line
	14100 4850 14400 4850
Wire Wire Line
	14100 4950 14400 4950
Wire Wire Line
	14100 5050 14400 5050
Wire Wire Line
	14100 5150 14400 5150
$Comp
L Device:R R1
U 1 1 5F16C1CB
P 7050 2900
F 0 "R1" V 6843 2900 50  0000 C CNN
F 1 "280" V 6934 2900 50  0000 C CNN
F 2 "Resistor_THT:R_Axial_DIN0207_L6.3mm_D2.5mm_P7.62mm_Horizontal" V 6980 2900 50  0001 C CNN
F 3 "~" H 7050 2900 50  0001 C CNN
	1    7050 2900
	0    1    1    0   
$EndComp
$Comp
L Device:LED D1
U 1 1 5F16BB89
P 7450 2900
F 0 "D1" H 7443 3116 50  0000 C CNN
F 1 "LED" H 7443 3025 50  0000 C CNN
F 2 "LED_THT:LED_Rectangular_W3.0mm_H2.0mm" H 7450 2900 50  0001 C CNN
F 3 "~" H 7450 2900 50  0001 C CNN
	1    7450 2900
	1    0    0    -1  
$EndComp
Wire Wire Line
	7250 2600 7600 2600
$Comp
L power:GND #PWR0113
U 1 1 5E23715E
P 6800 4500
F 0 "#PWR0113" H 6800 4250 50  0001 C CNN
F 1 "GND" H 6805 4327 50  0000 C CNN
F 2 "" H 6800 4500 50  0001 C CNN
F 3 "" H 6800 4500 50  0001 C CNN
	1    6800 4500
	1    0    0    -1  
$EndComp
$Comp
L Switch:SW_Push SW1
U 1 1 5E22E8C4
P 7050 2600
F 0 "SW1" H 7050 2885 50  0000 C CNN
F 1 "\"Line1\"" H 7050 2794 50  0000 C CNN
F 2 "Button_Switch_Keyboard:SW_Cherry_MX_1.00u_PCB" H 7050 2800 50  0001 C CNN
F 3 "~" H 7050 2800 50  0001 C CNN
	1    7050 2600
	1    0    0    -1  
$EndComp
Wire Wire Line
	9650 8700 9650 8400
$Comp
L Device:R R2
U 1 1 5F226841
P 7050 3250
F 0 "R2" V 6843 3250 50  0000 C CNN
F 1 "280" V 6934 3250 50  0000 C CNN
F 2 "Resistor_THT:R_Axial_DIN0207_L6.3mm_D2.5mm_P7.62mm_Horizontal" V 6980 3250 50  0001 C CNN
F 3 "~" H 7050 3250 50  0001 C CNN
	1    7050 3250
	0    1    1    0   
$EndComp
$Comp
L Device:LED D2
U 1 1 5F226847
P 7450 3250
F 0 "D2" H 7443 3466 50  0000 C CNN
F 1 "LED" H 7443 3375 50  0000 C CNN
F 2 "LED_THT:LED_Rectangular_W3.0mm_H2.0mm" H 7450 3250 50  0001 C CNN
F 3 "~" H 7450 3250 50  0001 C CNN
	1    7450 3250
	1    0    0    -1  
$EndComp
$Comp
L Device:R R3
U 1 1 5F2302D4
P 7050 3600
F 0 "R3" V 6843 3600 50  0000 C CNN
F 1 "280" V 6934 3600 50  0000 C CNN
F 2 "Resistor_THT:R_Axial_DIN0207_L6.3mm_D2.5mm_P7.62mm_Horizontal" V 6980 3600 50  0001 C CNN
F 3 "~" H 7050 3600 50  0001 C CNN
	1    7050 3600
	0    1    1    0   
$EndComp
$Comp
L Device:LED D3
U 1 1 5F2302DA
P 7450 3600
F 0 "D3" H 7443 3816 50  0000 C CNN
F 1 "LED" H 7443 3725 50  0000 C CNN
F 2 "LED_THT:LED_Rectangular_W3.0mm_H2.0mm" H 7450 3600 50  0001 C CNN
F 3 "~" H 7450 3600 50  0001 C CNN
	1    7450 3600
	1    0    0    -1  
$EndComp
$Comp
L Device:R R5
U 1 1 5F239BB7
P 7050 4350
F 0 "R5" V 6843 4350 50  0000 C CNN
F 1 "280" V 6934 4350 50  0000 C CNN
F 2 "Resistor_THT:R_Axial_DIN0207_L6.3mm_D2.5mm_P7.62mm_Horizontal" V 6980 4350 50  0001 C CNN
F 3 "~" H 7050 4350 50  0001 C CNN
	1    7050 4350
	0    1    1    0   
$EndComp
$Comp
L Device:LED D5
U 1 1 5F239BBD
P 7450 4350
F 0 "D5" H 7443 4566 50  0000 C CNN
F 1 "LED" H 7443 4475 50  0000 C CNN
F 2 "LED_THT:LED_Rectangular_W3.0mm_H2.0mm" H 7450 4350 50  0001 C CNN
F 3 "~" H 7450 4350 50  0001 C CNN
	1    7450 4350
	1    0    0    -1  
$EndComp
Wire Wire Line
	7200 2900 7300 2900
Wire Wire Line
	7300 3250 7200 3250
Wire Wire Line
	7300 3600 7200 3600
Wire Wire Line
	7300 4350 7200 4350
Wire Wire Line
	6900 4350 6800 4350
Wire Wire Line
	6800 4350 6800 4500
Wire Wire Line
	6900 3600 6800 3600
Wire Wire Line
	6900 3250 6800 3250
Wire Wire Line
	6800 3250 6800 3600
Wire Wire Line
	6900 2900 6800 2900
Wire Wire Line
	6800 2900 6800 3250
Connection ~ 6800 3250
Wire Wire Line
	6850 2600 6800 2600
Wire Wire Line
	6800 2600 6800 2900
Connection ~ 6800 2900
Wire Wire Line
	7600 2600 7600 2000
Wire Wire Line
	7600 2900 7700 2900
Wire Wire Line
	7700 2900 7700 2000
Wire Wire Line
	7600 3250 7800 3250
Wire Wire Line
	7800 3250 7800 2000
Wire Wire Line
	7600 3600 7900 3600
Wire Wire Line
	7900 3600 7900 2000
$Comp
L Device:R R6
U 1 1 5F317C9F
P 8500 2900
F 0 "R6" V 8293 2900 50  0000 C CNN
F 1 "280" V 8384 2900 50  0000 C CNN
F 2 "Resistor_THT:R_Axial_DIN0207_L6.3mm_D2.5mm_P7.62mm_Horizontal" V 8430 2900 50  0001 C CNN
F 3 "~" H 8500 2900 50  0001 C CNN
	1    8500 2900
	0    1    1    0   
$EndComp
Wire Wire Line
	8700 2600 9050 2600
$Comp
L power:GND #PWR0104
U 1 1 5F317CAC
P 8250 4500
F 0 "#PWR0104" H 8250 4250 50  0001 C CNN
F 1 "GND" H 8255 4327 50  0000 C CNN
F 2 "" H 8250 4500 50  0001 C CNN
F 3 "" H 8250 4500 50  0001 C CNN
	1    8250 4500
	1    0    0    -1  
$EndComp
$Comp
L Switch:SW_Push SW2
U 1 1 5F317CB2
P 8500 2600
F 0 "SW2" H 8500 2885 50  0000 C CNN
F 1 "\"Line2\"" H 8500 2794 50  0000 C CNN
F 2 "Button_Switch_Keyboard:SW_Cherry_MX_1.00u_PCB" H 8500 2800 50  0001 C CNN
F 3 "~" H 8500 2800 50  0001 C CNN
	1    8500 2600
	1    0    0    -1  
$EndComp
$Comp
L Device:R R7
U 1 1 5F317CB8
P 8500 3250
F 0 "R7" V 8293 3250 50  0000 C CNN
F 1 "280" V 8384 3250 50  0000 C CNN
F 2 "Resistor_THT:R_Axial_DIN0207_L6.3mm_D2.5mm_P7.62mm_Horizontal" V 8430 3250 50  0001 C CNN
F 3 "~" H 8500 3250 50  0001 C CNN
	1    8500 3250
	0    1    1    0   
$EndComp
$Comp
L Device:R R8
U 1 1 5F317CC4
P 8500 3600
F 0 "R8" V 8293 3600 50  0000 C CNN
F 1 "280" V 8384 3600 50  0000 C CNN
F 2 "Resistor_THT:R_Axial_DIN0207_L6.3mm_D2.5mm_P7.62mm_Horizontal" V 8430 3600 50  0001 C CNN
F 3 "~" H 8500 3600 50  0001 C CNN
	1    8500 3600
	0    1    1    0   
$EndComp
$Comp
L Device:R R10
U 1 1 5F317CD0
P 8500 4350
F 0 "R10" V 8293 4350 50  0000 C CNN
F 1 "280" V 8384 4350 50  0000 C CNN
F 2 "Resistor_THT:R_Axial_DIN0207_L6.3mm_D2.5mm_P7.62mm_Horizontal" V 8430 4350 50  0001 C CNN
F 3 "~" H 8500 4350 50  0001 C CNN
	1    8500 4350
	0    1    1    0   
$EndComp
Wire Wire Line
	8650 2900 8750 2900
Wire Wire Line
	8750 3250 8650 3250
Wire Wire Line
	8750 3600 8650 3600
Wire Wire Line
	8750 4350 8650 4350
Wire Wire Line
	8350 4350 8250 4350
Wire Wire Line
	8250 4350 8250 4500
Wire Wire Line
	8350 3600 8250 3600
Wire Wire Line
	8350 3250 8250 3250
Wire Wire Line
	8250 3250 8250 3600
Wire Wire Line
	8350 2900 8250 2900
Wire Wire Line
	8250 2900 8250 3250
Connection ~ 8250 3250
Wire Wire Line
	8300 2600 8250 2600
Wire Wire Line
	8250 2600 8250 2900
Connection ~ 8250 2900
Wire Wire Line
	9050 2600 9050 2000
Wire Wire Line
	9050 2900 9150 2900
Wire Wire Line
	9150 2900 9150 2000
Wire Wire Line
	9050 3250 9250 3250
Wire Wire Line
	9250 3250 9250 2000
Wire Wire Line
	9050 3600 9350 3600
Wire Wire Line
	9350 3600 9350 2000
$Comp
L Device:R R11
U 1 1 5F329B0D
P 9950 2900
F 0 "R11" V 9743 2900 50  0000 C CNN
F 1 "280" V 9834 2900 50  0000 C CNN
F 2 "Resistor_THT:R_Axial_DIN0207_L6.3mm_D2.5mm_P7.62mm_Horizontal" V 9880 2900 50  0001 C CNN
F 3 "~" H 9950 2900 50  0001 C CNN
	1    9950 2900
	0    1    1    0   
$EndComp
$Comp
L Device:LED D11
U 1 1 5F329B13
P 10350 2900
F 0 "D11" H 10343 3116 50  0000 C CNN
F 1 "LED" H 10343 3025 50  0000 C CNN
F 2 "LED_THT:LED_Rectangular_W3.0mm_H2.0mm" H 10350 2900 50  0001 C CNN
F 3 "~" H 10350 2900 50  0001 C CNN
	1    10350 2900
	1    0    0    -1  
$EndComp
Wire Wire Line
	10150 2600 10500 2600
$Comp
L power:GND #PWR0114
U 1 1 5F329B1A
P 9700 4500
F 0 "#PWR0114" H 9700 4250 50  0001 C CNN
F 1 "GND" H 9705 4327 50  0000 C CNN
F 2 "" H 9700 4500 50  0001 C CNN
F 3 "" H 9700 4500 50  0001 C CNN
	1    9700 4500
	1    0    0    -1  
$EndComp
$Comp
L Switch:SW_Push SW3
U 1 1 5F329B20
P 9950 2600
F 0 "SW3" H 9950 2885 50  0000 C CNN
F 1 "\"Line3\"" H 9950 2794 50  0000 C CNN
F 2 "Button_Switch_Keyboard:SW_Cherry_MX_1.00u_PCB" H 9950 2800 50  0001 C CNN
F 3 "~" H 9950 2800 50  0001 C CNN
	1    9950 2600
	1    0    0    -1  
$EndComp
$Comp
L Device:R R12
U 1 1 5F329B26
P 9950 3250
F 0 "R12" V 9743 3250 50  0000 C CNN
F 1 "280" V 9834 3250 50  0000 C CNN
F 2 "Resistor_THT:R_Axial_DIN0207_L6.3mm_D2.5mm_P7.62mm_Horizontal" V 9880 3250 50  0001 C CNN
F 3 "~" H 9950 3250 50  0001 C CNN
	1    9950 3250
	0    1    1    0   
$EndComp
$Comp
L Device:LED D12
U 1 1 5F329B2C
P 10350 3250
F 0 "D12" H 10343 3466 50  0000 C CNN
F 1 "LED" H 10343 3375 50  0000 C CNN
F 2 "LED_THT:LED_Rectangular_W3.0mm_H2.0mm" H 10350 3250 50  0001 C CNN
F 3 "~" H 10350 3250 50  0001 C CNN
	1    10350 3250
	1    0    0    -1  
$EndComp
$Comp
L Device:R R13
U 1 1 5F329B32
P 9950 3600
F 0 "R13" V 9743 3600 50  0000 C CNN
F 1 "280" V 9834 3600 50  0000 C CNN
F 2 "Resistor_THT:R_Axial_DIN0207_L6.3mm_D2.5mm_P7.62mm_Horizontal" V 9880 3600 50  0001 C CNN
F 3 "~" H 9950 3600 50  0001 C CNN
	1    9950 3600
	0    1    1    0   
$EndComp
$Comp
L Device:LED D13
U 1 1 5F329B38
P 10350 3600
F 0 "D13" H 10343 3816 50  0000 C CNN
F 1 "LED" H 10343 3725 50  0000 C CNN
F 2 "LED_THT:LED_Rectangular_W3.0mm_H2.0mm" H 10350 3600 50  0001 C CNN
F 3 "~" H 10350 3600 50  0001 C CNN
	1    10350 3600
	1    0    0    -1  
$EndComp
$Comp
L Device:R R15
U 1 1 5F329B3E
P 9950 4350
F 0 "R15" V 9743 4350 50  0000 C CNN
F 1 "280" V 9834 4350 50  0000 C CNN
F 2 "Resistor_THT:R_Axial_DIN0207_L6.3mm_D2.5mm_P7.62mm_Horizontal" V 9880 4350 50  0001 C CNN
F 3 "~" H 9950 4350 50  0001 C CNN
	1    9950 4350
	0    1    1    0   
$EndComp
$Comp
L Device:LED D15
U 1 1 5F329B44
P 10350 4350
F 0 "D15" H 10343 4566 50  0000 C CNN
F 1 "LED" H 10343 4475 50  0000 C CNN
F 2 "LED_THT:LED_Rectangular_W3.0mm_H2.0mm" H 10350 4350 50  0001 C CNN
F 3 "~" H 10350 4350 50  0001 C CNN
	1    10350 4350
	1    0    0    -1  
$EndComp
Wire Wire Line
	10100 2900 10200 2900
Wire Wire Line
	10200 3250 10100 3250
Wire Wire Line
	10200 3600 10100 3600
Wire Wire Line
	10200 4350 10100 4350
Wire Wire Line
	9800 4350 9700 4350
Wire Wire Line
	9700 4350 9700 4500
Wire Wire Line
	9800 3600 9700 3600
Wire Wire Line
	9800 3250 9700 3250
Wire Wire Line
	9700 3250 9700 3600
Wire Wire Line
	9800 2900 9700 2900
Wire Wire Line
	9700 2900 9700 3250
Connection ~ 9700 3250
Wire Wire Line
	9750 2600 9700 2600
Wire Wire Line
	9700 2600 9700 2900
Connection ~ 9700 2900
Wire Wire Line
	10500 2600 10500 2000
Wire Wire Line
	10500 2900 10600 2900
Wire Wire Line
	10600 2900 10600 2000
Wire Wire Line
	10500 3250 10700 3250
Wire Wire Line
	10700 3250 10700 2000
Wire Wire Line
	10500 3600 10800 3600
Wire Wire Line
	10800 3600 10800 2000
$Comp
L Device:R R16
U 1 1 5F3684A9
P 11400 2900
F 0 "R16" V 11193 2900 50  0000 C CNN
F 1 "280" V 11284 2900 50  0000 C CNN
F 2 "Resistor_THT:R_Axial_DIN0207_L6.3mm_D2.5mm_P7.62mm_Horizontal" V 11330 2900 50  0001 C CNN
F 3 "~" H 11400 2900 50  0001 C CNN
	1    11400 2900
	0    1    1    0   
$EndComp
$Comp
L Device:LED D16
U 1 1 5F3684AF
P 11800 2900
F 0 "D16" H 11793 3116 50  0000 C CNN
F 1 "LED" H 11793 3025 50  0000 C CNN
F 2 "LED_THT:LED_Rectangular_W3.0mm_H2.0mm" H 11800 2900 50  0001 C CNN
F 3 "~" H 11800 2900 50  0001 C CNN
	1    11800 2900
	1    0    0    -1  
$EndComp
Wire Wire Line
	11600 2600 11950 2600
$Comp
L power:GND #PWR0116
U 1 1 5F3684B6
P 11150 4500
F 0 "#PWR0116" H 11150 4250 50  0001 C CNN
F 1 "GND" H 11155 4327 50  0000 C CNN
F 2 "" H 11150 4500 50  0001 C CNN
F 3 "" H 11150 4500 50  0001 C CNN
	1    11150 4500
	1    0    0    -1  
$EndComp
$Comp
L Switch:SW_Push SW4
U 1 1 5F3684BC
P 11400 2600
F 0 "SW4" H 11400 2885 50  0000 C CNN
F 1 "\"Line4\"" H 11400 2794 50  0000 C CNN
F 2 "Button_Switch_Keyboard:SW_Cherry_MX_1.00u_PCB" H 11400 2800 50  0001 C CNN
F 3 "~" H 11400 2800 50  0001 C CNN
	1    11400 2600
	1    0    0    -1  
$EndComp
$Comp
L Device:R R17
U 1 1 5F3684C2
P 11400 3250
F 0 "R17" V 11193 3250 50  0000 C CNN
F 1 "280" V 11284 3250 50  0000 C CNN
F 2 "Resistor_THT:R_Axial_DIN0207_L6.3mm_D2.5mm_P7.62mm_Horizontal" V 11330 3250 50  0001 C CNN
F 3 "~" H 11400 3250 50  0001 C CNN
	1    11400 3250
	0    1    1    0   
$EndComp
$Comp
L Device:LED D17
U 1 1 5F3684C8
P 11800 3250
F 0 "D17" H 11793 3466 50  0000 C CNN
F 1 "LED" H 11793 3375 50  0000 C CNN
F 2 "LED_THT:LED_Rectangular_W3.0mm_H2.0mm" H 11800 3250 50  0001 C CNN
F 3 "~" H 11800 3250 50  0001 C CNN
	1    11800 3250
	1    0    0    -1  
$EndComp
$Comp
L Device:R R18
U 1 1 5F3684CE
P 11400 3600
F 0 "R18" V 11193 3600 50  0000 C CNN
F 1 "280" V 11284 3600 50  0000 C CNN
F 2 "Resistor_THT:R_Axial_DIN0207_L6.3mm_D2.5mm_P7.62mm_Horizontal" V 11330 3600 50  0001 C CNN
F 3 "~" H 11400 3600 50  0001 C CNN
	1    11400 3600
	0    1    1    0   
$EndComp
$Comp
L Device:LED D18
U 1 1 5F3684D4
P 11800 3600
F 0 "D18" H 11793 3816 50  0000 C CNN
F 1 "LED" H 11793 3725 50  0000 C CNN
F 2 "LED_THT:LED_Rectangular_W3.0mm_H2.0mm" H 11800 3600 50  0001 C CNN
F 3 "~" H 11800 3600 50  0001 C CNN
	1    11800 3600
	1    0    0    -1  
$EndComp
$Comp
L Device:R R20
U 1 1 5F3684DA
P 11400 4350
F 0 "R20" V 11193 4350 50  0000 C CNN
F 1 "280" V 11284 4350 50  0000 C CNN
F 2 "Resistor_THT:R_Axial_DIN0207_L6.3mm_D2.5mm_P7.62mm_Horizontal" V 11330 4350 50  0001 C CNN
F 3 "~" H 11400 4350 50  0001 C CNN
	1    11400 4350
	0    1    1    0   
$EndComp
$Comp
L Device:LED D20
U 1 1 5F3684E0
P 11800 4350
F 0 "D20" H 11793 4566 50  0000 C CNN
F 1 "LED" H 11793 4475 50  0000 C CNN
F 2 "LED_THT:LED_Rectangular_W3.0mm_H2.0mm" H 11800 4350 50  0001 C CNN
F 3 "~" H 11800 4350 50  0001 C CNN
	1    11800 4350
	1    0    0    -1  
$EndComp
Wire Wire Line
	11550 2900 11650 2900
Wire Wire Line
	11650 3250 11550 3250
Wire Wire Line
	11650 3600 11550 3600
Wire Wire Line
	11650 4350 11550 4350
Wire Wire Line
	11250 4350 11150 4350
Wire Wire Line
	11150 4350 11150 4500
Wire Wire Line
	11250 3250 11150 3250
Wire Wire Line
	11250 2900 11150 2900
Wire Wire Line
	11150 2900 11150 3250
Connection ~ 11150 3250
Wire Wire Line
	11200 2600 11150 2600
Wire Wire Line
	11150 2600 11150 2900
Connection ~ 11150 2900
Wire Wire Line
	11950 2600 11950 2000
Wire Wire Line
	11950 2900 12050 2900
Wire Wire Line
	12050 2900 12050 2000
Wire Wire Line
	11950 3250 12150 3250
Wire Wire Line
	12150 3250 12150 2000
Wire Wire Line
	11950 3600 12250 3600
Wire Wire Line
	12250 3600 12250 2000
$Comp
L Device:R R21
U 1 1 5F380F4A
P 12850 2900
F 0 "R21" V 12643 2900 50  0000 C CNN
F 1 "280" V 12734 2900 50  0000 C CNN
F 2 "Resistor_THT:R_Axial_DIN0207_L6.3mm_D2.5mm_P7.62mm_Horizontal" V 12780 2900 50  0001 C CNN
F 3 "~" H 12850 2900 50  0001 C CNN
	1    12850 2900
	0    1    1    0   
$EndComp
$Comp
L Device:LED D21
U 1 1 5F380F50
P 13250 2900
F 0 "D21" H 13243 3116 50  0000 C CNN
F 1 "LED" H 13243 3025 50  0000 C CNN
F 2 "LED_THT:LED_Rectangular_W3.0mm_H2.0mm" H 13250 2900 50  0001 C CNN
F 3 "~" H 13250 2900 50  0001 C CNN
	1    13250 2900
	1    0    0    -1  
$EndComp
Wire Wire Line
	13050 2600 13400 2600
$Comp
L power:GND #PWR0117
U 1 1 5F380F57
P 12600 4500
F 0 "#PWR0117" H 12600 4250 50  0001 C CNN
F 1 "GND" H 12605 4327 50  0000 C CNN
F 2 "" H 12600 4500 50  0001 C CNN
F 3 "" H 12600 4500 50  0001 C CNN
	1    12600 4500
	1    0    0    -1  
$EndComp
$Comp
L Switch:SW_Push SW5
U 1 1 5F380F5D
P 12850 2600
F 0 "SW5" H 12850 2885 50  0000 C CNN
F 1 "\"Line5\"" H 12850 2794 50  0000 C CNN
F 2 "Button_Switch_Keyboard:SW_Cherry_MX_1.00u_PCB" H 12850 2800 50  0001 C CNN
F 3 "~" H 12850 2800 50  0001 C CNN
	1    12850 2600
	1    0    0    -1  
$EndComp
$Comp
L Device:R R22
U 1 1 5F380F63
P 12850 3250
F 0 "R22" V 12643 3250 50  0000 C CNN
F 1 "280" V 12734 3250 50  0000 C CNN
F 2 "Resistor_THT:R_Axial_DIN0207_L6.3mm_D2.5mm_P7.62mm_Horizontal" V 12780 3250 50  0001 C CNN
F 3 "~" H 12850 3250 50  0001 C CNN
	1    12850 3250
	0    1    1    0   
$EndComp
$Comp
L Device:LED D22
U 1 1 5F380F69
P 13250 3250
F 0 "D22" H 13243 3466 50  0000 C CNN
F 1 "LED" H 13243 3375 50  0000 C CNN
F 2 "LED_THT:LED_Rectangular_W3.0mm_H2.0mm" H 13250 3250 50  0001 C CNN
F 3 "~" H 13250 3250 50  0001 C CNN
	1    13250 3250
	1    0    0    -1  
$EndComp
$Comp
L Device:R R23
U 1 1 5F380F6F
P 12850 3600
F 0 "R23" V 12643 3600 50  0000 C CNN
F 1 "280" V 12734 3600 50  0000 C CNN
F 2 "Resistor_THT:R_Axial_DIN0207_L6.3mm_D2.5mm_P7.62mm_Horizontal" V 12780 3600 50  0001 C CNN
F 3 "~" H 12850 3600 50  0001 C CNN
	1    12850 3600
	0    1    1    0   
$EndComp
$Comp
L Device:LED D23
U 1 1 5F380F75
P 13250 3600
F 0 "D23" H 13243 3816 50  0000 C CNN
F 1 "LED" H 13243 3725 50  0000 C CNN
F 2 "LED_THT:LED_Rectangular_W3.0mm_H2.0mm" H 13250 3600 50  0001 C CNN
F 3 "~" H 13250 3600 50  0001 C CNN
	1    13250 3600
	1    0    0    -1  
$EndComp
$Comp
L Device:R R25
U 1 1 5F380F7B
P 12850 4350
F 0 "R25" V 12643 4350 50  0000 C CNN
F 1 "280" V 12734 4350 50  0000 C CNN
F 2 "Resistor_THT:R_Axial_DIN0207_L6.3mm_D2.5mm_P7.62mm_Horizontal" V 12780 4350 50  0001 C CNN
F 3 "~" H 12850 4350 50  0001 C CNN
	1    12850 4350
	0    1    1    0   
$EndComp
$Comp
L Device:LED D25
U 1 1 5F380F81
P 13250 4350
F 0 "D25" H 13243 4566 50  0000 C CNN
F 1 "LED" H 13243 4475 50  0000 C CNN
F 2 "LED_THT:LED_Rectangular_W3.0mm_H2.0mm" H 13250 4350 50  0001 C CNN
F 3 "~" H 13250 4350 50  0001 C CNN
	1    13250 4350
	1    0    0    -1  
$EndComp
Wire Wire Line
	13000 2900 13100 2900
Wire Wire Line
	13100 3250 13000 3250
Wire Wire Line
	13100 3600 13000 3600
Wire Wire Line
	13100 4350 13000 4350
Wire Wire Line
	12700 4350 12600 4350
Wire Wire Line
	12600 4350 12600 4500
Wire Wire Line
	12700 3250 12600 3250
Wire Wire Line
	12700 2900 12600 2900
Wire Wire Line
	12600 2900 12600 3250
Connection ~ 12600 3250
Wire Wire Line
	12650 2600 12600 2600
Wire Wire Line
	12600 2600 12600 2900
Connection ~ 12600 2900
Wire Wire Line
	13400 2600 13400 2000
Wire Wire Line
	13400 2900 13500 2900
Wire Wire Line
	13500 2900 13500 2000
Wire Wire Line
	13400 3250 13600 3250
Wire Wire Line
	13600 3250 13600 2000
Wire Wire Line
	13400 3600 13700 3600
Wire Wire Line
	13700 3600 13700 2000
Wire Wire Line
	13800 3950 13800 2000
Entry Wire Line
	7500 1900 7600 2000
Entry Wire Line
	7600 1900 7700 2000
Entry Wire Line
	7700 1900 7800 2000
Entry Wire Line
	7800 1900 7900 2000
Entry Wire Line
	7900 1900 8000 2000
Entry Wire Line
	8950 1900 9050 2000
Entry Wire Line
	9050 1900 9150 2000
Entry Wire Line
	9150 1900 9250 2000
Entry Wire Line
	9250 1900 9350 2000
Entry Wire Line
	9350 1900 9450 2000
Entry Wire Line
	11850 1900 11950 2000
Entry Wire Line
	11950 1900 12050 2000
Entry Wire Line
	12050 1900 12150 2000
Entry Wire Line
	12150 1900 12250 2000
Entry Wire Line
	13300 1900 13400 2000
Entry Wire Line
	13400 1900 13500 2000
Entry Wire Line
	13500 1900 13600 2000
Entry Wire Line
	13600 1900 13700 2000
Entry Wire Line
	13700 1900 13800 2000
Entry Wire Line
	10400 1900 10500 2000
Entry Wire Line
	10500 1900 10600 2000
Entry Wire Line
	10600 1900 10700 2000
Entry Wire Line
	10700 1900 10800 2000
Entry Wire Line
	10800 1900 10900 2000
$Comp
L Device:R R4
U 1 1 5F5BE2DE
P 7050 3950
F 0 "R4" V 6843 3950 50  0000 C CNN
F 1 "280" V 6934 3950 50  0000 C CNN
F 2 "Resistor_THT:R_Axial_DIN0207_L6.3mm_D2.5mm_P7.62mm_Horizontal" V 6980 3950 50  0001 C CNN
F 3 "~" H 7050 3950 50  0001 C CNN
	1    7050 3950
	0    1    1    0   
$EndComp
$Comp
L Device:LED D4
U 1 1 5F5BE2E4
P 7450 3950
F 0 "D4" H 7443 4166 50  0000 C CNN
F 1 "LED" H 7443 4075 50  0000 C CNN
F 2 "LED_THT:LED_Rectangular_W3.0mm_H2.0mm" H 7450 3950 50  0001 C CNN
F 3 "~" H 7450 3950 50  0001 C CNN
	1    7450 3950
	1    0    0    -1  
$EndComp
Wire Wire Line
	7300 3950 7200 3950
Wire Wire Line
	6900 3950 6800 3950
Wire Wire Line
	7600 3950 8000 3950
$Comp
L Device:R R9
U 1 1 5F5BE2F1
P 8500 3950
F 0 "R9" V 8293 3950 50  0000 C CNN
F 1 "280" V 8384 3950 50  0000 C CNN
F 2 "Resistor_THT:R_Axial_DIN0207_L6.3mm_D2.5mm_P7.62mm_Horizontal" V 8430 3950 50  0001 C CNN
F 3 "~" H 8500 3950 50  0001 C CNN
	1    8500 3950
	0    1    1    0   
$EndComp
Wire Wire Line
	8750 3950 8650 3950
Wire Wire Line
	9050 3950 9450 3950
$Comp
L Device:R R14
U 1 1 5F5BE304
P 9950 3950
F 0 "R14" V 9743 3950 50  0000 C CNN
F 1 "280" V 9834 3950 50  0000 C CNN
F 2 "Resistor_THT:R_Axial_DIN0207_L6.3mm_D2.5mm_P7.62mm_Horizontal" V 9880 3950 50  0001 C CNN
F 3 "~" H 9950 3950 50  0001 C CNN
	1    9950 3950
	0    1    1    0   
$EndComp
$Comp
L Device:LED D14
U 1 1 5F5BE30A
P 10350 3950
F 0 "D14" H 10343 4166 50  0000 C CNN
F 1 "LED" H 10343 4075 50  0000 C CNN
F 2 "LED_THT:LED_Rectangular_W3.0mm_H2.0mm" H 10350 3950 50  0001 C CNN
F 3 "~" H 10350 3950 50  0001 C CNN
	1    10350 3950
	1    0    0    -1  
$EndComp
Wire Wire Line
	10200 3950 10100 3950
Wire Wire Line
	9800 3950 9700 3950
Wire Wire Line
	10500 3950 10900 3950
$Comp
L Device:R R19
U 1 1 5F5BE317
P 11400 3950
F 0 "R19" V 11193 3950 50  0000 C CNN
F 1 "280" V 11284 3950 50  0000 C CNN
F 2 "Resistor_THT:R_Axial_DIN0207_L6.3mm_D2.5mm_P7.62mm_Horizontal" V 11330 3950 50  0001 C CNN
F 3 "~" H 11400 3950 50  0001 C CNN
	1    11400 3950
	0    1    1    0   
$EndComp
$Comp
L Device:LED D19
U 1 1 5F5BE31D
P 11800 3950
F 0 "D19" H 11793 4166 50  0000 C CNN
F 1 "LED" H 11793 4075 50  0000 C CNN
F 2 "LED_THT:LED_Rectangular_W3.0mm_H2.0mm" H 11800 3950 50  0001 C CNN
F 3 "~" H 11800 3950 50  0001 C CNN
	1    11800 3950
	1    0    0    -1  
$EndComp
Wire Wire Line
	11650 3950 11550 3950
Wire Wire Line
	11250 3950 11150 3950
Wire Wire Line
	11950 3950 12350 3950
$Comp
L Device:R R24
U 1 1 5F5BE32A
P 12850 3950
F 0 "R24" V 12643 3950 50  0000 C CNN
F 1 "280" V 12734 3950 50  0000 C CNN
F 2 "Resistor_THT:R_Axial_DIN0207_L6.3mm_D2.5mm_P7.62mm_Horizontal" V 12780 3950 50  0001 C CNN
F 3 "~" H 12850 3950 50  0001 C CNN
	1    12850 3950
	0    1    1    0   
$EndComp
$Comp
L Device:LED D24
U 1 1 5F5BE330
P 13250 3950
F 0 "D24" H 13243 4166 50  0000 C CNN
F 1 "LED" H 13243 4075 50  0000 C CNN
F 2 "LED_THT:LED_Rectangular_W3.0mm_H2.0mm" H 13250 3950 50  0001 C CNN
F 3 "~" H 13250 3950 50  0001 C CNN
	1    13250 3950
	1    0    0    -1  
$EndComp
Wire Wire Line
	13100 3950 13000 3950
Wire Wire Line
	12700 3950 12600 3950
Wire Wire Line
	13400 3950 13800 3950
Wire Wire Line
	8250 3600 8250 3950
Wire Wire Line
	6800 3600 6800 3950
Wire Wire Line
	9700 3600 9700 3950
Entry Wire Line
	12250 1900 12350 2000
Connection ~ 6800 3950
Connection ~ 6800 4350
Connection ~ 6800 3600
Connection ~ 8250 3600
Connection ~ 9700 3600
Wire Wire Line
	8350 3950 8250 3950
Wire Wire Line
	6800 3950 6800 4350
Wire Wire Line
	11150 3250 11150 3600
Wire Wire Line
	12600 3250 12600 3600
Wire Wire Line
	8000 2000 8000 3950
Wire Wire Line
	8100 4350 8100 2000
Wire Wire Line
	7600 4350 8100 4350
Wire Wire Line
	9550 4350 9550 2000
Wire Wire Line
	9050 4350 9550 4350
Wire Wire Line
	9450 2000 9450 3950
Wire Wire Line
	8250 3950 8250 4350
Connection ~ 8250 3950
Connection ~ 8250 4350
Wire Wire Line
	9700 3950 9700 4350
Connection ~ 9700 3950
Connection ~ 9700 4350
Wire Wire Line
	11000 4350 11000 2000
Wire Wire Line
	10500 4350 11000 4350
Wire Wire Line
	10900 2000 10900 3950
Wire Wire Line
	12350 3950 12350 2000
Wire Wire Line
	12450 4350 12450 2000
Wire Wire Line
	11950 4350 12450 4350
Wire Wire Line
	13900 4350 13900 2000
Wire Wire Line
	13400 4350 13900 4350
Entry Wire Line
	8000 1900 8100 2000
Entry Wire Line
	9450 1900 9550 2000
Entry Wire Line
	10900 1900 11000 2000
Entry Wire Line
	12350 1900 12450 2000
Entry Wire Line
	13800 1900 13900 2000
Wire Wire Line
	12600 3950 12600 4350
Connection ~ 12600 3950
Connection ~ 12600 4350
Wire Wire Line
	11150 3950 11150 4350
Connection ~ 11150 3950
Connection ~ 11150 4350
Text Label 7600 2000 3    50   ~ 0
SL0
Text Label 7700 2000 3    50   ~ 0
K00
Text Label 7800 2000 3    50   ~ 0
K01
Text Label 7900 2000 3    50   ~ 0
K02
Text Label 8000 2000 3    50   ~ 0
K03
Text Label 8100 2000 3    50   ~ 0
IL0
Text Label 9050 2000 3    50   ~ 0
SL1
Text Label 9150 2000 3    50   ~ 0
K10
Text Label 9250 2000 3    50   ~ 0
K11
Text Label 9350 2000 3    50   ~ 0
K12
Text Label 9450 2000 3    50   ~ 0
K13
Text Label 9550 2000 3    50   ~ 0
IL1
Text Label 10500 2000 3    50   ~ 0
SL2
Text Label 10600 2000 3    50   ~ 0
K20
Text Label 10700 2000 3    50   ~ 0
K21
Text Label 10800 2000 3    50   ~ 0
K22
Text Label 10900 2000 3    50   ~ 0
K23
Text Label 11000 2000 3    50   ~ 0
IL2
Text Label 11950 2000 3    50   ~ 0
SL3
Text Label 12050 2000 3    50   ~ 0
K30
Text Label 12150 2000 3    50   ~ 0
K31
Text Label 12250 2000 3    50   ~ 0
K32
Text Label 12350 2000 3    50   ~ 0
K33
Text Label 12450 2000 3    50   ~ 0
IL3
Text Label 13400 2000 3    50   ~ 0
SL4
Text Label 13500 2000 3    50   ~ 0
K40
Text Label 13600 2000 3    50   ~ 0
K41
Text Label 13700 2000 3    50   ~ 0
K42
Text Label 13800 2000 3    50   ~ 0
K43
Text Label 13900 2000 3    50   ~ 0
IL4
$Comp
L Device:LED D6
U 1 1 5ECB0148
P 8900 2900
F 0 "D6" H 8893 3116 50  0000 C CNN
F 1 "LED" H 8893 3025 50  0000 C CNN
F 2 "LED_THT:LED_Rectangular_W3.0mm_H2.0mm" H 8900 2900 50  0001 C CNN
F 3 "~" H 8900 2900 50  0001 C CNN
	1    8900 2900
	1    0    0    -1  
$EndComp
$Comp
L Device:LED D7
U 1 1 5ECB014E
P 8900 3250
F 0 "D7" H 8893 3466 50  0000 C CNN
F 1 "LED" H 8893 3375 50  0000 C CNN
F 2 "LED_THT:LED_Rectangular_W3.0mm_H2.0mm" H 8900 3250 50  0001 C CNN
F 3 "~" H 8900 3250 50  0001 C CNN
	1    8900 3250
	1    0    0    -1  
$EndComp
$Comp
L Device:LED D8
U 1 1 5ECB0154
P 8900 3600
F 0 "D8" H 8893 3816 50  0000 C CNN
F 1 "LED" H 8893 3725 50  0000 C CNN
F 2 "LED_THT:LED_Rectangular_W3.0mm_H2.0mm" H 8900 3600 50  0001 C CNN
F 3 "~" H 8900 3600 50  0001 C CNN
	1    8900 3600
	1    0    0    -1  
$EndComp
$Comp
L Device:LED D10
U 1 1 5ECB015A
P 8900 4350
F 0 "D10" H 8893 4566 50  0000 C CNN
F 1 "LED" H 8893 4475 50  0000 C CNN
F 2 "LED_THT:LED_Rectangular_W3.0mm_H2.0mm" H 8900 4350 50  0001 C CNN
F 3 "~" H 8900 4350 50  0001 C CNN
	1    8900 4350
	1    0    0    -1  
$EndComp
$Comp
L Device:LED D9
U 1 1 5ECB0160
P 8900 3950
F 0 "D9" H 8893 4166 50  0000 C CNN
F 1 "LED" H 8893 4075 50  0000 C CNN
F 2 "LED_THT:LED_Rectangular_W3.0mm_H2.0mm" H 8900 3950 50  0001 C CNN
F 3 "~" H 8900 3950 50  0001 C CNN
	1    8900 3950
	1    0    0    -1  
$EndComp
Wire Wire Line
	12700 3600 12600 3600
Connection ~ 12600 3600
Wire Wire Line
	12600 3600 12600 3950
Wire Wire Line
	11250 3600 11150 3600
Connection ~ 11150 3600
Wire Wire Line
	11150 3600 11150 3950
$Comp
L power:GND #PWR0118
U 1 1 5EC2C9EA
P 8200 8700
F 0 "#PWR0118" H 8200 8450 50  0001 C CNN
F 1 "GND" H 8205 8527 50  0000 C CNN
F 2 "" H 8200 8700 50  0001 C CNN
F 3 "" H 8200 8700 50  0001 C CNN
	1    8200 8700
	1    0    0    -1  
$EndComp
Wire Wire Line
	8200 8400 8450 8400
Wire Wire Line
	8200 8400 8200 8700
Wire Wire Line
	5950 7500 5950 7700
Wire Wire Line
	10100 6300 10100 5950
Wire Wire Line
	10100 6600 10100 6800
Wire Wire Line
	9250 6800 10100 6800
Wire Wire Line
	10550 5950 10550 6300
Wire Wire Line
	8450 5950 8450 6000
$Comp
L Interface_UART:MAX232 DD3
U 1 1 5DD68D27
P 8450 7200
F 0 "DD3" H 8450 8581 50  0000 C CNN
F 1 "MAX232" H 8450 8490 50  0000 C CNN
F 2 "Transformer_SMD:Transformer_Ethernet_Bel_S558-5999-T7-F" H 8500 6150 50  0001 L CNN
F 3 "http://www.ti.com/lit/ds/symlink/max232.pdf" H 8450 7300 50  0001 C CNN
	1    8450 7200
	1    0    0    -1  
$EndComp
Wire Wire Line
	8450 5950 10100 5950
Wire Wire Line
	8450 5950 7350 5950
Wire Wire Line
	7350 5850 7350 5950
Connection ~ 8450 5950
Wire Wire Line
	5450 7500 5950 7500
Wire Wire Line
	10550 7950 10550 8700
Wire Wire Line
	10100 7650 10100 7900
Wire Wire Line
	10850 7500 9900 7500
Connection ~ 9900 7500
Wire Wire Line
	10850 7650 10100 7650
Wire Wire Line
	10850 7950 10550 7950
Wire Wire Line
	10850 7100 10850 5950
Wire Wire Line
	10850 5950 10550 5950
Wire Wire Line
	9250 7100 10850 7100
Wire Wire Line
	7650 7500 7000 7500
Wire Wire Line
	7650 7900 7000 7900
Wire Wire Line
	6050 6450 6800 6450
Wire Wire Line
	6050 6550 6800 6550
$Comp
L Connector_Generic:Conn_01x05 J1
U 1 1 5EC5486B
P 14600 2550
F 0 "J1" H 14680 2592 50  0000 L CNN
F 1 "Conn_01x05" H 14680 2501 50  0000 L CNN
F 2 "Connector_PinSocket_2.00mm:PinSocket_1x05_P2.00mm_Vertical" H 14600 2550 50  0001 C CNN
F 3 "~" H 14600 2550 50  0001 C CNN
	1    14600 2550
	1    0    0    -1  
$EndComp
$Comp
L Connector_Generic:Conn_01x05 J2
U 1 1 5ECA7F7D
P 14600 3150
F 0 "J2" H 14680 3192 50  0000 L CNN
F 1 "Conn_01x05" H 14680 3101 50  0000 L CNN
F 2 "Connector_PinSocket_2.00mm:PinSocket_1x05_P2.00mm_Vertical" H 14600 3150 50  0001 C CNN
F 3 "~" H 14600 3150 50  0001 C CNN
	1    14600 3150
	1    0    0    -1  
$EndComp
$Comp
L Connector_Generic:Conn_01x05 J3
U 1 1 5ECA9753
P 14600 3750
F 0 "J3" H 14680 3792 50  0000 L CNN
F 1 "Conn_01x05" H 14680 3701 50  0000 L CNN
F 2 "Connector_PinSocket_2.00mm:PinSocket_1x05_P2.00mm_Vertical" H 14600 3750 50  0001 C CNN
F 3 "~" H 14600 3750 50  0001 C CNN
	1    14600 3750
	1    0    0    -1  
$EndComp
$Comp
L Connector_Generic:Conn_01x05 J4
U 1 1 5ECAA937
P 14600 4350
F 0 "J4" H 14680 4392 50  0000 L CNN
F 1 "Conn_01x05" H 14680 4301 50  0000 L CNN
F 2 "Connector_PinSocket_2.00mm:PinSocket_1x05_P2.00mm_Vertical" H 14600 4350 50  0001 C CNN
F 3 "~" H 14600 4350 50  0001 C CNN
	1    14600 4350
	1    0    0    -1  
$EndComp
$Comp
L Connector_Generic:Conn_01x05 J5
U 1 1 5ECAB832
P 14600 4950
F 0 "J5" H 14680 4992 50  0000 L CNN
F 1 "Conn_01x05" H 14680 4901 50  0000 L CNN
F 2 "Connector_PinSocket_2.00mm:PinSocket_1x05_P2.00mm_Vertical" H 14600 4950 50  0001 C CNN
F 3 "~" H 14600 4950 50  0001 C CNN
	1    14600 4950
	1    0    0    -1  
$EndComp
Wire Wire Line
	10850 8550 10750 8550
NoConn ~ 4850 6450
NoConn ~ 4850 6550
NoConn ~ 4850 6650
NoConn ~ 7650 7300
NoConn ~ 7650 7700
NoConn ~ 10750 7350
NoConn ~ 10750 7800
NoConn ~ 10750 8100
NoConn ~ 10750 8550
NoConn ~ 9250 7300
NoConn ~ 9250 7700
Wire Bus Line
	6900 6450 6900 7850
Wire Bus Line
	6600 1900 6600 7300
Wire Bus Line
	14000 1900 14000 5150
Wire Bus Line
	6600 1900 14000 1900
$EndSCHEMATC
