EESchema Schematic File Version 4
EELAYER 30 0
EELAYER END
$Descr A3 16535 11693
encoding utf-8
Sheet 1 1
Title "Схема электрическая принципиальная"
Date "2020-01-01"
Rev ""
Comp "МГТУ им. Н.Э. Баумана"
Comment1 "Электронный тренажер"
Comment2 "Медведев Н.А."
Comment3 ""
Comment4 ""
$EndDescr
$Comp
L medvedev-rescue:ATmega8515-16AU-MCU_Microchip_ATmega U1
U 1 1 5E266AC5
P 8050 4800
F 0 "U1" H 8050 6981 50  0000 C CNN
F 1 "ATmega8515-16AU" H 8050 6890 50  0000 C CNN
F 2 "Package_DIP:DIP-48_W15.24mm" H 8050 4800 50  0001 C CIN
F 3 "http://ww1.microchip.com/downloads/en/DeviceDoc/doc2512.pdf" H 8050 4800 50  0001 C CNN
	1    8050 4800
	1    0    0    -1  
$EndComp
$Comp
L my_lib:CONN_2 X1
U 1 1 5E275787
P 8000 1400
F 0 "X1" H 8000 1775 79  0000 C CNN
F 1 "CONN_2" H 8000 1000 79  0001 C CNN
F 2 "Connector_PinHeader_1.00mm:PinHeader_1x02_P1.00mm_Vertical_SMD_Pin1Left" H 8600 1800 79  0001 C CNN
F 3 "" H 8600 1000 79  0001 C CNN
F 4 "VCC" H 7800 1400 79  0000 C CNN "PIN1"
F 5 "GND" H 7793 1204 79  0000 C CNN "PIN2"
	1    8000 1400
	1    0    0    -1  
$EndComp
$Comp
L my_lib:CONN_6 X2
U 1 1 5E279B62
P 3150 6625
F 0 "X2" H 3150 7725 79  0000 C CNN
F 1 "CONN_6" H 3150 6125 79  0001 C CNN
F 2 "Connector_PinHeader_1.00mm:PinHeader_1x06_P1.00mm_Vertical_SMD_Pin1Left" H 3750 7725 79  0001 C CNN
F 3 "" H 3750 5525 79  0001 C CNN
F 4 "5V" H 2950 7325 79  0000 C CNN "PIN1"
F 5 "MISO" H 2950 7125 79  0000 C CNN "PIN2"
F 6 "SCK" H 2950 6925 79  0000 C CNN "PIN3"
F 7 "MOSI" H 2950 6725 79  0000 C CNN "PIN4"
F 8 "TRST" H 2950 6525 79  0000 C CNN "PIN5"
F 9 "GND" H 2950 6325 79  0000 C CNN "PIN6"
	1    3150 6625
	1    0    0    -1  
$EndComp
$Comp
L my_lib:CONN_9 X3
U 1 1 5E27F247
P 3150 8725
F 0 "X3" H 3150 9800 79  0000 C CNN
F 1 "CONN_9" H 3150 7625 79  0001 C CNN
F 2 "Connector_PinHeader_1.00mm:PinHeader_1x09_P1.00mm_Vertical_SMD_Pin1Left" H 3750 9825 79  0001 C CNN
F 3 "" H 3750 7625 79  0001 C CNN
F 4 "DCD" H 2950 9425 79  0000 C CNN "PIN1"
F 5 "RxD" H 2950 9225 79  0000 C CNN "PIN2"
F 6 "TxD" H 2950 9025 79  0000 C CNN "PIN3"
F 7 "DTR" H 2950 8825 79  0000 C CNN "PIN4"
F 8 "GND" H 2950 8625 79  0000 C CNN "PIN5"
F 9 "DSR" H 2950 8425 79  0000 C CNN "PIN6"
F 10 "RTS" H 2950 8225 79  0000 C CNN "PIN7"
F 11 "CTS" H 2950 8025 79  0000 C CNN "PIN8"
F 12 "RI" H 2950 7825 79  0000 C CNN "PIN9"
	1    3150 8725
	1    0    0    -1  
$EndComp
Wire Bus Line
	7000 7425 9725 7425
Entry Wire Line
	7000 5900 7100 5800
Entry Wire Line
	7000 6000 7100 5900
Entry Wire Line
	7000 6100 7100 6000
Wire Wire Line
	7100 5800 7450 5800
Wire Wire Line
	7100 5900 7450 5900
Wire Wire Line
	7100 6000 7450 6000
Text Label 7100 5800 0    50   ~ 0
RS
Text Label 7100 5900 0    50   ~ 0
RW
Text Label 7100 6000 0    50   ~ 0
E
Entry Wire Line
	9625 4900 9725 5000
Entry Wire Line
	9625 5000 9725 5100
Entry Wire Line
	9625 5100 9725 5200
Entry Wire Line
	9625 5200 9725 5300
Entry Wire Line
	9625 5300 9725 5400
Entry Wire Line
	9625 5400 9725 5500
Entry Wire Line
	9625 5500 9725 5600
Entry Wire Line
	9625 5600 9725 5700
Wire Wire Line
	8650 4900 9625 4900
Wire Wire Line
	8650 5000 9625 5000
Wire Wire Line
	8650 5100 9625 5100
Wire Wire Line
	8650 5200 9625 5200
Wire Wire Line
	8650 5300 9625 5300
Wire Wire Line
	8650 5400 9625 5400
Wire Wire Line
	8650 5500 9625 5500
Wire Wire Line
	8650 5600 9625 5600
Text Label 9525 5000 0    50   ~ 0
D1
Text Label 9525 5100 0    50   ~ 0
D2
Text Label 9525 5200 0    50   ~ 0
D3
Text Label 9525 5300 0    50   ~ 0
D4
Text Label 9525 5400 0    50   ~ 0
D5
Text Label 9525 5500 0    50   ~ 0
D6
Text Label 9525 5600 0    50   ~ 0
D7
Text Label 9925 6175 2    50   ~ 0
D7
Text Label 9925 6075 2    50   ~ 0
D6
Text Label 9925 5975 2    50   ~ 0
D5
Text Label 9925 5875 2    50   ~ 0
D4
Text Label 9925 5775 2    50   ~ 0
D3
Text Label 9925 5675 2    50   ~ 0
D2
Text Label 9925 5575 2    50   ~ 0
D1
Text Label 9925 5475 2    50   ~ 0
D0
Entry Wire Line
	9825 6175 9725 6275
Entry Wire Line
	9825 6075 9725 6175
Entry Wire Line
	9825 5975 9725 6075
Entry Wire Line
	9825 5875 9725 5975
Entry Wire Line
	9825 5775 9725 5875
Entry Wire Line
	9825 5675 9725 5775
Entry Wire Line
	9825 5575 9725 5675
Entry Wire Line
	9825 5475 9725 5575
Wire Wire Line
	10275 5475 9825 5475
Wire Wire Line
	10275 5575 9825 5575
Wire Wire Line
	10275 5675 9825 5675
Wire Wire Line
	10275 5775 9825 5775
Wire Wire Line
	10275 5875 9825 5875
Wire Wire Line
	9825 5975 10275 5975
Wire Wire Line
	9825 6075 10275 6075
Wire Wire Line
	9825 6175 10275 6175
Text Label 9925 5275 2    50   ~ 0
RW
Text Label 9925 5175 2    50   ~ 0
RS
Text Label 9875 5075 2    50   ~ 0
E
Entry Wire Line
	9825 5275 9725 5375
Entry Wire Line
	9825 5175 9725 5275
Entry Wire Line
	9825 5075 9725 5175
Wire Wire Line
	10275 5075 9825 5075
Wire Wire Line
	10275 5175 9825 5175
Wire Wire Line
	10275 5275 9825 5275
Text Label 9525 4900 0    50   ~ 0
D0
$Comp
L Switch:SW_Push SW2
U 1 1 5E2C3A76
P 9550 3200
F 0 "SW2" H 9550 3485 50  0000 C CNN
F 1 "SW_Push" H 9550 3394 50  0000 C CNN
F 2 "Button_Switch_SMD:Nidec_Copal_SH-7010A" H 9550 3400 50  0001 C CNN
F 3 "~" H 9550 3400 50  0001 C CNN
	1    9550 3200
	1    0    0    -1  
$EndComp
$Comp
L Switch:SW_Push SW3
U 1 1 5E2C4158
P 9550 3475
F 0 "SW3" H 9550 3760 50  0000 C CNN
F 1 "SW_Push" H 9550 3669 50  0000 C CNN
F 2 "Button_Switch_SMD:Nidec_Copal_SH-7010A" H 9550 3675 50  0001 C CNN
F 3 "~" H 9550 3675 50  0001 C CNN
	1    9550 3475
	1    0    0    -1  
$EndComp
$Comp
L Switch:SW_Push SW4
U 1 1 5E2C48E8
P 9550 3725
F 0 "SW4" H 9550 4010 50  0000 C CNN
F 1 "SW_Push" H 9550 3919 50  0000 C CNN
F 2 "Button_Switch_SMD:Nidec_Copal_SH-7010A" H 9550 3925 50  0001 C CNN
F 3 "~" H 9550 3925 50  0001 C CNN
	1    9550 3725
	1    0    0    -1  
$EndComp
$Comp
L Switch:SW_Push SW1
U 1 1 5E2C0C16
P 9550 2900
F 0 "SW1" H 9550 3185 50  0000 C CNN
F 1 "SW_Push" H 9550 3094 50  0000 C CNN
F 2 "Button_Switch_SMD:Nidec_Copal_SH-7010A" H 9550 3100 50  0001 C CNN
F 3 "~" H 9550 3100 50  0001 C CNN
	1    9550 2900
	1    0    0    -1  
$EndComp
Wire Wire Line
	8650 3100 9125 3100
Wire Wire Line
	9125 3100 9125 2900
Wire Wire Line
	9125 2900 9350 2900
Wire Wire Line
	8650 3200 9350 3200
Wire Wire Line
	8650 3300 9125 3300
Wire Wire Line
	9125 3300 9125 3475
Wire Wire Line
	9125 3475 9350 3475
Wire Wire Line
	8650 3400 9050 3400
Wire Wire Line
	9050 3400 9050 3725
Wire Wire Line
	9050 3725 9350 3725
$Comp
L power:GND #PWR0103
U 1 1 5E2D1A78
P 10050 3825
F 0 "#PWR0103" H 10050 3575 50  0001 C CNN
F 1 "GND" H 10055 3652 50  0000 C CNN
F 2 "" H 10050 3825 50  0001 C CNN
F 3 "" H 10050 3825 50  0001 C CNN
	1    10050 3825
	1    0    0    -1  
$EndComp
Wire Wire Line
	9750 2900 10050 2900
Wire Wire Line
	10050 2900 10050 3200
Wire Wire Line
	9750 3200 10050 3200
Connection ~ 10050 3200
Wire Wire Line
	10050 3200 10050 3475
Wire Wire Line
	9750 3475 10050 3475
Connection ~ 10050 3475
Wire Wire Line
	10050 3475 10050 3725
Wire Wire Line
	9750 3725 10050 3725
Connection ~ 10050 3725
Wire Wire Line
	10050 3725 10050 3825
Entry Wire Line
	9625 4000 9725 4100
Entry Wire Line
	9625 4100 9725 4200
Entry Wire Line
	9625 4200 9725 4300
Entry Wire Line
	9625 4300 9725 4400
Entry Wire Line
	9625 4400 9725 4500
Entry Wire Line
	9625 4500 9725 4600
Entry Wire Line
	9625 4600 9725 4700
Entry Wire Line
	9625 4700 9725 4800
Wire Wire Line
	8650 4000 9625 4000
Wire Wire Line
	8650 4100 9625 4100
Wire Wire Line
	8650 4200 9625 4200
Wire Wire Line
	8650 4300 9625 4300
Wire Wire Line
	8650 4400 9625 4400
Wire Wire Line
	8650 4500 9625 4500
Wire Wire Line
	8650 4600 9625 4600
Wire Wire Line
	8650 4700 9625 4700
Text Label 9525 4100 0    50   ~ 0
B1
Text Label 9525 4200 0    50   ~ 0
B2
Text Label 9525 4300 0    50   ~ 0
B3
Text Label 9525 4400 0    50   ~ 0
SS
Text Label 9450 4500 0    50   ~ 0
MOSI
Text Label 9450 4600 0    50   ~ 0
MISO
Text Label 9450 4700 0    50   ~ 0
SCK
Text Label 9525 4000 0    50   ~ 0
B0
Entry Wire Line
	9625 5800 9725 5900
Entry Wire Line
	9625 5900 9725 6000
Entry Wire Line
	9625 6000 9725 6100
Entry Wire Line
	9625 6100 9725 6200
Entry Wire Line
	9625 6200 9725 6300
Entry Wire Line
	9625 6300 9725 6400
Entry Wire Line
	9625 6400 9725 6500
Entry Wire Line
	9625 6500 9725 6600
Wire Wire Line
	8650 5800 9625 5800
Wire Wire Line
	8650 5900 9625 5900
Wire Wire Line
	8650 6000 9625 6000
Wire Wire Line
	8650 6100 9625 6100
Wire Wire Line
	8650 6200 9625 6200
Wire Wire Line
	8650 6300 9625 6300
Wire Wire Line
	8650 6400 9625 6400
Wire Wire Line
	8650 6500 9625 6500
Text Label 9500 5900 0    50   ~ 0
TXD
Text Label 9525 6000 0    50   ~ 0
A0
Text Label 9525 6100 0    50   ~ 0
A1
Text Label 9525 6200 0    50   ~ 0
A2
Text Label 9525 6300 0    50   ~ 0
A3
Text Label 9525 6400 0    50   ~ 0
A4
Text Label 9525 6500 0    50   ~ 0
A5
Text Label 9500 5800 0    50   ~ 0
RXD
Entry Wire Line
	6250 3875 6150 3775
Entry Wire Line
	6150 3875 6250 3975
Entry Wire Line
	6250 4075 6150 3975
Entry Wire Line
	6150 4075 6250 4175
Wire Wire Line
	5900 3775 6150 3775
Wire Wire Line
	6150 3875 5900 3875
Wire Wire Line
	5900 3975 6150 3975
Wire Wire Line
	6150 4075 5900 4075
Entry Wire Line
	4900 5000 4800 4900
Entry Wire Line
	5000 5000 4900 4900
Entry Wire Line
	5100 5000 5000 4900
Entry Wire Line
	5200 5000 5100 4900
Entry Wire Line
	5300 5000 5200 4900
Entry Wire Line
	5400 5000 5300 4900
Wire Wire Line
	4800 4900 4800 4675
Wire Wire Line
	4900 4900 4900 4675
Wire Wire Line
	5000 4900 5000 4675
Wire Wire Line
	5100 4900 5100 4675
Wire Wire Line
	5200 4900 5200 4675
Wire Wire Line
	5300 4900 5300 4675
Text Label 6075 3775 0    50   ~ 0
B0
Text Label 6075 3875 0    50   ~ 0
B1
Text Label 6075 3975 0    50   ~ 0
B2
Text Label 6075 4075 0    50   ~ 0
B3
Text Label 4800 4900 1    50   ~ 0
A0
Text Label 4900 4900 1    50   ~ 0
A1
Text Label 5000 4900 1    50   ~ 0
A2
Text Label 5100 4900 1    50   ~ 0
A3
Text Label 5200 4900 1    50   ~ 0
A4
Text Label 5300 4900 1    50   ~ 0
A5
Entry Wire Line
	4625 6125 4725 6225
Entry Wire Line
	4625 6325 4725 6425
Entry Wire Line
	4625 6525 4725 6625
Wire Wire Line
	3950 6125 4625 6125
Wire Wire Line
	3950 6325 4625 6325
Wire Wire Line
	3950 6525 4625 6525
Text Label 4450 6125 0    50   ~ 0
MISO
Text Label 4475 6325 0    50   ~ 0
SCK
Text Label 4450 6525 0    50   ~ 0
MOSI
Entry Wire Line
	4625 8225 4725 8325
Entry Wire Line
	4625 8425 4725 8525
Wire Wire Line
	3950 8225 4625 8225
Wire Wire Line
	3950 8425 4625 8425
Text Label 4450 8225 0    50   ~ 0
RXD
Text Label 4450 8425 0    50   ~ 0
TXD
$Comp
L power:GND #PWR0104
U 1 1 5E35EE3F
P 4375 9075
F 0 "#PWR0104" H 4375 8825 50  0001 C CNN
F 1 "GND" H 4380 8902 50  0000 C CNN
F 2 "" H 4375 9075 50  0001 C CNN
F 3 "" H 4375 9075 50  0001 C CNN
	1    4375 9075
	1    0    0    -1  
$EndComp
Wire Wire Line
	3950 8825 4375 8825
Wire Wire Line
	4375 8825 4375 9075
$Comp
L power:GND #PWR0105
U 1 1 5E3620D4
P 4375 7175
F 0 "#PWR0105" H 4375 6925 50  0001 C CNN
F 1 "GND" H 4380 7002 50  0000 C CNN
F 2 "" H 4375 7175 50  0001 C CNN
F 3 "" H 4375 7175 50  0001 C CNN
	1    4375 7175
	1    0    0    -1  
$EndComp
Wire Wire Line
	3950 6925 4375 6925
Wire Wire Line
	4375 6925 4375 7175
$Comp
L power:VCC #PWR0106
U 1 1 5E365884
P 4325 5450
F 0 "#PWR0106" H 4325 5300 50  0001 C CNN
F 1 "VCC" H 4342 5623 50  0000 C CNN
F 2 "" H 4325 5450 50  0001 C CNN
F 3 "" H 4325 5450 50  0001 C CNN
	1    4325 5450
	1    0    0    -1  
$EndComp
Wire Wire Line
	4325 5450 4325 5925
Wire Wire Line
	4325 5925 3950 5925
$Comp
L power:VCC #PWR0107
U 1 1 5E36DB38
P 7575 2100
F 0 "#PWR0107" H 7575 1950 50  0001 C CNN
F 1 "VCC" H 7592 2273 50  0000 C CNN
F 2 "" H 7575 2100 50  0001 C CNN
F 3 "" H 7575 2100 50  0001 C CNN
	1    7575 2100
	1    0    0    -1  
$EndComp
Wire Wire Line
	8050 2800 8050 2325
Wire Wire Line
	8050 2325 7575 2325
Wire Wire Line
	7575 2325 7575 2100
$Comp
L power:GND #PWR0108
U 1 1 5E37263B
P 7575 2675
F 0 "#PWR0108" H 7575 2425 50  0001 C CNN
F 1 "GND" H 7580 2502 50  0000 C CNN
F 2 "" H 7575 2675 50  0001 C CNN
F 3 "" H 7575 2675 50  0001 C CNN
	1    7575 2675
	1    0    0    -1  
$EndComp
$Comp
L Device:C C1
U 1 1 5E375DE2
P 7575 2475
F 0 "C1" H 7690 2521 50  0000 L CNN
F 1 "0.1µ" H 7690 2430 50  0000 L CNN
F 2 "Capacitor_SMD:C_0603_1608Metric" H 7613 2325 50  0001 C CNN
F 3 "" H 7575 2475 50  0000 C CNN
	1    7575 2475
	1    0    0    -1  
$EndComp
Connection ~ 7575 2325
Wire Wire Line
	7575 2625 7575 2675
Wire Wire Line
	7450 3300 6475 3300
Wire Wire Line
	6475 3300 6475 3975
Wire Wire Line
	7450 3500 7150 3500
Wire Wire Line
	7150 3500 7150 3975
$Comp
L Device:Crystal Y1
U 1 1 5E381AB0
P 6800 3975
F 0 "Y1" H 6800 4243 50  0000 C CNN
F 1 "8M" H 6800 4152 50  0000 C CNN
F 2 "Crystal:Crystal_SMD_TXC_7A-2Pin_5x3.2mm" H 6800 3975 50  0001 C CNN
F 3 "~" H 6800 3975 50  0001 C CNN
	1    6800 3975
	1    0    0    -1  
$EndComp
Wire Wire Line
	6950 3975 7150 3975
Connection ~ 7150 3975
Wire Wire Line
	7150 3975 7150 4375
Wire Wire Line
	6475 3975 6650 3975
Connection ~ 6475 3975
Wire Wire Line
	6475 3975 6475 4375
$Comp
L power:GND #PWR0109
U 1 1 5E38E76F
P 6475 4750
F 0 "#PWR0109" H 6475 4500 50  0001 C CNN
F 1 "GND" H 6480 4577 50  0000 C CNN
F 2 "" H 6475 4750 50  0001 C CNN
F 3 "" H 6475 4750 50  0001 C CNN
	1    6475 4750
	1    0    0    -1  
$EndComp
$Comp
L power:GND #PWR0110
U 1 1 5E38F3E0
P 7150 4750
F 0 "#PWR0110" H 7150 4500 50  0001 C CNN
F 1 "GND" H 7155 4577 50  0000 C CNN
F 2 "" H 7150 4750 50  0001 C CNN
F 3 "" H 7150 4750 50  0001 C CNN
	1    7150 4750
	1    0    0    -1  
$EndComp
$Comp
L Device:C C2
U 1 1 5E392F60
P 6475 4525
F 0 "C2" H 6590 4571 50  0000 L CNN
F 1 "22p" H 6590 4480 50  0000 L CNN
F 2 "Capacitor_SMD:C_0603_1608Metric" H 6513 4375 50  0001 C CNN
F 3 "" H 6475 4525 50  0001 C CNN
	1    6475 4525
	1    0    0    -1  
$EndComp
$Comp
L Device:C C3
U 1 1 5E393F3A
P 7150 4525
F 0 "C3" H 7265 4571 50  0000 L CNN
F 1 "22p" H 7265 4480 50  0000 L CNN
F 2 "Capacitor_SMD:C_0603_1608Metric" H 7188 4375 50  0001 C CNN
F 3 "" H 7150 4525 50  0000 C CNN
	1    7150 4525
	1    0    0    -1  
$EndComp
Wire Wire Line
	7150 4675 7150 4750
Wire Wire Line
	6475 4750 6475 4675
$Comp
L power:GND #PWR0111
U 1 1 5E3A0350
P 8050 7100
F 0 "#PWR0111" H 8050 6850 50  0001 C CNN
F 1 "GND" H 8055 6927 50  0000 C CNN
F 2 "" H 8050 7100 50  0001 C CNN
F 3 "" H 8050 7100 50  0001 C CNN
	1    8050 7100
	1    0    0    -1  
$EndComp
Wire Wire Line
	8050 6800 8050 7100
Wire Wire Line
	6475 2900 6475 3100
$Comp
L power:VCC #PWR0112
U 1 1 5E3AD5ED
P 6475 2375
F 0 "#PWR0112" H 6475 2225 50  0001 C CNN
F 1 "VCC" H 6492 2548 50  0000 C CNN
F 2 "" H 6475 2375 50  0001 C CNN
F 3 "" H 6475 2375 50  0001 C CNN
	1    6475 2375
	1    0    0    -1  
$EndComp
Wire Wire Line
	6475 2600 6475 2375
$Comp
L Device:R R1
U 1 1 5E3B155C
P 6475 2750
F 0 "R1" H 6545 2796 50  0000 L CNN
F 1 "10k" H 6545 2705 50  0000 L CNN
F 2 "Resistor_SMD:R_0603_1608Metric_Pad1.05x0.95mm_HandSolder" V 6405 2750 50  0001 C CNN
F 3 "~" H 6475 2750 50  0001 C CNN
	1    6475 2750
	1    0    0    -1  
$EndComp
$Comp
L Switch:SW_Push SW5
U 1 1 5E3B631D
P 6050 3100
F 0 "SW5" H 6050 3385 50  0000 C CNN
F 1 "SW_Push" H 6050 3294 50  0000 C CNN
F 2 "Button_Switch_SMD:Nidec_Copal_SH-7010A" H 6050 3300 50  0001 C CNN
F 3 "~" H 6050 3300 50  0001 C CNN
	1    6050 3100
	1    0    0    -1  
$EndComp
$Comp
L power:GND #PWR0113
U 1 1 5E3B6E30
P 5500 3150
F 0 "#PWR0113" H 5500 2900 50  0001 C CNN
F 1 "GND" H 5505 2977 50  0000 C CNN
F 2 "" H 5500 3150 50  0001 C CNN
F 3 "" H 5500 3150 50  0001 C CNN
	1    5500 3150
	1    0    0    -1  
$EndComp
Wire Wire Line
	5500 3100 5500 3150
Wire Wire Line
	5500 3100 5850 3100
Wire Wire Line
	6250 3100 6475 3100
Connection ~ 6475 3100
Wire Wire Line
	6475 3100 7450 3100
$Comp
L power:GND #PWR0114
U 1 1 5E3CAAE8
P 11500 6275
F 0 "#PWR0114" H 11500 6025 50  0001 C CNN
F 1 "GND" H 11505 6102 50  0000 C CNN
F 2 "" H 11500 6275 50  0001 C CNN
F 3 "" H 11500 6275 50  0001 C CNN
	1    11500 6275
	1    0    0    -1  
$EndComp
Wire Wire Line
	11500 6175 11500 6275
Wire Wire Line
	11275 6175 11500 6175
$Comp
L power:VCC #PWR0115
U 1 1 5E3D9674
P 11650 4825
F 0 "#PWR0115" H 11650 4675 50  0001 C CNN
F 1 "VCC" H 11667 4998 50  0000 C CNN
F 2 "" H 11650 4825 50  0001 C CNN
F 3 "" H 11650 4825 50  0001 C CNN
	1    11650 4825
	1    0    0    -1  
$EndComp
Wire Wire Line
	11650 5050 11650 4950
$Comp
L power:GND #PWR0116
U 1 1 5E3D967C
P 11650 5400
F 0 "#PWR0116" H 11650 5150 50  0001 C CNN
F 1 "GND" H 11655 5227 50  0000 C CNN
F 2 "" H 11650 5400 50  0001 C CNN
F 3 "" H 11650 5400 50  0001 C CNN
	1    11650 5400
	1    0    0    -1  
$EndComp
$Comp
L Device:C C4
U 1 1 5E3D9682
P 11650 5200
F 0 "C4" H 11765 5246 50  0000 L CNN
F 1 "0.1µ" H 11765 5155 50  0000 L CNN
F 2 "Capacitor_SMD:C_0603_1608Metric" H 11688 5050 50  0001 C CNN
F 3 "" H 11650 5200 50  0000 C CNN
	1    11650 5200
	1    0    0    -1  
$EndComp
Wire Wire Line
	11650 5350 11650 5400
Wire Wire Line
	11275 5075 11425 5075
Wire Wire Line
	11425 5075 11425 4950
Wire Wire Line
	11425 4950 11650 4950
Connection ~ 11650 4950
Wire Wire Line
	11650 4950 11650 4825
$Comp
L Device:R_POT RV1
U 1 1 5E3E3F1F
P 11925 5875
F 0 "RV1" H 11855 5829 50  0000 R CNN
F 1 "10k" H 11855 5920 50  0000 R CNN
F 2 "Resistor_SMD:R_0402_1005Metric" H 11925 5875 50  0001 C CNN
F 3 "~" H 11925 5875 50  0001 C CNN
	1    11925 5875
	-1   0    0    1   
$EndComp
$Comp
L power:VCC #PWR0117
U 1 1 5E3EB8CA
P 11925 5600
F 0 "#PWR0117" H 11925 5450 50  0001 C CNN
F 1 "VCC" H 11942 5773 50  0000 C CNN
F 2 "" H 11925 5600 50  0001 C CNN
F 3 "" H 11925 5600 50  0001 C CNN
	1    11925 5600
	1    0    0    -1  
$EndComp
Wire Wire Line
	11925 5725 11925 5600
$Comp
L power:GND #PWR0118
U 1 1 5E3F04FE
P 11925 6075
F 0 "#PWR0118" H 11925 5825 50  0001 C CNN
F 1 "GND" H 11930 5902 50  0000 C CNN
F 2 "" H 11925 6075 50  0001 C CNN
F 3 "" H 11925 6075 50  0001 C CNN
	1    11925 6075
	1    0    0    -1  
$EndComp
Wire Wire Line
	11925 6025 11925 6075
Wire Wire Line
	11275 5175 11275 5875
Wire Wire Line
	11275 5875 11775 5875
$Comp
L TA20-11HWA:TA20-11HWA LED1
U 1 1 5E2DD557
P 5200 4075
F 0 "LED1" V 5767 3968 50  0000 C CNN
F 1 "TA20-11HWA" V 5676 3968 50  0000 C CNN
F 2 "TA20-11HWA:TA20-11HWA" H 5200 4075 50  0001 L BNN
F 3 "" H 5200 4075 50  0001 L BNN
F 4 "unknown" H 5200 4075 50  0001 L BNN "Поле4"
F 5 "unknown" H 5200 4075 50  0001 L BNN "Поле5"
F 6 "" H 5200 4075 50  0001 L BNN "Поле6"
	1    5200 4075
	0    -1   -1   0   
$EndComp
$Comp
L LM016L:LM016L DS1
U 1 1 5E2F6945
P 10875 5575
F 0 "DS1" H 10775 6342 50  0000 C CNN
F 1 "LM016L" H 10775 6251 50  0000 C CNN
F 2 "LM016L (2):LCD_LM016L" H 10875 5575 50  0001 L BNN
F 3 "Hitachi" H 10875 5575 50  0001 L BNN
	1    10875 5575
	1    0    0    -1  
$EndComp
$Comp
L Filter:BNX025 FL1
U 1 1 5E3140F9
P 9925 1500
F 0 "FL1" H 9925 1825 50  0000 C CNN
F 1 "BNX025" H 9925 1734 50  0000 C CNN
F 2 "Filter:Filter_Murata_BNX025" H 9925 1300 50  0001 C CNN
F 3 "https://www.murata.com/en-us/products/productdetail.aspx?cate=luNoiseSupprFilteBlockType&partno=BNX025H01%23" V 9900 1475 50  0001 C CNN
	1    9925 1500
	1    0    0    -1  
$EndComp
$Comp
L Regulator_Linear:LM7805_TO220 U2
U 1 1 5E315576
P 11075 1275
F 0 "U2" H 11075 1517 50  0000 C CNN
F 1 "LM7805_TO220" H 11075 1426 50  0000 C CNN
F 2 "Package_TO_SOT_THT:TO-220-3_Vertical" H 11075 1500 50  0001 C CIN
F 3 "http://www.fairchildsemi.com/ds/LM/LM7805.pdf" H 11075 1225 50  0001 C CNN
	1    11075 1275
	1    0    0    -1  
$EndComp
$Comp
L Device:CP C5
U 1 1 5E31701C
P 9150 1500
F 0 "C5" H 9268 1546 50  0000 L CNN
F 1 "100u" H 9268 1455 50  0000 L CNN
F 2 "Capacitor_SMD:CP_Elec_5x5.3" H 9188 1350 50  0001 C CNN
F 3 "~" H 9150 1500 50  0001 C CNN
	1    9150 1500
	1    0    0    -1  
$EndComp
Wire Wire Line
	8800 1400 8975 1400
Wire Wire Line
	8975 1400 8975 1350
Wire Wire Line
	8975 1350 9150 1350
Wire Wire Line
	9450 1350 9450 1400
Wire Wire Line
	9450 1400 9525 1400
Connection ~ 9150 1350
Wire Wire Line
	9150 1350 9450 1350
Wire Wire Line
	8800 1600 8975 1600
Wire Wire Line
	8975 1600 8975 1650
Wire Wire Line
	8975 1650 9150 1650
Wire Wire Line
	9450 1650 9450 1600
Wire Wire Line
	9450 1600 9525 1600
Connection ~ 9150 1650
Wire Wire Line
	9150 1650 9450 1650
Wire Wire Line
	10325 1400 10325 1275
Wire Wire Line
	10325 1275 10775 1275
Wire Wire Line
	10325 1600 11075 1600
Wire Wire Line
	11075 1600 11075 1575
Wire Wire Line
	11075 1600 11075 1700
Connection ~ 11075 1600
Wire Wire Line
	11375 1275 11550 1275
Wire Wire Line
	11550 1275 11550 1100
$Comp
L power:+5V #PWR0101
U 1 1 5E33AA25
P 11550 1100
F 0 "#PWR0101" H 11550 950 50  0001 C CNN
F 1 "+5V" H 11565 1273 50  0000 C CNN
F 2 "" H 11550 1100 50  0001 C CNN
F 3 "" H 11550 1100 50  0001 C CNN
	1    11550 1100
	1    0    0    -1  
$EndComp
$Comp
L power:GND #PWR0102
U 1 1 5E33B08D
P 11075 1700
F 0 "#PWR0102" H 11075 1450 50  0001 C CNN
F 1 "GND" H 11080 1527 50  0000 C CNN
F 2 "" H 11075 1700 50  0001 C CNN
F 3 "" H 11075 1700 50  0001 C CNN
	1    11075 1700
	1    0    0    -1  
$EndComp
Wire Bus Line
	6250 3650 6250 5000
Wire Bus Line
	7000 5000 7000 7425
Wire Bus Line
	4725 5000 7000 5000
Wire Bus Line
	4725 5000 4725 9900
Wire Bus Line
	9725 3925 9725 7425
$EndSCHEMATC
