(export (version D)
  (design
    (source "H:\\МГТУ(7сем)\\Хохлов\\medvedev\\medvedev.sch")
    (date "22.01.2020 20:43:37")
    (tool "Eeschema (5.1.4)-1")
    (sheet (number 1) (name /) (tstamps /)
      (title_block
        (title "Схема электрическая принципиальная")
        (company "МГТУ им. Н.Э. Баумана")
        (rev)
        (date 2020-01-01)
        (source medvedev.sch)
        (comment (number 1) (value "Электронный тренажер"))
        (comment (number 2) (value "Медведев Н.А."))
        (comment (number 3) (value ""))
        (comment (number 4) (value "")))))
  (components
    (comp (ref U1)
      (value ATmega8515-16AU)
      (footprint Package_QFP:TQFP-44_10x10mm_P0.8mm)
      (datasheet http://ww1.microchip.com/downloads/en/DeviceDoc/doc2512.pdf)
      (libsource (lib MCU_Microchip_ATmega) (part ATmega8515-16AU) (description "16MHz, 8kB Flash, 512B SRAM, 512B EEPROM, TQFP-44"))
      (sheetpath (names /) (tstamps /))
      (tstamp 5E266AC5))
    (comp (ref LED1)
      (value TA20-11HWA)
      (footprint TA20-11HWA)
      (datasheet None)
      (fields
        (field (name Поле4) Unavailable)
        (field (name Поле5) Kingbright)
        (field (name Поле6) TA20-11HWA)
        (field (name Поле7) None)
        (field (name Поле8) "LED Displays & Accessories"))
      (libsource (lib TA20-11HWA) (part TA20-11HWA) (description ""))
      (sheetpath (names /) (tstamps /))
      (tstamp 5E281D21))
    (comp (ref X1)
      (value CONN_2)
      (fields
        (field (name PIN1) VCC)
        (field (name PIN2) GND))
      (libsource (lib my_lib) (part CONN_2) (description ""))
      (sheetpath (names /) (tstamps /))
      (tstamp 5E275787))
    (comp (ref X2)
      (value CONN_6)
      (fields
        (field (name PIN1) 5V)
        (field (name PIN2) MISO)
        (field (name PIN3) SCK)
        (field (name PIN4) MOSI)
        (field (name PIN5) TRST)
        (field (name PIN6) GND))
      (libsource (lib my_lib) (part CONN_6) (description ""))
      (sheetpath (names /) (tstamps /))
      (tstamp 5E279B62))
    (comp (ref X3)
      (value CONN_9)
      (fields
        (field (name PIN1) DCD)
        (field (name PIN2) RxD)
        (field (name PIN3) TxD)
        (field (name PIN4) DTR)
        (field (name PIN5) GND)
        (field (name PIN6) DSR)
        (field (name PIN7) RTS)
        (field (name PIN8) CTS)
        (field (name PIN9) RI))
      (libsource (lib my_lib) (part CONN_9) (description ""))
      (sheetpath (names /) (tstamps /))
      (tstamp 5E27F247))
    (comp (ref DS1)
      (value LM016L)
      (footprint LCD_LM016L)
      (datasheet Hitachi)
      (libsource (lib LM016L) (part LM016L) (description ""))
      (sheetpath (names /) (tstamps /))
      (tstamp 5E271F46))
    (comp (ref SW2)
      (value SW_Push)
      (datasheet ~)
      (libsource (lib Switch) (part SW_Push) (description "Push button switch, generic, two pins"))
      (sheetpath (names /) (tstamps /))
      (tstamp 5E2C3A76))
    (comp (ref SW3)
      (value SW_Push)
      (datasheet ~)
      (libsource (lib Switch) (part SW_Push) (description "Push button switch, generic, two pins"))
      (sheetpath (names /) (tstamps /))
      (tstamp 5E2C4158))
    (comp (ref SW4)
      (value SW_Push)
      (datasheet ~)
      (libsource (lib Switch) (part SW_Push) (description "Push button switch, generic, two pins"))
      (sheetpath (names /) (tstamps /))
      (tstamp 5E2C48E8))
    (comp (ref SW1)
      (value SW_Push)
      (datasheet ~)
      (libsource (lib Switch) (part SW_Push) (description "Push button switch, generic, two pins"))
      (sheetpath (names /) (tstamps /))
      (tstamp 5E2C0C16))
    (comp (ref C1)
      (value 0.1µ)
      (libsource (lib "cornbulb led-cache") (part C) (description ""))
      (sheetpath (names /) (tstamps /))
      (tstamp 5E375DE2))
    (comp (ref Y1)
      (value 8M)
      (datasheet ~)
      (libsource (lib Device) (part Crystal) (description "Two pin crystal"))
      (sheetpath (names /) (tstamps /))
      (tstamp 5E381AB0))
    (comp (ref C2)
      (value 22p)
      (libsource (lib "cornbulb led-cache") (part C) (description ""))
      (sheetpath (names /) (tstamps /))
      (tstamp 5E392F60))
    (comp (ref C3)
      (value 22p)
      (libsource (lib "cornbulb led-cache") (part C) (description ""))
      (sheetpath (names /) (tstamps /))
      (tstamp 5E393F3A))
    (comp (ref R1)
      (value 10k)
      (datasheet ~)
      (libsource (lib Device) (part R) (description Resistor))
      (sheetpath (names /) (tstamps /))
      (tstamp 5E3B155C))
    (comp (ref SW5)
      (value SW_Push)
      (datasheet ~)
      (libsource (lib Switch) (part SW_Push) (description "Push button switch, generic, two pins"))
      (sheetpath (names /) (tstamps /))
      (tstamp 5E3B631D))
    (comp (ref C4)
      (value 0.1µ)
      (libsource (lib "cornbulb led-cache") (part C) (description ""))
      (sheetpath (names /) (tstamps /))
      (tstamp 5E3D9682))
    (comp (ref RV1)
      (value 10k)
      (datasheet ~)
      (libsource (lib Device) (part R_POT) (description Potentiometer))
      (sheetpath (names /) (tstamps /))
      (tstamp 5E3E3F1F)))
  (libparts
    (libpart (lib Device) (part Crystal)
      (description "Two pin crystal")
      (docs ~)
      (footprints
        (fp Crystal*))
      (fields
        (field (name Reference) Y)
        (field (name Value) Crystal))
      (pins
        (pin (num 1) (name 1) (type passive))
        (pin (num 2) (name 2) (type passive))))
    (libpart (lib Device) (part R)
      (description Resistor)
      (docs ~)
      (footprints
        (fp R_*))
      (fields
        (field (name Reference) R)
        (field (name Value) R))
      (pins
        (pin (num 1) (name ~) (type passive))
        (pin (num 2) (name ~) (type passive))))
    (libpart (lib Device) (part R_POT)
      (description Potentiometer)
      (docs ~)
      (footprints
        (fp Potentiometer*))
      (fields
        (field (name Reference) RV)
        (field (name Value) R_POT))
      (pins
        (pin (num 1) (name 1) (type passive))
        (pin (num 2) (name 2) (type passive))
        (pin (num 3) (name 3) (type passive))))
    (libpart (lib LM016L) (part LM016L)
      (fields
        (field (name Reference) DS)
        (field (name Value) LM016L)
        (field (name Footprint) LCD_LM016L)
        (field (name Datasheet) Hitachi))
      (pins
        (pin (num 1) (name VSS) (type power_in))
        (pin (num 2) (name VDD) (type power_in))
        (pin (num 3) (name VO) (type power_in))
        (pin (num 4) (name RS) (type input))
        (pin (num 5) (name R/W) (type input))
        (pin (num 6) (name E) (type input))
        (pin (num 7) (name DB0) (type BiDi))
        (pin (num 8) (name DB1) (type BiDi))
        (pin (num 9) (name DB2) (type BiDi))
        (pin (num 10) (name DB3) (type BiDi))
        (pin (num 11) (name DB4) (type BiDi))
        (pin (num 12) (name DB5) (type BiDi))
        (pin (num 13) (name DB6) (type BiDi))
        (pin (num 14) (name DB7) (type BiDi))))
    (libpart (lib MCU_Microchip_ATmega) (part ATmega8515L-8AU)
      (aliases
        (alias ATmega8515-16AU))
      (description "8MHz, 8kB Flash, 512B SRAM, 512B EEPROM, TQFP-44")
      (docs http://ww1.microchip.com/downloads/en/DeviceDoc/doc2512.pdf)
      (footprints
        (fp TQFP*10x10mm*P0.8mm*))
      (fields
        (field (name Reference) U)
        (field (name Value) ATmega8515L-8AU)
        (field (name Footprint) Package_QFP:TQFP-44_10x10mm_P0.8mm))
      (pins
        (pin (num 1) (name PB5) (type 3state))
        (pin (num 2) (name PB6) (type 3state))
        (pin (num 3) (name PB7) (type 3state))
        (pin (num 4) (name ~RESET) (type input))
        (pin (num 5) (name PD0) (type 3state))
        (pin (num 6) (name NC) (type NotConnected))
        (pin (num 7) (name PD1) (type 3state))
        (pin (num 8) (name PD2) (type 3state))
        (pin (num 9) (name PD3) (type 3state))
        (pin (num 10) (name PD4) (type 3state))
        (pin (num 11) (name PD5) (type 3state))
        (pin (num 12) (name PD6) (type 3state))
        (pin (num 13) (name PD7) (type 3state))
        (pin (num 14) (name XTAL2) (type output))
        (pin (num 15) (name XTAL1) (type input))
        (pin (num 16) (name GND) (type power_in))
        (pin (num 17) (name NC) (type NotConnected))
        (pin (num 18) (name PC0) (type 3state))
        (pin (num 19) (name PC1) (type 3state))
        (pin (num 20) (name PC2) (type 3state))
        (pin (num 21) (name PC3) (type 3state))
        (pin (num 22) (name PC4) (type 3state))
        (pin (num 23) (name PC5) (type 3state))
        (pin (num 24) (name PC6) (type 3state))
        (pin (num 25) (name PC7) (type 3state))
        (pin (num 26) (name PE2) (type 3state))
        (pin (num 27) (name PE1) (type 3state))
        (pin (num 28) (name NC) (type NotConnected))
        (pin (num 29) (name PE0) (type 3state))
        (pin (num 30) (name PA7) (type 3state))
        (pin (num 31) (name PA6) (type 3state))
        (pin (num 32) (name PA5) (type 3state))
        (pin (num 33) (name PA4) (type 3state))
        (pin (num 34) (name PA3) (type 3state))
        (pin (num 35) (name PA2) (type 3state))
        (pin (num 36) (name PA1) (type 3state))
        (pin (num 37) (name PA0) (type 3state))
        (pin (num 38) (name VCC) (type power_in))
        (pin (num 39) (name NC) (type NotConnected))
        (pin (num 40) (name PB0) (type 3state))
        (pin (num 41) (name PB1) (type 3state))
        (pin (num 42) (name PB2) (type 3state))
        (pin (num 43) (name PB3) (type 3state))
        (pin (num 44) (name PB4) (type 3state))))
    (libpart (lib Switch) (part SW_Push)
      (description "Push button switch, generic, two pins")
      (docs ~)
      (fields
        (field (name Reference) SW)
        (field (name Value) SW_Push))
      (pins
        (pin (num 1) (name 1) (type passive))
        (pin (num 2) (name 2) (type passive))))
    (libpart (lib TA20-11HWA) (part TA20-11HWA)
      (fields
        (field (name Reference) LED)
        (field (name Value) TA20-11HWA)
        (field (name Footprint) TA20-11HWA)
        (field (name Datasheet) None)
        (field (name Поле4) Unavailable)
        (field (name Поле5) Kingbright)
        (field (name Поле6) TA20-11HWA)
        (field (name Поле7) None)
        (field (name Поле8) "LED Displays & Accessories"))
      (pins
        (pin (num 1) (name R5) (type passive))
        (pin (num 2) (name R7) (type passive))
        (pin (num 3) (name C2) (type passive))
        (pin (num 4) (name C3) (type passive))
        (pin (num 5) (name R4) (type passive))
        (pin (num 6) (name C5) (type passive))
        (pin (num 7) (name R6) (type passive))
        (pin (num 8) (name R3) (type passive))
        (pin (num 9) (name R1) (type passive))
        (pin (num 10) (name C4) (type passive))
        (pin (num 11) (name C3@1) (type passive))
        (pin (num 12) (name R4@1) (type passive))
        (pin (num 13) (name C1) (type passive))
        (pin (num 14) (name R2) (type passive))))
    (libpart (lib "cornbulb led-cache") (part C)
      (footprints
        (fp C?)
        (fp C_????_*)
        (fp C_????)
        (fp SMD*_c)
        (fp Capacitor*))
      (fields
        (field (name Reference) C)
        (field (name Value) C))
      (pins
        (pin (num 1) (name ~) (type passive))
        (pin (num 2) (name ~) (type passive))))
    (libpart (lib my_lib) (part CONN_2)
      (footprints
        (fp Connector*:*))
      (fields
        (field (name Reference) X)
        (field (name Value) CONN_2)
        (field (name PIN1) 1)
        (field (name PIN2) 2))
      (pins
        (pin (num 1) (name 1) (type power_out))
        (pin (num 2) (name 2) (type power_out))))
    (libpart (lib my_lib) (part CONN_6)
      (footprints
        (fp Connector*:*))
      (fields
        (field (name Reference) X)
        (field (name Value) CONN_6)
        (field (name PIN1) 1)
        (field (name PIN2) 2)
        (field (name PIN3) 3)
        (field (name PIN4) 4)
        (field (name PIN5) 5)
        (field (name PIN6) 6))
      (pins
        (pin (num 1) (name 1) (type passive))
        (pin (num 2) (name 2) (type passive))
        (pin (num 3) (name 3) (type passive))
        (pin (num 4) (name 4) (type passive))
        (pin (num 5) (name 5) (type passive))
        (pin (num 6) (name 6) (type passive))))
    (libpart (lib my_lib) (part CONN_9)
      (footprints
        (fp Connector*:*))
      (fields
        (field (name Reference) X)
        (field (name Value) CONN_9)
        (field (name PIN1) 1)
        (field (name PIN2) 2)
        (field (name PIN3) 3)
        (field (name PIN4) 4)
        (field (name PIN5) 5)
        (field (name PIN6) 6)
        (field (name PIN7) 7)
        (field (name PIN8) 8)
        (field (name PIN9) 9))
      (pins
        (pin (num 1) (name 1) (type passive))
        (pin (num 2) (name 2) (type passive))
        (pin (num 3) (name 3) (type passive))
        (pin (num 4) (name 4) (type passive))
        (pin (num 5) (name 5) (type passive))
        (pin (num 6) (name 6) (type passive))
        (pin (num 7) (name 7) (type passive))
        (pin (num 8) (name 8) (type passive))
        (pin (num 9) (name 9) (type passive)))))
  (libraries
    (library (logical Device)
      (uri "C:\\Program Files\\KiCad\\share\\kicad\\library/Device.lib"))
    (library (logical LM016L)
      (uri C:/Users/nikme/Downloads/LM016L/LM016L.lib))
    (library (logical MCU_Microchip_ATmega)
      (uri "C:\\Program Files\\KiCad\\share\\kicad\\library/MCU_Microchip_ATmega.lib"))
    (library (logical Switch)
      (uri "C:\\Program Files\\KiCad\\share\\kicad\\library/Switch.lib"))
    (library (logical TA20-11HWA)
      (uri C:/Users/nikme/Downloads/TA20-11HWA/TA20-11HWA.lib))
    (library (logical "cornbulb led-cache")
      (uri "C:/Users/nikme/Downloads/kicad-master/kicad-master/conbulb-led/cornbulb led-cache.lib"))
    (library (logical my_lib)
      (uri "H:\\МГТУ(7сем)\\Хохлов\\medvedev/my_lib.lib")))
  (nets
    (net (code 1) (name /B1)
      (node (ref U1) (pin 41))
      (node (ref LED1) (pin 10)))
    (net (code 2) (name /A5)
      (node (ref LED1) (pin 14))
      (node (ref U1) (pin 13)))
    (net (code 3) (name /A4)
      (node (ref LED1) (pin 8))
      (node (ref U1) (pin 12)))
    (net (code 4) (name /A3)
      (node (ref U1) (pin 11))
      (node (ref LED1) (pin 5)))
    (net (code 5) (name /A2)
      (node (ref U1) (pin 10))
      (node (ref LED1) (pin 1)))
    (net (code 6) (name /A1)
      (node (ref U1) (pin 9))
      (node (ref LED1) (pin 7)))
    (net (code 7) (name /A0)
      (node (ref U1) (pin 8))
      (node (ref LED1) (pin 2)))
    (net (code 8) (name /B3)
      (node (ref U1) (pin 43))
      (node (ref LED1) (pin 3)))
    (net (code 9) (name /B2)
      (node (ref LED1) (pin 4))
      (node (ref U1) (pin 42)))
    (net (code 10) (name /B0)
      (node (ref U1) (pin 40))
      (node (ref LED1) (pin 6)))
    (net (code 11) (name VCC)
      (node (ref X2) (pin 1))
      (node (ref RV1) (pin 3))
      (node (ref X1) (pin 1))
      (node (ref C4) (pin 1))
      (node (ref DS1) (pin 2))
      (node (ref C1) (pin 1))
      (node (ref U1) (pin 38))
      (node (ref R1) (pin 1)))
    (net (code 12) (name GND)
      (node (ref C1) (pin 2))
      (node (ref X3) (pin 5))
      (node (ref DS1) (pin 1))
      (node (ref SW4) (pin 2))
      (node (ref SW1) (pin 2))
      (node (ref SW3) (pin 2))
      (node (ref SW2) (pin 2))
      (node (ref U1) (pin 16))
      (node (ref X2) (pin 6))
      (node (ref X1) (pin 2))
      (node (ref C2) (pin 2))
      (node (ref C3) (pin 2))
      (node (ref C4) (pin 2))
      (node (ref RV1) (pin 1))
      (node (ref SW5) (pin 1)))
    (net (code 13) (name /TXD)
      (node (ref X3) (pin 3))
      (node (ref U1) (pin 7)))
    (net (code 14) (name /RXD)
      (node (ref X3) (pin 2))
      (node (ref U1) (pin 5)))
    (net (code 15) (name /MOSI)
      (node (ref X2) (pin 4))
      (node (ref U1) (pin 1)))
    (net (code 16) (name /SCK)
      (node (ref U1) (pin 3))
      (node (ref X2) (pin 3)))
    (net (code 17) (name /MISO)
      (node (ref U1) (pin 2))
      (node (ref X2) (pin 2)))
    (net (code 18) (name /SS)
      (node (ref U1) (pin 44)))
    (net (code 19) (name "Net-(DS1-Pad3)")
      (node (ref DS1) (pin 3))
      (node (ref RV1) (pin 2)))
    (net (code 20) (name "Net-(C2-Pad1)")
      (node (ref U1) (pin 15))
      (node (ref C2) (pin 1))
      (node (ref Y1) (pin 1)))
    (net (code 21) (name "Net-(C3-Pad1)")
      (node (ref Y1) (pin 2))
      (node (ref C3) (pin 1))
      (node (ref U1) (pin 14)))
    (net (code 22) (name "Net-(R1-Pad2)")
      (node (ref R1) (pin 2))
      (node (ref SW5) (pin 2))
      (node (ref U1) (pin 4)))
    (net (code 23) (name "Net-(LED1-Pad13)")
      (node (ref LED1) (pin 13)))
    (net (code 24) (name "Net-(LED1-Pad11)")
      (node (ref LED1) (pin 11)))
    (net (code 25) (name "Net-(LED1-Pad12)")
      (node (ref LED1) (pin 12)))
    (net (code 26) (name "Net-(LED1-Pad9)")
      (node (ref LED1) (pin 9)))
    (net (code 27) (name "Net-(X3-Pad7)")
      (node (ref X3) (pin 7)))
    (net (code 28) (name "Net-(X3-Pad9)")
      (node (ref X3) (pin 9)))
    (net (code 29) (name "Net-(X3-Pad8)")
      (node (ref X3) (pin 8)))
    (net (code 30) (name "Net-(X3-Pad6)")
      (node (ref X3) (pin 6)))
    (net (code 31) (name "Net-(X3-Pad4)")
      (node (ref X3) (pin 4)))
    (net (code 32) (name "Net-(X3-Pad1)")
      (node (ref X3) (pin 1)))
    (net (code 33) (name "Net-(X2-Pad5)")
      (node (ref X2) (pin 5)))
    (net (code 34) (name "Net-(U1-Pad28)")
      (node (ref U1) (pin 28)))
    (net (code 35) (name "Net-(U1-Pad17)")
      (node (ref U1) (pin 17)))
    (net (code 36) (name "Net-(U1-Pad6)")
      (node (ref U1) (pin 6)))
    (net (code 37) (name "Net-(U1-Pad39)")
      (node (ref U1) (pin 39)))
    (net (code 38) (name "Net-(U1-Pad33)")
      (node (ref U1) (pin 33)))
    (net (code 39) (name "Net-(U1-Pad32)")
      (node (ref U1) (pin 32)))
    (net (code 40) (name "Net-(U1-Pad31)")
      (node (ref U1) (pin 31)))
    (net (code 41) (name "Net-(U1-Pad30)")
      (node (ref U1) (pin 30)))
    (net (code 42) (name "Net-(SW2-Pad1)")
      (node (ref U1) (pin 36))
      (node (ref SW2) (pin 1)))
    (net (code 43) (name /D0)
      (node (ref U1) (pin 18))
      (node (ref DS1) (pin 7)))
    (net (code 44) (name /E)
      (node (ref DS1) (pin 6))
      (node (ref U1) (pin 26)))
    (net (code 45) (name /RS)
      (node (ref U1) (pin 29))
      (node (ref DS1) (pin 4)))
    (net (code 46) (name /RW)
      (node (ref DS1) (pin 5))
      (node (ref U1) (pin 27)))
    (net (code 47) (name /D1)
      (node (ref U1) (pin 19))
      (node (ref DS1) (pin 8)))
    (net (code 48) (name "Net-(SW3-Pad1)")
      (node (ref SW3) (pin 1))
      (node (ref U1) (pin 35)))
    (net (code 49) (name "Net-(SW4-Pad1)")
      (node (ref U1) (pin 34))
      (node (ref SW4) (pin 1)))
    (net (code 50) (name /D2)
      (node (ref DS1) (pin 9))
      (node (ref U1) (pin 20)))
    (net (code 51) (name "Net-(SW1-Pad1)")
      (node (ref U1) (pin 37))
      (node (ref SW1) (pin 1)))
    (net (code 52) (name /D6)
      (node (ref DS1) (pin 13))
      (node (ref U1) (pin 24)))
    (net (code 53) (name /D5)
      (node (ref DS1) (pin 12))
      (node (ref U1) (pin 23)))
    (net (code 54) (name /D4)
      (node (ref U1) (pin 22))
      (node (ref DS1) (pin 11)))
    (net (code 55) (name /D3)
      (node (ref DS1) (pin 10))
      (node (ref U1) (pin 21)))
    (net (code 56) (name /D7)
      (node (ref DS1) (pin 14))
      (node (ref U1) (pin 25)))))